<svg id="グループ_1" data-name="グループ 1" xmlns="http://www.w3.org/2000/svg" width="152.66" height="20.312" viewBox="0 0 152.66 20.312">
  <metadata><?xpacket begin="﻿" id="W5M0MpCehiHzreSzNTczkc9d"?>
<x:xmpmeta xmlns:x="adobe:ns:meta/" x:xmptk="Adobe XMP Core 5.6-c138 79.159824, 2016/09/14-01:09:01        ">
   <rdf:RDF xmlns:rdf="http://www.w3.org/1999/02/22-rdf-syntax-ns#">
      <rdf:Description rdf:about=""/>
   </rdf:RDF>
</x:xmpmeta>
                                                                                                    
                                                                                                    
                                                                                                    
                                                                                                    
                                                                                                    
                                                                                                    
                                                                                                    
                                                                                                    
                                                                                                    
                                                                                                    
                                                                                                    
                                                                                                    
                                                                                                    
                                                                                                    
                                                                                                    
                                                                                                    
                                                                                                    
                                                                                                    
                                                                                                    
                                                                                                    
                           
<?xpacket end="w"?></metadata>
<defs>
    <style>
      .cls-1 {
        fill: #0071bd;
        fill-rule: evenodd;
      }
    </style>
  </defs>
  <path id="_2018" data-name="2018" class="cls-1" d="M997.169,579.667h-9.877v-3.633l1.35-1.367h5.235l3.292-3.333v-5L993.877,563h-6.585L984,566.333V568h3.292v-0.3l1.35-1.367h3.885l1.35,1.367v2.267l-1.35,1.367h-5.235L984,574.667V583h13.169v-3.334Zm15.851-13.334L1009.73,563h-6.59l-3.288,3.333v13.334L1003.14,583h6.46l3.42-3.334V566.333Zm-4.64,13.334h-3.89l-1.35-1.367V567.7l1.35-1.367h3.89l1.35,1.367v10.6ZM1019.1,563h-3.29v20h3.29V563Zm15.9,11.667L1033.35,573l1.65-1.666v-5L1031.71,563h-6.59l-3.29,3.333v5l1.65,1.666-1.65,1.667v5l3.29,3.334h6.59l3.29-3.334v-5Zm-4.64-3.333h-3.89l-1.35-1.367V567.7l1.35-1.367h3.89l1.35,1.367v2.267Zm0,8.333h-3.89l-1.35-1.367v-2.266l1.35-1.367h3.89l1.35,1.367V578.3Z" transform="translate(-984 -562.688)"/>
  <path id="新卒採用" class="cls-1" d="M1063.42,581.334a0.937,0.937,0,0,0,1.01.924,0.946,0.946,0,0,0,1.04-.924l-0.02-10.078h2.09a0.961,0.961,0,1,0,0-1.914l-6.3.044v-1.5a1.134,1.134,0,0,1,.97-1.232c0.6-.176,3.06-0.968,3.79-1.3a1.044,1.044,0,0,0,.7-0.968,1.134,1.134,0,0,0-1.12-1.1,1.33,1.33,0,0,0-.55.132,41,41,0,0,1-3.81,1.54c-1.47.441-2.02,1.079-2.02,2.553v0.264c0.04,1.034.09,2.112,0.09,3.212,0,3.367-.4,6.865-2.49,9.33a0.846,0.846,0,0,0-.24.594,1.1,1.1,0,0,0,1.14.968,1.3,1.3,0,0,0,1.06-.572c1.96-2.685,2.37-6.535,2.46-10.078h2.22Zm-6-14.786a0.849,0.849,0,1,0,0-1.7h-2.49V563.6a1.014,1.014,0,0,0-2.02,0l0.02,1.254h-2.64a0.853,0.853,0,1,0,0,1.7h7.13Zm0.5,4.994a0.848,0.848,0,1,0,0-1.694h-2.02a7.214,7.214,0,0,0,.97-2.156,1.062,1.062,0,0,0-1.08-.968,0.837,0.837,0,0,0-.82.682,14.742,14.742,0,0,1-.92,2.442h-1.03a0.94,0.94,0,0,0,.39-0.792c0-.374-0.75-2.244-1.69-2.244a0.9,0.9,0,0,0-.95.792,0.685,0.685,0,0,0,.18.462,5.172,5.172,0,0,1,.68,1.342,1.107,1.107,0,0,0,.26.44h-2.22a0.848,0.848,0,1,0,0,1.694h8.25Zm-4.93,9.858a0.848,0.848,0,0,0,.93.836,0.836,0.836,0,0,0,.92-0.814l-0.04-4.115a8.342,8.342,0,0,1,1.63,1.21,0.831,0.831,0,0,0,.57.242,1.057,1.057,0,0,0,.97-1.056,0.91,0.91,0,0,0-.36-0.726,7.29,7.29,0,0,0-2.39-1.188,0.79,0.79,0,0,0-.42.154l-0.02-.814,2.75,0.066h0.02a0.786,0.786,0,0,0,.81-0.836,0.822,0.822,0,0,0-.81-0.88h-0.02l-2.73.022,0.02-.968v-0.022a0.9,0.9,0,0,0-1.8,0v0.022l0.02,0.968-3.02-.022H1050a0.827,0.827,0,0,0-.9.858,0.856,0.856,0,0,0,.9.858h0.02l2.86-.066a14.152,14.152,0,0,1-3.85,3.5,0.934,0.934,0,0,0-.53.793,0.974,0.974,0,0,0,.99.924c0.77,0,2.47-1.673,3.53-2.971Zm35.56-14.016a1,1,0,1,0,0-2l-6.49.044,0.02-1.651v-0.022a1.151,1.151,0,0,0-2.29,0v0.022l0.03,1.651-6.34-.044a1,1,0,1,0,0,2l7.41-.044Zm0.86,9.769a0.941,0.941,0,0,0,1.01-.946,0.979,0.979,0,0,0-1.01-1.012l-7.42.022v-0.55a0.907,0.907,0,0,0-.63-0.88l0.06-.044a10,10,0,0,0,2.49-2.6c1.16,1.277,2.86,2.6,3.65,2.6a1.094,1.094,0,0,0,1.06-1.1,0.966,0.966,0,0,0-.57-0.881,12.939,12.939,0,0,1-3.22-2.112,2.584,2.584,0,0,0,.47-1.144,1,1,0,0,0-1.04-.924,0.817,0.817,0,0,0-.81.572,8.328,8.328,0,0,1-3.28,4.181,0.751,0.751,0,0,0-.4.66,1,1,0,0,0,.55.858,0.905,0.905,0,0,0-.46.814v0.55l-7.33-.022a1.019,1.019,0,0,0-1.05,1.034,0.939,0.939,0,0,0,1.05.924l7.33-.022v4.313a1.08,1.08,0,0,0,2.13,0v-4.313Zm-12.12-6.029a8.2,8.2,0,0,1,1.43,1.211,0.744,0.744,0,0,0,.57.286,1,1,0,0,0,.86-1.035c0-.924-1.52-1.694-2.05-1.892a4.169,4.169,0,0,0,.44-1.166,0.932,0.932,0,0,0-.97-0.9,0.947,0.947,0,0,0-.92.7,8.235,8.235,0,0,1-3.04,3.872,1.1,1.1,0,0,0-.5.859,1.059,1.059,0,0,0,1.07.99C1075.06,574.051,1076.47,572.379,1077.29,571.124Zm34.38-5.919a0.915,0.915,0,0,0,.75-0.9,1.015,1.015,0,0,0-1.03-1.012,1.183,1.183,0,0,0-.38.044,32.826,32.826,0,0,1-8.6,1.21,0.883,0.883,0,0,0-.9.947,0.952,0.952,0,0,0,1.03.968A49.051,49.051,0,0,0,1111.67,565.205Zm-1.05,5.633c0.81-1.012,2.06-3.058,2.06-3.674a1.186,1.186,0,0,0-1.18-1.078,0.768,0.768,0,0,0-.77.528,12.762,12.762,0,0,1-1.68,3.168,0.989,0.989,0,0,0-.24.616,0.929,0.929,0,0,0,.97.858A1.118,1.118,0,0,0,1110.62,570.838Zm-2.27-1.628c0-.748-0.75-2.6-1.74-2.6a0.893,0.893,0,0,0-.95.792,0.774,0.774,0,0,0,.16.44,4.167,4.167,0,0,1,.68,1.672,0.8,0.8,0,0,0,.81.7A1.015,1.015,0,0,0,1108.35,569.21Zm-3.19.594c0-.55-0.97-2.6-2.03-2.6a0.923,0.923,0,0,0-.96.814,0.709,0.709,0,0,0,.24.528,4.154,4.154,0,0,1,.88,1.65,0.8,0.8,0,0,0,.79.616A1.067,1.067,0,0,0,1105.16,569.8Zm3.1,11.53-0.09-5.017c1.21,1.5,4.18,4.379,5.17,4.379a1.162,1.162,0,0,0,1.08-1.188,1.018,1.018,0,0,0-.59-0.925,17.805,17.805,0,0,1-5.17-4.026l4.42,0.088h0.02a0.838,0.838,0,0,0,.88-0.88,0.883,0.883,0,0,0-.9-0.924l-4.86.022,0.04-1.255v-0.044a0.937,0.937,0,0,0-1.01-.924,0.917,0.917,0,0,0-1.01.968l0.04,1.255-4.27-.022a0.883,0.883,0,0,0-.92.9,0.866,0.866,0,0,0,.9.9h0.02l3.72-.066a14.306,14.306,0,0,1-4.95,4.444,1.057,1.057,0,0,0-.57.925,0.958,0.958,0,0,0,.94.99c0.95,0,3.59-2.223,5.17-4.445l-0.08,4.819v0.022a1.015,1.015,0,0,0,2.02.022v-0.022Zm-10.65-2.245a0.773,0.773,0,0,1-.81.947,3.711,3.711,0,0,1-.8-0.11,0.562,0.562,0,0,0-.19-0.022,0.927,0.927,0,0,0-.86,1.012c0,1.034.97,1.188,2.02,1.188a2.457,2.457,0,0,0,2.78-2.64v-0.11c-0.03-.771-0.09-2.773-0.09-3.125,0-.308.02-1.342,0.02-2.684,2.02-.968,2.33-1.144,2.33-1.761a0.9,0.9,0,0,0-.86-0.924,0.953,0.953,0,0,0-.41.11c-0.36.2-.71,0.352-1.06,0.506v-2.464h1.28a0.968,0.968,0,0,0,0-1.936h-1.28v-3.3a0.98,0.98,0,0,0-1.03-1.034,1.011,1.011,0,0,0-1.06,1.034l0.02,3.3h-1.8a0.968,0.968,0,0,0,0,1.936h1.8v3.256c-0.66.221-1.38,0.441-2.22,0.7a0.96,0.96,0,0,0-.75.946,1.085,1.085,0,0,0,1.1,1.078,7.33,7.33,0,0,0,1.87-.572v4.664Zm36.9-.33c0,0.749-.33,1.211-1.45,1.211a7.133,7.133,0,0,1-1.38-.154,0.855,0.855,0,0,0-.22-0.022,0.942,0.942,0,0,0-.95,1.012c0,1.122,1.12,1.3,2.57,1.3,2.67,0,3.59-1.408,3.59-2.949v-0.044l-0.04-3.014c-0.05-2.42,0-6.8-.07-10.033a2.542,2.542,0,0,0-2.62-2.443c-1.74-.044-3.3-0.066-4.84-0.066-1.76,0-3.5.022-5.39,0.066-2,.044-2.86.858-2.86,2.685v0.066c0.02,1.21.07,2.662,0.07,4.224,0,3.565-.29,7.591-2.01,9.9a1.146,1.146,0,0,0-.22.638,1.082,1.082,0,0,0,1.13,1.012c1.76,0,2.72-3.939,3.01-6.843h4.64v5.457a1.071,1.071,0,0,0,2.14,0V575.3h4.9v3.454Zm-4.93-10.209v-3.1c1.19,0,2.38,0,3.57.044a1.187,1.187,0,0,1,1.28,1.276c0.02,0.528.02,1.144,0.04,1.782h-4.89Zm4.93,4.885h-4.9l-0.03-3.015h4.93v3.015Zm-7.02-4.885h-4.48v-1.98a0.952,0.952,0,0,1,1.05-1.078c1.17-.022,2.31-0.044,3.43-0.044v3.1Zm-0.02,4.885h-4.51c0.05-1.012.07-2.047,0.07-3.015h4.46Z" transform="translate(-984 -562.688)"/>
</svg>
