<svg id="step2" xmlns="http://www.w3.org/2000/svg" width="60" height="276" viewBox="0 0 60 276">
  <metadata><?xpacket begin="﻿" id="W5M0MpCehiHzreSzNTczkc9d"?>
<x:xmpmeta xmlns:x="adobe:ns:meta/" x:xmptk="Adobe XMP Core 5.6-c138 79.159824, 2016/09/14-01:09:01        ">
   <rdf:RDF xmlns:rdf="http://www.w3.org/1999/02/22-rdf-syntax-ns#">
      <rdf:Description rdf:about=""/>
   </rdf:RDF>
</x:xmpmeta>
                                                                                                    
                                                                                                    
                                                                                                    
                                                                                                    
                                                                                                    
                                                                                                    
                                                                                                    
                                                                                                    
                                                                                                    
                                                                                                    
                                                                                                    
                                                                                                    
                                                                                                    
                                                                                                    
                                                                                                    
                                                                                                    
                                                                                                    
                                                                                                    
                                                                                                    
                                                                                                    
                           
<?xpacket end="w"?></metadata>
<defs>
    <style>
      .cls-1 {
        fill: #feeb08;
        stroke: #e30920;
        stroke-width: 0;
        stroke-dasharray: 0.001 0;
      }

      .cls-2 {
        fill: #0071bd;
        fill-rule: evenodd;
      }
    </style>
  </defs>
  <rect id="長方形_1" data-name="長方形 1" class="cls-1" width="60" height="276"/>
  <path id="社長が面接官として_あなたの地元に_" data-name="社長が面接官として、 あなたの地元に。" class="cls-2" d="M1264.61,212.046a0.718,0.718,0,0,0,.78-0.725,0.727,0.727,0,0,0-.78-0.726l-3.13.016v-5.627l2.34,0.016a0.727,0.727,0,0,0,.78-0.726,0.713,0.713,0,0,0-.76-0.726h-0.02l-2.34.033,0.02-4.048a0.819,0.819,0,0,0-1.63,0v4.032l-2.09-.017h-0.02a0.7,0.7,0,0,0-.73.726,0.713,0.713,0,0,0,.75.726l2.09-.016,0.02,5.627-3.2-.016a0.7,0.7,0,0,0-.74.726,0.71,0.71,0,0,0,.74.725h7.92Zm-7.17-4.208a0.864,0.864,0,0,0,.79-0.855c0-.79-1.73-1.677-2.03-1.677a0.783,0.783,0,0,0-.76.726,0.463,0.463,0,0,0,.26.4,4.027,4.027,0,0,1,1.24,1.112A0.587,0.587,0,0,0,1257.44,207.838Zm-2.21,4.241s-0.07-4.128-.08-6.628c0.77-.919,2-2.644,2-3.483a1.17,1.17,0,0,0-1.39-1.08h-0.53v-1.6a0.746,0.746,0,0,0-.81-0.725,0.734,0.734,0,0,0-.79.725l0.02,1.613c-0.5.016-1,.016-1.5,0.032a0.686,0.686,0,0,0-.73.694,0.7,0.7,0,0,0,.74.693h0.02c1-.016,1.69-0.081,2.61-0.081h0.29c0.12,0,.36.016,0.36,0.178a9.227,9.227,0,0,1-4.05,4.257,0.781,0.781,0,0,0-.47.661,0.8,0.8,0,0,0,.82.742,4.839,4.839,0,0,0,1.99-1.161l-0.08,5.16V212.1a0.719,0.719,0,0,0,.8.661,0.7,0.7,0,0,0,.78-0.661v-0.016Zm9.2,10.849a0.669,0.669,0,1,0,0-1.338h-8.83V220.7h6.37a0.589,0.589,0,1,0,0-1.177h-6.37v-0.887h6.37a0.589,0.589,0,1,0,0-1.177h-6.34v-0.048a0.7,0.7,0,0,1,.76-0.791c0.97-.016,2.11-0.032,3.27-0.032,0.95,0,1.92.016,2.79,0.032h0.03a0.694,0.694,0,0,0,.75-0.693,0.707,0.707,0,0,0-.76-0.677c-0.76-.016-1.61-0.032-2.47-0.032-1.32,0-2.68.016-3.85,0.032a1.833,1.833,0,0,0-2.08,2.1c-0.02.79-.04,1.709-0.04,2.612,0,0.565,0,1.113.02,1.629h-2.21a0.675,0.675,0,0,0-.69.693,0.635,0.635,0,0,0,.69.645h2.21v4.1c-0.61.145-1.27,0.258-1.9,0.355a0.778,0.778,0,0,0-.73.758,0.793,0.793,0,0,0,.87.79,26.431,26.431,0,0,0,5.81-1.709,0.8,0.8,0,0,0,.58-0.71,0.722,0.722,0,0,0-.76-0.677,0.971,0.971,0,0,0-.35.08c-0.54.226-1.21,0.468-1.94,0.694v-3.677h1.66a8.331,8.331,0,0,0,7.05,5.918,0.84,0.84,0,0,0,.85-0.871,0.748,0.748,0,0,0-.64-0.774,7.875,7.875,0,0,1-3.89-1.58c2.74-.9,2.76-1.338,2.76-1.628a0.845,0.845,0,0,0-.81-0.823,0.731,0.731,0,0,0-.42.129,12.56,12.56,0,0,1-2.48,1.306,6.244,6.244,0,0,1-.87-1.677h5.59Zm0.55,10.572c0.58,0.58,1.44-.468.76-1.081a5.445,5.445,0,0,0-1.69-.838c-0.78-.21-1.29.822-0.45,1.1A5.456,5.456,0,0,1,1264.98,233.5Zm-1.4,1.5c0.56,0.6,1.44-.419.77-1.048a5.189,5.189,0,0,0-1.64-.9c-0.76-.242-1.34.758-0.5,1.064A5.678,5.678,0,0,1,1263.58,235Zm1.58,3.306a6.657,6.657,0,0,0-2.87-3.064c-1-.58-1.71.629-0.92,1.064a5.836,5.836,0,0,1,2.31,2.774C1264.11,240.079,1265.56,239.369,1265.16,238.305Zm-7.95-2.806c0.19-.758.4-1.725,0.47-2.274a0.818,0.818,0,0,0-1.63-.129,18.109,18.109,0,0,1-.5,2.564l-0.81.081c-0.58.048-1.08,0.032-1.58,0.081a0.775,0.775,0,1,0,.05,1.548,10.872,10.872,0,0,0,1.74-.226l0.2-.032a15.4,15.4,0,0,1-2.86,5.24c-1.05,1.177.63,2.113,1.41,1.016a23.979,23.979,0,0,0,3.12-6.482c0.26-.032.5-0.065,0.75-0.081,0.74-.064,1.08.4,1.08,1.387a7.221,7.221,0,0,1-.52,2.79,1.542,1.542,0,0,1-2.05.87c-0.98-.242-1.5,1.242-0.22,1.613a3.135,3.135,0,0,0,3.79-1.935,9.432,9.432,0,0,0,.54-3.6c-0.06-1.806-1.09-2.6-2.45-2.483Zm7.14,14.031a0.718,0.718,0,1,0,0-1.435h-12.41a0.73,0.73,0,0,0-.76.741,0.687,0.687,0,0,0,.76.694h4.9a13.8,13.8,0,0,1-.39,1.661c-0.8,0-1.59.016-2.32,0.016a1.815,1.815,0,0,0-2.01,1.757c-0.02,1.032-.04,2.064-0.04,3.112,0,0.855.02,1.71,0.04,2.548a1.908,1.908,0,0,0,2.14,1.951c1.26,0.049,2.6.065,3.95,0.065s2.74-.016,4.05-0.065a1.928,1.928,0,0,0,2-2c0.03-.774.05-1.645,0.05-2.516,0-1.016-.02-2.048-0.05-3a1.848,1.848,0,0,0-1.97-1.854c-0.58-.016-0.87-0.016-4.26-0.016a10.6,10.6,0,0,0,.52-1.661h5.8Zm-3.69,2.951c0.32,0,.63.016,0.95,0.016a0.935,0.935,0,0,1,1.15,1.1c0.01,0.742.03,1.548,0.03,2.338s-0.02,1.564-.03,2.242c-0.03,1.08-.66,1.1-2.1,1.1v-6.788Zm-1.39,1.419h-2.3v-1.436h2.3V253.9Zm0,2.58h-2.3v-1.436h2.3v1.436Zm0,2.821h-2.3v-1.677h2.3V259.3Zm-3.66-.032c-0.25,0-.5-0.016-0.74-0.016-0.93-.032-1.25-0.193-1.29-1.048-0.01-.548-0.03-1.193-0.03-1.838,0-1.016.02-2.048,0.03-2.774,0.02-.822.28-1.08,1.2-1.1l0.83-.016v6.788Zm8.24,6.577a0.647,0.647,0,1,0,0-1.29h-2.62l0.01-1a0.7,0.7,0,0,0-.77-0.693,0.69,0.69,0,0,0-.76.677v0.016l0.02,1h-2.41a0.646,0.646,0,1,0,0,1.29h6.53Zm0.86,6.45a0.591,0.591,0,0,0,.61-0.613,0.613,0.613,0,0,0-.63-0.645h-4.58a3.586,3.586,0,0,0,.2-0.822,0.608,0.608,0,0,0-.24-0.484h0.59a1.066,1.066,0,0,0,.23.016,1.474,1.474,0,0,0,.26-0.016h3.49a0.646,0.646,0,1,0,0-1.29h-2.27a7.693,7.693,0,0,0,.79-1.725,0.814,0.814,0,0,0-.85-0.726,0.653,0.653,0,0,0-.68.516,13.669,13.669,0,0,1-.73,1.935h-0.98a0.751,0.751,0,0,0,.15-0.468c0-.4-0.96-1.967-1.62-1.967a0.724,0.724,0,0,0-.74.629,0.533,0.533,0,0,0,.18.387,6.01,6.01,0,0,1,.89,1.419h-1.94a0.609,0.609,0,0,0-.66.629,1.5,1.5,0,0,0,.03.209,0.627,0.627,0,0,0-.48-0.225,0.659,0.659,0,0,0-.34.1c-0.19.113-.36,0.226-0.55,0.323v-1.887h1.11a0.71,0.71,0,1,0,0-1.419h-1.11v-2.435a0.717,0.717,0,0,0-.76-0.757,0.74,0.74,0,0,0-.77.757l0.01,2.435h-1.46a0.71,0.71,0,1,0,0,1.419h1.46V270.2c-0.56.242-1.16,0.467-1.85,0.725a0.727,0.727,0,0,0-.5.694,0.762,0.762,0,0,0,.77.774,4.867,4.867,0,0,0,1.58-.6V275.1a0.545,0.545,0,0,1-.66.532,2.416,2.416,0,0,1-.51-0.065,0.48,0.48,0,0,0-.15-0.016,0.682,0.682,0,0,0-.63.742c0,0.726.6,0.871,1.45,0.871a1.792,1.792,0,0,0,2.07-1.806V275.3c-0.02-.564-0.07-2.032-0.07-2.29v-1.967c0.41-.226.79-0.451,1.17-0.677a0.725,0.725,0,0,0,.38-0.629,0.511,0.511,0,0,0-.03-0.21,0.62,0.62,0,0,0,.5.21h2.32c-0.19.145-.19,0.145-0.51,1.306h-2.15a0.618,0.618,0,0,0-.64.629,0.6,0.6,0,0,0,.63.629h0.01l1.76-.016a16.562,16.562,0,0,1-.71,1.774,0.925,0.925,0,0,0-.1.354,0.645,0.645,0,0,0,.7.613,0.8,0.8,0,0,0,.75-0.5,7.174,7.174,0,0,1,1.42.307,5.884,5.884,0,0,1-3.74,1.015,0.645,0.645,0,0,0-.72.645,0.736,0.736,0,0,0,.79.726,6.89,6.89,0,0,0,5-1.822,8.145,8.145,0,0,1,1.9,1.532,0.726,0.726,0,0,0,.55.258,0.781,0.781,0,0,0,.75-0.79c0-.629-1.17-1.516-2.43-2.1a5.677,5.677,0,0,0,.61-2.015l1.66,0.016h0.02Zm-3.11-.032a4.857,4.857,0,0,1-.45,1.548,10.076,10.076,0,0,0-1.81-.387c0.14-.387.27-0.774,0.4-1.161h1.86ZM1259,279.7a0.844,0.844,0,0,0-1.68,0v1.064c-1.3,0-2.61.017-3.85,0.033a1.718,1.718,0,0,0-1.87,1.612c0,0.258-.02.548-0.02,0.839,0,0.274.02,0.532,0.02,0.741a0.752,0.752,0,0,0,.79.758,0.767,0.767,0,0,0,.82-0.741v-0.984c0.05-.6.18-0.855,1.05-0.871,0.98-.016,2.18-0.032,3.4-0.032,1.49,0,3.02.016,4.29,0.032,0.99,0.016,1,.194,1,1.806v0.032a0.726,0.726,0,0,0,.79.71,0.838,0.838,0,0,0,.89-0.758c0.01-.161.01-0.371,0.01-0.6,0-.29,0-0.612-0.01-0.854a1.853,1.853,0,0,0-1.82-1.693c-1.23-.016-2.52-0.033-3.81-0.033V279.7Zm-3.63,7.772c0.62,0,1.39.017,2.21,0.017,1.02,0,2.11-.017,3.07-0.049,1.59-.064,1.62-0.935,1.62-1.822,0-.419-0.01-0.855-0.04-1.177-0.04-.339-0.29-1.1-1.67-1.145-0.58-.032-1.17-0.032-1.78-0.032-1.02,0-2.07.016-3.15,0.032a1.492,1.492,0,0,0-1.68,1.371c-0.03.967-.04,2.467-0.04,3.918,0,1.048.01,2.064,0.03,2.854a1.659,1.659,0,0,0,1.82,1.645c0.64,0.032,1.48.048,2.35,0.048,1,0,2.05-.016,2.89-0.048a1.761,1.761,0,0,0,1.9-1.242,5,5,0,0,0,.07-0.935c0-.371-0.02-0.726-0.03-0.984-0.04-.435-0.33-1.225-1.75-1.257-1.61-.033-4.33-0.033-5.83-0.033C1255.36,288.241,1255.37,287.854,1255.37,287.467Zm0.02-1.273c0-.42.01-0.807,0.01-1.1a0.564,0.564,0,0,1,.62-0.548c0.72-.016,1.66-0.032,2.56-0.032,2.03,0,2.15.032,2.18,0.435,0.01,0.113.01,0.29,0.01,0.451,0,0.355-.01.726-0.51,0.758-0.76.033-1.95,0.049-3.08,0.049C1256.53,286.21,1255.9,286.194,1255.39,286.194Zm-0.03,3.724c0.67,0,1.58-.016,2.51-0.016,1.13,0,2.29.016,3.03,0.049a0.48,0.48,0,0,1,.5.435v0.9a0.6,0.6,0,0,1-.66.484c-0.72.016-1.69,0.016-2.56,0.016s-1.66,0-2.05-.016C1255.36,291.724,1255.36,291.386,1255.36,289.918Zm1.53,12.141c-0.16.113-.31,0.242-0.47,0.371-2.61,2.08-2.71,4.692-.39,5.869,1.6,0.807,4.29.484,5.57,0.129,1.43-.4.95-2.257-0.41-1.741-0.96.355-3.27,0.774-4.4,0.21-1.26-.613-1.21-1.823.39-3.177a23.947,23.947,0,0,1,4.58-2.854,0.866,0.866,0,1,0-.7-1.564,31.669,31.669,0,0,0-2.83,1.773,16.621,16.621,0,0,0-1.89-3.757c-0.64-.919-2.23-0.048-1.39.984A12.934,12.934,0,0,1,1256.89,302.059Zm6.3,21a0.9,0.9,0,1,0-1.11-1.4c-2.81,2.209-5.68,2.37-5.77.016a44.048,44.048,0,0,1,.29-4.741c0.08-1.08.19-2.612,0.22-3.628a0.876,0.876,0,0,0-1.75.033c0.03,1-.08,2.58-0.13,3.628-0.08,1.709-.26,3.08-0.2,4.773C1254.89,326.09,1260.05,325.623,1263.19,323.059ZM1261.5,341c1.71,0.016,1.61-1.886-.08-1.822-3.61.129-4.69-3.257-3.27-5.627a4.623,4.623,0,0,1,2.06-1.887,6.931,6.931,0,0,1,2.4-.452c1.13,0.065,1.49-.258,1.58-0.532a0.946,0.946,0,0,0-1.09-1.241,21.814,21.814,0,0,0-4.41.951c-1.64.468-3.04,0.79-3.83,0.984-0.52.129-1.45,0.306-1.79,0.387a0.921,0.921,0,1,0,.55,1.741c0.48-.129.93-0.29,1.45-0.484a21.471,21.471,0,0,1,2.03-.806c0.3-.1.39-0.113,0.13,0.226a5.473,5.473,0,0,0-.52.838C1254.95,336.517,1256.63,340.983,1261.5,341Zm2.98,5.783a0.888,0.888,0,0,0,.87-0.887c0-1.1-2.58-2.516-3.14-2.516a0.7,0.7,0,0,0-.32,1.355,6.143,6.143,0,0,1,1.98,1.693A0.735,0.735,0,0,0,1264.48,346.782ZM1234.6,210.248a0.808,0.808,0,1,0,1.38-.823,2.636,2.636,0,0,1-.17-0.322,10.37,10.37,0,0,0,2.79-4.015c2.92,0.725,2.75,4.531-1.26,5.837-1.32.435-.92,1.935,0.53,1.451,5.5-1.806,5.74-7.74,1.03-8.594,0.07-.774-1.42-1.081-1.53-0.129v0.032h-0.19a6.379,6.379,0,0,0-1.69.355c0.06-.452.12-0.919,0.2-1.435a19.923,19.923,0,0,0,2.79-.71c1.28-.419.57-1.79-0.37-1.435a15.909,15.909,0,0,1-2.17.629c0.06-.371.14-0.774,0.21-1.177,0.17-.968-1.39-1.226-1.57-0.033-0.06.484-.14,0.968-0.21,1.436a4.863,4.863,0,0,1-1.74-.129,0.746,0.746,0,1,0-.45,1.419,6.046,6.046,0,0,0,2.02.161c-0.09.661-.15,1.306-0.2,1.919-0.24.129-.47,0.258-0.68,0.387a6.318,6.318,0,0,0-2.88,4.273c-0.18,2.161,1.35,2.419,2.35,1.9a13.484,13.484,0,0,0,1.76-1.1Zm2.45-5.257a7.553,7.553,0,0,1-1.68,2.628,11.244,11.244,0,0,1-.03-2.193,6.846,6.846,0,0,1,1.66-.435h0.05Zm-2.95,3.773a12.622,12.622,0,0,1-1.44.936c-0.42.225-.85,0.161-0.8-0.484a4.549,4.549,0,0,1,2.06-3.032A12.178,12.178,0,0,0,1234.1,208.764Zm7.09,11.928c0.79,0.5,1.63-.839.54-1.5a5.129,5.129,0,0,0-2.97-.564c-1.03.1-.97,1.435-0.08,1.387A4.117,4.117,0,0,1,1241.19,220.692Zm-7.27-1.613a31.738,31.738,0,0,1-2.64,4.4c-0.71,1.048.83,1.677,1.43,0.709a41.258,41.258,0,0,0,2.89-5.434,6.116,6.116,0,0,0,1.72-.742c1.04-.742.02-1.741-0.71-1.225a4.892,4.892,0,0,1-.51.274,5.075,5.075,0,0,0,.22-0.984,0.771,0.771,0,0,0-1.53-.145,10.46,10.46,0,0,1-.32,1.629,4.318,4.318,0,0,1-2.21.048,0.738,0.738,0,1,0-.47,1.387A4.42,4.42,0,0,0,1233.92,219.079Zm5.08,7.563a4.627,4.627,0,0,1,.92.839c0.77,0.935,2.08-.21,1.16-1.226a5.788,5.788,0,0,0-1.97-1.29c-0.01-.355-0.05-0.693-0.06-1-0.02-.467-0.02-0.87-0.02-1.241a3.117,3.117,0,0,1,.1-0.758,0.74,0.74,0,0,0-1.45-.29,4.312,4.312,0,0,0-.08,1.08c0.01,0.4.05,0.806,0.05,1.209v0.565a5.284,5.284,0,0,0-3.1.306c-1.66.742-1.48,2.483,0.02,3.241A3.226,3.226,0,0,0,1239,226.642Zm-1.43-.758c-0.02.049,0,.113-0.02,0.161a1.739,1.739,0,0,1-2.45.855,0.489,0.489,0,0,1-.02-0.935A3.249,3.249,0,0,1,1237.57,225.884Zm3.56,11.531a0.76,0.76,0,1,0,.37-1.467,5.983,5.983,0,0,0-3.87-.081c-1.06.371-.56,1.693,0.27,1.387A5.683,5.683,0,0,1,1241.13,237.415Zm0,6.531a0.837,0.837,0,1,0-.21-1.661c-1.89.161-2.87,0.242-3.69-.6-0.84-.855-1.84.419-1.15,1.193A5.771,5.771,0,0,0,1241.13,243.946Zm-6.02-8.45a10.158,10.158,0,0,0,1.63-.645,0.77,0.77,0,1,0-.63-1.387c-0.19.113-.38,0.226-0.61,0.339a5.043,5.043,0,0,0-.01-1.29c-0.17-.887-1.68-0.839-1.62.081a6.807,6.807,0,0,1,.02,1.741,4.328,4.328,0,0,1-2.23-.1c-1.21-.435-1.37,1.032-0.54,1.387a4.671,4.671,0,0,0,2.35.226,49.932,49.932,0,0,1-2.82,7,0.859,0.859,0,1,0,1.51.758A62.6,62.6,0,0,0,1235.11,235.5Zm1.79,15.512a4.163,4.163,0,0,1,2,.645,3.473,3.473,0,0,1,.89,4.934,4.975,4.975,0,0,1-3,1.806c-1.39.323-.89,1.951,0.53,1.581a6.752,6.752,0,0,0,3.94-2.661,4.775,4.775,0,0,0-1.5-6.773,6.747,6.747,0,0,0-6.97.371c-2.16,1.5-3.24,4.5-2.22,6.5,0.71,1.386,2.06,2.015,3.3.87a12.7,12.7,0,0,0,3.26-6.53A0.8,0.8,0,0,0,1236.9,251.008Zm-1.27.081a1.07,1.07,0,0,0-.14.5,9.743,9.743,0,0,1-2.5,5.369c-0.41.355-.83,0.113-1.07-0.355-0.68-1.241.13-3.386,1.63-4.547A5.34,5.34,0,0,1,1235.63,251.089Zm2.4,22.5a0.65,0.65,0,0,0,.71.613,0.657,0.657,0,0,0,.73-0.613V268.3c0.51-.258.95-0.484,1.19-0.613a0.38,0.38,0,0,1,.18-0.048c0.26,0,.27.419,0.27,1.1,0,2.725-.4,2.951-0.66,2.951a0.787,0.787,0,0,1-.19-0.032,0.748,0.748,0,0,0-.16-0.032,0.621,0.621,0,0,0-.52.709c0,0.516.23,0.774,0.95,0.774,1.65,0,2-1.274,2-4.966,0-.871-0.05-2.016-1.21-2.016a2.307,2.307,0,0,0-1.06.29l-0.79.4v-2.838a0.723,0.723,0,0,0-1.44,0v3.564l-1.46.726c0-1.161,0-2.21.01-2.871v-0.016a0.665,0.665,0,0,0-.71-0.677,0.7,0.7,0,0,0-.72.709c0,0.871-.04,2.193-0.04,3.6l-1.54.774a0.641,0.641,0,0,0-.39.6,0.69,0.69,0,0,0,.64.71,0.786,0.786,0,0,0,.31-0.081l0.98-.5c0,1.677,0,3.29.02,4.305,0.03,2.016,2.1,2.064,3.9,2.064,2.08,0,4.34,0,4.34-2.918a0.778,0.778,0,0,0-.82-0.823,0.668,0.668,0,0,0-.71.71c0,1.6-.94,1.661-2.9,1.661-1.41,0-2.33-.016-2.36-0.968-0.01-.854-0.01-2.822-0.01-4.773l1.46-.742v4.564Zm-6.95-.177c-0.59.241-1.21,0.451-1.82,0.661a0.719,0.719,0,0,0-.52.693,0.726,0.726,0,0,0,.71.742c0.67,0,4.15-1.758,4.71-2.064a0.762,0.762,0,0,0,.47-0.645,0.668,0.668,0,0,0-.69-0.629,0.838,0.838,0,0,0-.41.113c-0.3.177-.64,0.338-0.98,0.5v-3.629h1.29a0.679,0.679,0,0,0,0-1.354h-1.27v-3.386a0.752,0.752,0,0,0-1.5,0V267.8h-1.47a0.677,0.677,0,1,0,0,1.354h1.48v4.258Zm9.26,8.3a0.707,0.707,0,0,0,.76-0.726,0.725,0.725,0,0,0-.76-0.742h-8.52a0.734,0.734,0,1,0,0,1.468h8.52Zm1.85,3.724a0.684,0.684,0,0,0,.71-0.725,0.708,0.708,0,0,0-.72-0.758H1230.1a0.742,0.742,0,1,0-.02,1.483h0.02c4.13-.048,5.48-0.048,6.58-0.048-0.03,1.677-.05,5.241-0.05,5.757,0,1.644,1.16,1.919,2.69,1.919,1.26,0,3.7-.033,3.7-2.951a0.823,0.823,0,0,0-.88-0.855,0.707,0.707,0,0,0-.75.758c0,1.4-.83,1.6-1.83,1.6-1.38,0-1.38-.419-1.38-1.016,0-.951.05-3.757,0.06-5.208l3.94,0.048h0.01Zm-12.01,7.837c3.9-1.048,4.93-4.257,5.18-6.821v-0.064a0.842,0.842,0,0,0-.89-0.742,0.684,0.684,0,0,0-.74.693c-0.16,2.161-.87,4.644-4.15,5.467a0.679,0.679,0,0,0-.5.709,0.764,0.764,0,0,0,.78.807A1.223,1.223,0,0,0,1230.18,293.272Zm10.27,7.207a0.789,0.789,0,1,0,.28-1.548,9.773,9.773,0,0,0-4.25.1,0.76,0.76,0,1,0,.23,1.5A8.157,8.157,0,0,1,1240.45,300.479Zm0.87,7.353c1.07-.275.99-1.984-0.32-1.71-1.26.258-3.19,0.516-4.06-.274a0.8,0.8,0,0,0-1.15,1.113C1236.95,308.219,1239.6,308.267,1241.32,307.832Zm-8.53.774a1.893,1.893,0,0,0,.31-1.29,8.105,8.105,0,0,1,.95-2.258,0.647,0.647,0,0,0-1.13-.629c-0.06.113-.24,0.436-0.27,0.516-0.07.145-.13,0.194-0.18-0.016-0.39-1.5.58-5.289,0.84-6.595a0.787,0.787,0,1,0-1.57-.1c-0.29,1.919-1.56,6.692-.27,9.869C1231.79,308.9,1232.39,308.96,1232.79,308.606Zm10.53,4.431a1.835,1.835,0,1,0-1.84,1.838A1.836,1.836,0,0,0,1243.32,313.037Zm-0.61,0a1.225,1.225,0,1,1-1.23-1.226A1.227,1.227,0,0,1,1242.71,313.037Z" transform="translate(-1217 -136)"/>
</svg>
