<svg id="step3" xmlns="http://www.w3.org/2000/svg" width="60" height="276" viewBox="0 0 60 276">
  <metadata><?xpacket begin="﻿" id="W5M0MpCehiHzreSzNTczkc9d"?>
<x:xmpmeta xmlns:x="adobe:ns:meta/" x:xmptk="Adobe XMP Core 5.6-c138 79.159824, 2016/09/14-01:09:01        ">
   <rdf:RDF xmlns:rdf="http://www.w3.org/1999/02/22-rdf-syntax-ns#">
      <rdf:Description rdf:about=""/>
   </rdf:RDF>
</x:xmpmeta>
                                                                                                    
                                                                                                    
                                                                                                    
                                                                                                    
                                                                                                    
                                                                                                    
                                                                                                    
                                                                                                    
                                                                                                    
                                                                                                    
                                                                                                    
                                                                                                    
                                                                                                    
                                                                                                    
                                                                                                    
                                                                                                    
                                                                                                    
                                                                                                    
                                                                                                    
                                                                                                    
                           
<?xpacket end="w"?></metadata>
<defs>
    <style>
      .cls-1 {
        fill: #feeb08;
        stroke: #e30920;
        stroke-width: 0;
        stroke-dasharray: 0.001 0;
      }

      .cls-2 {
        fill: #0071bd;
        fill-rule: evenodd;
      }
    </style>
  </defs>
  <rect id="長方形_1" data-name="長方形 1" class="cls-1" width="60" height="276"/>
  <path id="LABTRIP" class="cls-2" d="M1329.58,206.543a1.268,1.268,0,0,1,1.27,1.013,1.137,1.137,0,0,0,.88,1.013,0.736,0.736,0,0,0,.85-0.817v-7.678a0.736,0.736,0,0,0-.85-0.817,1.139,1.139,0,0,0-.91,1.013,1.252,1.252,0,0,1-1.24,1.013h-16.63a1.326,1.326,0,0,1-1.31-1.046,1.138,1.138,0,0,0-.85-1.013,0.736,0.736,0,0,0-.85.817v14.083a1.845,1.845,0,0,0,.15.8,1.5,1.5,0,0,0,.42.539,3.144,3.144,0,0,0,.69.409q0.4,0.178.96,0.441a5.709,5.709,0,0,0,1.9.686c0.5,0,.74-0.153.73-0.457a1.6,1.6,0,0,0-.5-0.981,17.564,17.564,0,0,1-1.38-1.6,2.412,2.412,0,0,1-.58-1.372c0-.131-0.01-0.283-0.02-0.457s-0.02-.431-0.02-0.768,0.01-.8.02-1.389,0.02-1.361.02-2.32a0.92,0.92,0,0,1,.35-0.866,2.249,2.249,0,0,1,.82-0.277Zm-19.64,33.31a0.777,0.777,0,0,0,.88.882,0.682,0.682,0,0,0,.52-0.359c0.18-.24.37-0.512,0.59-0.817,0.44-.588.77-1.045,1-1.372a1.679,1.679,0,0,1,.83-0.654c2.99-1.045,5.95-2.091,8.91-3.136s5.92-2.091,8.9-3.137a1.517,1.517,0,0,0,.78-0.98,4.253,4.253,0,0,0,.27-1.438,2.117,2.117,0,0,0-.31-1.094,1.816,1.816,0,0,0-.87-0.736c-3.03-1-6.02-1.966-8.99-2.891s-5.93-1.912-8.92-2.957a3.541,3.541,0,0,1-1.3-1.013c-0.44-.5-0.89-1.046-1.34-1.634a2.375,2.375,0,0,0-.71.082,0.5,0.5,0,0,0-.24.539v5.326a0.793,0.793,0,0,0,.88.915,1.057,1.057,0,0,0,.85-0.882,1.172,1.172,0,0,1,1.15-.883,10.707,10.707,0,0,1,2.18.409c1.07,0.272,2.48.724,4.22,1.356,1.57,0.544,2.9,1.013,4,1.405a24,24,0,0,1,2.5,1.013c-0.19.086-.61,0.25-1.24,0.49s-1.32.49-2.06,0.751-1.44.495-2.11,0.7a12.361,12.361,0,0,1-1.38.375,1.265,1.265,0,0,1-.28-0.963c0.01-.447.01-0.845,0.01-1.193a3.83,3.83,0,0,0-.22-1.487,0.913,0.913,0,0,0-.92-0.506,1.094,1.094,0,0,0-.64.2,1.375,1.375,0,0,0-.44.719,3.078,3.078,0,0,0-.15,1.111,7.348,7.348,0,0,0,.18,1.307,5.774,5.774,0,0,1-.01,1.029,5.7,5.7,0,0,1-.18.931l-3.14.98a0.771,0.771,0,0,1-.86-0.261,3.03,3.03,0,0,1-.67-1.176,0.875,0.875,0,0,0-.79-0.687,0.792,0.792,0,0,0-.88.915v8.822Zm11.68,11.737q-0.345.654-.96,1.993a4.229,4.229,0,0,1-1.54,1.814,4.569,4.569,0,0,1-2.58.669,7.256,7.256,0,0,1-1.72-.2,3.925,3.925,0,0,1-1.38-.62,3.036,3.036,0,0,1-.94-1.079,3.443,3.443,0,0,1-.34-1.568,4.511,4.511,0,0,1,.1-0.948,3.6,3.6,0,0,1,.31-0.9,1.942,1.942,0,0,1,.56-0.67,1.352,1.352,0,0,1,.86-0.261h14.48a1.743,1.743,0,0,1,1.52.784,3.214,3.214,0,0,1,.53,1.83,2.209,2.209,0,0,1-.31,1.192,2.4,2.4,0,0,1-.8.817,3.888,3.888,0,0,1-1.09.474,4.529,4.529,0,0,1-1.19.163,4.009,4.009,0,0,1-1.95-.474,3.554,3.554,0,0,1-1.42-1.519,13.845,13.845,0,0,0-.9-1.568,1.14,1.14,0,0,0-.63-0.588A0.988,0.988,0,0,0,1321.62,251.59Zm-11.53,4.248a8.108,8.108,0,0,0,1.21,2.973,5.359,5.359,0,0,0,2.18,1.846,7.787,7.787,0,0,0,3.32.637,4.656,4.656,0,0,0,1.99-.408,5.672,5.672,0,0,0,1.57-1.062,6.912,6.912,0,0,0,1.2-1.519,17.293,17.293,0,0,0,.89-1.781h0.4a6.034,6.034,0,0,0,.73,1.438,5.716,5.716,0,0,0,1.1,1.192,5.436,5.436,0,0,0,1.35.817,3.88,3.88,0,0,0,1.52.31,4.125,4.125,0,0,0,2.55-.767,5.726,5.726,0,0,0,1.63-1.977,8.841,8.841,0,0,0,.87-2.647,17.056,17.056,0,0,0,.24-2.81q0-.327-0.06-1.143c-0.05-.545-0.1-1.16-0.18-1.846s-0.18-1.405-.31-2.157a16.869,16.869,0,0,0-.48-2.058,6.629,6.629,0,0,0-.63-1.536,1,1,0,0,0-.82-0.6,1.162,1.162,0,0,0-.98.947,1.075,1.075,0,0,1-.88.98h-14.21a1.712,1.712,0,0,1-1.44-.751,1.8,1.8,0,0,0-.75-0.752c-0.81,0-1.44,1.253-1.9,3.758a26.968,26.968,0,0,0-.49,4.868A19.6,19.6,0,0,0,1310.09,255.838Zm17.61,33.527a0.891,0.891,0,0,0,.18.327,1.073,1.073,0,0,0,.28.261,0.327,0.327,0,0,0,.27.066,8.585,8.585,0,0,0,2.91-1.177,2.355,2.355,0,0,0,1.24-1.764V273.29a1.391,1.391,0,0,0-.62-1.258,5.638,5.638,0,0,0-.68-0.425c-0.27-.142-0.56-0.3-0.89-0.474a4.677,4.677,0,0,0-1.96-.719,0.722,0.722,0,0,0-.78.85,2.849,2.849,0,0,0,1.31,1.5,3.736,3.736,0,0,1,.86.882,2.218,2.218,0,0,1,.36.882,4.425,4.425,0,0,1,.07.98c-0.01.349-.02,0.752-0.02,1.209a0.839,0.839,0,0,1-.24.7,1.209,1.209,0,0,1-.71.179l-16.01.033a1.657,1.657,0,0,1-1.7-1.372,0.713,0.713,0,0,0-.78-0.621,0.736,0.736,0,0,0-.85.817v7.58a0.75,0.75,0,0,0,.85.85,1.129,1.129,0,0,0,.91-1.013,1.261,1.261,0,0,1,1.25-1.013h16.33a0.9,0.9,0,0,1,.95,1.078c0,1.765-.28,2.875-0.85,3.333a6.693,6.693,0,0,0-.9.817c-0.21.239-.46,0.577-0.77,1.013A0.327,0.327,0,0,0,1327.7,289.365Zm-17.76,23.414a1.226,1.226,0,0,0,.15.555,1.138,1.138,0,0,0,.36.458,0.592,0.592,0,0,0,.49.114,1.036,1.036,0,0,0,.57-0.441c0.43-.653.95-1.367,1.53-2.14a14.279,14.279,0,0,1,2.26-2.3,20.634,20.634,0,0,1,2.68-1.8,11.725,11.725,0,0,1,2.48-1.078c0.44,0.61.84,1.193,1.21,1.748a9.164,9.164,0,0,0,1.19,1.454,5.391,5.391,0,0,0,1.44,1,4.536,4.536,0,0,0,1.94.375,5.365,5.365,0,0,0,2.88-.751,6.342,6.342,0,0,0,1.98-1.96,8.9,8.9,0,0,0,1.12-2.729,13.207,13.207,0,0,0,.36-3.055q0-.327-0.06-1.192c-0.05-.578-0.11-1.231-0.2-1.961s-0.2-1.5-.34-2.3-0.31-1.542-.49-2.206a8.252,8.252,0,0,0-.62-1.633,0.971,0.971,0,0,0-.77-0.638,1.08,1.08,0,0,0-.98.948,1.076,1.076,0,0,1-.88.98h-15.29a1.271,1.271,0,0,1-1.25-1.045,1.125,1.125,0,0,0-.88-1.013,0.75,0.75,0,0,0-.88.817v7.678a0.75,0.75,0,0,0,.88.817,1.147,1.147,0,0,0,.92-1.013,1.228,1.228,0,0,1,1.21-1.013h15.29a1.288,1.288,0,0,1,.81.278,2.384,2.384,0,0,1,.61.686,3.3,3.3,0,0,1,.37.915,3.845,3.845,0,0,1,.13,1,2.847,2.847,0,0,1-.39,1.405,3.127,3.127,0,0,1-.94.98,4.231,4.231,0,0,1-1.31.572,5.918,5.918,0,0,1-1.44.18,5.349,5.349,0,0,1-2.5-.539,3.2,3.2,0,0,1-1.49-1.683c-0.63-1.5-1.11-2.254-1.43-2.254q-1.44,0-6.08,3.136-4.635,3.169-4.64,4.477v4.182Zm0,11.986a0.75,0.75,0,0,0,.88.817,1.206,1.206,0,0,0,.88-1.046,1.262,1.262,0,0,1,1.25-1.013h16.63a1.252,1.252,0,0,1,1.24,1.013,1.2,1.2,0,0,0,.91,1.046,0.736,0.736,0,0,0,.85-0.817v-7.678a0.736,0.736,0,0,0-.85-0.817,1.138,1.138,0,0,0-.91,1.013,1.252,1.252,0,0,1-1.24,1.013h-16.63a1.262,1.262,0,0,1-1.25-1.013,1.125,1.125,0,0,0-.88-1.013,0.75,0.75,0,0,0-.88.817v7.678Zm7.91,17.331a6.5,6.5,0,0,0,1.42,2.483,6.371,6.371,0,0,0,2.43,1.617,9.46,9.46,0,0,0,3.43.572,6.059,6.059,0,0,0,3.24-.849,7.427,7.427,0,0,0,2.25-2.157,9.871,9.871,0,0,0,1.33-2.941,12.421,12.421,0,0,0,.44-3.2c0-.218-0.03-0.6-0.07-1.143s-0.1-1.16-.18-1.846-0.18-1.4-.31-2.157a18.192,18.192,0,0,0-.47-2.042,7.143,7.143,0,0,0-.64-1.519,1,1,0,0,0-.82-0.6,1.089,1.089,0,0,0-.98.948,1.048,1.048,0,0,1-.88.947h-15.09a1.271,1.271,0,0,1-1.28-1.012,1.136,1.136,0,0,0-.88-1.013,0.736,0.736,0,0,0-.85.817v7.613a0.735,0.735,0,0,0,.85.816,1.129,1.129,0,0,0,.91-1.013,1.261,1.261,0,0,1,1.25-1.012h15.09a1.737,1.737,0,0,1,1.44.718,2.6,2.6,0,0,1,.55,1.634,2.714,2.714,0,0,1-.47,1.6,4.158,4.158,0,0,1-1.24,1.16,6.188,6.188,0,0,1-1.75.719,9.477,9.477,0,0,1-1.99.278,9.135,9.135,0,0,1-1.72-.1,4.76,4.76,0,0,1-1.5-.491,2.706,2.706,0,0,1-1.49-2.581,2.966,2.966,0,0,0-.32-1.584,1.006,1.006,0,0,0-.85-0.474,0.793,0.793,0,0,0-.64.294,2.42,2.42,0,0,0-.39.7,3.5,3.5,0,0,0-.2.866c-0.03.305-.05,0.566-0.05,0.784A9.709,9.709,0,0,0,1317.85,342.1Z" transform="translate(-1291 -136)"/>
</svg>
