<?xml version="1.0" encoding="utf-8"?>
<!-- Generator: Adobe Illustrator 21.1.0, SVG Export Plug-In . SVG Version: 6.00 Build 0)  -->
<svg version="1.1" id="レイヤー_1" xmlns="http://www.w3.org/2000/svg" xmlns:xlink="http://www.w3.org/1999/xlink" x="0px"
	 y="0px" viewBox="0 0 740 100" style="enable-background:new 0 0 740 100;" xml:space="preserve">
<style type="text/css">
	.st0{fill:#83D13D;}
	.st1{fill:#0DB4DE;}
	.st2{fill:#DF7A10;}
	.st3{fill:#53E0D3;}
	.st4{fill:#DE0E40;}
	.st5{fill:#C24EDA;}
	.st6{fill:#DF499D;}
	.st7{fill:#BFDE10;}
	.st8{fill:#51B83D;}
	.st9{fill:#336FE0;}
	.st10{fill:#DF6110;}
	.st11{fill:#DFDB11;}
	.st12{fill:#0DB5DF;}
	.st13{fill:#DE499C;}
	.st14{fill:#5F8EE4;}
	.st15{fill:#5F8FE5;}
	.st16{fill:#AE5D27;}
</style>
<path class="st0" d="M140,20h20v20h-20V20z"/>
<path class="st1" d="M120,40h20v20h-20V40z"/>
<path class="st2" d="M120,60h20v20h-20V60z"/>
<path class="st3" d="M180,40h20v20h-20V40z"/>
<path class="st4" d="M180,60h20v20h-20V60z"/>
<path class="st5" d="M160,20h20v20h-20V20z"/>
<path class="st6" d="M140,80h20v20h-20V80z"/>
<path class="st7" d="M80,20h20v20H80V20z"/>
<path class="st8" d="M80,0h20v20H80V0z"/>
<path class="st9" d="M80,40h20v20H80V40z"/>
<path class="st10" d="M80,60h20v20H80V60z"/>
<path class="st3" d="M40,20h20v20H40V20z"/>
<path class="st5" d="M40,40h20v20H40V40z"/>
<path class="st0" d="M40,60h20v20H40V60z"/>
<path class="st4" d="M60,80h20v20H60V80z"/>
<path class="st11" d="M0,20h20v20H0V20z"/>
<path class="st2" d="M0,0h20v20H0V0z"/>
<path class="st12" d="M0,40h20v20H0V40z"/>
<path class="st13" d="M0,60h20v20H0V60z"/>
<path class="st14" d="M20,80h20v20H20V80z"/>
<path class="st5" d="M420,20h20v20h-20V20z"/>
<path class="st15" d="M420,0h20v20h-20V0z"/>
<path class="st0" d="M420,40h20v20h-20V40z"/>
<path class="st1" d="M420,60h20v20h-20V60z"/>
<path class="st4" d="M400,40h20v20h-20V40z"/>
<path class="st16" d="M380,40h20v20h-20V40z"/>
<path class="st11" d="M420,80h20v20h-20V80z"/>
<path class="st3" d="M360,20h20v20h-20V20z"/>
<path class="st9" d="M360,0h20v20h-20V0z"/>
<path class="st8" d="M360,40h20v20h-20V40z"/>
<path class="st7" d="M360,60h20v20h-20V60z"/>
<path class="st6" d="M360,80h20v20h-20V80z"/>
<path class="st15" d="M160,80h20v20h-20V80z"/>
<path class="st9" d="M480,20h20v20h-20V20z"/>
<path class="st10" d="M460,40h20v20h-20V40z"/>
<path class="st8" d="M460,60h20v20h-20V60z"/>
<path class="st5" d="M520,40h20v20h-20V40z"/>
<path class="st0" d="M520,60h20v20h-20V60z"/>
<path class="st15" d="M520,80h20v20h-20V80z"/>
<path class="st3" d="M500,20h20v20h-20V20z"/>
<path class="st1" d="M480,80h20v20h-20V80z"/>
<path class="st6" d="M500,80h20v20h-20V80z"/>
<path class="st5" d="M580,20h20v20h-20V20z"/>
<path class="st16" d="M560,40h20v20h-20V40z"/>
<path class="st6" d="M560,60h20v20h-20V60z"/>
<path class="st4" d="M620,20h20v20h-20V20z"/>
<path class="st0" d="M620,80h20v20h-20V80z"/>
<path class="st3" d="M600,20h20v20h-20V20z"/>
<path class="st15" d="M580,80h20v20h-20V80z"/>
<path class="st11" d="M600,80h20v20h-20V80z"/>
<path class="st3" d="M660,40h20v20h-20V40z"/>
<path class="st4" d="M660,20h20v20h-20V20z"/>
<path class="st9" d="M660,0h20v20h-20V0z"/>
<path class="st5" d="M660,60h20v20h-20V60z"/>
<path class="st6" d="M720,20h20v20h-20V20z"/>
<path class="st15" d="M680,60h20v20h-20V60z"/>
<path class="st1" d="M720,80h20v20h-20V80z"/>
<path class="st2" d="M700,40h20v20h-20V40z"/>
<path class="st8" d="M660,80h20v20h-20V80z"/>
<path class="st7" d="M700,60h20v20h-20V60z"/>
<path class="st16" d="M220,40h20v20h-20V40z"/>
<path class="st8" d="M220,60h20v20h-20V60z"/>
<path class="st9" d="M220,20h20v20h-20V20z"/>
<path class="st7" d="M260,40h20v20h-20V40z"/>
<path class="st10" d="M260,60h20v20h-20V60z"/>
<path class="st6" d="M260,20h20v20h-20V20z"/>
<path class="st1" d="M240,80h20v20h-20V80z"/>
<path class="st0" d="M300,60h20v20h-20V60z"/>
<path class="st5" d="M300,40h20v20h-20V40z"/>
<path class="st4" d="M300,20h20v20h-20V20z"/>
<path class="st15" d="M280,80h20v20h-20V80z"/>
</svg>
