<svg xmlns="http://www.w3.org/2000/svg" width="99.376" height="20.375" viewBox="0 0 99.376 20.375">
  <metadata><?xpacket begin="﻿" id="W5M0MpCehiHzreSzNTczkc9d"?>
<x:xmpmeta xmlns:x="adobe:ns:meta/" x:xmptk="Adobe XMP Core 5.6-c138 79.159824, 2016/09/14-01:09:01        ">
   <rdf:RDF xmlns:rdf="http://www.w3.org/1999/02/22-rdf-syntax-ns#">
      <rdf:Description rdf:about=""/>
   </rdf:RDF>
</x:xmpmeta>
                                                                                                    
                                                                                                    
                                                                                                    
                                                                                                    
                                                                                                    
                                                                                                    
                                                                                                    
                                                                                                    
                                                                                                    
                                                                                                    
                                                                                                    
                                                                                                    
                                                                                                    
                                                                                                    
                                                                                                    
                                                                                                    
                                                                                                    
                                                                                                    
                                                                                                    
                                                                                                    
                           
<?xpacket end="w"?></metadata>
<defs>
    <style>
      .cls-1 {
        fill: #ff6612;
        fill-rule: evenodd;
      }
    </style>
  </defs>
  <path id="logo" class="cls-1" d="M592.7,51.049V64.016h-2.4V45.3l14.771,14.651V46.984h2.4V65.7ZM636.093,65.44a9.989,9.989,0,0,1-9.95-8.749H611.676v4.944h14.275v2.381H609.276V46.984h16.675v2.38H611.676v4.945h14.467A10.017,10.017,0,1,1,636.093,65.44Zm-7.526-8.749a7.559,7.559,0,1,0,0-2.38h4.638a3.1,3.1,0,1,1,0,2.38h-4.638ZM674.5,64.016l-6.644-13.18-6.644,13.18H647.972V46.984h2.4V61.634h9.354l8.128-16.122,8.127,16.122h7.854a3.434,3.434,0,1,0,.074-6.867h-0.778v-2.38h0.7a1.511,1.511,0,0,0,0-3.023h-5.1v-2.38h5.1a3.882,3.882,0,0,1,3.1,6.278A5.774,5.774,0,0,1,689.7,58.2a5.845,5.845,0,0,1-5.862,5.815H674.5Z" transform="translate(-590.312 -45.313)"/>
</svg>
