<svg id="グループ_4" data-name="グループ 4" xmlns="http://www.w3.org/2000/svg" width="12" height="18" viewBox="0 0 12 18">
  <metadata><?xpacket begin="﻿" id="W5M0MpCehiHzreSzNTczkc9d"?>
<x:xmpmeta xmlns:x="adobe:ns:meta/" x:xmptk="Adobe XMP Core 5.6-c138 79.159824, 2016/09/14-01:09:01        ">
   <rdf:RDF xmlns:rdf="http://www.w3.org/1999/02/22-rdf-syntax-ns#">
      <rdf:Description rdf:about=""/>
   </rdf:RDF>
</x:xmpmeta>
                                                                                                    
                                                                                                    
                                                                                                    
                                                                                                    
                                                                                                    
                                                                                                    
                                                                                                    
                                                                                                    
                                                                                                    
                                                                                                    
                                                                                                    
                                                                                                    
                                                                                                    
                                                                                                    
                                                                                                    
                                                                                                    
                                                                                                    
                                                                                                    
                                                                                                    
                                                                                                    
                           
<?xpacket end="w"?></metadata>
<defs>
    <style>
      .cls-1 {
        fill: #97ee41;
      }

      .cls-2 {
        fill: #3480ff;
      }

      .cls-3 {
        fill: #ff0048;
      }
    </style>
  </defs>
  <rect id="dot" class="cls-1" x="6" y="6" width="6" height="6"/>
  <rect id="dot-2" data-name="dot" class="cls-2" width="6" height="6"/>
  <rect id="dot-3" data-name="dot" class="cls-3" y="12" width="6" height="6"/>
</svg>
