<svg 
 xmlns="http://www.w3.org/2000/svg"
 xmlns:xlink="http://www.w3.org/1999/xlink"
 width="190px" height="92px">
<path fill-rule="evenodd"  fill="rgb(0, 113, 189)"
 d="M187.857,9.895 C187.549,9.543 186.405,8.773 185.943,8.597 C184.755,8.135 185.613,6.727 186.691,7.079 C187.307,7.277 188.495,7.871 189.023,8.399 C189.948,9.323 188.649,10.776 187.857,9.895 ZM184.975,6.243 C183.853,6.177 182.466,6.595 181.718,6.859 C180.486,7.299 179.364,8.619 178.880,9.433 C176.944,12.668 178.418,17.288 183.347,17.112 C185.657,17.024 185.811,19.621 183.479,19.599 C176.834,19.577 174.545,13.482 176.944,9.059 C177.164,8.641 177.362,8.289 177.648,7.915 C178.000,7.453 177.890,7.475 177.472,7.607 C175.821,8.135 176.196,8.135 174.699,8.707 C173.995,8.971 173.379,9.191 172.719,9.367 C170.783,9.895 170.189,7.365 171.949,6.991 C172.411,6.881 173.687,6.639 174.391,6.463 C175.469,6.199 177.406,5.759 179.650,5.121 C181.916,4.483 183.699,3.955 185.635,3.823 C186.999,3.734 187.373,4.813 187.131,5.517 C186.999,5.891 186.515,6.331 184.975,6.243 ZM174.271,39.270 C174.799,39.270 175.349,39.622 175.349,40.150 C175.349,40.260 175.349,40.392 174.865,41.360 L180.740,41.316 C181.312,41.316 181.598,41.734 181.598,42.153 C181.598,42.571 181.312,42.989 180.740,42.989 L179.420,42.989 C179.046,43.891 178.474,44.881 177.638,45.849 C178.760,46.421 180.036,46.795 181.334,46.971 C181.906,47.059 182.192,47.477 182.192,47.895 C182.192,48.423 181.774,48.974 181.004,48.974 C180.784,48.974 178.694,48.688 176.317,47.125 C173.941,49.018 171.323,49.568 171.169,49.568 C170.641,49.568 170.222,48.952 170.222,48.445 C170.222,48.137 170.376,47.851 170.773,47.763 C172.555,47.389 173.897,46.773 174.887,46.047 C174.205,45.453 173.633,44.771 173.171,44.023 C172.027,45.585 171.697,45.651 171.301,45.651 C170.795,45.651 170.332,45.299 170.332,44.815 C170.332,44.617 170.421,44.375 170.663,44.133 C171.807,42.989 172.753,41.536 173.413,39.820 C173.567,39.424 173.919,39.270 174.271,39.270 ZM176.141,44.881 C176.669,44.265 177.021,43.605 177.285,42.989 L174.491,42.989 C174.953,43.737 175.503,44.375 176.141,44.881 ZM169.012,55.530 C168.550,55.530 168.066,55.244 168.066,54.694 L168.066,43.759 C168.066,43.121 168.528,42.813 169.012,42.813 C169.474,42.813 169.958,43.121 169.958,43.759 L169.958,54.694 C169.958,55.244 169.496,55.530 169.012,55.530 ZM166.812,57.731 C166.790,58.369 166.262,58.699 165.734,58.699 C165.228,58.699 164.744,58.391 164.744,57.753 L164.744,57.731 L165.008,47.169 C164.128,48.313 163.688,48.732 163.137,48.732 C162.565,48.732 162.103,48.269 162.103,47.763 C162.103,47.521 162.191,47.279 162.411,47.037 C164.458,44.859 165.756,42.769 166.878,39.842 C167.054,39.380 167.406,39.204 167.780,39.204 C168.374,39.204 169.012,39.688 169.012,40.304 C169.012,40.788 167.538,43.341 167.076,44.111 L166.812,57.731 ZM165.298,17.993 C165.144,17.618 164.946,17.222 164.726,16.826 C161.887,17.618 157.223,18.609 153.812,19.181 C152.162,19.445 151.634,17.200 153.394,16.958 C153.746,16.914 154.142,16.870 154.516,16.804 C155.595,14.516 157.905,8.421 158.455,5.671 C158.829,3.823 161.293,4.439 160.831,6.133 C160.171,8.531 158.323,13.394 157.047,16.364 C159.335,15.946 161.755,15.418 163.472,15.000 C162.900,14.252 162.283,13.614 161.799,13.196 C160.787,12.316 162.217,10.776 163.450,11.876 C164.506,12.822 166.794,15.066 167.498,17.046 C167.762,17.795 167.300,18.433 166.794,18.653 C166.266,18.873 165.584,18.697 165.298,17.993 ZM147.058,10.379 C145.430,10.313 143.735,10.291 142.041,10.291 C141.909,14.362 139.577,18.037 135.066,19.819 C133.218,20.545 132.602,18.367 134.032,17.839 C137.861,16.408 139.599,13.460 139.753,10.291 C137.729,10.313 135.704,10.401 133.724,10.467 C132.162,10.533 131.920,8.421 133.658,8.355 C135.616,8.289 137.663,8.245 139.731,8.223 C139.709,6.947 139.665,5.715 139.643,4.967 C139.577,3.316 141.821,3.514 141.931,4.813 C142.041,6.111 142.019,7.167 142.019,8.201 C143.779,8.179 145.496,8.179 147.146,8.201 C148.048,8.223 148.444,8.773 148.422,9.323 C148.400,9.873 147.938,10.423 147.058,10.379 ZM131.449,53.396 C130.415,55.090 128.258,56.455 126.080,57.027 C124.144,57.533 123.462,55.310 125.354,54.870 C127.026,54.496 128.720,53.550 129.447,52.406 C131.009,49.942 130.415,47.059 128.236,45.673 C127.378,45.123 126.454,44.859 125.508,44.793 C125.750,45.013 125.882,45.365 125.816,45.805 C125.464,48.599 123.484,52.758 121.371,54.716 C119.677,56.279 117.829,55.420 116.861,53.528 C115.474,50.800 116.949,46.707 119.897,44.661 C122.604,42.791 126.630,42.483 129.402,44.155 C132.813,46.201 133.363,50.250 131.449,53.396 ZM120.931,46.223 C118.885,47.807 117.785,50.734 118.709,52.428 C119.039,53.066 119.611,53.396 120.161,52.912 C121.811,51.460 123.352,47.961 123.572,45.585 C123.594,45.321 123.660,45.079 123.770,44.903 C122.758,45.123 121.767,45.585 120.931,46.223 ZM123.524,12.668 C122.578,11.964 120.400,11.106 119.233,10.886 C119.211,13.922 119.211,17.090 119.255,18.873 C119.299,20.655 116.791,20.721 116.879,18.961 C117.033,15.396 117.099,6.771 117.011,3.602 C116.967,2.106 119.343,2.128 119.299,3.624 C119.277,4.703 119.255,6.617 119.233,8.773 C119.343,8.773 119.476,8.773 119.608,8.795 C120.840,8.993 123.700,9.697 124.888,10.710 C126.032,11.678 124.778,13.592 123.524,12.668 ZM117.717,82.790 C119.888,84.093 120.238,86.670 119.019,88.673 C118.361,89.752 116.988,90.620 115.602,90.985 C114.369,91.307 113.935,89.892 115.139,89.612 C116.204,89.374 117.282,88.771 117.745,88.043 C118.739,86.474 118.361,84.639 116.974,83.757 C116.428,83.407 115.840,83.238 115.237,83.196 C115.391,83.337 115.475,83.561 115.433,83.841 C115.209,85.620 113.949,88.267 112.604,89.514 C111.525,90.508 110.349,89.962 109.732,88.757 C108.850,87.021 109.788,84.415 111.665,83.112 C113.388,81.922 115.952,81.726 117.717,82.790 ZM112.324,84.107 C111.021,85.115 110.321,86.978 110.909,88.057 C111.119,88.463 111.483,88.673 111.834,88.365 C112.884,87.441 113.865,85.214 114.005,83.701 C114.019,83.533 114.061,83.379 114.131,83.266 C113.486,83.407 112.856,83.701 112.324,84.107 ZM111.073,57.687 L94.152,57.687 C93.514,57.687 93.184,57.159 93.184,56.631 C93.184,56.125 93.492,55.641 94.152,55.641 L100.929,55.641 L100.929,40.744 C100.929,40.018 101.501,39.666 102.073,39.666 C102.667,39.666 103.239,40.018 103.239,40.744 L103.239,46.377 L109.202,46.377 C109.840,46.377 110.170,46.883 110.170,47.389 C110.170,47.917 109.840,48.445 109.202,48.445 L103.239,48.445 L103.239,55.641 L111.073,55.641 C111.711,55.641 112.019,56.147 112.019,56.653 C112.019,57.159 111.689,57.687 111.073,57.687 ZM106.769,17.156 C104.129,15.440 101.665,12.976 98.826,10.798 C97.792,10.005 96.978,10.005 96.142,10.665 C94.514,11.964 93.457,12.888 92.445,13.306 C90.949,13.944 89.805,11.788 91.587,11.062 C92.159,10.820 93.502,10.049 94.998,8.971 C96.824,7.695 98.474,8.003 99.992,9.125 C101.753,10.423 106.043,13.658 108.376,15.176 C109.014,15.594 108.970,16.408 108.596,16.870 C108.222,17.332 107.430,17.596 106.769,17.156 ZM105.911,7.431 C105.603,7.079 104.437,6.309 103.975,6.133 C102.787,5.671 103.645,4.263 104.723,4.615 C105.339,4.813 106.549,5.407 107.077,5.935 C108.002,6.859 106.703,8.311 105.911,7.431 ZM103.755,9.521 C103.447,9.169 102.325,8.355 101.863,8.157 C100.697,7.651 101.577,6.265 102.655,6.661 C103.271,6.881 104.459,7.519 104.965,8.069 C105.867,9.037 104.525,10.423 103.755,9.521 ZM88.749,86.320 C87.657,86.320 87.363,86.110 87.363,85.676 C87.363,85.382 87.573,85.073 87.951,85.073 C87.993,85.073 88.049,85.073 88.091,85.087 C88.371,85.143 88.595,85.172 88.791,85.172 C89.436,85.172 89.548,84.835 89.618,84.261 L86.956,84.261 C86.284,85.956 84.855,86.488 84.547,86.488 C84.155,86.488 83.847,86.166 83.847,85.858 C83.847,85.746 83.889,85.634 83.987,85.536 C83.651,85.592 83.258,85.606 82.866,85.606 C81.704,85.606 80.345,85.592 80.303,84.163 C80.303,83.981 80.303,83.799 80.303,83.617 C80.303,83.168 80.303,82.706 80.317,82.244 L79.869,82.244 C79.462,82.244 79.266,81.964 79.266,81.670 C79.266,81.389 79.462,81.095 79.869,81.095 L81.900,81.109 L81.900,80.283 L81.900,80.269 C81.900,79.863 82.236,79.667 82.586,79.667 C82.922,79.667 83.272,79.877 83.272,80.269 L83.272,80.283 L83.272,81.109 L85.009,81.095 C85.416,81.095 85.626,81.375 85.626,81.656 C85.626,81.950 85.416,82.244 85.009,82.244 L81.563,82.244 C81.549,82.636 81.535,83.042 81.535,83.421 C81.535,84.289 81.577,84.443 82.628,84.443 C83.062,84.443 83.497,84.415 84.099,84.359 C84.113,84.359 84.141,84.359 84.155,84.359 C84.477,84.359 84.659,84.625 84.659,84.905 C84.659,85.003 84.631,85.115 84.575,85.214 C86.452,84.135 86.172,81.922 86.214,81.039 C86.256,80.003 87.251,79.989 88.791,79.989 C89.968,79.989 91.019,79.989 91.019,81.053 C91.019,85.172 90.836,86.320 88.749,86.320 ZM87.223,83.337 L89.702,83.337 L89.744,82.622 L87.335,82.622 C87.307,82.846 87.279,83.098 87.223,83.337 ZM88.609,80.969 C87.601,80.969 87.447,81.053 87.419,81.347 C87.419,81.445 87.405,81.572 87.405,81.698 L89.758,81.698 L89.772,81.347 C89.772,81.067 89.590,80.969 88.609,80.969 ZM87.079,57.621 C86.749,57.621 86.397,57.445 86.155,57.071 C85.275,55.751 84.263,54.584 83.053,53.572 C80.126,57.709 75.440,58.215 75.220,58.215 C74.560,58.215 74.164,57.643 74.164,57.093 C74.164,56.631 74.428,56.191 75.066,56.103 C81.007,55.200 83.735,50.184 83.735,42.703 C83.735,42.219 83.713,41.712 83.691,41.206 C83.691,41.184 83.691,41.162 83.691,41.162 C83.691,40.568 84.197,40.304 84.747,40.304 C85.341,40.304 85.979,40.634 86.001,41.228 C86.001,41.448 86.001,41.668 86.001,41.889 C86.001,45.739 85.451,49.172 84.065,51.900 C86.661,53.594 88.312,55.574 88.312,56.367 C88.312,57.049 87.695,57.621 87.079,57.621 ZM84.893,18.521 C84.497,18.125 84.034,17.729 83.528,17.376 C82.692,19.115 80.008,20.589 77.610,19.225 C75.695,18.125 75.651,15.616 77.940,14.604 C79.128,14.076 80.470,14.054 81.812,14.340 C81.812,13.988 81.768,13.658 81.746,13.240 C81.680,12.338 81.636,10.643 81.570,8.905 C80.382,9.081 79.216,9.169 77.962,9.059 C76.443,8.927 76.707,6.683 78.402,6.969 C79.370,7.145 80.426,7.079 81.504,6.903 C81.482,5.671 81.460,4.549 81.482,3.867 C81.526,2.436 83.682,2.634 83.594,3.823 C83.550,4.439 83.528,5.363 83.528,6.441 C83.902,6.331 84.298,6.243 84.651,6.133 C86.081,5.693 87.027,7.695 85.135,8.157 C84.607,8.289 84.078,8.421 83.550,8.531 C83.572,10.247 83.638,11.964 83.682,13.042 C83.704,13.592 83.792,14.318 83.814,15.022 C84.739,15.462 85.619,16.012 86.301,16.628 C87.555,17.773 85.993,19.687 84.893,18.521 ZM81.614,16.342 C80.514,15.924 79.414,15.814 78.578,16.210 C78.050,16.452 77.918,17.200 78.446,17.508 C79.502,18.103 81.284,17.641 81.636,16.342 L81.614,16.342 ZM77.288,43.033 C78.014,43.033 81.183,44.683 81.183,45.937 C81.183,46.575 80.632,47.103 80.060,47.103 C79.774,47.103 79.510,46.993 79.290,46.707 C78.696,45.959 77.662,45.255 76.738,44.815 C76.364,44.639 76.188,44.331 76.188,44.045 C76.188,43.539 76.650,43.033 77.288,43.033 ZM73.539,16.364 C73.363,16.914 73.231,17.398 73.143,17.751 C72.967,18.367 73.253,18.983 72.703,19.511 C72.131,20.039 71.141,19.951 70.767,18.763 C70.062,16.540 70.128,13.702 70.414,11.040 C70.701,8.377 71.185,5.913 71.295,4.483 C71.427,2.700 73.737,3.140 73.517,4.527 C73.363,5.517 72.989,7.431 72.703,9.301 C72.417,11.172 72.197,13.020 72.285,13.900 C72.329,14.296 72.351,14.362 72.571,13.922 C72.637,13.790 72.791,13.394 72.835,13.284 C73.341,12.228 75.013,12.976 74.221,14.626 C73.935,15.220 73.715,15.814 73.539,16.364 ZM72.183,53.198 L71.919,41.228 L71.919,41.206 C71.919,40.568 72.491,40.260 73.063,40.260 C73.613,40.260 74.186,40.546 74.186,41.162 L74.384,52.406 C76.034,51.768 77.574,51.086 78.674,50.492 C78.850,50.404 79.026,50.360 79.202,50.360 C79.708,50.360 80.082,50.778 80.082,51.262 C80.082,51.592 79.906,51.922 79.466,52.164 C76.408,53.814 71.281,55.795 70.599,55.795 C69.939,55.795 69.499,55.266 69.499,54.738 C69.499,54.320 69.741,53.924 70.335,53.770 C70.929,53.594 71.567,53.418 72.183,53.198 ZM73.481,79.611 C73.621,79.498 73.775,79.456 73.915,79.456 C74.293,79.456 74.629,79.779 74.629,80.115 C74.629,80.465 74.293,80.703 72.836,81.361 C74.041,81.922 74.321,82.188 74.321,82.566 C74.321,82.902 74.027,83.224 73.691,83.224 C73.551,83.224 73.397,83.168 73.257,83.056 C72.724,82.622 72.094,82.258 71.408,81.936 C71.015,82.076 70.595,82.216 70.161,82.342 C70.161,82.342 70.259,82.328 70.301,82.328 C70.651,82.328 71.029,82.566 71.029,82.888 C71.029,83.056 70.735,83.673 70.721,83.701 L76.058,83.687 C76.464,83.687 76.660,83.981 76.660,84.275 C76.660,84.569 76.464,84.863 76.058,84.863 L70.147,84.849 C69.895,85.298 69.615,85.718 69.320,86.110 C69.741,86.096 70.217,86.096 70.735,86.096 L70.735,85.606 C70.735,85.186 71.057,84.975 71.380,84.975 C71.702,84.975 72.024,85.186 72.024,85.606 L72.024,86.082 C72.654,86.082 73.271,86.096 73.803,86.110 C74.671,86.138 75.204,86.586 75.218,87.469 C75.218,87.469 75.218,87.469 75.218,88.337 C75.218,88.561 75.246,88.827 75.260,89.304 C75.260,89.318 75.260,89.318 75.260,89.332 C75.260,90.284 74.545,90.845 73.509,90.845 C73.004,90.845 72.458,90.789 72.458,90.186 C72.458,89.892 72.626,89.612 72.906,89.612 C72.934,89.612 72.948,89.612 72.976,89.612 C73.116,89.640 73.271,89.668 73.411,89.668 C73.719,89.668 73.957,89.556 73.957,89.136 C73.957,89.122 73.957,89.122 73.957,89.108 C73.957,89.108 73.957,88.954 73.957,88.743 C73.957,88.421 73.957,87.959 73.929,87.679 C73.873,87.175 73.761,87.175 72.024,87.175 L72.038,91.349 C72.038,91.783 71.716,91.993 71.380,91.993 C71.057,91.993 70.721,91.783 70.721,91.349 L70.735,87.175 C70.245,87.175 69.797,87.203 69.432,87.203 C69.124,87.203 68.984,87.357 68.970,87.679 C68.970,88.015 68.956,88.505 68.956,89.024 C68.956,89.528 68.970,90.060 68.970,90.508 L68.970,90.522 C68.970,90.887 68.662,91.069 68.340,91.069 C68.032,91.069 67.710,90.873 67.710,90.508 C67.710,89.710 67.710,88.701 67.724,87.889 C66.239,89.248 65.819,89.290 65.678,89.290 C65.300,89.290 65.006,88.982 65.006,88.659 C65.006,88.463 65.104,88.267 65.342,88.113 C66.855,87.119 67.948,86.096 68.718,84.849 L65.580,84.863 C65.174,84.863 64.964,84.569 64.964,84.275 C64.964,83.981 65.174,83.687 65.580,83.687 L69.320,83.701 C69.446,83.407 69.559,83.098 69.671,82.762 C69.741,82.566 69.867,82.440 70.021,82.384 C68.438,82.832 66.729,83.098 66.337,83.098 C65.959,83.098 65.734,82.776 65.734,82.468 C65.734,82.188 65.903,81.936 66.281,81.908 C67.653,81.810 68.830,81.628 69.867,81.347 C69.250,81.151 68.592,81.011 67.948,80.899 C67.653,80.843 67.527,80.647 67.527,80.423 C67.527,80.129 67.766,79.807 68.130,79.807 C68.718,79.807 70.861,80.535 71.492,80.787 C72.248,80.465 72.906,80.073 73.481,79.611 ZM63.529,9.697 L63.507,9.697 L57.698,9.631 C56.972,10.225 56.201,10.798 55.431,11.326 C55.915,11.326 56.422,11.304 56.928,11.304 C57.830,11.304 58.710,11.326 59.458,11.370 C60.734,11.436 61.614,12.294 61.680,13.262 C61.724,13.966 61.746,14.846 61.746,15.726 C61.746,16.496 61.724,17.244 61.680,17.905 C61.592,19.071 60.756,20.017 59.348,20.127 C58.512,20.193 57.632,20.237 56.752,20.237 C55.717,20.237 54.705,20.193 53.803,20.127 C52.263,20.039 51.515,19.203 51.449,17.949 C51.427,17.508 51.427,17.024 51.427,16.518 C51.427,15.572 51.449,14.538 51.493,13.702 C50.591,14.186 47.136,15.770 46.410,15.770 C45.772,15.770 45.376,15.264 45.376,14.736 C45.376,14.318 45.640,13.878 46.256,13.702 C49.380,12.778 52.241,11.414 54.749,9.609 L47.246,9.697 L47.224,9.697 C46.498,9.697 46.190,9.257 46.190,8.817 C46.190,8.311 46.564,7.783 47.246,7.783 L53.253,7.805 L53.231,5.605 L49.204,5.605 C48.478,5.605 48.148,5.165 48.148,4.703 C48.148,4.219 48.522,3.712 49.204,3.712 L53.231,3.734 L53.231,1.908 C53.231,1.270 53.759,0.984 54.287,0.984 C54.815,0.984 55.365,1.292 55.365,1.908 L55.343,3.734 L58.424,3.712 C59.084,3.712 59.414,4.197 59.414,4.681 C59.414,5.143 59.106,5.605 58.424,5.605 L55.343,5.605 L55.343,7.805 L56.972,7.805 C58.644,6.287 60.118,4.571 61.372,2.590 C61.592,2.260 61.878,2.128 62.164,2.128 C62.758,2.128 63.353,2.678 63.353,3.272 C63.353,4.131 60.228,7.343 59.766,7.805 L63.507,7.783 C64.167,7.783 64.519,8.289 64.519,8.795 C64.519,9.257 64.211,9.697 63.529,9.697 ZM53.429,17.376 C53.451,18.279 53.759,18.411 56.576,18.411 C59.480,18.411 59.700,18.411 59.700,16.386 L53.407,16.386 C53.407,16.716 53.429,17.046 53.429,17.376 ZM54.485,13.086 C53.693,13.108 53.429,13.592 53.429,14.714 L59.678,14.714 C59.678,13.064 59.546,13.064 56.906,13.064 C56.069,13.064 55.167,13.064 54.485,13.086 ZM41.970,50.162 C41.420,50.140 40.496,50.118 39.484,50.118 C38.978,53.506 37.151,56.455 33.653,57.687 C32.839,57.973 32.289,57.621 32.135,57.093 C32.003,56.587 32.245,55.971 32.905,55.795 C35.523,55.068 37.041,52.780 37.459,50.118 C36.491,50.118 35.545,50.118 34.841,50.118 C34.181,51.218 33.411,52.120 32.729,52.714 C32.113,53.264 31.497,53.176 31.167,52.758 C30.858,52.362 30.903,51.724 31.431,51.328 C32.575,50.470 33.785,48.269 34.159,46.619 C34.445,45.343 36.469,45.805 36.139,47.081 C36.029,47.521 35.875,47.939 35.721,48.335 C37.635,48.313 40.694,48.313 42.014,48.357 C42.608,48.379 42.938,48.842 42.938,49.282 C42.938,49.744 42.608,50.184 41.970,50.162 ZM40.470,20.127 C39.194,20.259 37.918,20.347 36.642,20.347 C33.055,20.347 29.711,19.555 27.907,16.254 C26.564,19.071 24.342,20.655 23.616,20.655 C23.000,20.655 22.582,20.105 22.582,19.577 C22.582,19.269 22.714,18.961 23.044,18.763 C25.684,17.200 26.608,14.780 26.982,12.184 C27.070,11.502 27.532,11.216 27.995,11.216 C28.545,11.216 29.073,11.590 29.073,12.228 C29.073,12.514 28.897,13.240 28.765,13.790 C29.249,15.462 30.107,16.540 31.207,17.222 L31.207,9.719 L27.136,9.719 C26.498,9.719 26.168,9.257 26.168,8.773 C26.168,8.311 26.498,7.849 27.136,7.849 L37.236,7.849 C37.896,7.849 38.226,8.311 38.226,8.795 C38.226,9.257 37.896,9.719 37.236,9.719 L33.363,9.719 L33.363,12.250 L38.182,12.250 C38.842,12.250 39.194,12.734 39.194,13.240 C39.194,13.702 38.864,14.186 38.182,14.186 L33.363,14.186 L33.363,18.037 C34.243,18.213 35.168,18.279 36.136,18.279 C37.588,18.279 39.084,18.147 40.470,18.059 C40.492,18.059 40.514,18.059 40.536,18.059 C41.174,18.059 41.526,18.565 41.526,19.071 C41.526,19.555 41.196,20.061 40.470,20.127 ZM39.568,9.037 C38.996,9.037 38.468,8.729 38.468,8.091 C38.468,8.069 38.468,8.069 38.468,8.047 C38.468,5.847 38.446,5.627 37.148,5.605 C35.454,5.583 33.517,5.561 31.625,5.561 C30.085,5.561 28.567,5.583 27.246,5.605 C26.080,5.627 25.904,5.979 25.838,6.793 C25.838,6.793 25.838,6.793 25.838,8.091 L25.838,8.113 C25.838,8.751 25.288,9.103 24.738,9.103 C24.210,9.103 23.704,8.795 23.682,8.091 C23.682,7.805 23.660,7.453 23.660,7.079 C23.660,6.705 23.682,6.309 23.682,5.957 C23.726,4.879 24.518,3.801 26.190,3.779 C27.819,3.757 29.469,3.734 31.141,3.734 L31.141,2.018 C31.141,1.358 31.691,1.028 32.241,1.028 C32.813,1.028 33.363,1.358 33.363,2.018 L33.363,3.734 C35.014,3.734 36.664,3.757 38.292,3.779 C39.458,3.801 40.690,4.769 40.734,6.067 C40.756,6.397 40.756,6.837 40.756,7.255 C40.756,7.541 40.756,7.827 40.734,8.047 C40.690,8.707 40.118,9.037 39.568,9.037 ZM23.528,42.593 C23.528,43.121 23.198,43.649 22.538,43.649 L8.610,43.649 C7.906,43.649 7.532,43.121 7.532,42.571 C7.532,42.043 7.906,41.514 8.610,41.514 L22.538,41.514 C23.176,41.514 23.528,42.065 23.528,42.593 ZM13.727,20.347 C12.098,20.347 11.350,20.149 11.350,19.137 C11.350,18.609 11.658,18.103 12.252,18.103 C12.296,18.103 12.362,18.125 12.428,18.125 C12.913,18.213 13.397,18.279 13.815,18.279 C14.695,18.279 15.355,17.993 15.355,17.024 C15.355,10.930 15.355,9.675 15.289,7.827 C15.245,6.573 14.805,6.375 13.749,6.353 C12.450,6.331 11.174,6.331 9.898,6.331 C9.810,7.101 9.656,7.871 9.414,8.619 C9.458,8.619 9.480,8.619 9.502,8.619 C10.184,8.619 14.651,11.392 14.651,12.778 C14.651,13.460 14.057,14.010 13.419,14.010 C13.089,14.010 12.758,13.856 12.516,13.482 C11.724,12.294 10.360,11.172 8.996,10.401 C8.908,10.357 8.842,10.313 8.776,10.247 C7.412,13.108 5.189,14.516 4.463,14.516 C3.825,14.516 3.341,13.944 3.341,13.372 C3.341,13.042 3.517,12.690 3.935,12.470 C6.576,11.128 7.456,8.619 7.742,6.331 C6.620,6.331 5.519,6.331 4.441,6.353 C3.187,6.375 2.857,6.727 2.835,7.827 C2.791,9.807 2.769,11.788 2.769,13.768 C2.769,19.687 2.769,19.687 2.769,19.687 C2.769,20.325 2.241,20.633 1.713,20.633 C1.163,20.633 0.613,20.325 0.613,19.709 L0.613,19.687 C0.657,15.638 0.635,11.128 0.723,6.837 C0.745,5.451 1.845,4.483 3.473,4.461 C4.903,4.439 6.356,4.417 7.852,4.417 C7.852,3.536 7.830,2.612 7.830,2.084 C7.830,1.358 8.358,1.006 8.908,1.006 C9.458,1.006 10.030,1.380 10.030,2.106 C10.030,2.678 10.030,3.602 10.008,4.417 C11.592,4.417 13.199,4.417 14.783,4.461 C16.103,4.483 17.445,5.451 17.467,7.013 C17.511,9.477 17.489,11.876 17.533,14.340 L17.577,17.398 C17.577,17.420 17.577,17.420 17.577,17.442 C17.577,18.719 16.675,20.347 13.727,20.347 ZM9.820,50.052 C9.116,50.052 8.742,49.524 8.742,48.996 C8.742,48.467 9.116,47.939 9.820,47.939 L21.328,47.939 C21.966,47.939 22.318,48.489 22.318,49.018 C22.318,49.546 21.988,50.052 21.328,50.052 L9.820,50.052 ZM7.290,54.870 L23.968,54.870 C24.606,54.870 24.958,55.420 24.958,55.971 C24.958,56.521 24.628,57.049 23.968,57.049 L7.290,57.049 C6.585,57.049 6.211,56.499 6.211,55.949 C6.211,55.420 6.585,54.870 7.290,54.870 ZM51.675,47.169 C51.675,45.453 51.565,43.737 51.565,42.153 C51.565,40.634 52.709,39.952 54.205,39.930 C55.196,39.908 56.450,39.886 57.660,39.886 C58.540,39.886 59.420,39.886 60.168,39.930 C61.664,39.996 62.809,40.700 62.831,42.153 C62.831,42.659 62.831,43.187 62.831,43.715 C62.831,45.783 62.809,47.983 62.809,49.942 C62.809,50.800 62.809,51.614 62.831,52.362 L62.875,55.464 L62.875,55.486 C62.875,56.785 61.708,58.435 58.650,58.435 C57.044,58.435 56.054,58.193 56.054,57.137 C56.054,56.587 56.428,56.081 57.066,56.081 C57.154,56.081 57.220,56.081 57.308,56.103 C57.792,56.191 58.320,56.257 58.804,56.257 C59.816,56.257 60.674,55.971 60.674,54.980 C60.674,53.902 60.696,52.670 60.696,51.372 L53.457,51.372 C52.973,53.990 51.851,56.477 49.321,58.347 C49.057,58.545 48.793,58.611 48.551,58.611 C47.912,58.611 47.384,58.083 47.384,57.511 C47.384,57.225 47.516,56.917 47.868,56.675 C51.147,54.408 51.675,50.800 51.675,47.169 ZM60.652,42.483 C60.630,41.757 60.322,41.734 57.748,41.734 C56.626,41.734 55.482,41.757 54.557,41.779 C54.051,41.779 53.743,41.977 53.743,42.483 C53.743,43.165 53.743,43.913 53.765,44.661 L60.696,44.661 C60.696,43.891 60.674,43.143 60.652,42.483 ZM60.696,49.480 L60.696,46.553 L53.787,46.553 C53.787,47.521 53.787,48.489 53.699,49.480 L60.696,49.480 ZM52.021,84.387 C52.763,84.387 53.351,85.003 53.351,85.732 C53.351,86.460 52.763,87.077 52.021,87.077 C51.292,87.077 50.690,86.460 50.690,85.732 C50.690,85.003 51.292,84.387 52.021,84.387 ZM54.836,81.572 C54.836,80.843 55.452,80.227 56.181,80.227 C56.909,80.227 57.526,80.843 57.526,81.572 C57.526,82.314 56.909,82.902 56.181,82.902 C55.452,82.902 54.836,82.314 54.836,81.572 ZM60.341,87.077 C59.599,87.077 59.010,86.460 59.010,85.732 C59.010,85.003 59.599,84.387 60.341,84.387 C61.069,84.387 61.686,85.003 61.686,85.732 C61.686,86.460 61.069,87.077 60.341,87.077 ZM55.480,85.914 C55.536,85.858 55.564,85.802 55.564,85.732 C55.564,85.662 55.536,85.592 55.466,85.522 C53.799,83.841 52.161,82.230 51.152,81.277 C51.068,81.207 51.040,81.123 51.040,81.025 C51.040,80.801 51.264,80.577 51.488,80.577 C51.572,80.577 51.670,80.605 51.740,80.689 C52.693,81.684 54.304,83.337 55.971,85.017 C56.027,85.087 56.111,85.115 56.181,85.115 C56.251,85.115 56.321,85.087 56.377,85.031 C58.058,83.351 59.655,81.698 60.621,80.689 C60.691,80.605 60.789,80.577 60.873,80.577 C61.097,80.577 61.322,80.801 61.322,81.025 C61.322,81.109 61.294,81.207 61.210,81.277 C60.187,82.244 58.534,83.883 56.839,85.578 C56.811,85.606 56.783,85.662 56.783,85.718 C56.783,85.774 56.811,85.844 56.867,85.900 C58.548,87.581 60.187,89.206 61.210,90.186 C61.280,90.256 61.322,90.340 61.322,90.438 C61.322,90.662 61.111,90.887 60.887,90.887 C60.803,90.887 60.719,90.859 60.635,90.775 C56.419,86.446 56.321,86.348 56.195,86.348 C56.139,86.348 56.083,86.376 56.027,86.432 C54.360,88.113 52.707,89.766 51.726,90.775 C51.642,90.859 51.558,90.887 51.474,90.887 C51.250,90.887 51.040,90.662 51.040,90.438 C51.040,90.340 51.082,90.256 51.152,90.186 C52.175,89.206 53.799,87.581 55.480,85.914 ZM56.181,88.561 C56.909,88.561 57.526,89.150 57.526,89.892 C57.526,90.620 56.909,91.223 56.181,91.223 C55.452,91.223 54.836,90.620 54.836,89.892 C54.836,89.150 55.452,88.561 56.181,88.561 ZM80.233,90.466 L84.785,90.480 L84.785,89.696 L81.830,89.696 C81.437,89.696 81.241,89.444 81.241,89.192 C81.241,88.940 81.437,88.687 81.830,88.687 L84.785,88.687 L84.785,87.945 L81.143,87.959 C80.751,87.959 80.555,87.679 80.555,87.413 C80.555,87.133 80.751,86.852 81.143,86.852 L89.730,86.852 C90.108,86.852 90.304,87.133 90.304,87.399 C90.304,87.679 90.108,87.959 89.730,87.959 L86.074,87.945 L86.074,88.687 L89.044,88.687 C89.408,88.687 89.576,88.940 89.576,89.192 C89.576,89.444 89.408,89.696 89.044,89.696 L86.074,89.696 L86.074,90.480 L90.696,90.466 C91.075,90.466 91.271,90.761 91.271,91.041 C91.271,91.335 91.075,91.629 90.696,91.629 L80.233,91.629 C79.841,91.629 79.630,91.335 79.630,91.041 C79.630,90.761 79.841,90.466 80.233,90.466 ZM94.458,87.595 C96.447,87.007 98.268,86.138 99.865,84.989 L95.088,85.045 L95.074,85.045 C94.612,85.045 94.416,84.765 94.416,84.485 C94.416,84.163 94.654,83.827 95.088,83.827 L98.912,83.841 L98.898,82.440 L96.335,82.440 C95.873,82.440 95.663,82.160 95.663,81.866 C95.663,81.558 95.901,81.235 96.335,81.235 L98.898,81.249 L98.898,80.087 C98.898,79.681 99.234,79.498 99.571,79.498 C99.907,79.498 100.257,79.695 100.257,80.087 L100.243,81.249 L102.204,81.235 C102.624,81.235 102.834,81.544 102.834,81.852 C102.834,82.146 102.638,82.440 102.204,82.440 L100.243,82.440 L100.243,83.841 L101.280,83.841 C102.344,82.874 103.283,81.782 104.081,80.521 C104.221,80.311 104.403,80.227 104.585,80.227 C104.964,80.227 105.342,80.577 105.342,80.955 C105.342,81.502 103.353,83.547 103.059,83.841 L105.440,83.827 C105.860,83.827 106.084,84.149 106.084,84.471 C106.084,84.765 105.888,85.045 105.454,85.045 L105.440,85.045 L101.742,85.003 C101.280,85.382 100.789,85.746 100.299,86.082 C100.607,86.082 100.929,86.068 101.252,86.068 C101.826,86.068 102.386,86.082 102.862,86.110 C103.675,86.152 104.235,86.698 104.277,87.315 C104.305,87.763 104.319,88.323 104.319,88.884 C104.319,89.374 104.305,89.850 104.277,90.270 C104.221,91.013 103.689,91.615 102.792,91.685 C102.260,91.727 101.700,91.755 101.139,91.755 C100.481,91.755 99.837,91.727 99.262,91.685 C98.282,91.629 97.806,91.097 97.764,90.298 C97.750,90.018 97.750,89.710 97.750,89.388 C97.750,88.785 97.764,88.127 97.792,87.595 C97.217,87.903 95.018,88.912 94.556,88.912 C94.150,88.912 93.898,88.589 93.898,88.253 C93.898,87.987 94.066,87.707 94.458,87.595 ZM101.238,87.189 C100.705,87.189 100.131,87.189 99.697,87.203 C99.192,87.217 99.024,87.525 99.024,88.239 L103.002,88.239 C103.002,87.189 102.918,87.189 101.238,87.189 ZM99.024,89.934 C99.038,90.508 99.234,90.592 101.027,90.592 C102.876,90.592 103.016,90.592 103.016,89.304 L99.010,89.304 C99.010,89.514 99.024,89.724 99.024,89.934 ZM127.220,85.900 C127.710,84.849 128.355,83.575 128.747,82.692 C128.831,82.496 128.873,82.384 128.663,82.440 C128.117,82.580 127.584,82.762 127.010,82.776 C126.085,82.804 126.127,81.502 126.968,81.445 C127.528,81.417 128.383,81.207 128.985,81.095 C130.260,80.843 130.820,81.670 130.190,82.692 C129.601,83.673 129.041,84.807 128.537,85.858 L128.607,85.858 C129.657,85.900 130.694,86.138 131.646,86.474 C131.730,85.900 131.674,85.382 131.450,85.003 C131.058,84.345 132.319,83.813 132.781,84.681 C133.089,85.242 133.131,86.082 132.921,87.007 C133.649,87.357 134.308,87.777 134.854,88.197 C135.737,88.884 134.784,90.172 133.986,89.444 C133.523,89.024 133.019,88.645 132.459,88.309 C131.941,89.360 131.058,90.410 129.797,91.153 C128.817,91.727 128.117,90.634 129.027,90.074 C130.078,89.430 130.806,88.561 131.240,87.707 C130.204,87.273 129.097,87.021 127.976,87.007 C127.458,88.085 126.982,88.954 126.183,89.570 C125.343,90.228 124.110,90.312 123.508,89.570 C122.794,88.673 123.312,87.217 124.923,86.502 C125.665,86.180 126.450,85.984 127.220,85.900 ZM124.531,88.659 C124.699,88.898 125.203,88.813 125.455,88.617 C125.917,88.267 126.296,87.693 126.618,87.119 C126.254,87.175 125.833,87.287 125.315,87.539 C124.951,87.721 124.292,88.309 124.531,88.659 ZM141.012,42.175 L139.582,42.175 C138.944,42.175 138.636,41.712 138.636,41.250 C138.636,40.788 138.944,40.326 139.582,40.326 L145.347,40.326 C145.985,40.326 146.315,40.788 146.315,41.250 C146.315,41.712 145.985,42.175 145.347,42.175 L142.861,42.175 C142.619,43.385 142.333,44.529 141.959,45.629 C142.289,45.607 142.619,45.607 142.927,45.607 C143.257,45.607 143.565,45.607 143.873,45.629 C144.885,45.673 145.633,46.465 145.655,47.477 C145.699,48.467 145.699,49.568 145.699,50.646 C145.699,51.724 145.699,52.802 145.655,53.748 C145.589,55.729 144.115,55.817 142.663,55.817 C140.528,55.817 139.846,55.486 139.846,53.088 C139.846,52.098 139.868,51.042 139.912,50.008 L139.582,50.536 C139.340,50.910 139.010,51.086 138.702,51.086 C138.218,51.086 137.778,50.668 137.778,50.140 C137.778,49.942 137.844,49.700 137.998,49.480 C139.604,47.213 140.440,45.145 141.012,42.175 ZM141.717,53.352 C141.739,53.902 142.025,54.012 142.729,54.012 C143.279,54.012 143.719,53.880 143.741,53.330 C143.763,52.670 143.763,51.900 143.763,51.086 C143.763,50.008 143.763,48.864 143.741,47.961 C143.741,47.345 143.169,47.323 142.729,47.323 C142.003,47.323 141.717,47.455 141.717,47.983 C141.695,48.820 141.673,49.876 141.673,50.932 C141.673,51.790 141.695,52.648 141.717,53.352 ZM148.537,48.643 L148.559,48.555 L146.733,48.555 C146.139,48.555 145.853,48.093 145.853,47.609 C145.853,47.147 146.139,46.685 146.733,46.685 L148.581,46.685 C148.581,45.167 148.581,43.473 148.559,42.307 L147.371,42.307 C146.777,42.307 146.469,41.823 146.469,41.360 C146.469,40.876 146.777,40.414 147.371,40.414 L156.261,40.414 C156.877,40.414 157.185,40.876 157.185,41.360 C157.185,41.823 156.877,42.307 156.261,42.307 L154.874,42.307 L154.874,46.685 L157.075,46.685 C157.691,46.685 157.977,47.147 157.977,47.609 C157.977,48.093 157.691,48.555 157.075,48.555 L154.874,48.555 L154.874,57.709 C154.874,58.303 154.346,58.589 153.840,58.589 C153.312,58.589 152.806,58.303 152.806,57.709 L152.806,48.555 L150.496,48.555 L150.496,48.732 C150.254,53.132 148.978,56.279 146.623,58.347 C146.337,58.589 146.029,58.699 145.743,58.699 C145.127,58.699 144.599,58.215 144.599,57.687 C144.599,57.445 144.709,57.181 144.973,56.961 C147.437,54.848 148.383,52.274 148.537,48.643 ZM152.806,46.685 L152.806,42.307 L150.650,42.307 C150.650,43.385 150.628,45.079 150.584,46.685 L152.806,46.685 ZM171.719,52.736 C171.257,52.736 170.927,52.340 170.927,51.922 C170.927,51.614 171.103,51.306 171.521,51.174 C173.259,50.580 174.821,49.766 176.119,48.313 C176.251,48.181 176.427,48.115 176.603,48.115 C177.043,48.115 177.572,48.511 177.572,49.018 C177.572,50.228 172.687,52.736 171.719,52.736 ZM178.672,49.986 C179.156,49.986 179.618,50.382 179.618,50.888 C179.618,51.108 179.508,51.372 179.266,51.614 C176.207,54.628 172.621,55.552 172.093,55.552 C171.521,55.552 171.191,55.134 171.191,54.716 C171.191,54.364 171.433,53.990 171.939,53.858 C174.073,53.308 176.163,52.208 177.990,50.294 C178.188,50.074 178.430,49.986 178.672,49.986 ZM171.609,56.675 C175.085,56.257 177.836,55.002 179.904,52.450 C180.124,52.186 180.388,52.076 180.674,52.076 C181.202,52.076 181.752,52.516 181.752,53.088 C181.752,53.352 181.642,53.616 181.400,53.902 C177.484,58.303 171.785,58.589 171.631,58.589 C170.971,58.589 170.641,58.127 170.641,57.665 C170.641,57.203 170.949,56.741 171.609,56.675 ZM184.513,9.037 C185.129,9.257 186.317,9.873 186.823,10.423 C187.725,11.392 186.361,12.800 185.591,11.898 C185.283,11.546 184.183,10.710 183.721,10.511 C182.554,10.005 183.435,8.641 184.513,9.037 Z"/>
</svg>