<svg xmlns="http://www.w3.org/2000/svg" width="800" height="310" viewBox="0 0 800 310">
  <metadata><?xpacket begin="﻿" id="W5M0MpCehiHzreSzNTczkc9d"?>
<x:xmpmeta xmlns:x="adobe:ns:meta/" x:xmptk="Adobe XMP Core 5.6-c138 79.159824, 2016/09/14-01:09:01        ">
   <rdf:RDF xmlns:rdf="http://www.w3.org/1999/02/22-rdf-syntax-ns#">
      <rdf:Description rdf:about=""/>
   </rdf:RDF>
</x:xmpmeta>
                                                                                                    
                                                                                                    
                                                                                                    
                                                                                                    
                                                                                                    
                                                                                                    
                                                                                                    
                                                                                                    
                                                                                                    
                                                                                                    
                                                                                                    
                                                                                                    
                                                                                                    
                                                                                                    
                                                                                                    
                                                                                                    
                                                                                                    
                                                                                                    
                                                                                                    
                                                                                                    
                           
<?xpacket end="w"?></metadata>
<defs>
    <style>
      .cls-1 {
        fill: #feeb08;
        fill-rule: evenodd;
      }
    </style>
  </defs>
  <path id="_2018" data-name="2018" class="cls-1" d="M740.573,389.34H585.645V333.022l21.174-21.184H688.93l51.643-51.668v-77.5L688.93,131H585.645L534,182.667V208.5h51.643v-4.65l21.174-21.184h60.938l21.173,21.184v35.135L667.757,260.17H585.645L534,311.838V441.009H740.573V389.34Zm248.66-206.673L937.59,131H834.305l-51.643,51.668V389.34l51.643,51.669H935.524l53.709-51.669V182.667ZM916.417,389.34H855.478l-21.173-21.184v-164.3l21.173-21.184h60.939l21.173,21.184V368.156ZM1084.57,131h-51.65v310.01h51.65V131ZM1334,311.838L1308.18,286,1334,260.17v-77.5L1282.36,131H1179.07l-51.64,51.668v77.5L1153.25,286l-25.82,25.834v77.5l51.64,51.669h103.29L1334,389.34v-77.5Zm-72.82-51.668h-60.94l-21.17-21.184V203.851l21.17-21.184h60.94l21.18,21.184v35.135Zm0,129.17h-60.94l-21.17-21.184V333.022l21.17-21.184h60.94l21.18,21.184v35.134Z" transform="translate(-534 -131)"/>
</svg>
