<?xml version="1.0" encoding="utf-8"?>
<!-- Generator: Adobe Illustrator 21.0.2, SVG Export Plug-In . SVG Version: 6.00 Build 0)  -->
<svg version="1.1" id="path_logo" xmlns="http://www.w3.org/2000/svg" xmlns:xlink="http://www.w3.org/1999/xlink" x="0px" y="0px"
	 viewBox="0 0 113 509" style="enable-background:new 0 0 113 509;" xml:space="preserve">
<style type="text/css">
	.st0{fill:#0071BD;}
</style>
<path class="st0" d="M77.8,17.5H12.9v-12h93.6L33.2,79.4h64.8v12H4.5L77.8,17.5z M5.8,234.5c-0.1-25.3,18.7-46.6,43.7-49.7v-72.3
	H24.8v71.4H12.9v-83.4h85.2v83.4H86.2v-71.4H61.5v72.3c25.1,3.1,43.8,24.5,43.7,49.7c0,27.6-22.3,50.1-49.7,50.1
	S5.8,262.1,5.8,234.5z M49.5,196.8c-20.6,3.3-34.7,22.7-31.4,43.3c3.3,20.6,22.7,34.7,43.3,31.4c20.6-3.3,34.7-22.7,31.4-43.3
	c-2.6-16.1-15.2-28.8-31.4-31.4V220c7.9,3.3,11.7,12.4,8.4,20.3c-3.3,7.9-12.4,11.7-20.3,8.4c-7.9-3.3-11.7-12.4-8.4-20.3
	c1.6-3.8,4.6-6.8,8.4-8.4V196.8z M12.9,426.5l65.9-33.2l-65.9-33.2v-66.2h85.2v12H24.8v46.8l80.6,40.6l-80.6,40.6v39.3
	c-0.1,9.5,7.5,17.3,17,17.4c9.5,0.1,17.3-7.5,17.4-17c0-0.1,0-0.2,0-0.4v-3.5h11.9v3.5c0,4.2,3.4,7.6,7.6,7.6c4.2,0,7.6-3.4,7.6-7.6
	l0,0v-25.5h11.9v25.5c0.1,10.7-8.5,19.5-19.2,19.6c-4.4,0-8.7-1.4-12.2-4.1c-5.2,8.6-14.6,13.8-24.7,13.8
	c-16.1-0.1-29.1-13.2-29.1-29.3V426.5z"/>
</svg>
