<svg xmlns="http://www.w3.org/2000/svg" width="184.718" height="48.437" viewBox="0 0 184.718 48.437">
  <metadata><?xpacket begin="﻿" id="W5M0MpCehiHzreSzNTczkc9d"?>
<x:xmpmeta xmlns:x="adobe:ns:meta/" x:xmptk="Adobe XMP Core 5.6-c138 79.159824, 2016/09/14-01:09:01        ">
   <rdf:RDF xmlns:rdf="http://www.w3.org/1999/02/22-rdf-syntax-ns#">
      <rdf:Description rdf:about=""/>
   </rdf:RDF>
</x:xmpmeta>
                                                                                                    
                                                                                                    
                                                                                                    
                                                                                                    
                                                                                                    
                                                                                                    
                                                                                                    
                                                                                                    
                                                                                                    
                                                                                                    
                                                                                                    
                                                                                                    
                                                                                                    
                                                                                                    
                                                                                                    
                                                                                                    
                                                                                                    
                                                                                                    
                                                                                                    
                                                                                                    
                           
<?xpacket end="w"?></metadata>
<defs>
    <style>
      .cls-1 {
        fill: #0071bd;
        fill-rule: evenodd;
      }
    </style>
  </defs>
  <path id="面接通過者は_東京本社に_内定者は_海外研修に_" data-name="面接通過者は、東京本社に。 内定者は、海外研修に。" class="cls-1" d="M571.666,703.911a0.713,0.713,0,1,0,0-1.425H559.341a0.728,0.728,0,0,0-.752.737,0.682,0.682,0,0,0,.752.688h4.866a13.53,13.53,0,0,1-.384,1.649c-0.8,0-1.585.016-2.3,0.016a1.811,1.811,0,0,0-2,1.744c-0.016,1.025-.032,2.049-0.032,3.09,0,0.848.016,1.7,0.032,2.529a1.9,1.9,0,0,0,2.129,1.936c1.249,0.049,2.577.065,3.922,0.065s2.721-.016,4.017-0.065a1.916,1.916,0,0,0,1.985-1.984c0.032-.769.048-1.633,0.048-2.5,0-1.009-.016-2.033-0.048-2.978a1.832,1.832,0,0,0-1.953-1.84c-0.576-.016-0.864-0.016-4.225-0.016a10.581,10.581,0,0,0,.512-1.649h5.762ZM568,706.84c0.32,0,.624.016,0.944,0.016a0.925,0.925,0,0,1,1.136,1.089c0.016,0.736.032,1.536,0.032,2.321s-0.016,1.552-.032,2.225c-0.032,1.072-.656,1.088-2.08,1.088V706.84Zm-1.377,1.409h-2.289v-1.425h2.289v1.425Zm0,2.561h-2.289v-1.425h2.289v1.425Zm0,2.8h-2.289v-1.665h2.289v1.665Zm-3.633-.032c-0.257,0-.5-0.016-0.737-0.016-0.928-.032-1.248-0.192-1.28-1.04-0.016-.545-0.032-1.185-0.032-1.825,0-1.009.016-2.033,0.032-2.753,0.016-.817.272-1.073,1.184-1.089l0.833-.016v6.739Zm23.646-9.476a0.642,0.642,0,1,0,0-1.28h-2.609l0.016-.993a0.7,0.7,0,0,0-.768-0.688,0.686,0.686,0,0,0-.753.672v0.016l0.016,0.993h-2.385a0.642,0.642,0,1,0,0,1.28h6.483Zm0.848,6.4a0.588,0.588,0,0,0,.609-0.609,0.608,0.608,0,0,0-.625-0.64h-4.545a3.285,3.285,0,0,0,.192-0.816,0.591,0.591,0,0,0-.24-0.48h0.592a0.984,0.984,0,0,0,.224.016,1.376,1.376,0,0,0,.256-0.016h3.473a0.641,0.641,0,1,0,0-1.281h-2.256a7.891,7.891,0,0,0,.784-1.713,0.813,0.813,0,0,0-.849-0.72,0.646,0.646,0,0,0-.672.512,13.577,13.577,0,0,1-.72,1.921h-0.976a0.762,0.762,0,0,0,.144-0.464c0-.4-0.945-1.953-1.6-1.953a0.719,0.719,0,0,0-.736.624,0.529,0.529,0,0,0,.176.385,5.813,5.813,0,0,1,.88,1.408h-1.921a0.6,0.6,0,0,0-.656.624,0.954,0.954,0,0,0,.032.209,0.621,0.621,0,0,0-.48-0.225,0.672,0.672,0,0,0-.336.1c-0.192.113-.352,0.225-0.545,0.321v-1.873h1.105a0.7,0.7,0,0,0,0-1.409h-1.105v-2.417a0.712,0.712,0,0,0-.752-0.752,0.734,0.734,0,0,0-.768.752l0.016,2.417h-1.457a0.7,0.7,0,0,0,0,1.409h1.457v2.593c-0.56.24-1.153,0.464-1.841,0.72a0.715,0.715,0,0,0-.5.688,0.757,0.757,0,0,0,.768.769,4.859,4.859,0,0,0,1.569-.592v3.281a0.542,0.542,0,0,1-.656.528,2.5,2.5,0,0,1-.513-0.064,0.443,0.443,0,0,0-.144-0.016,0.673,0.673,0,0,0-.624.736c0,0.721.592,0.865,1.441,0.865a1.779,1.779,0,0,0,2.049-1.793v-0.064c-0.016-.56-0.065-2.017-0.065-2.273v-1.953q0.6-.336,1.153-0.672a0.72,0.72,0,0,0,.384-0.624,0.473,0.473,0,0,0-.032-0.208,0.625,0.625,0,0,0,.5.208h2.305c-0.192.144-.192,0.144-0.512,1.3h-2.129a0.618,0.618,0,0,0-.64.624,0.6,0.6,0,0,0,.624.625h0.016l1.745-.016a15.518,15.518,0,0,1-.7,1.76,0.838,0.838,0,0,0-.1.353,0.637,0.637,0,0,0,.688.608,0.808,0.808,0,0,0,.752-0.5,7.3,7.3,0,0,1,1.409.3,5.857,5.857,0,0,1-3.714,1.008,0.645,0.645,0,0,0-.72.64,0.733,0.733,0,0,0,.784.721,6.831,6.831,0,0,0,4.962-1.809,7.849,7.849,0,0,1,1.889,1.521,0.727,0.727,0,0,0,.544.256,0.78,0.78,0,0,0,.753-0.785c0-.624-1.169-1.5-2.417-2.08a5.872,5.872,0,0,0,.608-2l1.648,0.016h0.016Zm-3.089-.032a4.683,4.683,0,0,1-.448,1.536,9.933,9.933,0,0,0-1.793-.384c0.144-.384.272-0.768,0.4-1.152H584.4Zm17.023,0.352c0,0.688-.192.848-0.448,0.848a1.218,1.218,0,0,1-.336-0.048,0.443,0.443,0,0,0-.144-0.016,0.562,0.562,0,0,0-.528.608,0.938,0.938,0,0,0,1.152.8,1.675,1.675,0,0,0,1.729-1.841v-0.144c-0.048-.864-0.064-1.6-0.064-4.226,0-2-.529-2.081-2.978-2.081,2-.976,2.4-1.488,2.4-1.936,0-.513-0.544-0.977-1.52-0.977-1.569,0-3.538,0-5.218.048a0.587,0.587,0,0,0-.561.64,0.556,0.556,0,0,0,.545.609h0.032c1.264-.048,3.441-0.08,4.578-0.08,0.1,0,.144.016,0.144,0.064a6.52,6.52,0,0,1-1.393.848,3.3,3.3,0,0,0-1.136-.512,0.726,0.726,0,0,0-.7.64,0.4,0.4,0,0,0,.288.384,3.764,3.764,0,0,1,.577.288c-0.433,0-.849.016-1.281,0.016a1.375,1.375,0,0,0-1.649,1.457c-0.016,1.1-.016,2.289-0.016,3.521,0,0.913,0,1.841.016,2.786a0.678,0.678,0,0,0,.705.656,0.633,0.633,0,0,0,.688-0.64v-0.016c-0.016-.753-0.016-1.5-0.016-2.225h1.857v2.257a0.683,0.683,0,0,0,1.36,0V710.3h1.921v0.528Zm-8.483-5.7a0.935,0.935,0,0,0,.864-0.9c0-.816-2-2.049-2.481-2.049a0.82,0.82,0,0,0-.816.721,0.56,0.56,0,0,0,.32.5,4.778,4.778,0,0,1,1.568,1.392A0.634,0.634,0,0,0,592.936,705.128Zm-0.08,8.259c1.392,1.424,2.561,1.969,6.29,1.969,1.473,0,2.945-.1,3.938-0.192a0.785,0.785,0,0,0,.8-0.785,0.747,0.747,0,0,0-.768-0.768h-0.08c-1.217.1-2.961,0.272-4.562,0.272-2.225,0-3.874-.336-4.882-1.617,0-1.024.032-2.128,0.032-3.057a1.325,1.325,0,0,0-1.5-1.5c-0.528-.016-0.976-0.016-1.552-0.016a0.686,0.686,0,0,0-.673.72,0.711,0.711,0,0,0,.881.688H591.4c0.544,0,.736.048,0.736,0.464v0.657c0,0.608-.016,1.232-0.032,1.952a7.632,7.632,0,0,1-2.145,1.665,0.686,0.686,0,0,0-.4.608,0.906,0.906,0,0,0,.881.849C591.063,715.292,592.055,714.283,592.856,713.387Zm6.642-6.419V705.88c0.449,0,.9,0,1.345.016a0.5,0.5,0,0,1,.544.512c0,0.16.016,0.352,0.016,0.56h-1.9Zm1.921,1.089c0,0.384.016,0.784,0.016,1.152H599.5v-1.152h1.921Zm-3.281-1.089h-1.857l0.016-.56c0-.528.144-0.528,1.841-0.528v1.088Zm0,2.241h-1.873c0-.4.016-0.784,0.016-1.152h1.857v1.152Zm13.959,3.314c-0.016-.625-0.016-1.393-0.016-2.161,0-1.057,0-2.081.016-2.753a0.424,0.424,0,0,1,.512-0.465c0.416-.016,1.425-0.032,2.417-0.032,2.465,0,2.593,0,2.625.5,0.016,0.5.016,1.328,0.016,2.032v1.281a0.659,0.659,0,0,1-.7.816,4.059,4.059,0,0,1-.72-0.1,0.4,0.4,0,0,0-.128-0.016,0.654,0.654,0,0,0-.625.7c0,0.609.529,0.753,1.489,0.753,1.569,0,2.177-.833,2.177-1.7v-0.064c-0.016-.5-0.032-1.344-0.032-1.569,0-.512-0.016-1.616-0.032-2.385a1.173,1.173,0,0,0-.881-1.232c0-1.056,0-2.241-.016-2.977a1.485,1.485,0,0,0-1.632-1.345c-0.576-.032-1.185-0.032-1.761-0.032-0.592,0-1.168,0-1.713.032a1.406,1.406,0,0,0-1.552,1.425c-0.016.784-.016,1.937-0.016,2.865a1.085,1.085,0,0,0-.849,1.248c0,0.737-.016,1.665-0.016,2.577,0,0.929.016,1.857,0.016,2.594a0.652,0.652,0,0,0,.721.576,0.626,0.626,0,0,0,.7-0.56v-0.016Zm4.674-2.9c0-.336,0-0.688-0.016-1.056a1.02,1.02,0,0,0-1.105-.832c-0.208-.016-0.464-0.016-0.72-0.016-1.008,0-1.921.016-1.953,0.848-0.016.32-.016,0.7-0.016,1.072,0,0.272,0,.545.016,0.785,0.048,0.864,1.009.9,1.761,0.9C616.739,711.322,616.771,710.938,616.771,709.625Zm-7.891-4.5a0.935,0.935,0,0,0,.864-0.9c0-.816-2-2.049-2.481-2.049a0.82,0.82,0,0,0-.816.721,0.56,0.56,0,0,0,.32.5,4.778,4.778,0,0,1,1.568,1.392A0.632,0.632,0,0,0,608.88,705.128Zm-0.032,8.259c0.912,1.232,2.112,1.969,6.226,1.969,1.521,0,3.041-.1,4.05-0.192a0.785,0.785,0,0,0,.8-0.785,0.747,0.747,0,0,0-.768-0.768h-0.08c-1.217.1-3.041,0.272-4.706,0.272-2.433,0-4-.368-4.786-1.617,0-1.024.064-2.128,0.08-3.057v-0.048a1.3,1.3,0,0,0-1.489-1.456c-0.528-.016-1.04-0.016-1.616-0.016a0.686,0.686,0,0,0-.673.72,0.731,0.731,0,0,0,.9.688h0.64c0.528,0,.736.048,0.736,0.448,0,0.817-.032,1.649-0.064,2.625a7.632,7.632,0,0,1-2.145,1.665,0.686,0.686,0,0,0-.4.608,0.906,0.906,0,0,0,.881.849C607.055,715.292,608.047,714.283,608.848,713.387Zm8.035-7.363c-0.432,0-.961-0.016-1.489-0.016V705.24a0.346,0.346,0,0,1,.384-0.353c0.225,0,.737.016,1.089,0.016C616.867,705.272,616.883,705.64,616.883,706.024Zm-3.97,0c0-.9,0-1.857.032-2.513,0.032-.56.352-0.576,2.081-0.576,1.393,0,1.777.016,1.809,0.512,0,0.1.016,0.224,0.016,0.336h-1.585a1.029,1.029,0,0,0-1.184.912c-0.016.353-.032,0.9-0.032,1.329h-1.137ZM614.9,710.3c-0.752,0-.752-0.032-0.752-0.785,0-.816.016-0.832,0.72-0.832,0.656,0,.672.1,0.688,0.256s0.016,0.4.016,0.64C615.57,710.2,615.538,710.3,614.9,710.3Zm19.494-2.8a0.649,0.649,0,0,0,.721-0.657,0.714,0.714,0,0,0-.737-0.736l-2.721.016c0.336-.336,2.609-2.673,2.609-3.3a0.9,0.9,0,0,0-.864-0.833,0.679,0.679,0,0,0-.576.336,18.353,18.353,0,0,1-3.2,3.794h-1.184v-1.6h2.241a0.659,0.659,0,0,0,.72-0.672,0.684,0.684,0,0,0-.72-0.7l-2.241.016,0.016-1.329a0.713,0.713,0,0,0-.784-0.672,0.69,0.69,0,0,0-.769.672v1.329l-2.929-.016a0.728,0.728,0,0,0-.768.72,0.673,0.673,0,0,0,.768.656H626.9l0.016,1.6-4.369-.016a0.744,0.744,0,0,0-.769.752,0.658,0.658,0,0,0,.753.641h0.016l5.458-.065a20.481,20.481,0,0,1-6.179,2.978,0.791,0.791,0,0,0-.64.752,0.74,0.74,0,0,0,.752.752,19.1,19.1,0,0,0,3.7-1.5c-0.032.608-.048,1.36-0.048,2.049,0,0.368,0,.72.016,1.04a1.593,1.593,0,0,0,1.713,1.585c0.656,0.048,1.392.08,2.144,0.08,0.641,0,1.281-.032,1.889-0.08a1.728,1.728,0,0,0,1.7-1.617c0.032-.48.048-1.024,0.048-1.585,0-.64-0.016-1.28-0.048-1.792a1.6,1.6,0,0,0-1.617-1.377c-0.544-.032-1.184-0.048-1.841-0.048-0.368,0-.736.016-1.088,0.016,0.56-.384,1.12-0.8,1.649-1.233l4.225,0.049h0.016Zm-7.347,3.649c0-.816.193-1.168,0.769-1.184,0.5-.017,1.152-0.017,1.76-0.017,1.921,0,2.017,0,2.017,1.2h-4.546Zm4.562,1.216c0,1.473-.16,1.473-2.273,1.473-2.048,0-2.273-.1-2.289-0.752,0-.24-0.016-0.48-0.016-0.721h4.578Zm15.777,0.721a7.369,7.369,0,0,1,.992.832c0.8,0.848,1.937-.544,1.025-1.376a7.638,7.638,0,0,0-1.809-1.169c-0.016-.512-0.08-1.04-0.1-1.441-0.032-.784-0.08-2.032-0.1-3.281,0.384-.08.768-0.176,1.152-0.272a0.775,0.775,0,1,0-.352-1.473c-0.256.08-.544,0.145-0.816,0.225,0-.785.016-1.457,0.048-1.905a0.771,0.771,0,0,0-1.537.032c-0.016.5,0,1.312,0.016,2.209a6.724,6.724,0,0,1-2.257.048,0.783,0.783,0,1,0-.32,1.52,11,11,0,0,0,2.625-.112c0.048,1.265.08,2.5,0.128,3.154,0.016,0.3.048,0.544,0.048,0.8a4.553,4.553,0,0,0-2.817.192,1.811,1.811,0,0,0-.24,3.361A3.179,3.179,0,0,0,647.384,713.083Zm-7.875,1.552a2.129,2.129,0,0,0,.32-1.28c0.064-.256.16-0.608,0.288-1.009a9.79,9.79,0,0,1,.5-1.264c0.576-1.2-.64-1.745-1.008-0.976-0.032.08-.145,0.368-0.193,0.464-0.16.32-.176,0.272-0.208-0.016a17.762,17.762,0,0,1,.305-3.346c0.208-1.36.48-2.753,0.592-3.473a0.811,0.811,0,1,0-1.617-.032c-0.08,1.04-.432,2.833-0.64,4.77a14.483,14.483,0,0,0,.256,5.618A0.846,0.846,0,0,0,639.509,714.635Zm6.5-2.3a1.661,1.661,0,0,1-2.321.849,0.535,0.535,0,0,1,.1-0.945,2.89,2.89,0,0,1,2.209.1h0.016Zm8.764,3.218a0.885,0.885,0,0,0,.864-0.881c0-1.088-2.561-2.5-3.121-2.5a0.7,0.7,0,0,0-.32,1.345,6.1,6.1,0,0,1,1.968,1.681A0.731,0.731,0,0,0,654.771,715.548Zm14.086-.689a0.677,0.677,0,0,0,.752.625,0.692,0.692,0,0,0,.785-0.641c0-1.44-.016-2.08-0.032-2.945a15.582,15.582,0,0,0,5.506,3.042,0.922,0.922,0,0,0,.944-0.881,0.675,0.675,0,0,0-.528-0.64,18.322,18.322,0,0,1-5.362-2.625c0.528,0.016,1.056.032,1.536,0.032h0.336a1.64,1.64,0,0,0,1.745-1.489c0.032-.464.048-1.04,0.048-1.6,0-.5-0.016-0.961-0.048-1.345a1.6,1.6,0,0,0-1.664-1.312c-0.737-.016-1.6-0.032-2.5-0.032V704.1h4.9a0.64,0.64,0,1,0,0-1.28h-4.881V701.8a0.714,0.714,0,0,0-.785-0.672,0.676,0.676,0,0,0-.752.672v1.025h-4.834a0.659,0.659,0,0,0-.688.672,0.62,0.62,0,0,0,.688.608h4.85v0.945c-0.88,0-1.7.016-2.289,0.032a1.519,1.519,0,0,0-1.729,1.424c-0.032.448-.048,0.993-0.048,1.537,0,0.464.016,0.928,0.048,1.328,0.032,0.56.3,1.457,2.049,1.457,0.416,0,.88-0.016,1.377-0.032a16.137,16.137,0,0,1-5.25,2.817,0.687,0.687,0,0,0-.561.64,0.79,0.79,0,0,0,.833.721,17.175,17.175,0,0,0,5.586-3.026l-0.032,2.9v0.016Zm1.5-7.491v-1.184c2.368,0,2.721,0,2.753.672,0,0.16.016,0.336,0.016,0.512h-2.769Zm2.769,1.1c0,0.656,0,1.184-.8,1.184-0.624.016-1.3,0.016-1.985,0.016v-1.2h2.786Zm-4.242-1.1h-2.673c0-.608,0-1.12.8-1.152,0.5-.016,1.169-0.032,1.873-0.032v1.184Zm0.016,2.3c-0.672,0-1.313,0-1.873-.016-0.768-.032-0.816-0.416-0.816-1.184h2.673Zm22.521-4.962a0.744,0.744,0,0,0,0-1.488l-5.01.032v-1.249a0.837,0.837,0,0,0-1.665,0v1.249l-5.058-.032a0.734,0.734,0,0,0-.752.768,0.7,0.7,0,0,0,.752.72l5.859-.032Zm-0.176,9.956a0.9,0.9,0,0,0,.816-0.912,0.923,0.923,0,0,0-.32-0.688,9.144,9.144,0,0,0-3.537-1.873,0.728,0.728,0,0,0-.7.736,0.685,0.685,0,0,0,.433.625,8.287,8.287,0,0,1,2.753,1.824A0.718,0.718,0,0,0,691.25,714.667Zm-4.8-2.721v-1.392c0.64,0,1.28-.032,1.921-0.048a1.715,1.715,0,0,0,1.792-1.569c0.016-.288.032-0.608,0.032-0.928s-0.016-.625-0.032-0.881a1.651,1.651,0,0,0-1.712-1.376c-1.025-.016-2.161-0.032-3.218-0.032-0.864,0-1.68.016-2.352,0.032a1.606,1.606,0,0,0-1.793,1.5c-0.016.257-.016,0.545-0.016,0.833s0,0.576.016,0.864a1.653,1.653,0,0,0,1.825,1.553c0.656,0.016,1.312.048,1.984,0.048v2.529a0.742,0.742,0,0,1-.88.816,4.272,4.272,0,0,1-.912-0.128,0.936,0.936,0,0,0-.208-0.032,0.769,0.769,0,0,0-.737.8c0,0.849,1.089.865,1.777,0.865,1.649,0,2.529-.817,2.529-1.969V713.4Zm-3.233.432a0.747,0.747,0,0,0,.208-0.5,0.853,0.853,0,0,0-.8-0.832,0.663,0.663,0,0,0-.48.24,6.312,6.312,0,0,1-2.961,1.857,0.713,0.713,0,0,0-.576.688,0.853,0.853,0,0,0,.848.848A8.932,8.932,0,0,0,683.215,712.378Zm4.658-3.185c-0.737.016-1.521,0.032-2.305,0.032-2.721,0-2.882,0-2.946-.64a4.344,4.344,0,0,1-.016-0.464c0-.608.112-1.041,0.737-1.057,0.752-.016,1.632-0.032,2.5-0.032,0.72,0,1.408.016,2,.032,0.624,0.016.752,0.192,0.752,1.121C688.593,708.665,688.577,709.161,687.873,709.193Zm15.756,2.881a0.68,0.68,0,1,0,0-1.36h-1.9V710.3l-0.048-3.2a20.244,20.244,0,0,0,4.9,5.379,1.025,1.025,0,0,0,.56.192,0.932,0.932,0,0,0,.928-0.881,0.786,0.786,0,0,0-.384-0.656,17.1,17.1,0,0,1-5.314-5.25l4.434,0.064h0.016a0.713,0.713,0,0,0,0-1.425h-5.09v-2.673a0.726,0.726,0,0,0-.785-0.688,0.688,0.688,0,0,0-.752.688v2.673h-5.106a0.726,0.726,0,0,0-.736.753,0.659,0.659,0,0,0,.72.672h0.016l4.434-.064a17.193,17.193,0,0,1-5.266,5.7,0.838,0.838,0,0,0-.416.688,0.783,0.783,0,0,0,.8.753,0.98,0.98,0,0,0,.576-0.208,20.36,20.36,0,0,0,5.026-5.619l-0.048,3.122v0.4H698.3a0.693,0.693,0,0,0-.72.7,0.648,0.648,0,0,0,.72.656h1.889v2.753a0.778,0.778,0,0,0,1.537,0v-2.753h1.9Zm19.343,2.641a0.71,0.71,0,0,0,.768-0.72,0.719,0.719,0,0,0-.768-0.72l-3.105.016v-5.586l2.321,0.016a0.719,0.719,0,0,0,.768-0.721,0.705,0.705,0,0,0-.752-0.72h-0.016l-2.321.032,0.016-4.018a0.812,0.812,0,0,0-1.617,0v4l-2.081-.016h-0.016a0.687,0.687,0,0,0-.72.72,0.7,0.7,0,0,0,.736.721l2.081-.016,0.016,5.586-3.169-.016a0.692,0.692,0,0,0-.737.72,0.7,0.7,0,0,0,.737.72h7.859Zm-7.123-4.177a0.855,0.855,0,0,0,.784-0.849c0-.784-1.712-1.664-2.017-1.664a0.78,0.78,0,0,0-.752.72,0.462,0.462,0,0,0,.256.4,3.935,3.935,0,0,1,1.233,1.105A0.591,0.591,0,0,0,715.849,710.538Zm-2.193,4.209s-0.064-4.1-.08-6.578c0.768-.913,1.985-2.625,1.985-3.458a1.156,1.156,0,0,0-1.377-1.072h-0.528v-1.585a0.8,0.8,0,0,0-1.585,0l0.016,1.6c-0.5.016-.992,0.016-1.488,0.032a0.68,0.68,0,0,0-.72.688,0.7,0.7,0,0,0,.736.689h0.016c0.992-.016,1.681-0.081,2.593-0.081h0.288c0.112,0,.352.016,0.352,0.177a9.122,9.122,0,0,1-4.017,4.225,0.768,0.768,0,0,0-.465.657,0.786,0.786,0,0,0,.817.736,4.748,4.748,0,0,0,1.968-1.153l-0.08,5.122v0.016a0.718,0.718,0,0,0,.8.657,0.687,0.687,0,0,0,.768-0.657v-0.016Zm22.011-8.259a0.783,0.783,0,1,0,.272-1.537,9.654,9.654,0,0,0-4.21.1,0.753,0.753,0,1,0,.224,1.488A8.114,8.114,0,0,1,735.667,706.488Zm0.864,7.3c1.057-.272.977-1.969-0.32-1.7-1.248.256-3.169,0.513-4.033-.272a0.793,0.793,0,0,0-1.137,1.105C732.194,714.171,734.819,714.219,736.531,713.787Zm-8.467.768a1.9,1.9,0,0,0,.3-1.28,8.07,8.07,0,0,1,.944-2.241,0.641,0.641,0,0,0-1.12-.624c-0.064.112-.24,0.432-0.272,0.512-0.064.144-.128,0.192-0.176-0.016-0.384-1.489.576-5.25,0.832-6.547a0.778,0.778,0,1,0-1.553-.1c-0.288,1.9-1.552,6.643-.272,9.8C727.071,714.843,727.664,714.908,728.064,714.555Zm15.254-.832a1.825,1.825,0,1,0-1.825,1.825A1.824,1.824,0,0,0,743.318,713.723Zm-0.608,0a1.217,1.217,0,1,1-2.433,0A1.217,1.217,0,0,1,742.71,713.723ZM571.682,744.874c-0.032-1.793-.016-3.538-0.048-5.33a1.928,1.928,0,0,0-1.953-1.857c-1.152-.032-2.321-0.032-3.473-0.032,0.016-.592.016-1.265,0.016-1.681a0.784,0.784,0,0,0-.816-0.8,0.746,0.746,0,0,0-.785.784c0,0.384.016,1.057,0.016,1.7-1.088,0-2.145.016-3.185,0.032a1.818,1.818,0,0,0-2,1.729c-0.064,3.121-.048,6.4-0.08,9.347v0.016a0.719,0.719,0,0,0,.8.673,0.7,0.7,0,0,0,.769-0.689v-4.305q0-2.161.048-4.322c0.016-.8.256-1.056,1.168-1.072,0.785-.016,1.585-0.016,2.4-0.016a5.392,5.392,0,0,1-2.769,4.465,0.741,0.741,0,0,0-.432.657,0.844,0.844,0,0,0,.816.832c0.528,0,2.145-1.024,3.138-3.1a0.575,0.575,0,0,0,.16.112,7.767,7.767,0,0,1,2.561,2.241,0.767,0.767,0,0,0,.656.384,0.916,0.916,0,0,0,.9-0.9c0-1.008-3.249-3.025-3.745-3.025h-0.064a8.563,8.563,0,0,0,.352-1.664c0.928,0,1.857,0,2.8.016a0.909,0.909,0,0,1,1.12,1.072c0.048,1.344.048,2.257,0.048,6.691a0.91,0.91,0,0,1-1.12.912,5.882,5.882,0,0,1-1.008-.112c-0.048,0-.1-0.016-0.128-0.016a0.683,0.683,0,0,0-.657.752c0,0.737.545,0.881,1.729,0.881,2.145,0,2.8-1.185,2.8-2.113V747.1Zm9.953-8.964a0.814,0.814,0,0,0-1.617,0v1.249c-1.216,0-2.416.016-3.6,0.032a1.675,1.675,0,0,0-1.825,1.584c0,0.257-.016.545-0.016,0.817s0.016,0.528.016,0.736a0.72,0.72,0,0,0,.769.736,0.745,0.745,0,0,0,.8-0.72v-0.96c0.048-.593.176-0.849,1.024-0.865,0.961-.016,2.065-0.032,3.186-0.032,1.376,0,2.785.016,4.017,0.032,0.945,0.016.961,0.176,0.961,1.777v0.032a0.712,0.712,0,0,0,.8.688A0.8,0.8,0,0,0,587,740.3c0.016-.16.016-0.368,0.016-0.576,0-.3,0-0.624-0.016-0.865a1.83,1.83,0,0,0-1.776-1.664c-1.185-.016-2.385-0.032-3.586-0.032V735.91Zm3.506,8.852a0.685,0.685,0,0,0,.736-0.688,0.7,0.7,0,0,0-.736-0.721h-3.506v-1.84h2.817a0.682,0.682,0,1,0,0-1.361h-7.347a0.681,0.681,0,1,0,0,1.361h2.962v5.458a4.12,4.12,0,0,1-1.777-2.5,7.713,7.713,0,0,0,.224-1.137,0.744,0.744,0,0,0-.784-0.736,0.73,0.73,0,0,0-.737.7,6.091,6.091,0,0,1-2.865,4.786,0.667,0.667,0,0,0-.336.592,0.778,0.778,0,0,0,.752.785c0.528,0,2.145-1.153,3.122-3.2,1.312,2.4,3.745,2.978,6.354,2.978a27.083,27.083,0,0,0,2.785-.16,0.775,0.775,0,0,0,.769-0.769,0.71,0.71,0,0,0-.721-0.736H586.8c-1.008.064-2.1,0.16-3.153,0.16a10.289,10.289,0,0,1-2.017-.176v-2.8h3.506Zm16.875-3.265a0.649,0.649,0,0,0,.721-0.657A0.714,0.714,0,0,0,602,740.1l-2.721.016c0.336-.336,2.609-2.673,2.609-3.3a0.9,0.9,0,0,0-.864-0.833,0.679,0.679,0,0,0-.576.336,18.353,18.353,0,0,1-3.2,3.794h-1.184v-1.6H598.3a0.659,0.659,0,0,0,.72-0.672,0.684,0.684,0,0,0-.72-0.7l-2.241.016,0.016-1.329a0.713,0.713,0,0,0-.784-0.672,0.69,0.69,0,0,0-.769.672v1.329l-2.929-.016a0.728,0.728,0,0,0-.768.72,0.673,0.673,0,0,0,.768.656h2.929l0.016,1.6-4.369-.016a0.744,0.744,0,0,0-.769.752,0.658,0.658,0,0,0,.753.641h0.016l5.458-.065a20.481,20.481,0,0,1-6.179,2.978,0.791,0.791,0,0,0-.64.752,0.74,0.74,0,0,0,.752.752,19.1,19.1,0,0,0,3.7-1.5c-0.032.608-.048,1.36-0.048,2.049,0,0.368,0,.72.016,1.04a1.593,1.593,0,0,0,1.713,1.585c0.656,0.048,1.392.08,2.144,0.08,0.641,0,1.281-.032,1.889-0.08a1.728,1.728,0,0,0,1.7-1.617c0.032-.48.048-1.024,0.048-1.585,0-.64-0.016-1.28-0.048-1.792a1.6,1.6,0,0,0-1.617-1.377c-0.544-.032-1.184-0.048-1.841-0.048-0.368,0-.736.016-1.088,0.016,0.56-.384,1.12-0.8,1.649-1.233L602,741.5h0.016Zm-7.347,3.649c0-.816.193-1.168,0.769-1.184,0.5-.017,1.152-0.017,1.76-0.017,1.921,0,2.017,0,2.017,1.2h-4.546Zm4.562,1.216c0,1.473-.16,1.473-2.273,1.473-2.048,0-2.273-.1-2.289-0.752,0-.24-0.016-0.48-0.016-0.721h4.578Zm15.777,0.721a7.369,7.369,0,0,1,.992.832c0.8,0.848,1.937-.544,1.025-1.376a7.638,7.638,0,0,0-1.809-1.169c-0.016-.512-0.08-1.04-0.1-1.441-0.032-.784-0.08-2.032-0.1-3.281,0.384-.08.768-0.176,1.152-0.272a0.775,0.775,0,1,0-.352-1.473c-0.256.08-.544,0.145-0.816,0.225,0-.785.016-1.457,0.048-1.905a0.771,0.771,0,0,0-1.537.032c-0.016.5,0,1.312,0.016,2.209a6.724,6.724,0,0,1-2.257.048,0.783,0.783,0,1,0-.32,1.52,11,11,0,0,0,2.625-.112c0.048,1.265.08,2.5,0.128,3.154,0.016,0.3.048,0.544,0.048,0.8a4.553,4.553,0,0,0-2.817.192,1.811,1.811,0,0,0-.24,3.361A3.179,3.179,0,0,0,615.008,747.083Zm-7.875,1.552a2.129,2.129,0,0,0,.32-1.28c0.064-.256.16-0.608,0.288-1.009a9.79,9.79,0,0,1,.5-1.264c0.576-1.2-.64-1.745-1.008-0.976-0.032.08-.145,0.368-0.193,0.464-0.16.32-.176,0.272-0.208-0.016a17.762,17.762,0,0,1,.305-3.346c0.208-1.36.48-2.753,0.592-3.473a0.811,0.811,0,1,0-1.617-.032c-0.08,1.04-.432,2.833-0.64,4.77a14.483,14.483,0,0,0,.256,5.618A0.846,0.846,0,0,0,607.133,748.635Zm6.5-2.3a1.661,1.661,0,0,1-2.321.849,0.535,0.535,0,0,1,.1-0.945,2.89,2.89,0,0,1,2.209.1h0.016Zm8.764,3.218a0.885,0.885,0,0,0,.864-0.881c0-1.088-2.561-2.5-3.121-2.5a0.7,0.7,0,0,0-.32,1.345,6.1,6.1,0,0,1,1.968,1.681A0.731,0.731,0,0,0,622.4,749.548Zm20.865-11.461a0.729,0.729,0,0,0,0-1.456l-6.019.048a2.228,2.228,0,0,0,.336-0.833,0.765,0.765,0,0,0-.8-0.7,0.666,0.666,0,0,0-.64.4,12.77,12.77,0,0,1-2.4,3.6,0.789,0.789,0,0,0-.24.512,0.764,0.764,0,0,0,.8.688,0.891,0.891,0,0,0,.64-0.3,15.238,15.238,0,0,0,1.473-1.953h6.851Zm-10,.32a0.889,0.889,0,0,0,.816-0.88c0-.816-1.889-1.825-2.289-1.825a0.8,0.8,0,0,0-.8.72,0.592,0.592,0,0,0,.3.5,5.806,5.806,0,0,1,1.44,1.216A0.668,0.668,0,0,0,633.256,738.407Zm10.26,8.756a0.638,0.638,0,0,0,.656-0.656,0.629,0.629,0,0,0-.656-0.657h-0.9c0.08-.64.144-1.36,0.192-2.113H644a0.68,0.68,0,1,0,0-1.36h-1.121c0.016-.64.032-1.249,0.032-1.761a1.538,1.538,0,0,0-1.776-1.5c-0.416-.016-0.9-0.016-1.393-0.016-0.816,0-1.664.016-2.353,0.032a1.66,1.66,0,0,0-1.953,1.7c-0.064.512-.144,1.041-0.208,1.553h-0.752a0.7,0.7,0,0,0-.736.7,0.653,0.653,0,0,0,.736.656h0.56a14.728,14.728,0,0,1-.32,1.521,2.238,2.238,0,0,0-.08.544,1.448,1.448,0,0,0,1.7,1.409h0.032l4.466-.032a1.242,1.242,0,0,1-1.217.912,2.659,2.659,0,0,1-.8-0.128,1.255,1.255,0,0,0-.224-0.032,0.732,0.732,0,0,0-.689.768,0.585,0.585,0,0,0,.433.609,5.325,5.325,0,0,0,1.264.176,2.773,2.773,0,0,0,2.785-2.321h1.137ZM632.455,741.9a0.846,0.846,0,0,0,.769-0.865,0.774,0.774,0,0,0-.353-0.672,5.725,5.725,0,0,0-2.176-.864,0.789,0.789,0,0,0-.769.768,0.544,0.544,0,0,0,.4.528,6.17,6.17,0,0,1,1.7.945A0.725,0.725,0,0,0,632.455,741.9Zm-0.752,6.8a12.5,12.5,0,0,0,2.289-4.513,0.74,0.74,0,0,0-.768-0.737,0.694,0.694,0,0,0-.657.448,12.873,12.873,0,0,1-2.241,3.906,0.754,0.754,0,0,0-.208.512,0.829,0.829,0,0,0,.833.785A0.962,0.962,0,0,0,631.7,748.7Zm7.955-6.274c0.064-.752.112-1.473,0.144-2.1,1.2,0,1.633,0,1.633.592,0,0.448,0,.961-0.016,1.5h-1.761Zm-3.057,0c0.08-.544.144-1.073,0.192-1.473,0.08-.608.4-0.624,1.649-0.624-0.032.624-.1,1.345-0.16,2.1H636.6Zm2.657,3.457c0.112-.672.208-1.424,0.288-2.193h1.841c-0.048.785-.128,1.537-0.224,2.177Zm-2.609.016a0.46,0.46,0,0,1-.5-0.448v-0.08c0.08-.432.176-1.04,0.272-1.681h1.745c-0.08.769-.16,1.5-0.273,2.193Zm18.409,2.8a0.691,0.691,0,0,0,.784.641,0.7,0.7,0,0,0,.784-0.641l-0.048-5.154a11.368,11.368,0,0,0,3.17,1.617,0.856,0.856,0,0,0,.848-0.864,0.749,0.749,0,0,0-.5-0.705,21.925,21.925,0,0,1-3.522-1.76l0.048-5.443a0.731,0.731,0,0,0-.8-0.688,0.7,0.7,0,0,0-.768.672v0.016l0.048,4.322c-0.3-.272-0.624-0.56-0.945-0.9a0.464,0.464,0,0,0-.624-0.1,9.524,9.524,0,0,0,.144-0.993,1.345,1.345,0,0,0-1.536-1.36c-0.256,0-.865,0-1.473.016a5.987,5.987,0,0,0,.288-1.121,0.755,0.755,0,0,0-.784-0.736,0.8,0.8,0,0,0-.784.672,15.162,15.162,0,0,1-2.962,6.323,0.816,0.816,0,0,0-.208.512,0.747,0.747,0,0,0,.769.7,1,1,0,0,0,.8-0.448,19.967,19.967,0,0,0,2.417-4.562c0.624-.016,1.424-0.048,1.424-0.048h0.048a0.344,0.344,0,0,1,.4.417,11.425,11.425,0,0,1-.545,2.689,5,5,0,0,0-1.632-.657,0.92,0.92,0,0,0-.865.881,0.585,0.585,0,0,0,.465.576,7.284,7.284,0,0,1,1.488.624,10.7,10.7,0,0,1-3.857,4.658,0.849,0.849,0,0,0-.449.688,0.815,0.815,0,0,0,.865.769,1.157,1.157,0,0,0,.688-0.24,14.332,14.332,0,0,0,5.074-8.308l0.016,0.016a15.679,15.679,0,0,0,1.777,1.665Zm18,0.08a0.671,0.671,0,0,0,.752.641,0.679,0.679,0,0,0,.752-0.641v-6.658h1.6a0.681,0.681,0,0,0,0-1.361h-1.6v-3.185h1.009a0.658,0.658,0,0,0,.672-0.688,0.65,0.65,0,0,0-.672-0.689h-6.467a0.647,0.647,0,0,0-.656.689,0.655,0.655,0,0,0,.656.688h0.864c0.016,0.848.016,2.081,0.016,3.185h-1.344a0.682,0.682,0,0,0,0,1.361h1.328l-0.016.064c-0.112,2.641-.8,4.514-2.593,6.05a0.689,0.689,0,0,0-.272.528,0.812,0.812,0,0,0,.833.737,1,1,0,0,0,.64-0.256c1.713-1.5,2.641-3.794,2.817-7v-0.128h1.681v6.658Zm-9.38-5.6c-0.032.752-.048,1.521-0.048,2.241,0,1.745.5,1.985,2.049,1.985,1.056,0,2.129-.064,2.177-1.5,0.032-.688.032-1.472,0.032-2.257s0-1.584-.032-2.3a1.344,1.344,0,0,0-1.3-1.344c-0.224-.016-0.448-0.016-0.688-0.016-0.224,0-.464,0-0.7.016a19.73,19.73,0,0,0,.657-2.513h1.808a0.673,0.673,0,1,0,0-1.345h-4.193a0.673,0.673,0,1,0,0,1.345h1.04a12.518,12.518,0,0,1-2.193,5.314,0.858,0.858,0,0,0-.16.48,0.691,0.691,0,0,0,.673.689,0.784,0.784,0,0,0,.64-0.4Zm9.38-2.417h-1.617c0.032-1.168.048-2.4,0.048-3.185h1.569v3.185Zm-6.595,4.834c-0.016.4-.336,0.5-0.736,0.5-0.513,0-.721-0.08-0.737-0.48-0.016-.512-0.032-1.136-0.032-1.761,0-.768.016-1.536,0.032-2.144,0-.385.208-0.481,0.737-0.481,0.32,0,.736.016,0.736,0.465,0.016,0.656.016,1.488,0.016,2.273C666.48,744.554,666.48,745.114,666.464,745.594Zm25.341-7.523a0.608,0.608,0,1,0,0-1.216l-4.273.032a2.195,2.195,0,0,0,.352-0.881,0.733,0.733,0,0,0-.785-0.64,0.631,0.631,0,0,0-.624.4,8.932,8.932,0,0,1-2,3.137,0.718,0.718,0,0,0-.24.5,0.663,0.663,0,0,0,.7.608c0.289,0,.529-0.048,1.361-1.185a6.383,6.383,0,0,0,1.249,1.473,7.685,7.685,0,0,1-2.994,1.249,0.476,0.476,0,0,0-.4.5,0.815,0.815,0,0,0,.688.816,9.1,9.1,0,0,0,3.746-1.777A8.042,8.042,0,0,0,692,742.425a0.806,0.806,0,0,0,.865-0.784,0.683,0.683,0,0,0-.625-0.673,8.482,8.482,0,0,1-2.689-.816,7.705,7.705,0,0,0,1.3-2.081h0.96Zm-2.3,4.386a0.725,0.725,0,0,0-.7-0.656,0.5,0.5,0,0,0-.352.144,7.541,7.541,0,0,1-3.345,2.081,0.562,0.562,0,0,0-.433.544,0.587,0.587,0,0,0,.577.592C685.947,745.162,689.5,743.337,689.5,742.457Zm1.233,1.889a0.777,0.777,0,0,0,.256-0.529,0.687,0.687,0,0,0-.688-0.656,0.653,0.653,0,0,0-.5.224,9.137,9.137,0,0,1-4.4,2.593,0.664,0.664,0,0,0-.545.625,0.621,0.621,0,0,0,.657.608A10.352,10.352,0,0,0,690.733,744.346Zm1.552,1.664a0.911,0.911,0,0,0,.257-0.592,0.788,0.788,0,0,0-.785-0.736,0.7,0.7,0,0,0-.56.272,8.611,8.611,0,0,1-6.034,3.073,0.719,0.719,0,0,0-.705.72,0.669,0.669,0,0,0,.721.673A10.942,10.942,0,0,0,692.285,746.01Zm-9.7.577a0.636,0.636,0,0,0,.688.608,0.627,0.627,0,0,0,.688-0.608v-7.956a0.662,0.662,0,0,0-.688-0.688,0.654,0.654,0,0,0-.688.688v7.956Zm-2.417,2.224a0.671,0.671,0,0,0,.72.689,0.737,0.737,0,0,0,.784-0.705l0.192-9.908a15.62,15.62,0,0,0,1.409-2.769,0.89,0.89,0,0,0-.9-0.8,0.667,0.667,0,0,0-.656.464,14.9,14.9,0,0,1-3.249,5.234,0.768,0.768,0,0,0-.224.529,0.743,0.743,0,0,0,.752.7c0.4,0,.72-0.3,1.361-1.137l-0.192,7.683v0.016Zm9.123-10.74a5.286,5.286,0,0,1-.832,1.377,5.3,5.3,0,0,1-1.2-1.377h2.033Zm15.625,2.417a0.783,0.783,0,1,0,.272-1.537,9.653,9.653,0,0,0-4.21.1,0.753,0.753,0,1,0,.224,1.488A8.114,8.114,0,0,1,704.917,740.488Zm0.864,7.3c1.056-.272.976-1.969-0.32-1.7-1.249.256-3.17,0.513-4.034-.272a0.792,0.792,0,0,0-1.136,1.105C701.443,748.171,704.068,748.219,705.781,747.787Zm-8.468.768a1.89,1.89,0,0,0,.305-1.28,8.07,8.07,0,0,1,.944-2.241,0.641,0.641,0,0,0-1.12-.624c-0.064.112-.241,0.432-0.273,0.512-0.064.144-.128,0.192-0.176-0.016-0.384-1.489.577-5.25,0.833-6.547a0.778,0.778,0,1,0-1.553-.1c-0.288,1.9-1.553,6.643-.272,9.8C696.321,748.843,696.913,748.908,697.313,748.555Zm15.255-.832a1.825,1.825,0,1,0-1.825,1.825A1.825,1.825,0,0,0,712.568,747.723Zm-0.608,0a1.217,1.217,0,1,1-2.433,0A1.217,1.217,0,0,1,711.96,747.723Z" transform="translate(-558.594 -701.125)"/>
</svg>
