<?xml version="1.0" encoding="utf-8"?>
<!-- Generator: Adobe Illustrator 21.0.2, SVG Export Plug-In . SVG Version: 6.00 Build 0)  -->
<svg version="1.1" xmlns="http://www.w3.org/2000/svg" xmlns:xlink="http://www.w3.org/1999/xlink" x="0px" y="0px"
	 viewBox="0 0 2711 339" style="enable-background:new 0 0 2711 339;" xml:space="preserve">
<style type="text/css">
	.st0{display:none;}
	.st1{display:inline;fill:#59CFEF;stroke:#000000;stroke-miterlimit:10;}
	.st2{fill:#FFFFFF;}
</style>
<g id="レイヤー_2" class="st0">
	<rect x="-130.3" y="-221.2" class="st1" width="3483.3" height="936.1"/>
</g>
<g id="レイヤー_1">
	<path class="st2" d="M2503.5,339h-109.2H1400h-89H316.7H207.5H0v-37V143.8c16.9-13,38.1-20.7,61.1-20.7c3.5,0,7,0.2,10.4,0.5
		C86,53.1,148.7,0,223.7,0c63.9,0,118.8,38.4,142.6,93.4c15-12.8,34.4-20.6,55.7-20.6c16,0,30.9,4.4,43.7,11.9
		c4.5-0.9,9.2-1.4,14-1.4c19.7,0,37.6,7.9,50.6,20.7c20.1-26.1,51.7-42.9,87.3-42.9c50.7,0,93.4,34.2,106.1,80.8
		c14.6-11.4,32.9-18.2,52.8-18.2c22.9,0,43.7,9,59.1,23.7c17.8-25.5,46.2-42,78.1-42c14.9,0,29.1,3.6,41.7,10.1
		C979.9,85.9,1017,67,1058.5,67c17.2,0,33.7,3.3,48.8,9.2C1123.2,34,1164,3.8,1211.9,3.8c40.8,0,76.4,21.9,95.8,54.5
		c1.1-0.7,2.2-1.3,3.3-1.9v-0.8c13-7,28-11.1,43.8-11.1c0.2,0,0.4,0,0.7,0c0.2,0,0.4,0,0.7,0c15.9,0,30.8,4,43.8,11.1v0.8
		c1.1,0.6,2.2,1.3,3.3,1.9c19.4-32.6,55.1-54.5,95.8-54.5c47.9,0,88.7,30.1,104.5,72.5c15.1-5.9,31.6-9.2,48.8-9.2
		c41.5,0,78.6,18.9,103.1,48.5c12.7-6.5,26.8-10.1,41.7-10.1c31.9,0,60.3,16.5,78.1,42c15.5-14.7,36.3-23.7,59.1-23.7
		c19.9,0,38.2,6.8,52.8,18.2c12.7-46.5,55.4-80.8,106.1-80.8c35.6,0,67.2,16.8,87.3,42.9c13-12.8,30.9-20.7,50.6-20.7
		c4.8,0,9.5,0.5,14,1.4c12.8-7.6,27.7-11.9,43.7-11.9c21.3,0,40.7,7.7,55.7,20.6c23.9-55,78.8-93.4,142.7-93.4
		c75.1,0,137.7,53.1,152.2,123.6c3.4-0.4,6.9-0.5,10.4-0.5c23,0,44.2,7.7,61.1,20.7V302v37H2503.5z"/>
</g>
</svg>
