<svg xmlns="http://www.w3.org/2000/svg" xmlns:xlink="http://www.w3.org/1999/xlink"
 width="2711px" height="339px">
<path fill-rule="evenodd"  fill="rgb(82, 194, 232)"
 d="M2503.535,339.001 L2394.315,339.001 L1400.000,339.001 L1311.000,339.001 L316.685,339.001 L207.465,339.001 L0.000,339.001 L0.000,302.019 L0.000,143.832 C16.897,130.837 38.062,123.095 61.056,123.095 C64.583,123.095 68.069,123.281 71.503,123.636 C86.027,53.066 148.663,-0.001 223.733,-0.001 C287.624,-0.001 342.499,38.441 366.383,93.393 C381.373,80.591 400.830,72.842 422.113,72.842 C438.069,72.842 452.996,77.202 465.791,84.769 C470.327,83.877 475.015,83.400 479.814,83.400 C499.530,83.400 517.389,91.298 530.405,104.089 C550.506,77.983 582.105,61.140 617.666,61.140 C668.371,61.140 711.038,95.365 723.751,141.907 C738.349,130.490 756.641,123.680 776.513,123.680 C799.398,123.680 820.189,132.705 835.649,147.411 C853.487,121.917 881.823,105.430 913.739,105.430 C928.682,105.430 942.827,109.069 955.487,115.535 C980.027,85.935 1017.096,67.077 1058.582,67.077 C1075.820,67.077 1092.281,70.369 1107.412,76.298 C1123.196,33.983 1164.006,3.836 1211.876,3.836 C1252.644,3.836 1288.283,25.705 1307.717,58.329 C1308.796,57.661 1309.892,57.018 1311.000,56.394 L1311.000,55.635 C1324.036,48.585 1338.963,44.581 1354.829,44.581 C1355.053,44.581 1355.276,44.585 1355.500,44.587 C1355.724,44.585 1355.947,44.581 1356.171,44.581 C1372.037,44.581 1386.964,48.585 1400.000,55.635 L1400.000,56.394 C1401.108,57.018 1402.204,57.661 1403.283,58.329 C1422.717,25.705 1458.356,3.836 1499.124,3.836 C1546.994,3.836 1587.804,33.983 1603.588,76.298 C1618.719,70.369 1635.180,67.077 1652.418,67.077 C1693.904,67.077 1730.973,85.935 1755.513,115.535 C1768.173,109.069 1782.318,105.430 1797.261,105.430 C1829.177,105.430 1857.513,121.917 1875.351,147.411 C1890.811,132.705 1911.602,123.680 1934.487,123.680 C1954.359,123.680 1972.651,130.490 1987.249,141.907 C1999.962,95.365 2042.629,61.140 2093.334,61.140 C2128.895,61.140 2160.494,77.983 2180.595,104.089 C2193.611,91.298 2211.470,83.400 2231.186,83.400 C2235.985,83.400 2240.673,83.877 2245.209,84.769 C2258.004,77.202 2272.931,72.842 2288.887,72.842 C2310.170,72.842 2329.627,80.591 2344.617,93.393 C2368.501,38.441 2423.376,-0.001 2487.267,-0.001 C2562.337,-0.001 2624.973,53.066 2639.497,123.636 C2642.931,123.281 2646.417,123.095 2649.944,123.095 C2672.938,123.095 2694.103,130.837 2711.000,143.832 L2711.000,302.019 L2711.000,339.001 L2503.535,339.001 Z"/>
</svg>