<svg xmlns="http://www.w3.org/2000/svg" width="55.531" height="18.56" viewBox="0 0 55.531 18.56">
  <metadata><?xpacket begin="﻿" id="W5M0MpCehiHzreSzNTczkc9d"?>
<x:xmpmeta xmlns:x="adobe:ns:meta/" x:xmptk="Adobe XMP Core 5.6-c138 79.159824, 2016/09/14-01:09:01        ">
   <rdf:RDF xmlns:rdf="http://www.w3.org/1999/02/22-rdf-syntax-ns#">
      <rdf:Description rdf:about=""/>
   </rdf:RDF>
</x:xmpmeta>
                                                                                                    
                                                                                                    
                                                                                                    
                                                                                                    
                                                                                                    
                                                                                                    
                                                                                                    
                                                                                                    
                                                                                                    
                                                                                                    
                                                                                                    
                                                                                                    
                                                                                                    
                                                                                                    
                                                                                                    
                                                                                                    
                                                                                                    
                                                                                                    
                                                                                                    
                                                                                                    
                           
<?xpacket end="w"?></metadata>
<defs>
    <style>
      .cls-1 {
        fill: #fff;
        fill-rule: evenodd;
      }
    </style>
  </defs>
  <path id="TRIP.2" class="cls-1" d="M765.922,1250.65a0.873,0.873,0,0,0,.973.82,0.852,0.852,0,0,0,.974-0.84c-0.049-1.2-.082-3.18-0.082-5.13,0-1.59.017-3.16,0.049-4.26,0-.33,0-0.33,1.606-0.33,0.389,0,.86,0,1.411.04h0.065a0.793,0.793,0,0,0,.779-0.86,0.819,0.819,0,0,0-.844-0.88c-0.924.02-2.3,0.03-3.682,0.03-1.687,0-3.406-.01-4.38-0.03h-0.032a0.833,0.833,0,0,0-.892.86,0.866,0.866,0,0,0,.924.88c0.763,0,1.525-.04,2.142-0.04,0.957,0,1,0,1,.33,0.033,0.86.033,2.2,0.033,3.63,0,2.14-.017,4.49-0.049,5.76v0.02Zm14.217-1.19c1.1,1.96,2.433,2.01,2.692,2.01a0.941,0.941,0,0,0,1.039-.95,0.929,0.929,0,0,0-.844-0.96,1.775,1.775,0,0,1-1.33-1.04,17.308,17.308,0,0,0-1.817-2.77,0.825,0.825,0,0,1-.227-0.28c0-.05.049-0.06,0.162-0.1a3.055,3.055,0,0,0,2.369-3.05c0-1.52-1.087-3.06-3.715-3.24-0.243-.02-0.616-0.03-0.989-0.03-1.363,0-3.212,0-3.261,2.07-0.016.67-.016,0.73-0.016,4.24,0,1.78,0,3.71-.049,5.22v0.03a0.814,0.814,0,0,0,.876.81,0.9,0.9,0,0,0,.957-0.89c0-.58-0.048-3.24-0.048-4.46,0-.29.227-0.31,0.535-0.31s0.681,0.02.892,0.02C778.144,1245.8,779.1,1247.66,780.139,1249.46Zm-1.72-5.19c-0.292.02-.713,0.03-1.119,0.03-1.135,0-1.346-.01-1.346-0.34,0.016-.94,0-2.09.032-2.48,0.049-.76.633-0.81,1.509-0.81,0.308,0,.6,0,0.811.02,1.411,0.08,2.027.87,2.027,1.68A1.993,1.993,0,0,1,778.419,1244.27Zm9.832,6.31c-0.032-1.99-.048-4.1-0.048-6.13,0-1.57.016-3.1,0.048-4.45v-0.03a0.857,0.857,0,0,0-.957-0.79,0.917,0.917,0,0,0-.989.86c0.049,1.31.081,2.79,0.081,4.33,0,2.09-.049,4.26-0.081,6.21v0.02a0.98,0.98,0,0,0,1.946,0v-0.02Zm5.477-.02v-0.63c0-1.07-.049-2.22-0.049-3.23,0-.13.017-0.17,0.1-0.17a0.5,0.5,0,0,1,.113.01,5.039,5.039,0,0,0,1.184.13,8.959,8.959,0,0,0,1.168-.08,3.831,3.831,0,0,0,3.52-3.86,3.641,3.641,0,0,0-3.747-3.65c-0.243-.02-0.568-0.03-0.908-0.03-3.18,0-3.2,1.07-3.2,3.06,0,1.14.033,2.73,0.033,4.4,0,1.38-.017,2.81-0.081,4.07v0.05a0.868,0.868,0,0,0,.924.83A0.882,0.882,0,0,0,793.728,1250.56Zm2.125-9.79a1.858,1.858,0,0,1,2.092,1.88,2.25,2.25,0,0,1-1.979,2.27c-0.34.03-.681,0.05-0.989,0.05-1.006,0-1.33-.12-1.33-0.46v-0.27c0-.57-0.016-1.23-0.016-1.8,0-1.51.146-1.69,1.443-1.69C795.464,1240.75,795.853,1240.77,795.853,1240.77Zm7.589,9.57a1.119,1.119,0,0,0-1.152-1.09,1.1,1.1,0,0,0-1.135,1.1,1.053,1.053,0,0,0,1.135,1.14A1.166,1.166,0,0,0,803.442,1250.34Zm12.4,1.13a1.446,1.446,0,0,0,1.533-1.43,1.3,1.3,0,0,0-1.46-1.27c-2,0-4.743.2-6.762,0.22,2.019-2.19,4.4-4.26,6.251-6.59a7.943,7.943,0,0,0,2.019-4.82c0-2.89-2.676-4.64-5.5-4.64-3.819,0-5.668,2.89-5.668,3.74a1.376,1.376,0,0,0,1.435,1.29,1.473,1.473,0,0,0,1.265-.73,3.549,3.549,0,0,1,2.992-1.87,2.428,2.428,0,0,1,2.53,2.48,4.984,4.984,0,0,1-1.362,3.11c-2.141,2.63-4.963,5.53-6.641,7.42a2.489,2.489,0,0,0-.705,1.66,1.331,1.331,0,0,0,1.362,1.43h8.708Z" transform="translate(-761.875 -1232.94)"/>
</svg>
