<svg xmlns="http://www.w3.org/2000/svg" width="432.784" height="157.529" viewBox="0 0 432.784 157.529">
  <metadata><?xpacket begin="﻿" id="W5M0MpCehiHzreSzNTczkc9d"?>
<x:xmpmeta xmlns:x="adobe:ns:meta/" x:xmptk="Adobe XMP Core 5.6-c138 79.159824, 2016/09/14-01:09:01        ">
   <rdf:RDF xmlns:rdf="http://www.w3.org/1999/02/22-rdf-syntax-ns#">
      <rdf:Description rdf:about=""/>
   </rdf:RDF>
</x:xmpmeta>
                                                                                                    
                                                                                                    
                                                                                                    
                                                                                                    
                                                                                                    
                                                                                                    
                                                                                                    
                                                                                                    
                                                                                                    
                                                                                                    
                                                                                                    
                                                                                                    
                                                                                                    
                                                                                                    
                                                                                                    
                                                                                                    
                                                                                                    
                                                                                                    
                                                                                                    
                                                                                                    
                           
<?xpacket end="w"?></metadata>
<defs>
    <style>
      .cls-1 {
        fill: #0071bd;
        fill-rule: evenodd;
      }
    </style>
  </defs>
  <path id="私たちと一緒に_国内外で_人材_ヘルスケア_保育領域で事業を作ったり_ドローンやVRなどの新しい事業を生み出すなど_とも" data-name="私たちと一緒に、 国内外で、人材、ヘルスケア、保育領域で事業を作ったり、 ドローンやVRなどの新しい事業を生み出すなど、 とも" class="cls-1" d="M583.4,982.472a6.076,6.076,0,0,1,.18.705,0.746,0.746,0,0,0,.735.66,0.867,0.867,0,0,0,.855-0.87,9.519,9.519,0,0,0-1.935-3.93,0.809,0.809,0,0,0-.66-0.36,0.66,0.66,0,0,0-.705.615,0.811,0.811,0,0,0,.135.42,16.3,16.3,0,0,1,.915,1.56c-0.99.21-2.025,0.39-3.075,0.525a92.311,92.311,0,0,0,2.25-9.63,0.838,0.838,0,0,0-.885-0.8,0.711,0.711,0,0,0-.75.66,80.54,80.54,0,0,1-2.039,9.93c-0.285.03-.585,0.045-0.87,0.06a0.612,0.612,0,0,0-.555.675,0.7,0.7,0,0,0,.645.78A34.858,34.858,0,0,0,583.4,982.472Zm-7.214.99s-0.06-3.15-.075-5.4a5.668,5.668,0,0,1,1.08.975,0.619,0.619,0,0,0,.48.255,0.723,0.723,0,0,0,.45-1.23,4.843,4.843,0,0,0-1.86-1.17,0.563,0.563,0,0,0-.15.015v-0.885l1.68,0.03H577.8a0.625,0.625,0,0,0,.66-0.645,0.641,0.641,0,0,0-.675-0.66h-1.65c0.015-.765.015-1.425,0.03-1.755,1.02-.285,1.62-0.465,1.62-1a0.685,0.685,0,0,0-.675-0.69,0.746,0.746,0,0,0-.24.045,12.488,12.488,0,0,1-3.72.885,0.636,0.636,0,0,0-.6.645,0.665,0.665,0,0,0,.69.675,10.694,10.694,0,0,0,1.485-.225l0.03,1.425h-1.89a0.641,0.641,0,0,0-.675.66,0.617,0.617,0,0,0,.66.645h0.015l1.9-.045,0.015,0.18a14.021,14.021,0,0,1-2.82,3.705,0.673,0.673,0,0,0-.255.51,0.769,0.769,0,0,0,.765.7,0.812,0.812,0,0,0,.57-0.27,15.96,15.96,0,0,0,1.725-2.265l-0.06,4.89v0.015a0.744,0.744,0,0,0,1.47,0v-0.015Zm23.474-6.42a0.707,0.707,0,1,0,.345-1.365,5.568,5.568,0,0,0-3.6-.075c-0.99.345-.525,1.575,0.255,1.29A5.275,5.275,0,0,1,599.657,977.042Zm0,6.075a0.779,0.779,0,1,0-.2-1.545c-1.755.15-2.67,0.225-3.435-.555-0.78-.8-1.709.39-1.064,1.11A5.358,5.358,0,0,0,599.657,983.117Zm-5.594-7.86a9.608,9.608,0,0,0,1.514-.6,0.715,0.715,0,1,0-.584-1.29c-0.18.105-.36,0.21-0.57,0.315a4.565,4.565,0,0,0-.015-1.2c-0.15-.825-1.56-0.78-1.5.075a6.537,6.537,0,0,1,.015,1.62,4.009,4.009,0,0,1-2.07-.09c-1.125-.4-1.275.96-0.51,1.29a4.375,4.375,0,0,0,2.19.21,46.431,46.431,0,0,1-2.625,6.51,0.8,0.8,0,1,0,1.41.705A59,59,0,0,0,594.063,975.257Zm16.53,0.105a17.19,17.19,0,0,0,1.694-.7c1.395-.645.45-2.145-0.585-1.41a6.141,6.141,0,0,1-.794.48c0.12-.555.225-1.05,0.33-1.395a0.742,0.742,0,1,0-1.44-.36c-0.105.465-.255,1.29-0.4,2.25a3.767,3.767,0,0,1-1.425-.015c-1.2-.27-1.32,1.245-0.21,1.425a5.616,5.616,0,0,0,1.41.045c-0.225,1.47-.435,3-0.555,3.855a0.958,0.958,0,0,0,1.065,1.23,1.816,1.816,0,0,0,.855-0.855,4.489,4.489,0,0,1,2.639-1.38c2.04-.165,2.295,1.26,1.2,2.49a5.065,5.065,0,0,1-3.119,1.35c-1.125.135-1.05,1.635,0.39,1.44a6.612,6.612,0,0,0,4.034-1.965c1.89-2.25.465-5.025-2.685-4.605a6.733,6.733,0,0,0-2.969,1.29C610.128,978,610.353,976.682,610.593,975.362Zm16.26,1.83c-0.15.105-.285,0.225-0.435,0.345-2.43,1.935-2.52,4.365-.36,5.46,1.485,0.75,3.989.45,5.174,0.12,1.335-.375.885-2.1-0.375-1.62-0.9.33-3.044,0.72-4.094,0.2-1.17-.57-1.125-1.7.36-2.955a22.506,22.506,0,0,1,4.259-2.655,0.8,0.8,0,1,0-.645-1.455,28.459,28.459,0,0,0-2.639,1.65,15.225,15.225,0,0,0-1.755-3.5c-0.6-.855-2.07-0.045-1.29.915A12.2,12.2,0,0,1,626.853,977.192Zm23.354,1.17a0.778,0.778,0,0,0,.795-0.825,0.762,0.762,0,0,0-.795-0.8H638.823a0.811,0.811,0,1,0,0,1.62h11.384Zm16.89-1.71a0.621,0.621,0,0,0,.69-0.615,0.645,0.645,0,0,0-.705-0.63h-1.395a9.679,9.679,0,0,0,1.785-2.985,0.828,0.828,0,0,0-.81-0.75,0.531,0.531,0,0,0-.51.36,13.149,13.149,0,0,1-2.04,3.375h-0.555l0.015-1.305h0.945a0.627,0.627,0,1,0,0-1.245h-0.945l0.015-1.29a0.669,0.669,0,0,0-.72-0.66,0.644,0.644,0,0,0-.69.66v1.29h-1.454a0.623,0.623,0,1,0,0,1.245h1.469v1.305h-1.874a0.623,0.623,0,1,0,0,1.245l2.594-.015a12.307,12.307,0,0,1-2.969,1.965,0.659,0.659,0,0,0-.4.6,0.652,0.652,0,0,0,.645.66,2.362,2.362,0,0,0,1.094-.51c-0.03.645-.06,1.605-0.06,2.43,0,0.255.015,0.5,0.015,0.7a1.488,1.488,0,0,0,1.53,1.425c0.33,0.03.75,0.03,1.185,0.03s0.885,0,1.23-.03a1.535,1.535,0,0,0,1.485-1.455c0-.2.015-0.42,0.015-0.69,0-.84-0.03-1.95-0.06-2.625a1.48,1.48,0,0,0-1.395-1.275c-0.42-.015-0.855-0.015-1.3-0.015h-0.57a16.468,16.468,0,0,0,1.29-1.215l2.445,0.015H667.1Zm-10.469,6.765a0.649,0.649,0,0,0,.675.69,0.673,0.673,0,0,0,.69-0.7l-0.015-5.4c0.36-.06.675-0.1,0.915-0.15a1.474,1.474,0,0,1,.075.24,0.472,0.472,0,0,0,.465.375,0.688,0.688,0,0,0,.675-0.66c0-.33-0.69-1.965-1.35-1.965a0.594,0.594,0,0,0-.615.51,0.448,0.448,0,0,0,.105.285,2.1,2.1,0,0,1,.195.27c-0.33.045-.75,0.09-1.2,0.135a15.311,15.311,0,0,0,2.385-3.855,0.726,0.726,0,0,0-.75-0.66,0.567,0.567,0,0,0-.555.375,16.061,16.061,0,0,1-1.14,2.145q-0.315-.293-0.675-0.585a12.138,12.138,0,0,0,1.515-3.06,0.707,0.707,0,0,0-.765-0.615,0.561,0.561,0,0,0-.585.42,10.132,10.132,0,0,1-1.14,2.565,0.832,0.832,0,0,0-.435-0.15,0.585,0.585,0,0,0-.585.585,0.6,0.6,0,0,0,.285.5,13.774,13.774,0,0,1,1.7,1.38,12.834,12.834,0,0,1-.885,1.125c-0.27.015-.525,0.03-0.735,0.045a0.519,0.519,0,0,0-.48.555,0.563,0.563,0,0,0,.555.6c0.03,0,.78-0.075,1.725-0.21l-0.045,5.205v0.015Zm2.73-1.23a0.736,0.736,0,0,0,.72-0.75,5.707,5.707,0,0,0-.87-2.22,0.638,0.638,0,0,0-.525-0.255,0.51,0.51,0,0,0-.54.5,0.592,0.592,0,0,0,.075.3,6.452,6.452,0,0,1,.57,1.86A0.565,0.565,0,0,0,659.358,982.187Zm-3.93.54a8.73,8.73,0,0,0,.96-3.075,0.643,0.643,0,0,0-.66-0.645,0.56,0.56,0,0,0-.585.525,7.291,7.291,0,0,1-.87,2.58,0.772,0.772,0,0,0-.12.405,0.594,0.594,0,0,0,.63.57A0.748,0.748,0,0,0,655.428,982.727Zm7.034-2.52c0-1.215.075-1.29,1.455-1.29,0.99,0,1.425.03,1.455,0.63,0,0.165.015,0.39,0.015,0.66h-2.925Zm2.94,1.08v0.87c-0.015.5-.375,0.6-1.4,0.6-1.08,0-1.515-.015-1.545-0.585-0.015-.21-0.015-0.54-0.015-0.885H665.4Zm16.125-5.565a0.734,0.734,0,1,0,.255-1.44,9.055,9.055,0,0,0-3.945.09,0.706,0.706,0,1,0,.21,1.4A7.6,7.6,0,0,1,681.527,975.722Zm0.81,6.84c0.99-.255.915-1.845-0.3-1.59-1.17.24-2.97,0.48-3.78-.255a0.742,0.742,0,0,0-1.064,1.035C678.272,982.922,680.732,982.967,682.337,982.562Zm-7.934.72a1.776,1.776,0,0,0,.285-1.2,7.563,7.563,0,0,1,.885-2.1,0.6,0.6,0,0,0-1.05-.585c-0.06.1-.225,0.4-0.255,0.48-0.06.135-.12,0.18-0.165-0.015-0.36-1.395.54-4.92,0.78-6.135a0.729,0.729,0,1,0-1.455-.09c-0.27,1.785-1.455,6.225-.255,9.18C673.473,983.552,674.028,983.612,674.4,983.282Zm15.72,0.93a0.829,0.829,0,0,0,.81-0.825c0-1.02-2.4-2.34-2.925-2.34a0.667,0.667,0,0,0-.705.66,0.675,0.675,0,0,0,.4.6,5.725,5.725,0,0,1,1.845,1.575A0.683,0.683,0,0,0,690.123,984.212ZM584.582,1017.86c0.045-1.14.06-2.43,0.06-3.77,0-1.63-.03-3.31-0.06-4.84a1.808,1.808,0,0,0-1.83-1.76c-1.41-.03-2.835-0.04-4.244-0.04s-2.79.01-4.1,0.04a1.709,1.709,0,0,0-1.875,1.64c-0.03,1.47-.06,3.21-0.06,4.9,0,1.4.015,2.75,0.06,3.87a1.782,1.782,0,0,0,2,1.82c1.35,0.03,2.73.04,4.11,0.04s2.759-.01,4.079-0.04A1.85,1.85,0,0,0,584.582,1017.86Zm-1.455-.54a0.966,0.966,0,0,1-1.125,1.06c-1.215.02-2.4,0.03-3.539,0.03s-2.235-.01-3.27-0.03c-0.93-.01-1.23-0.16-1.26-1.02-0.03-1.12-.045-2.4-0.045-3.7s0.015-2.64.045-3.86c0.015-.76.255-1,1.11-1.02,1.05-.01,2.235-0.03,3.45-0.03,1.2,0,2.444.02,3.569,0.03a0.87,0.87,0,0,1,1.065,1.02c0.045,1.22.06,2.57,0.06,3.92C583.187,1014.95,583.172,1016.19,583.127,1017.32Zm-1.785-1.52a0.609,0.609,0,0,0,.57-0.61c0-.66-1.53-1.14-1.62-1.14a0.6,0.6,0,0,0-.615.54,0.461,0.461,0,0,0,.27.39,7.991,7.991,0,0,1,1.02.67A0.549,0.549,0,0,0,581.342,1015.8Zm0.45,1.34a0.581,0.581,0,1,0,0-1.16h-2.685v-2.19l1.815,0.02a0.567,0.567,0,1,0,0-1.13l-1.815.02v-1.53h2.25a0.581,0.581,0,1,0,0-1.16h-5.789a0.6,0.6,0,0,0-.645.6,0.572,0.572,0,0,0,.645.56h2.205v1.53l-1.77-.02a0.6,0.6,0,0,0-.645.59,0.556,0.556,0,0,0,.63.54H576l1.77-.02v2.19h-2.6a0.6,0.6,0,0,0-.645.6,0.572,0.572,0,0,0,.645.56h6.614Zm19.02-1.31c-0.03-1.68-.015-3.31-0.045-4.99a1.8,1.8,0,0,0-1.83-1.74c-1.08-.03-2.175-0.03-3.255-0.03,0.015-.56.015-1.19,0.015-1.58a0.738,0.738,0,0,0-.764-0.75,0.7,0.7,0,0,0-.735.74c0,0.36.015,0.99,0.015,1.59-1.02,0-2.01.01-2.985,0.03a1.7,1.7,0,0,0-1.875,1.62c-0.06,2.92-.045,6-0.075,8.76v0.01a0.674,0.674,0,0,0,.75.63,0.657,0.657,0,0,0,.72-0.64v-4.04q0-2.025.045-4.05c0.015-.75.24-0.99,1.1-1,0.735-.02,1.485-0.02,2.25-0.02a5.069,5.069,0,0,1-2.6,4.19,0.693,0.693,0,0,0-.4.61,0.791,0.791,0,0,0,.765.78c0.5,0,2.01-.96,2.94-2.91a0.466,0.466,0,0,0,.15.11,7.227,7.227,0,0,1,2.4,2.1,0.73,0.73,0,0,0,.615.36,0.862,0.862,0,0,0,.84-0.84c0-.95-3.045-2.84-3.51-2.84h-0.06a7.951,7.951,0,0,0,.33-1.56c0.87,0,1.74,0,2.625.02a0.849,0.849,0,0,1,1.05,1c0.045,1.26.045,2.12,0.045,6.27a0.856,0.856,0,0,1-1.05.86,5.548,5.548,0,0,1-.945-0.11c-0.045,0-.09-0.01-0.12-0.01a0.636,0.636,0,0,0-.615.7c0,0.69.51,0.83,1.62,0.83,2.01,0,2.625-1.11,2.625-1.98v-0.03Zm12.21,3.59a0.651,0.651,0,0,0,.735.6,0.659,0.659,0,0,0,.735-0.6l-0.045-4.83a10.6,10.6,0,0,0,2.97,1.51,0.8,0.8,0,0,0,.795-0.81,0.71,0.71,0,0,0-.465-0.66,20.13,20.13,0,0,1-3.3-1.65l0.045-5.1a0.681,0.681,0,0,0-.75-0.64,0.655,0.655,0,0,0-.72.63v0.01l0.045,4.05c-0.285-.25-0.585-0.52-0.885-0.84a0.514,0.514,0,0,0-.345-0.16,0.545,0.545,0,0,0-.239.07,8.723,8.723,0,0,0,.134-0.93,1.259,1.259,0,0,0-1.439-1.27c-0.24,0-.81,0-1.38.01a5.424,5.424,0,0,0,.27-1.05,0.707,0.707,0,0,0-.735-0.69,0.757,0.757,0,0,0-.735.63,14.251,14.251,0,0,1-2.775,5.93,0.755,0.755,0,0,0-.195.48,0.7,0.7,0,0,0,.72.66,0.934,0.934,0,0,0,.75-0.42,18.659,18.659,0,0,0,2.265-4.28c0.585-.01,1.335-0.04,1.335-0.04h0.045a0.322,0.322,0,0,1,.375.39,10.752,10.752,0,0,1-.51,2.52,4.7,4.7,0,0,0-1.53-.62,0.865,0.865,0,0,0-.81.83,0.548,0.548,0,0,0,.435.54,6.818,6.818,0,0,1,1.395.58,10.014,10.014,0,0,1-3.615,4.37,0.782,0.782,0,0,0-.42.64,0.763,0.763,0,0,0,.81.72,1.111,1.111,0,0,0,.645-0.22,13.429,13.429,0,0,0,4.755-7.79l0.015,0.02a15.542,15.542,0,0,0,1.664,1.56Zm21.03-6.62c0.54,0.6,1.425-.39.795-1.02a5.073,5.073,0,0,0-1.59-.9c-0.735-.24-1.32.72-0.51,1.04A5.249,5.249,0,0,1,634.052,1012.8Zm-1.545,1.37c0.525,0.61,1.455-.35.84-1.01a4.973,4.973,0,0,0-1.575-.94c-0.735-.27-1.335.66-0.54,1A5.922,5.922,0,0,1,632.507,1014.17Zm-1.44,5.25c1.59,0.01,1.485-1.76-.09-1.7-3.359.12-4.364-3.03-3.044-5.23a4.337,4.337,0,0,1,1.934-1.76,6.475,6.475,0,0,1,2.22-.42c1.05,0.06,1.38-.24,1.47-0.49a0.888,0.888,0,0,0-1.02-1.16,19.771,19.771,0,0,0-4.08.89c-1.529.43-2.849,0.73-3.584,0.91-0.48.12-1.35,0.29-1.665,0.36a0.859,0.859,0,1,0,.525,1.62c0.45-.12.87-0.27,1.35-0.45,1.02-.39.765-0.39,1.89-0.75,0.285-.09.36-0.1,0.12,0.21a5.738,5.738,0,0,0-.48.78A4.769,4.769,0,0,0,631.067,1019.42Zm9.556,0.79a0.825,0.825,0,0,0,.81-0.82c0-1.02-2.4-2.34-2.925-2.34a0.665,0.665,0,0,0-.705.66,0.68,0.68,0,0,0,.4.6,5.774,5.774,0,0,1,1.845,1.57A0.671,0.671,0,0,0,640.623,1020.21Zm21.029-10.08c0.045-.64.06-1.29,0.06-1.81a0.834,0.834,0,0,0-1.664-.05v0.05c0.03,0.45.06,0.96,0.06,1.41,0,1.12-.135,6.39-5.25,8.67a0.815,0.815,0,0,0-.555.73,0.867,0.867,0,0,0,.87.83,0.919,0.919,0,0,0,.435-0.11,10.042,10.042,0,0,0,5.4-6.24c1.3,3.42,4.469,6.15,5.744,6.15a0.952,0.952,0,0,0,.99-0.91,0.774,0.774,0,0,0-.585-0.74,9.516,9.516,0,0,1-5.49-7.8,0.3,0.3,0,0,0-.015-0.12v-0.06Zm19.095,7.58a0.8,0.8,0,0,1-.915.91,3.953,3.953,0,0,1-.96-0.15,1,1,0,0,0-.165-0.01,0.626,0.626,0,0,0-.585.67c0,0.45.225,0.87,1.755,0.87a2.035,2.035,0,0,0,2.34-1.98v-0.06l-0.06-2.13-0.06-4.42,1.29,0.01a0.665,0.665,0,0,0,.735-0.64,0.68,0.68,0,0,0-.735-0.68l-1.3.02-0.03-2.48a0.687,0.687,0,0,0-.72-0.7,0.672,0.672,0,0,0-.705.69v0.01l0.03,2.48-2.5-.02a0.675,0.675,0,0,0-.7.69,0.633,0.633,0,0,0,.7.63l2.19-.01a13.1,13.1,0,0,1-3.749,4.69,0.7,0.7,0,0,0-.3.54,0.742,0.742,0,0,0,.75.69,0.9,0.9,0,0,0,.525-0.19,13,13,0,0,0,3.209-3.93Zm-5.624,1.75s-0.06-3.57-.075-5.89a7.919,7.919,0,0,1,1.05.99,0.581,0.581,0,0,0,.45.22,0.732,0.732,0,0,0,.69-0.72,0.7,0.7,0,0,0-.18-0.45,4.865,4.865,0,0,0-1.8-1.2,0.606,0.606,0,0,0-.21.05v-1.08l1.365,0.03h0.015a0.66,0.66,0,0,0,0-1.32l-1.365.01c0.015-1.35.06-2.55,0.06-2.55v-0.01a0.684,0.684,0,0,0-.75-0.66,0.661,0.661,0,0,0-.72.66v0.01l0.045,2.55-1.725-.01a0.666,0.666,0,0,0-.69.69,0.621,0.621,0,0,0,.675.63h0.015l1.74-.03v0.06a15.142,15.142,0,0,1-2.79,4,0.634,0.634,0,0,0-.225.48,0.763,0.763,0,0,0,1.35.41,17.555,17.555,0,0,0,1.665-2.39l-0.06,5.52v0.02a0.646,0.646,0,0,0,.735.61,0.666,0.666,0,0,0,.735-0.61v-0.02Zm15,0.75a0.825,0.825,0,0,0,.81-0.82c0-1.02-2.4-2.34-2.925-2.34a0.665,0.665,0,0,0-.705.66,0.68,0.68,0,0,0,.4.6,5.774,5.774,0,0,1,1.845,1.57A0.671,0.671,0,0,0,690.123,1020.21Zm26.729-2.65a0.791,0.791,0,0,0-.15-1.16c-1.59-1.03-4.515-3.24-5.715-4.12a2.655,2.655,0,0,0-3.4-.11,15.166,15.166,0,0,1-2.325,1.43,0.823,0.823,0,1,0,.585,1.53,13.221,13.221,0,0,0,2.52-1.8,1.319,1.319,0,0,1,1.83.09c1.934,1.48,3.614,3.16,5.414,4.33A0.952,0.952,0,0,0,716.852,1017.56Zm16.9-4.53a0.78,0.78,0,1,0-1.365-.75,9.5,9.5,0,0,1-3.345,3.75c-0.285.16-.465,0.13-0.45-0.2,0.015-.51.165-4.47,0.18-5.05a0.753,0.753,0,1,0-1.5,0c0,0.88-.1,4.45-0.209,5.8-0.105,1.29.959,1.68,1.934,1.2A11.846,11.846,0,0,0,733.757,1013.03Zm-11.789,5.52a8.269,8.269,0,0,0,4.125-7.59,0.775,0.775,0,1,0-1.545.12,6.122,6.122,0,0,1-3.42,6.16C719.988,1017.75,720.813,1019.19,721.968,1018.55Zm21.839-3.18a15.59,15.59,0,0,1,3.51,3.01c0.705,0.89,1.83-.28,1.23-1.12a15.6,15.6,0,0,0-3.84-2.97,24.523,24.523,0,0,0,1.665-2.55c0.585-1.02-.18-1.88-1.53-1.88-1.514,0-3.719.03-4.814,0.08a0.726,0.726,0,0,0,0,1.45c1.32-.03,3.39-0.1,4.334-0.09,0.33,0,.39.24,0.255,0.5a12.232,12.232,0,0,1-6.284,5.58,0.772,0.772,0,1,0,.48,1.45A12.651,12.651,0,0,0,743.807,1015.37Zm18.375-3.14c1,0,1.9.03,2.46,0.05a0.666,0.666,0,0,0,.735-0.68,0.689,0.689,0,0,0-.7-0.7c-1.29-.05-4.335-0.05-6.1-0.02a9.424,9.424,0,0,0,.45-1.36,0.786,0.786,0,0,0-1.53-.36,8.938,8.938,0,0,1-2.61,4.48c-0.855.65-.045,1.98,1.02,1.05a10.094,10.094,0,0,0,1.98-2.44c0.72-.02,1.71-0.02,2.729-0.02-0.375,2.6-1.814,4.89-4.379,5.61-1.065.3-.825,1.97,0.585,1.47A8.227,8.227,0,0,0,762.182,1012.23Zm14.176,1.74a0.953,0.953,0,0,0,.854.05,8.805,8.805,0,0,0,3.72-2.67c1.05-1.19.33-2.49-1.23-2.49-2.25,0-5.519-.02-7.694.09-1.125.06-1.2,1.5,0.12,1.44,2.1-.11,5.369-0.15,7.049-0.14,0.39,0,.39.23,0.165,0.54a6.485,6.485,0,0,1-2.729,1.89,0.672,0.672,0,0,1-.12.06c0.015-.18.015-0.37,0.015-0.55a0.8,0.8,0,0,0-.9-0.86,0.771,0.771,0,0,0-.825.92,5.725,5.725,0,0,1-3.15,5.89,0.768,0.768,0,0,0-.405,1.17,1.019,1.019,0,0,0,1.41.14A7.57,7.57,0,0,0,776.358,1013.97Zm12.765,6.24a0.825,0.825,0,0,0,.81-0.82c0-1.02-2.4-2.34-2.925-2.34a0.665,0.665,0,0,0-.705.66,0.68,0.68,0,0,0,.4.6,5.774,5.774,0,0,1,1.845,1.57A0.671,0.671,0,0,0,789.123,1020.21Zm26.234-5.37a0.59,0.59,0,0,0,.6-0.61,0.6,0.6,0,0,0-.615-0.63l-3.33.01v-0.69a0.583,0.583,0,0,0-.18-0.42c2.715,0,2.925-.51,2.925-2.32,0-.44-0.015-0.86-0.045-1.29a1.507,1.507,0,0,0-1.545-1.4c-0.525-.01-1.215-0.03-1.92-0.03-0.57,0-1.14.02-1.634,0.03-1.485.08-1.515,1.19-1.515,2.72,0,1.09,0,2.13,1.53,2.23,0.329,0.02.734,0.03,1.154,0.05a0.589,0.589,0,0,0-.18.43v0.69l-3.029-.01a0.633,0.633,0,0,0-.645.66,0.568,0.568,0,0,0,.63.58h0.015l2.549-.06a11.522,11.522,0,0,1-3.344,3.26,0.66,0.66,0,0,0-.345.54,0.742,0.742,0,0,0,.75.69,0.874,0.874,0,0,0,.5-0.18,12.437,12.437,0,0,0,2.984-3.14c-0.03.89-.06,1.85-0.06,2.99v0.55a0.65,0.65,0,0,0,.69.66,0.666,0.666,0,0,0,.72-0.66v-0.55c0-1.16-.03-2.13-0.06-3.02,0.735,0.92,2.85,3.14,3.66,3.14a0.794,0.794,0,0,0,.78-0.78,0.674,0.674,0,0,0-.36-0.6,13.679,13.679,0,0,1-3.57-2.9l2.88,0.06h0.015Zm-10.559,4.67v0.03a0.662,0.662,0,0,0,.735.64,0.712,0.712,0,0,0,.78-0.67l0.165-8.97a10.4,10.4,0,0,0,1.41-2.67,0.805,0.805,0,0,0-.825-0.75,0.721,0.721,0,0,0-.675.48,13.573,13.573,0,0,1-3.585,5.14,0.738,0.738,0,0,0-.255.54,0.693,0.693,0,0,0,.705.68c0.315,0,.735-0.2,1.755-1.43Zm8.5-8.93c0,0.69-.42.69-1.9,0.69-1.874,0-1.919-.03-1.919-1.03,0-1.1,0-1.49.629-1.5,0.345-.02.8-0.03,1.26-0.03,1.7,0,1.875.01,1.92,0.6C813.3,1009.44,813.3,1009.53,813.3,1010.58Zm18.285-.91a0.661,0.661,0,1,0,0-1.32l-4.77.03v-0.92a0.784,0.784,0,0,0-1.559,0v0.92l-4.7-.03a0.661,0.661,0,1,0,0,1.32l3.165-.02a12.272,12.272,0,0,1-.51,1.35c-0.63.03-1.275,0.05-1.89,0.05a0.6,0.6,0,0,0-.645.61,0.692,0.692,0,0,0,.75.69,65.97,65.97,0,0,0,8.039-.84,4.952,4.952,0,0,1,.645.69,0.78,0.78,0,0,0,.6.35,0.719,0.719,0,0,0,.69-0.74c0-.78-1.62-1.78-2.535-2.16Zm-1.545,6.85c-0.015-.6,0-1.9-0.03-2.59s-0.45-1.23-1.65-1.28c-0.615-.01-1.32-0.03-2.04-0.03-0.869,0-1.754.02-2.459,0.03a1.461,1.461,0,0,0-1.665,1.29c-0.015.26-.09,5.49-0.09,5.64a0.632,0.632,0,0,0,.675.66,0.693,0.693,0,0,0,.735-0.67v-2.1h5.144c0,0.15-.015.28-0.015,0.4a0.869,0.869,0,0,1-1.02.92,5.062,5.062,0,0,1-.915-0.11,0.551,0.551,0,0,0-.12-0.01,0.6,0.6,0,0,0-.584.66c0,0.67.569,0.79,1.589,0.79,1.965,0,2.475-1.12,2.475-2.01v-0.03Zm-2-6.88a0.567,0.567,0,0,0-.285.48,0.487,0.487,0,0,0,.3.42,1.319,1.319,0,0,0,.15.09c-1.125.12-2.294,0.22-3.494,0.3a13.449,13.449,0,0,0,.6-1.29h2.729Zm0.615,4.92h-5.1v-0.23c0.03-.6.21-0.6,2.654-0.6,2.175,0,2.415.02,2.43,0.6Zm0.015,1.87h-5.159c0-.28.015-0.57,0.015-0.84h5.144v0.84Zm19.89-7.62a0.631,0.631,0,1,0,0-1.26h-5.775a0.654,0.654,0,0,0-.689.66,0.609,0.609,0,0,0,.689.6h2.055c-0.06.39-.105,0.68-0.18,0.98-0.135,0-.285.01-0.405,0.01a1.327,1.327,0,0,0-1.439,1.29c-0.016.72-.031,1.64-0.031,2.52s0.015,1.74.031,2.4a1.312,1.312,0,0,0,1.349,1.34,0.837,0.837,0,0,0-.24.16,4.584,4.584,0,0,1-2.1,1.16,0.787,0.787,0,0,0-.675.73,0.674,0.674,0,0,0,.735.66c0.75,0,3.284-1.32,3.284-2.05a0.751,0.751,0,0,0-.465-0.65c0.42,0.02.9,0.02,1.35,0.02h0.555a0.736,0.736,0,0,0-.4.6c0,0.49,1.83,2.04,2.625,2.04a0.771,0.771,0,0,0,.765-0.78,0.662,0.662,0,0,0-.525-0.65,3.808,3.808,0,0,1-1.7-1.11,0.556,0.556,0,0,0-.195-0.13,1.444,1.444,0,0,0,1.29-1.35c0.03-.68.045-1.55,0.045-2.43s-0.015-1.79-.045-2.49a1.4,1.4,0,0,0-1.47-1.28c-0.3-.01-0.645-0.03-0.99-0.03,0.09-.28.195-0.64,0.27-0.96h2.28Zm-8.2,2.7a0.565,0.565,0,0,0,.585-0.58v-0.03a1.132,1.132,0,0,0,.135.16,0.664,0.664,0,0,0,.54.27,0.761,0.761,0,0,0,.735-0.72,0.615,0.615,0,0,0-.15-0.39,26.462,26.462,0,0,1-1.725-2.38,1.589,1.589,0,0,0-1.32-.84,1.334,1.334,0,0,0-1.185.84,12.125,12.125,0,0,1-2.01,2.83,0.666,0.666,0,0,0-.21.47,0.759,0.759,0,0,0,1.35.37c0.12-.15.255-0.33,0.39-0.49a0.549,0.549,0,0,0,.6.49h2.265Zm-2.16,7.8a0.683,0.683,0,1,0,1.365,0l-0.015-2.02a0.692,0.692,0,0,0,.81.42c1.575,0,1.59-1.31,1.59-2.49,0-2.48-.09-2.76-1.9-2.76-0.975,0-2.1.03-3.12,0.03a0.571,0.571,0,0,0-.615.58,0.584,0.584,0,0,0,.615.59c0.39,0,.84-0.02,1.29-0.03Zm5.864-7.39c0-.18.015-0.36,0.015-0.53,0.03-.55.255-0.58,1.485-0.58,1.41,0,1.59,0,1.62.57,0,0.16.015,0.34,0.015,0.54h-3.135Zm3.15,2.17h-3.165v-1.11h3.165v1.11Zm-0.015,1.05c0,0.23-.015.44-0.015,0.63-0.015.59-.165,0.59-1.725,0.59-1.05,0-1.35-.02-1.38-0.57,0-.2-0.015-0.42-0.015-0.65H847.2Zm-9.194-4.8a13.36,13.36,0,0,0,1.125-1.75,0.172,0.172,0,0,1,.165-0.09,0.188,0.188,0,0,1,.165.09c0.21,0.33.69,1.14,1.125,1.8a0.5,0.5,0,0,0-.225-0.05h-2.355Zm1.545,3.27c0.96,0,1.08.02,1.11,0.47,0.015,0.25.015,0.73,0.015,1.17,0,1.02-.045,1.23-0.39,1.23a1.735,1.735,0,0,1-.225-0.03h-0.075a0.476,0.476,0,0,0-.435.4v-3.24Zm24.884-4.47a0.68,0.68,0,0,0,.615-0.67c0-.6-1.23-1.23-1.605-1.23a0.686,0.686,0,0,0-.645.61,0.4,0.4,0,0,0,.225.33,2.833,2.833,0,0,1,1.05.78A0.414,0.414,0,0,0,864.437,1009.14Zm0.36,1.55a0.658,0.658,0,0,0,.7-0.66,0.642,0.642,0,0,0-.7-0.63l-2.34.01c0-.63,0-1.23.015-1.77v-0.01a0.653,0.653,0,0,0-.7-0.68,0.673,0.673,0,0,0-.72.66v0.02c0.015,0.57.03,1.17,0.045,1.78h-0.27l-3.689-.01a0.631,0.631,0,0,0-.69.64,0.643,0.643,0,0,0,.69.65h4a37.318,37.318,0,0,0,.645,5.89,7.382,7.382,0,0,1-3.254,2.19,0.734,0.734,0,0,0-.54.68,0.663,0.663,0,0,0,.675.66,8.506,8.506,0,0,0,3.509-2.12c0.585,1.61,1.215,1.92,1.86,1.92,1.455,0,1.875-1.93,1.875-2.43a0.723,0.723,0,0,0-.735-0.75,0.6,0.6,0,0,0-.615.54c-0.105.87-.27,1.2-0.465,1.2-0.165,0-.585-0.42-0.915-1.65a13.554,13.554,0,0,0,2.025-4.18,0.784,0.784,0,0,0-.81-0.69,0.528,0.528,0,0,0-.54.39,13.62,13.62,0,0,1-1.035,2.77,37.2,37.2,0,0,1-.345-4.42H864.8Zm-4.185,3.13c0-.49-0.015-1.02-0.03-1.5-0.03-.79-0.735-0.9-1.634-0.9-0.975,0-1.695.06-1.725,0.92-0.015.34-.015,0.81-0.015,1.26,0,0.34,0,.66.015,0.91,0.045,0.9.915,0.95,1.665,0.95C860.612,1015.46,860.612,1014.96,860.612,1013.82Zm-6.524,1.92c-0.42.15-.855,0.29-1.32,0.42a0.645,0.645,0,0,0-.5.63,0.672,0.672,0,0,0,.675.69,17.077,17.077,0,0,0,3.8-1.57,0.687,0.687,0,0,0,.42-0.62,0.578,0.578,0,0,0-.57-0.58,0.73,0.73,0,0,0-.33.09c-0.255.13-.525,0.27-0.81,0.39l0.015-3.35h0.87a0.632,0.632,0,0,0,0-1.26h-0.87v-2.49a0.7,0.7,0,0,0-1.395,0v2.49h-0.96a0.63,0.63,0,1,0,0,1.26h0.96Zm6.929,0.81a0.588,0.588,0,0,0,.315-0.54,0.568,0.568,0,0,0-.51-0.6,0.648,0.648,0,0,0-.255.06,19.522,19.522,0,0,1-3.944,1.38,0.579,0.579,0,0,0-.435.59,0.674,0.674,0,0,0,.63.72A18.008,18.008,0,0,0,861.017,1016.55Zm-2.129-2.19c-0.51,0-.555-0.12-0.57-0.25,0-.18-0.015-0.42-0.015-0.66,0-.99,0-0.99.615-0.99,0.465,0,.569.06,0.569,0.25,0.016,0.26.016,0.53,0.016,0.8C859.5,1014.36,859.5,1014.36,858.888,1014.36Zm22.664-1.56c0.54,0.6,1.425-.39.795-1.02a5.073,5.073,0,0,0-1.59-.9c-0.735-.24-1.32.72-0.51,1.04A5.249,5.249,0,0,1,881.552,1012.8Zm-1.545,1.37c0.525,0.61,1.455-.35.84-1.01a4.973,4.973,0,0,0-1.575-.94c-0.735-.27-1.335.66-0.54,1A5.922,5.922,0,0,1,880.007,1014.17Zm-1.44,5.25c1.59,0.01,1.485-1.76-.09-1.7-3.359.12-4.364-3.03-3.045-5.23a4.351,4.351,0,0,1,1.935-1.76,6.475,6.475,0,0,1,2.22-.42c1.05,0.06,1.38-.24,1.47-0.49a0.888,0.888,0,0,0-1.02-1.16,19.771,19.771,0,0,0-4.08.89c-1.529.43-2.849,0.73-3.584,0.91-0.48.12-1.35,0.29-1.665,0.36a0.859,0.859,0,1,0,.525,1.62c0.45-.12.87-0.27,1.35-0.45,1.02-.39.765-0.39,1.89-0.75,0.285-.09.36-0.1,0.12,0.21a5.738,5.738,0,0,0-.48.78A4.769,4.769,0,0,0,878.567,1019.42Zm19.605-3.5a0.632,0.632,0,0,0,0-1.26h-1.38c0-.19-0.015-0.36-0.015-0.49-0.03-.75-0.6-1.07-1.56-1.08-0.72-.02-1.56-0.02-2.445-0.02v-0.54c3.27,0,3.69-.01,3.795-0.97a4.55,4.55,0,0,0,.03-0.47c0-.15-0.015-0.31-0.03-0.48-0.045-.61-0.465-0.88-1.425-0.9-0.585-.01-1.455-0.01-2.37-0.01v-0.59l4.455,0.02a0.6,0.6,0,1,0,0-1.2l-4.455.01v-0.61a0.648,0.648,0,0,0-.674-0.68,0.66,0.66,0,0,0-.69.68l0.015,0.61-4.53-.01a0.6,0.6,0,1,0,0,1.2l4.53-.02v0.59c-0.915,0-1.785.01-2.355,0.01-1.38,0-1.56.47-1.56,1.46,0,1.33.33,1.36,3.915,1.36v0.53c-1.335,0-2.685,0-3.75.01a0.553,0.553,0,0,0-.57.56,0.486,0.486,0,0,0,.5.51h0.015c0.975-.02,2.4-0.03,3.81-0.03v0.63H885.9a0.523,0.523,0,0,0-.525.55,0.529,0.529,0,0,0,.525.57h5.52v0.68c-1.35,0-2.7-.02-3.81-0.03H887.6a0.538,0.538,0,0,0-.57.55,0.551,0.551,0,0,0,.57.56c1.2,0.01,2.52.01,3.825,0.01l-0.015.39a0.673,0.673,0,0,1-.81.71,3.623,3.623,0,0,1-.795-0.11,1.735,1.735,0,0,0-.225-0.03,0.651,0.651,0,0,0-.66.68c0,0.78,1.1.79,1.575,0.79,1.53,0,2.294-.84,2.294-1.74v-0.01l-0.015-.69c0.855,0,1.68-.02,2.46-0.02,1.47,0,1.575-.79,1.575-1.68h1.365Zm-5.4-5.25c0.78,0,1.485.02,1.92,0.02,0.42,0,.5.13,0.5,0.37,0,0.44-.045.44-2.415,0.44v-0.83Zm2.7,4.07h-2.7v-0.62c0.84,0,1.6,0,2.22.02a0.408,0.408,0,0,1,.465.4Zm-4.049-3.24c-2.13,0-2.49-.02-2.49-0.27v-0.33c0.03-.14.15-0.21,0.465-0.21,0.465,0,1.215-.02,2.025-0.02v0.83Zm4.049,4.36c0,0.08-.015.15-0.015,0.23a0.422,0.422,0,0,1-.465.42c-0.69.01-1.44,0.03-2.22,0.03v-0.68h2.7Zm18.645,0.39a0.513,0.513,0,0,0,.54-0.55,0.527,0.527,0,0,0-.555-0.57l-4.9.03,0.015-.66,3.36,0.01a0.5,0.5,0,1,0,0-1l-3.345.01v-0.64l4.11,0.01a0.545,0.545,0,1,0,0-1.09l-2.61.01a3.043,3.043,0,0,0,.27-0.73,0.587,0.587,0,0,0-.375-0.5l3.615,0.02a0.6,0.6,0,0,0,.615-0.63,0.579,0.579,0,0,0-.6-0.62h-0.015l-2.04.03a2.458,2.458,0,0,0,.72-1.26,0.759,0.759,0,0,0-.78-0.67,0.651,0.651,0,0,0-.63.45,8.75,8.75,0,0,1-.75,1.5l-0.51.01,0.03-1.99v-0.02a0.617,0.617,0,0,0-.66-0.61,0.624,0.624,0,0,0-.674.63v1.99h-0.87v-1.99a0.633,0.633,0,0,0-.675-0.63,0.605,0.605,0,0,0-.66.61v0.02l0.015,1.99-0.525-.01a4.72,4.72,0,0,0-1.215-1.8,0.537,0.537,0,0,0-.345-0.09,0.735,0.735,0,0,0-.75.6,0.475,0.475,0,0,0,.135.31,6.128,6.128,0,0,1,.78.96l-1.965-.03h-0.015a0.591,0.591,0,0,0-.615.62,0.608,0.608,0,0,0,.63.63l3.435-.02a0.458,0.458,0,0,0-.375.39,0.352,0.352,0,0,0,.075.23,3.854,3.854,0,0,1,.3.61l-2.625-.01a0.546,0.546,0,1,0,0,1.09l4.14-.01v0.64l-3.375-.01a0.5,0.5,0,1,0,0,1l3.39-.01,0.015,0.66-4.9-.03a0.548,0.548,0,0,0-.57.57,0.525,0.525,0,0,0,.555.55h0.015l3.645-.07h0.5a15.07,15.07,0,0,1-4.665,2.41,0.68,0.68,0,0,0-.525.6,0.726,0.726,0,0,0,.765.68,16.431,16.431,0,0,0,5.19-2.79l-0.03,2.56v0.02a0.616,0.616,0,0,0,.705.57,0.637,0.637,0,0,0,.7-0.57v-0.02l-0.03-2.58a16.245,16.245,0,0,0,5.19,2.75,0.84,0.84,0,0,0,.8-0.83,0.6,0.6,0,0,0-.465-0.58,17.209,17.209,0,0,1-4.845-2.22h0.45l3.78,0.07h0.015Zm-4.29-5.67a0.381,0.381,0,0,0-.15.26,4.317,4.317,0,0,1-.315.97h-1.649l-0.015-.04a1.758,1.758,0,0,0-.765-1.19h2.894Zm15.4-1.68a2.815,2.815,0,0,0,.12-0.87,0.766,0.766,0,0,0-1.5.08,6.356,6.356,0,0,1-.165,1.26,1.443,1.443,0,0,0-.225.03,2.345,2.345,0,0,1-1.41-.03c-1.05-.71-1.785.7-0.705,1.24a3.025,3.025,0,0,0,1.86.17,12.923,12.923,0,0,1-.7,1.33,7.487,7.487,0,0,1-1.215,1.41c-0.9.81,0.195,1.67,1.02,0.93a2.926,2.926,0,0,0,.345-0.39,0.339,0.339,0,0,0,.06-0.06c0.975-1.12,2.13-1.27,2.534-.01-0.284.16-.524,0.33-0.734,0.46-2.715,1.79-3.075,3.81-1.05,4.95a6.549,6.549,0,0,0,4.094.21c1.38-.36.96-1.98-0.36-1.57a4.839,4.839,0,0,1-2.969.12c-0.84-.42-1.065-1.32.8-2.52,0.12-.08.254-0.15,0.389-0.23,0,0.32-.015.66-0.029,0.98a0.683,0.683,0,0,0,.674.85,0.883,0.883,0,0,0,.795-0.93,12,12,0,0,0-.03-1.65c0.6-.28,1.275-0.58,1.9-0.82,0.8-.3,1.14-0.38,1.62-0.62a0.8,0.8,0,1,0-.84-1.35,10.625,10.625,0,0,1-1.17.56c-0.585.25-1.215,0.57-1.83,0.88a2.182,2.182,0,0,0-2.519-1.3,15.926,15.926,0,0,0,.72-1.52,8.142,8.142,0,0,0,1.649-.49c1.11-.56.3-1.8-0.525-1.31a5.255,5.255,0,0,1-.629.27Zm21.81,7.92a0.609,0.609,0,0,0,.645-0.64,0.633,0.633,0,0,0-.645-0.66H943.8v-1.67h3.09a0.609,0.609,0,0,0,.645-0.64,0.633,0.633,0,0,0-.645-0.66H943.8v-1.62h3.78a0.617,0.617,0,0,0,.645-0.65,0.633,0.633,0,0,0-.645-0.66h-5.175a11.733,11.733,0,0,0,.63-1.87,0.737,0.737,0,0,0-.78-0.68,0.683,0.683,0,0,0-.689.56,13.037,13.037,0,0,1-2.535,5.08,0.776,0.776,0,0,0-.2.48,0.669,0.669,0,0,0,.675.66,0.9,0.9,0,0,0,.675-0.39,16.619,16.619,0,0,0,1.619-2.53h0.555v8.49a0.72,0.72,0,1,0,1.44,0v-2.6h3.24Zm-9.974,2.7a0.676,0.676,0,0,0,.72.68,0.687,0.687,0,0,0,.72-0.69l0.18-9.27a9.962,9.962,0,0,0,1.2-2.4,0.811,0.811,0,0,0-.825-0.74,0.643,0.643,0,0,0-.645.45,13.83,13.83,0,0,1-3.615,5.3,0.743,0.743,0,0,0-.27.54,0.694,0.694,0,0,0,.705.67c0.345,0,.795-0.22,1.98-1.72l-0.15,7.17v0.01Zm24.119-1.66c1.365-1.14,1.875-2.81.615-4.11a4.214,4.214,0,0,0-4.034-.77,27.72,27.72,0,0,0-3.45,1.29,0.739,0.739,0,1,0,.645,1.32,26.539,26.539,0,0,1,3.075-1.39,2.729,2.729,0,0,1,2.8.43c0.45,0.51.4,1.34-.5,2.13a5.853,5.853,0,0,1-3.149,1.26,0.723,0.723,0,1,0,.27,1.4A7.538,7.538,0,0,0,961.187,1017.86Zm17.97-4.82c0.945,0.32,1.35-1,.345-1.36a5.541,5.541,0,0,0-3.6-.08c-0.99.35-.525,1.58,0.255,1.29A5.319,5.319,0,0,1,979.157,1013.04Zm0,6.08a0.781,0.781,0,1,0-.2-1.55c-1.755.15-2.67,0.23-3.435-.55-0.78-.8-1.709.39-1.064,1.11A5.39,5.39,0,0,0,979.157,1019.12Zm-5.594-7.86a10.117,10.117,0,0,0,1.514-.6,0.716,0.716,0,1,0-.585-1.29c-0.18.1-.359,0.21-0.569,0.31a4.568,4.568,0,0,0-.015-1.2c-0.15-.82-1.56-0.78-1.5.08a6.537,6.537,0,0,1,.015,1.62,4.119,4.119,0,0,1-2.07-.09c-1.125-.41-1.275.96-0.51,1.29a4.375,4.375,0,0,0,2.19.21,46.431,46.431,0,0,1-2.625,6.51,0.8,0.8,0,1,0,1.41.7A58.876,58.876,0,0,0,973.563,1011.26Zm17.34,8.62a8.191,8.191,0,0,0,2.969-9.57c-0.615-1.69-2.565-2.31-3.659-.9-0.15.2-.3,0.39-0.105-0.01a4.532,4.532,0,0,0,.39-1.4,0.755,0.755,0,0,0-1.5-.13c-0.12.91-.405,1.9-0.57,2.67a13.324,13.324,0,0,0-.345,3.46c0.09,1.08,1.71,1.1,1.635-.36a4.944,4.944,0,0,1,.39-2.83c0.435-.93,1.859-1.49,2.354.01a6.9,6.9,0,0,1-2.609,7.89C988.593,1019.54,989.688,1020.78,990.9,1019.88Zm12.717,0.33a0.821,0.821,0,0,0,.81-0.82c0-1.02-2.4-2.34-2.92-2.34a0.666,0.666,0,0,0-.71.66,0.677,0.677,0,0,0,.41.6,5.754,5.754,0,0,1,1.84,1.57A0.671,0.671,0,0,0,1003.62,1020.21Zm-420.688,25.31c0.555,0.55,1.38-.47.72-1.05a5.127,5.127,0,0,0-1.605-.78c-0.735-.2-1.26.78-0.45,1.03A5.439,5.439,0,0,1,582.932,1045.52Zm-1.35,1.44c0.54,0.57,1.38-.41.75-1.02a4.816,4.816,0,0,0-1.575-.84c-0.735-.23-1.29.73-0.5,1.02A5.5,5.5,0,0,1,581.582,1046.96Zm-3.509,2.52a9.291,9.291,0,0,1,2.924,1.21,0.812,0.812,0,0,0,.93-1.33,9.372,9.372,0,0,0-3.6-1.31,2.305,2.305,0,0,0-.255-0.01c0.015-1.47.03-2.78,0.045-3.51a0.78,0.78,0,0,0-1.56-.02c0.06,2.16.015,8.04-.09,10.47a0.816,0.816,0,1,0,1.62-.06C578.058,1053.71,578.058,1051.55,578.073,1049.48Zm21.389,2.62q0.067-1.935,0-3.99a2.1,2.1,0,0,0-2.13-1.9c-1.455-.05-2.849-0.08-4.529,0a2.1,2.1,0,0,0-2.295,2.07c-0.045,1.29-.045,2.37,0,3.85,0.045,1.26.81,2.04,2.34,2.1,1.455,0.05,2.489.06,4.349,0A2.107,2.107,0,0,0,599.462,1052.1Zm-1.59-.33a1.018,1.018,0,0,1-1.08,1.01c-1.365.07-2.264,0.04-3.629,0a0.951,0.951,0,0,1-1.155-.98,27.756,27.756,0,0,1,0-3.16,1,1,0,0,1,1.125-1.07c1.17-.04,2.354-0.04,3.644,0a1,1,0,0,1,1.11,1.05C597.932,1049.63,597.917,1050.78,597.872,1051.77Zm18.39-1.62a0.74,0.74,0,1,0,0-1.48h-9.419a0.764,0.764,0,0,0-.795.76,0.722,0.722,0,0,0,.795.72h9.419Zm17.235-2.74a0.819,0.819,0,1,0-1.365-.89c-1.515,2.94-4.544,6.05-7.559,6.81a0.858,0.858,0,1,0,.51,1.62C628.532,1053.86,631.637,1050.78,633.5,1047.41Zm-6.254,1.21a0.881,0.881,0,0,0-.2-1.24,9.367,9.367,0,0,0-2.64-1.14c-1.14-.32-1.515,1.2-0.615,1.41a5.473,5.473,0,0,1,2.22,1.11A0.792,0.792,0,0,0,627.243,1048.62Zm18.344-3.24a2.835,2.835,0,0,0-.885-1.23c-0.749-.61-1.754.17-1.259,0.68a4.316,4.316,0,0,1,.375.42,1.517,1.517,0,0,1,.33.6A0.757,0.757,0,0,0,645.587,1045.38Zm-2.279,3.53a18.628,18.628,0,0,1,2.744-1.49c1.245-.49,2.2-0.58,2.76-0.18a1.048,1.048,0,0,1,.15,1.55,2.608,2.608,0,0,1-3.285.6,0.742,0.742,0,0,0-1.109.19,0.732,0.732,0,0,0,.209,1.05,4.364,4.364,0,0,0,5.46-1.06,2.306,2.306,0,0,0-.48-3.47,4.637,4.637,0,0,0-4.125.05,24.2,24.2,0,0,0-2.984,1.54c-0.06-.12-0.12-0.24-0.18-0.34-0.24-.48-0.39-0.98-0.585-1.47a0.736,0.736,0,0,0-1.41.42,4.913,4.913,0,0,0,.315.82c0.135,0.29.27,0.57,0.4,0.83,0.075,0.13.135,0.27,0.21,0.42a10.784,10.784,0,0,1-1.8.73,0.761,0.761,0,1,0,.36,1.47,10.434,10.434,0,0,0,2.13-.94c0.345,0.63.72,1.32,1.08,2.01a19.176,19.176,0,0,1,1.589,3.63,0.843,0.843,0,0,0,1.065.73,0.942,0.942,0,0,0,.45-1.29,26.443,26.443,0,0,0-1.769-3.64C644.1,1050.33,643.683,1049.58,643.308,1048.91Zm16.47,5.26c0.57-1.83,2.294-6.6,3.179-9.21a0.96,0.96,0,0,0,.045-0.28,0.922,0.922,0,0,0-.96-0.86,0.834,0.834,0,0,0-.825.6c-0.659,1.97-2.189,6.95-2.609,8.21a0.4,0.4,0,0,1-.21.33,0.353,0.353,0,0,1-.2-0.29c-0.63-1.86-2.2-7.06-2.46-8.14a0.9,0.9,0,0,0-.885-0.71,0.876,0.876,0,0,0-.9.9c0,0.69,2.385,7.53,3.135,9.44a1.6,1.6,0,0,0,1.41,1.09A1.37,1.37,0,0,0,659.778,1054.17Zm12.015-.79c1.019,1.81,2.249,1.86,2.489,1.86a0.874,0.874,0,0,0,.96-0.89,0.858,0.858,0,0,0-.78-0.88,1.65,1.65,0,0,1-1.23-.96,16.371,16.371,0,0,0-1.679-2.57,0.8,0.8,0,0,1-.21-0.25c0-.05.045-0.06,0.15-0.09a2.829,2.829,0,0,0,2.189-2.82c0-1.41-1-2.84-3.434-3-0.225-.02-0.57-0.03-0.915-0.03-1.26,0-2.97,0-3.015,1.92-0.015.61-.015,0.67-0.015,3.91,0,1.65,0,3.44-.045,4.83v0.03a0.753,0.753,0,0,0,.81.75,0.833,0.833,0,0,0,.885-0.82c0-.54-0.045-3-0.045-4.13,0-.27.21-0.28,0.5-0.28s0.63,0.01.825,0.01C669.948,1049.99,670.833,1051.71,671.793,1053.38Zm-1.59-4.8c-0.27.01-.66,0.03-1.035,0.03-1.05,0-1.245-.02-1.245-0.32,0.015-.87,0-1.93.03-2.29,0.045-.71.585-0.75,1.395-0.75,0.285,0,.555,0,0.75.01,1.305,0.08,1.875.81,1.875,1.56A1.854,1.854,0,0,1,670.2,1048.58Zm18.854-.09c0.735,0.46,1.515-.78.5-1.4a4.783,4.783,0,0,0-2.76-.52c-0.96.09-.9,1.33-0.075,1.29A3.822,3.822,0,0,1,689.057,1048.49Zm-6.764-1.5a29.208,29.208,0,0,1-2.46,4.09c-0.66.98,0.78,1.56,1.335,0.66a38.155,38.155,0,0,0,2.685-5.05,5.736,5.736,0,0,0,1.6-.69c0.96-.69.015-1.62-0.66-1.14a4.686,4.686,0,0,1-.48.25,5.1,5.1,0,0,0,.21-0.91,0.718,0.718,0,0,0-1.424-.14,9.852,9.852,0,0,1-.3,1.52,4,4,0,0,1-2.055.04,0.686,0.686,0,1,0-.435,1.29A4.038,4.038,0,0,0,682.293,1046.99Zm4.724,7.03a4.344,4.344,0,0,1,.855.78c0.72,0.87,1.935-.19,1.08-1.14a5.518,5.518,0,0,0-1.83-1.2c-0.015-.33-0.045-0.64-0.06-0.93-0.015-.43-0.015-0.81-0.015-1.15a3.038,3.038,0,0,1,.09-0.71,0.689,0.689,0,0,0-1.35-.27,4.541,4.541,0,0,0-.075,1.01c0.015,0.37.045,0.75,0.045,1.12v0.53a4.859,4.859,0,0,0-2.879.28c-1.545.69-1.38,2.31,0.015,3.02A3.009,3.009,0,0,0,687.017,1054.02Zm-1.335-.7c-0.015.04,0,.1-0.015,0.15a1.617,1.617,0,0,1-2.279.79,0.455,0.455,0,0,1-.015-0.87A2.982,2.982,0,0,1,685.682,1053.32Zm21.99-8.97a4.751,4.751,0,0,0-1.395-1.04c-0.675-.31-1.335.53-0.6,0.92a5.206,5.206,0,0,1,1.14.97C707.252,1045.83,708.2,1045.02,707.672,1044.35Zm-1.5,1.17a4.786,4.786,0,0,0-1.365-1.08c-0.66-.35-1.35.48-0.63,0.88a5.248,5.248,0,0,1,1.11,1.04C705.707,1047,706.682,1046.21,706.172,1045.52Zm-6.554,3.67c-0.15.11-.285,0.23-0.435,0.35-2.43,1.93-2.52,4.36-.36,5.46,1.485,0.75,3.989.45,5.174,0.12,1.335-.38.885-2.1-0.375-1.62-0.9.33-3.045,0.72-4.094,0.19-1.17-.57-1.125-1.69.36-2.95a22.27,22.27,0,0,1,4.259-2.66,0.8,0.8,0,1,0-.645-1.45,28.614,28.614,0,0,0-2.64,1.65,15.224,15.224,0,0,0-1.754-3.5c-0.6-.85-2.07-0.04-1.29.92A12.234,12.234,0,0,1,699.618,1049.19Zm18.449-2.5a3.786,3.786,0,0,1,1.86.6,3.237,3.237,0,0,1,.825,4.59,4.671,4.671,0,0,1-2.79,1.68c-1.289.3-.825,1.81,0.5,1.47a6.255,6.255,0,0,0,3.66-2.48,4.441,4.441,0,0,0-1.395-6.3,6.255,6.255,0,0,0-6.479.35c-2.01,1.39-3.015,4.18-2.07,6.04,0.66,1.29,1.92,1.88,3.075.81a11.8,11.8,0,0,0,3.029-6.07A0.75,0.75,0,0,0,718.067,1046.69Zm-1.184.07a1.084,1.084,0,0,0-.135.47,9,9,0,0,1-2.325,4.99c-0.375.33-.765,0.11-0.99-0.33-0.63-1.15.12-3.15,1.515-4.23A5.043,5.043,0,0,1,716.883,1046.76Zm20.444,8.73a0.7,0.7,0,0,0,1.395,0l-0.015-6.87h1.425a0.653,0.653,0,1,0,0-1.3l-4.29.03v-1.02a0.769,0.769,0,0,1,.66-0.84c0.405-.12,2.085-0.66,2.58-0.89a0.7,0.7,0,0,0,.48-0.66,0.779,0.779,0,0,0-.765-0.75,0.912,0.912,0,0,0-.375.09,27.607,27.607,0,0,1-2.6,1.05,1.573,1.573,0,0,0-1.38,1.74v0.18c0.03,0.71.06,1.44,0.06,2.19,0,2.3-.27,4.68-1.694,6.36a0.6,0.6,0,0,0-.165.41,0.748,0.748,0,0,0,.78.66,0.886,0.886,0,0,0,.719-0.39c1.335-1.83,1.62-4.46,1.68-6.87h1.515Zm-4.094-10.08a0.576,0.576,0,1,0,0-1.15h-1.695v-0.86a0.693,0.693,0,0,0-1.38,0l0.015,0.86h-1.8a0.579,0.579,0,1,0,0,1.15h4.86Zm0.344,3.41a0.58,0.58,0,1,0,0-1.16H732.2a4.882,4.882,0,0,0,.66-1.47,0.727,0.727,0,0,0-.735-0.66,0.567,0.567,0,0,0-.555.47,10.7,10.7,0,0,1-.63,1.66h-0.705a0.641,0.641,0,0,0,.27-0.54c0-.25-0.51-1.53-1.155-1.53a0.616,0.616,0,0,0-.645.54,0.513,0.513,0,0,0,.12.32,3.389,3.389,0,0,1,.465.91,0.667,0.667,0,0,0,.18.3h-1.515a0.58,0.58,0,1,0,0,1.16h5.624Zm-3.359,6.72a0.634,0.634,0,0,0,1.26.01l-0.03-2.8a5.337,5.337,0,0,1,1.11.82,0.593,0.593,0,0,0,.39.17,0.72,0.72,0,0,0,.659-0.72,0.646,0.646,0,0,0-.239-0.5,5.078,5.078,0,0,0-1.635-.81,0.565,0.565,0,0,0-.285.11l-0.015-.56,1.875,0.05h0.015a0.54,0.54,0,0,0,.554-0.57,0.563,0.563,0,0,0-.554-0.6h-0.015l-1.86.01,0.015-.66v-0.01a0.615,0.615,0,0,0-1.23,0v0.01l0.015,0.66-2.055-.01h-0.015a0.563,0.563,0,0,0-.615.58,0.584,0.584,0,0,0,.615.59h0.015l1.95-.05a9.756,9.756,0,0,1-2.625,2.39,0.624,0.624,0,0,0-.36.54,0.664,0.664,0,0,0,.675.63c0.525,0,1.68-1.14,2.4-2.03Zm24.839-1.82a0.832,0.832,0,1,0-1.035-1.3c-2.61,2.05-5.279,2.2-5.369.01a41.678,41.678,0,0,1,.27-4.41c0.075-1,.18-2.43.21-3.37a0.818,0.818,0,0,0-1.635.03c0.03,0.93-.075,2.4-0.12,3.37-0.075,1.59-.24,2.87-0.18,4.44C747.333,1056.54,752.132,1056.11,755.057,1053.72Zm17.835-3.22a5.726,5.726,0,0,0-2.25-3.48c-0.9-.68-1.71.43-0.99,0.93a4.719,4.719,0,0,1,1.665,2.91A0.808,0.808,0,0,0,772.892,1050.5Zm-6.554,2.47a6.8,6.8,0,0,0,.584-1.15,0.736,0.736,0,0,0-1.364-.54,5.625,5.625,0,0,1-.5.88c-0.33.45-.525,0.41-0.915,0.03a5.757,5.757,0,0,1-1.185-3.87c-0.03-.69.03-0.72,0-1.3a0.765,0.765,0,1,0-1.53.01,15.068,15.068,0,0,0,.075,1.67,7.739,7.739,0,0,0,1.695,4.8C764.043,1054.4,765.378,1054.53,766.338,1052.97Zm23.174-1.05a0.632,0.632,0,0,0,0-1.26h-1.38c0-.19-0.015-0.36-0.015-0.49-0.03-.75-0.6-1.07-1.56-1.08-0.72-.02-1.56-0.02-2.445-0.02v-0.54c3.27,0,3.69-.01,3.8-0.97a4.55,4.55,0,0,0,.03-0.47c0-.15-0.015-0.31-0.03-0.48-0.045-.61-0.465-0.88-1.425-0.9-0.585-.01-1.455-0.01-2.37-0.01v-0.59l4.455,0.02a0.6,0.6,0,1,0,0-1.2l-4.455.01v-0.61a0.649,0.649,0,0,0-.675-0.68,0.66,0.66,0,0,0-.689.68l0.015,0.61-4.53-.01a0.6,0.6,0,1,0,0,1.2l4.53-.02v0.59c-0.915,0-1.785.01-2.355,0.01-1.38,0-1.56.47-1.56,1.46,0,1.33.33,1.36,3.915,1.36v0.53c-1.335,0-2.685,0-3.75.01a0.553,0.553,0,0,0-.57.56,0.486,0.486,0,0,0,.5.51h0.015c0.975-.02,2.4-0.03,3.81-0.03v0.63h-5.52a0.523,0.523,0,0,0-.525.55,0.529,0.529,0,0,0,.525.57h5.52v0.68c-1.35,0-2.7-.02-3.81-0.03h-0.015a0.538,0.538,0,0,0-.57.55,0.551,0.551,0,0,0,.57.56c1.2,0.01,2.52.01,3.825,0.01l-0.015.39a0.673,0.673,0,0,1-.81.71,3.623,3.623,0,0,1-.795-0.11,1.735,1.735,0,0,0-.225-0.03,0.651,0.651,0,0,0-.66.68c0,0.78,1.095.79,1.575,0.79,1.529,0,2.294-.84,2.294-1.74v-0.01l-0.015-.69c0.855,0,1.68-.02,2.46-0.02,1.47,0,1.575-.79,1.575-1.68h1.365Zm-5.4-5.25c0.78,0,1.485.02,1.92,0.02,0.42,0,.5.13,0.5,0.37,0,0.44-.045.44-2.415,0.44v-0.83Zm2.7,4.07h-2.7v-0.62c0.84,0,1.605,0,2.22.02a0.408,0.408,0,0,1,.465.4Zm-4.049-3.24c-2.13,0-2.49-.02-2.49-0.27v-0.33c0.03-.14.15-0.21,0.465-0.21,0.465,0,1.215-.02,2.025-0.02v0.83Zm4.049,4.36c0,0.08-.015.15-0.015,0.23a0.422,0.422,0,0,1-.465.42c-0.69.01-1.44,0.03-2.22,0.03v-0.68h2.7Zm18.645,0.39a0.513,0.513,0,0,0,.54-0.55,0.527,0.527,0,0,0-.555-0.57l-4.9.03,0.015-.66,3.36,0.01a0.5,0.5,0,1,0,0-1l-3.345.01v-0.64l4.11,0.01a0.545,0.545,0,1,0,0-1.09l-2.61.01a3.043,3.043,0,0,0,.27-0.73,0.587,0.587,0,0,0-.375-0.5l3.615,0.02a0.6,0.6,0,0,0,.615-0.63,0.579,0.579,0,0,0-.6-0.62h-0.015l-2.04.03a2.458,2.458,0,0,0,.72-1.26,0.759,0.759,0,0,0-.78-0.67,0.651,0.651,0,0,0-.63.45,8.75,8.75,0,0,1-.75,1.5l-0.51.01,0.03-1.99v-0.02a0.617,0.617,0,0,0-.66-0.61,0.625,0.625,0,0,0-.675.63v1.99h-0.869v-1.99a0.633,0.633,0,0,0-.675-0.63,0.605,0.605,0,0,0-.66.61v0.02l0.015,1.99-0.525-.01a4.72,4.72,0,0,0-1.215-1.8,0.537,0.537,0,0,0-.345-0.09,0.735,0.735,0,0,0-.75.6,0.475,0.475,0,0,0,.135.31,6.128,6.128,0,0,1,.78.96l-1.965-.03h-0.015a0.591,0.591,0,0,0-.615.62,0.608,0.608,0,0,0,.63.63l3.435-.02a0.458,0.458,0,0,0-.375.39,0.352,0.352,0,0,0,.075.23,3.854,3.854,0,0,1,.3.61l-2.625-.01a0.546,0.546,0,1,0,0,1.09l4.14-.01v0.64l-3.375-.01a0.5,0.5,0,1,0,0,1l3.39-.01,0.015,0.66-4.9-.03a0.548,0.548,0,0,0-.57.57,0.525,0.525,0,0,0,.555.55h0.015l3.645-.07h0.5a15.07,15.07,0,0,1-4.665,2.41,0.68,0.68,0,0,0-.525.6,0.726,0.726,0,0,0,.765.68,16.431,16.431,0,0,0,5.19-2.79l-0.03,2.56v0.02a0.616,0.616,0,0,0,.7.57,0.637,0.637,0,0,0,.705-0.57v-0.02l-0.03-2.58a16.245,16.245,0,0,0,5.19,2.75,0.84,0.84,0,0,0,.8-0.83,0.6,0.6,0,0,0-.465-0.58,17.209,17.209,0,0,1-4.845-2.22h0.45l3.78,0.07h0.015Zm-4.29-5.67a0.381,0.381,0,0,0-.15.26,4.317,4.317,0,0,1-.315.97h-1.649l-0.015-.04a1.758,1.758,0,0,0-.765-1.19h2.894Zm15.4-1.68a2.815,2.815,0,0,0,.12-0.87,0.766,0.766,0,0,0-1.5.08,6.356,6.356,0,0,1-.165,1.26,1.443,1.443,0,0,0-.225.03,2.345,2.345,0,0,1-1.41-.03c-1.05-.71-1.785.7-0.705,1.24a3.025,3.025,0,0,0,1.86.17,12.923,12.923,0,0,1-.705,1.33,7.487,7.487,0,0,1-1.215,1.41c-0.9.81,0.195,1.67,1.02,0.93a2.926,2.926,0,0,0,.345-0.39,0.339,0.339,0,0,0,.06-0.06c0.975-1.12,2.129-1.27,2.534-.01-0.285.16-.525,0.33-0.734,0.46-2.715,1.79-3.075,3.81-1.05,4.95a6.549,6.549,0,0,0,4.094.21c1.38-.36.96-1.98-0.36-1.57a4.839,4.839,0,0,1-2.969.12c-0.84-.42-1.065-1.32.794-2.52,0.12-.08.255-0.15,0.39-0.23,0,0.32-.015.66-0.03,0.98a0.684,0.684,0,0,0,.675.85,0.883,0.883,0,0,0,.795-0.93,12,12,0,0,0-.03-1.65c0.6-.28,1.275-0.58,1.9-0.82,0.795-.3,1.14-0.38,1.62-0.62a0.8,0.8,0,1,0-.84-1.35,10.625,10.625,0,0,1-1.17.56c-0.585.25-1.215,0.57-1.83,0.88a2.182,2.182,0,0,0-2.519-1.3,15.926,15.926,0,0,0,.72-1.52,8.142,8.142,0,0,0,1.649-.49c1.11-.56.3-1.8-0.525-1.31a5.276,5.276,0,0,1-.63.27Zm22.11,10.65a0.635,0.635,0,0,0,.675-0.67,0.654,0.654,0,0,0-.675-0.69l-5.01.01v-2.7l3.03,0.02a0.672,0.672,0,1,0,0-1.34l-3.03.02v-2.3l4.05,0.02a0.672,0.672,0,1,0,0-1.34l-4.05.02v-2.67a0.774,0.774,0,1,0-1.544,0v2.67l-2-.02q0.337-.735.63-1.53a0.617,0.617,0,0,0,.045-0.22,0.776,0.776,0,0,0-.84-0.69,0.68,0.68,0,0,0-.69.51,13.424,13.424,0,0,1-2.67,4.9,0.776,0.776,0,0,0-.195.48,0.7,0.7,0,0,0,.72.68,0.842,0.842,0,0,0,.66-0.35,17.835,17.835,0,0,0,1.665-2.44l2.67-.02v2.3l-2.82-.02a0.685,0.685,0,0,0-.705.69,0.642,0.642,0,0,0,.705.65l2.82-.02v2.7l-5.115-.01a0.7,0.7,0,0,0-.705.72,0.635,0.635,0,0,0,.705.64h11.669Zm10.17-6.01c0.54-1.13,1.14-2.34,1.77-3.39,0.675-1.1.075-1.98-1.29-1.71a19.686,19.686,0,0,1-2.159.37,0.715,0.715,0,0,0,.045,1.43,8.158,8.158,0,0,0,1.769-.36c0.225-.06.18,0.06,0.09,0.27-0.419.94-1.109,2.31-1.634,3.43a8.379,8.379,0,0,0-2.46.65c-1.725.76-2.28,2.32-1.515,3.28a2.089,2.089,0,0,0,2.865,0,7.163,7.163,0,0,0,1.92-2.74,9.175,9.175,0,0,1,3.494.75,6.432,6.432,0,0,1-2.37,2.53c-0.974.6-.225,1.77,0.825,1.16a7.336,7.336,0,0,0,2.85-3.05,10.305,10.305,0,0,1,1.635,1.22c0.855,0.78,1.875-.6.93-1.34a11.568,11.568,0,0,0-2.07-1.27,3.662,3.662,0,0,0-.15-2.49c-0.5-.93-1.845-0.36-1.425.34a2.44,2.44,0,0,1,.21,1.58,11.055,11.055,0,0,0-3.255-.66h-0.075Zm-2.054,1.35a5.2,5.2,0,0,1-1.245,1.6,0.8,0.8,0,0,1-.99.05c-0.255-.38.45-1.01,0.84-1.2A4.767,4.767,0,0,1,846.8,1050.89Zm18.21,3.39c-0.915,0-1.785-.02-2.46-0.05-0.9-.04-0.915-0.39-0.915-1.93,0-.53.015-1.1,0.03-1.53v-0.03a0.76,0.76,0,0,0-1.515.03c0,0.4-.015.91-0.015,1.42,0,0.53.015,1.04,0.015,1.44a1.769,1.769,0,0,0,1.9,1.95c0.93,0.05,2.265.06,3.629,0.06s2.76-.01,3.795-0.06a1.944,1.944,0,0,0,2.04-1.98c0.015-.42.03-0.93,0.03-1.42s-0.015-.99-0.03-1.37a0.734,0.734,0,0,0-.8-0.69,0.677,0.677,0,0,0-.735.66v0.03c0.015,0.44.045,1.04,0.045,1.61,0,1.27-.105,1.77-0.99,1.81-0.675.03-1.575,0.05-2.5,0.05v-4.86c0.81,0,1.62-.02,2.37-0.05a1.926,1.926,0,0,0,2.04-1.95c0.015-.42.03-0.87,0.03-1.3s-0.015-.87-0.03-1.25a0.734,0.734,0,0,0-.795-0.69,0.677,0.677,0,0,0-.735.66v0.03c0.015,0.44.045,0.95,0.045,1.44,0,1.13-.045,1.71-0.99,1.74-0.615.02-1.275,0.03-1.935,0.05l0.015-4.49a0.714,0.714,0,0,0-.8-0.66,0.7,0.7,0,0,0-.765.66l0.016,4.49c-2.475,0-2.76-.02-2.79-1.01,0-.25-0.015-0.57-0.015-0.88,0-.47.015-0.95,0.03-1.38v-0.03a0.76,0.76,0,0,0-1.515.03c0,0.4-.015.85-0.015,1.3,0,0.47.015,0.92,0.015,1.32a1.746,1.746,0,0,0,1.905,1.92c0.72,0.03,1.545.05,2.385,0.05v4.86Zm18.089-1.77a5.348,5.348,0,0,1-1.709,2.2c-1.305.93,0,2,1,1.2,1.59-1.27,3.18-4.45,1.845-6.55-0.015-.33-0.045-0.65-0.045-0.86,0-.43-0.015-0.9-0.03-1.38,0.39-.01.75-0.03,1.095-0.03,0.93,0.02,1.29.02,2.355,0.11,1.2,0.09,1.26-1.5,0-1.53-1.02-.02-1.545,0-2.28,0-0.33,0-.72.01-1.155,0.04,0-.07.015-0.15,0.015-0.22,0.03-.41.075-1.1,0.06-1.44a0.788,0.788,0,0,0-1.575.04c0,0.48.09,0.54,0.075,1.47v0.27c-1.32.12-2.669,0.29-3.419,0.41-0.63.1-1.605,0.21-2.2,0.31a0.765,0.765,0,1,0,.12,1.52c0.45-.08,1.155-0.27,2.235-0.44,0.78-.12,2.025-0.3,3.284-0.42,0.015,0.44.03,0.89,0.045,1.22a3.038,3.038,0,0,0-1.289.13,2.075,2.075,0,0,0-1.2,2.82A1.918,1.918,0,0,0,883.1,1052.51Zm-0.015-2.45a0.683,0.683,0,0,1,.09.57,0.891,0.891,0,0,1-1.724.26,0.917,0.917,0,0,1,.435-1.14,0.976,0.976,0,0,1,.959.06A1.627,1.627,0,0,1,883.082,1050.06Zm20.475-1.57c0.735,0.46,1.515-.78.5-1.4a4.783,4.783,0,0,0-2.76-.52c-0.96.09-.9,1.33-0.075,1.29A3.822,3.822,0,0,1,903.557,1048.49Zm-6.764-1.5a29.208,29.208,0,0,1-2.46,4.09c-0.66.98,0.78,1.56,1.335,0.66a38.031,38.031,0,0,0,2.684-5.05,5.73,5.73,0,0,0,1.605-.69c0.96-.69.015-1.62-0.66-1.14a4.686,4.686,0,0,1-.48.25,5.1,5.1,0,0,0,.21-0.91,0.718,0.718,0,0,0-1.424-.14,9.852,9.852,0,0,1-.3,1.52,4,4,0,0,1-2.055.04,0.686,0.686,0,1,0-.435,1.29A4.038,4.038,0,0,0,896.793,1046.99Zm4.724,7.03a4.344,4.344,0,0,1,.855.78c0.72,0.87,1.935-.19,1.08-1.14a5.518,5.518,0,0,0-1.83-1.2c-0.015-.33-0.045-0.64-0.06-0.93-0.015-.43-0.015-0.81-0.015-1.15a3.038,3.038,0,0,1,.09-0.71,0.689,0.689,0,0,0-1.35-.27,4.541,4.541,0,0,0-.075,1.01c0.015,0.37.045,0.75,0.045,1.12v0.53a4.858,4.858,0,0,0-2.879.28c-1.545.69-1.38,2.31,0.015,3.02A3.009,3.009,0,0,0,901.517,1054.02Zm-1.335-.7c-0.015.04,0,.1-0.015,0.15a1.617,1.617,0,0,1-2.279.79,0.456,0.456,0,0,1-.016-0.87A2.985,2.985,0,0,1,900.182,1053.32Zm21.99-8.97a4.751,4.751,0,0,0-1.395-1.04c-0.675-.31-1.335.53-0.6,0.92a5.206,5.206,0,0,1,1.14.97C921.752,1045.83,922.7,1045.02,922.172,1044.35Zm-1.5,1.17a4.786,4.786,0,0,0-1.365-1.08c-0.66-.35-1.35.48-0.63,0.88a5.248,5.248,0,0,1,1.11,1.04C920.207,1047,921.182,1046.21,920.672,1045.52Zm-6.554,3.67c-0.15.11-.285,0.23-0.435,0.35-2.43,1.93-2.52,4.36-.36,5.46,1.484,0.75,3.989.45,5.174,0.12,1.335-.38.885-2.1-0.375-1.62-0.9.33-3.045,0.72-4.094,0.19-1.17-.57-1.125-1.69.36-2.95a22.27,22.27,0,0,1,4.259-2.66,0.8,0.8,0,1,0-.645-1.45,28.614,28.614,0,0,0-2.64,1.65,15.264,15.264,0,0,0-1.754-3.5c-0.6-.85-2.07-0.04-1.29.92A12.234,12.234,0,0,1,914.118,1049.19Zm13.845,7.02a0.825,0.825,0,0,0,.81-0.82c0-1.02-2.4-2.34-2.925-2.34a0.665,0.665,0,0,0-.7.66,0.68,0.68,0,0,0,.4.6,5.774,5.774,0,0,1,1.845,1.57A0.671,0.671,0,0,0,927.963,1056.21Zm-350.61,28.98c-0.15.11-.285,0.23-0.435,0.35-2.43,1.93-2.52,4.36-.36,5.46,1.485,0.75,3.989.45,5.174,0.12,1.335-.38.885-2.1-0.375-1.62-0.9.33-3.044,0.72-4.094,0.19-1.17-.57-1.125-1.69.36-2.95a22.27,22.27,0,0,1,4.259-2.66,0.8,0.8,0,1,0-.645-1.45,28.459,28.459,0,0,0-2.639,1.65,15.265,15.265,0,0,0-1.755-3.5c-0.6-.85-2.07-0.04-1.29.92A12.234,12.234,0,0,1,577.353,1085.19Zm16.935,2.52a5.171,5.171,0,0,0,1.334-.24,0.716,0.716,0,1,0-.479-1.35,5.1,5.1,0,0,1-.72.14q0.09-.945.225-1.95a4.651,4.651,0,0,0,.914-0.15,0.707,0.707,0,1,0-.345-1.37,3.715,3.715,0,0,1-.374.08c0.015-.18.045-0.36,0.06-0.54a19.153,19.153,0,0,0,.255-2.16,0.751,0.751,0,0,0-1.5-.08c-0.045.71-.075,1.28-0.165,2.22-0.015.18-.045,0.38-0.06,0.56a4.246,4.246,0,0,1-1.08-.29,0.738,0.738,0,1,0-.315,1.44,6.72,6.72,0,0,0,1.245.26c-0.075.67-.15,1.33-0.21,1.99a5.573,5.573,0,0,1-1.155-.22c-0.855-.29-1.32,1.14-0.105,1.47a10.033,10.033,0,0,0,1.155.18,13.24,13.24,0,0,0-.015,1.33c0.12,4.01,4.9,3.51,5.984.66a4.066,4.066,0,0,0-1.02-4.29c-0.66-.76-1.95.03-1.17,0.89a2.608,2.608,0,0,1,.735,3.03c-0.78,1.66-3.119,1.75-3.209-.39A11.2,11.2,0,0,1,594.288,1087.71Zm21.239-3.99a0.734,0.734,0,1,0,.255-1.44,9.132,9.132,0,0,0-3.945.09,0.709,0.709,0,1,0,.21,1.4A7.6,7.6,0,0,1,615.527,1083.72Zm0.81,6.84a0.81,0.81,0,1,0-.3-1.59c-1.17.24-2.97,0.48-3.78-.25a0.74,0.74,0,0,0-1.064,1.03C612.272,1090.92,614.732,1090.97,616.337,1090.56Zm-7.934.72a1.77,1.77,0,0,0,.285-1.2,7.687,7.687,0,0,1,.885-2.1,0.6,0.6,0,0,0-1.05-.58c-0.06.1-.225,0.4-0.255,0.48-0.06.13-.12,0.18-0.165-0.02-0.36-1.39.54-4.92,0.78-6.13a0.729,0.729,0,1,0-1.455-.09c-0.27,1.78-1.455,6.22-.255,9.18C607.473,1091.55,608.028,1091.61,608.4,1091.28Zm23.084,0.21a0.7,0.7,0,0,0,1.395,0l-0.015-6.87h1.425a0.653,0.653,0,1,0,0-1.3l-4.29.03v-1.02a0.769,0.769,0,0,1,.66-0.84c0.4-.12,2.085-0.66,2.58-0.89a0.7,0.7,0,0,0,.48-0.66,0.779,0.779,0,0,0-.765-0.75,0.912,0.912,0,0,0-.375.09,27.607,27.607,0,0,1-2.6,1.05,1.573,1.573,0,0,0-1.38,1.74v0.18c0.03,0.71.06,1.44,0.06,2.19,0,2.3-.27,4.68-1.694,6.36a0.6,0.6,0,0,0-.165.41,0.748,0.748,0,0,0,.78.66,0.884,0.884,0,0,0,.719-0.39c1.335-1.83,1.62-4.46,1.68-6.87H631.5Zm-4.094-10.08a0.576,0.576,0,1,0,0-1.15h-1.7v-0.86a0.693,0.693,0,0,0-1.38,0l0.015,0.86h-1.8a0.579,0.579,0,1,0,0,1.15h4.86Zm0.345,3.41a0.58,0.58,0,1,0,0-1.16h-1.38a4.882,4.882,0,0,0,.66-1.47,0.727,0.727,0,0,0-.735-0.66,0.567,0.567,0,0,0-.555.47,10.7,10.7,0,0,1-.63,1.66h-0.7a0.641,0.641,0,0,0,.27-0.54c0-.25-0.51-1.53-1.155-1.53a0.616,0.616,0,0,0-.645.54,0.513,0.513,0,0,0,.12.32,3.389,3.389,0,0,1,.465.91,0.667,0.667,0,0,0,.18.3h-1.515a0.58,0.58,0,1,0,0,1.16h5.625Zm-3.36,6.72a0.634,0.634,0,0,0,1.26.01l-0.03-2.8a5.337,5.337,0,0,1,1.11.82,0.593,0.593,0,0,0,.39.17,0.72,0.72,0,0,0,.66-0.72,0.647,0.647,0,0,0-.24-0.5,5.078,5.078,0,0,0-1.635-.81,0.565,0.565,0,0,0-.285.11l-0.015-.56,1.875,0.05h0.015a0.541,0.541,0,0,0,.555-0.57,0.563,0.563,0,0,0-.555-0.6h-0.015l-1.86.01,0.015-.66v-0.01a0.615,0.615,0,0,0-1.23,0v0.01l0.015,0.66-2.055-.01h-0.015a0.563,0.563,0,0,0-.615.58,0.584,0.584,0,0,0,.615.59h0.015l1.95-.05a9.756,9.756,0,0,1-2.625,2.39,0.624,0.624,0,0,0-.36.54,0.664,0.664,0,0,0,.675.63c0.525,0,1.68-1.14,2.4-2.03Zm24.839-1.82a0.832,0.832,0,1,0-1.035-1.3c-2.61,2.05-5.279,2.2-5.369.01a41.678,41.678,0,0,1,.27-4.41c0.075-1,.18-2.43.21-3.37a0.818,0.818,0,0,0-1.635.03c0.03,0.93-.075,2.4-0.12,3.37-0.075,1.59-.24,2.87-0.18,4.44C641.493,1092.54,646.292,1092.11,649.217,1089.72Zm17.835-3.22a5.726,5.726,0,0,0-2.25-3.48c-0.9-.68-1.71.43-0.99,0.93a4.719,4.719,0,0,1,1.665,2.91A0.808,0.808,0,0,0,667.052,1086.5Zm-6.554,2.47a6.8,6.8,0,0,0,.585-1.15,0.737,0.737,0,0,0-1.365-.54,5.625,5.625,0,0,1-.5.88c-0.33.45-.525,0.41-0.915,0.03a5.757,5.757,0,0,1-1.185-3.87c-0.03-.69.03-0.72,0-1.3a0.765,0.765,0,1,0-1.53.01,15.068,15.068,0,0,0,.075,1.67,7.739,7.739,0,0,0,1.7,4.8C658.2,1090.4,659.538,1090.53,660.5,1088.97Zm22.919-7.56a0.639,0.639,0,0,0,.7-0.61,0.656,0.656,0,0,0-.72-0.65h-7.889a0.656,0.656,0,0,0-.705.65,0.625,0.625,0,0,0,.705.61h1.89v1.79c-0.33,0-.615.01-0.885,0.01a1.433,1.433,0,0,0-1.515,1.38c-0.03,1.04-.045,2.03-0.045,3.03,0,0.78.015,1.56,0.045,2.37a1.555,1.555,0,0,0,1.755,1.56c0.615,0.03,1.5.06,2.384,0.06,0.975,0,1.965-.03,2.625-0.07a1.6,1.6,0,0,0,1.755-1.49c0.03-.76.045-1.48,0.045-2.17,0-1.08-.03-2.1-0.045-3.2a1.556,1.556,0,0,0-1.65-1.47c-0.255-.01-0.54-0.01-0.855-0.01v-1.8l2.385,0.01h0.015Zm-11.144,10.04a0.64,0.64,0,0,0,.69.64,0.687,0.687,0,0,0,.735-0.66l0.18-9.22a15.833,15.833,0,0,0,1.11-2.54,0.8,0.8,0,0,0-.825-0.7,0.641,0.641,0,0,0-.645.46,15.206,15.206,0,0,1-2.97,5.37,0.8,0.8,0,0,0-.21.48,0.661,0.661,0,0,0,.675.63c0.39,0,.75-0.3,1.425-1.27l-0.165,6.79v0.02Zm7.484-8.27h-1.095v-1.78l1.095-.02v1.8Zm1.74,1.23a0.544,0.544,0,0,1,.645.62q0.045,1.305.045,2.61c0,0.67-.015,1.36-0.045,2.05a0.587,0.587,0,0,1-.69.65c-0.12,0-.285.01-0.435,0.01v-5.95Zm-1.74,5.96h-1.095v-5.99h1.095v5.99Zm-2.354-.02c-0.105,0-.18-0.01-0.27-0.01-0.66-.03-0.78-0.17-0.8-0.68-0.03-.63-0.03-1.29-0.03-1.93,0-.9.015-1.82,0.03-2.7a0.564,0.564,0,0,1,.675-0.62c0.12,0,.24-0.01.39-0.01v5.95Zm22.514-8.58a0.6,0.6,0,1,0,0-1.2h-2.79l0.09-1.11v-0.06a0.633,0.633,0,0,0-.69-0.6,0.715,0.715,0,0,0-.765.65l-0.09,1.12h-3.389a0.6,0.6,0,1,0,0,1.2h3.3l-0.06.75c-0.105,0-.2.02-0.285,0.02a1.072,1.072,0,0,0-1.109,1.14c-0.015.61-.015,1.26-0.015,1.92,0,0.88,0,1.81.015,2.74a1.174,1.174,0,0,0,1.139,1.23c0.3,0.03.78,0.05,1.275,0.05,0.585,0,1.185-.02,1.56-0.05a1.185,1.185,0,0,0,1.26-1.23c0.015-.85.03-1.69,0.03-2.55,0-.7-0.015-1.42-0.03-2.17a1.176,1.176,0,0,0-1.215-1.08c-0.3-.02-0.735-0.03-1.185-0.03l0.06-.74h2.895Zm-6.824,1.8a0.651,0.651,0,0,0-.675-0.69,0.688,0.688,0,0,0-.705.71c0,0.78-.015,1.98-0.015,3.18s0.015,2.4.015,3.16a1.563,1.563,0,0,0,1.635,1.7c0.914,0.03,1.964.04,3.029,0.04,1.245,0,2.5-.01,3.63-0.04a0.653,0.653,0,0,0,.66-0.68,0.605,0.605,0,0,0-.63-0.64h-0.03c-1.035.04-2.16,0.06-3.225,0.06-1.17,0-2.28-.02-3.134-0.06a0.542,0.542,0,0,1-.555-0.62c-0.015-.67-0.015-1.84-0.015-3.03s0-2.37.015-3.07v-0.02Zm-4.065,7.95a0.65,0.65,0,0,0,.69.66,0.706,0.706,0,0,0,.75-0.67l0.2-9.54c0.36-.66.705-1.34,1.035-2.03a0.779,0.779,0,0,0,.075-0.3,0.834,0.834,0,0,0-.84-0.75,0.651,0.651,0,0,0-.63.45,14.04,14.04,0,0,1-2.955,4.97,0.66,0.66,0,0,0,.51,1.14,0.868,0.868,0,0,0,.675-0.35c0.225-.27.45-0.55,0.675-0.85l-0.18,7.26v0.01Zm6.359-6.97c0-.23.015-0.44,0.015-0.63a0.34,0.34,0,0,1,.345-0.39c0.24-.02.615-0.02,0.975-0.02s0.735,0,.945.02c0.4,0,.4.36,0.4,1.02h-2.685Zm2.715,1.92h-2.73v-0.93h2.73v0.93Zm-0.03.97c0,0.92-.045,1.07-0.45,1.08-0.225,0-.57.02-0.915,0.02-1.275,0-1.3-.05-1.3-0.41,0-.22-0.015-0.45-0.015-0.69h2.685Zm12.66-6.54a2.815,2.815,0,0,0,.12-0.87,0.766,0.766,0,0,0-1.5.08,6.356,6.356,0,0,1-.165,1.26,1.443,1.443,0,0,0-.225.03,2.345,2.345,0,0,1-1.41-.03c-1.05-.71-1.785.7-0.705,1.24a3.025,3.025,0,0,0,1.86.17,12.923,12.923,0,0,1-.7,1.33,7.487,7.487,0,0,1-1.215,1.41c-0.9.81,0.195,1.67,1.02,0.93a2.926,2.926,0,0,0,.345-0.39,0.339,0.339,0,0,0,.06-0.06c0.975-1.12,2.13-1.27,2.534-.01-0.284.16-.524,0.33-0.734,0.46-2.715,1.79-3.075,3.81-1.05,4.95a6.549,6.549,0,0,0,4.094.21c1.38-.36.96-1.98-0.36-1.57a4.839,4.839,0,0,1-2.969.12c-0.84-.42-1.065-1.32.8-2.52,0.12-.08.254-0.15,0.389-0.23,0,0.32-.015.66-0.03,0.98a0.684,0.684,0,0,0,.675.85,0.883,0.883,0,0,0,.795-0.93,12,12,0,0,0-.03-1.65c0.6-.28,1.275-0.58,1.9-0.82,0.8-.3,1.14-0.38,1.62-0.62a0.8,0.8,0,1,0-.84-1.35,10.625,10.625,0,0,1-1.17.56c-0.585.25-1.215,0.57-1.83,0.88a2.182,2.182,0,0,0-2.519-1.3,15.926,15.926,0,0,0,.72-1.52,8.142,8.142,0,0,0,1.649-.49c1.11-.56.3-1.8-0.525-1.31a5.276,5.276,0,0,1-.63.27Zm20.475,7.97c1.845-1.53,2.445-3.68.825-5.37-1.38-1.44-3.66-1.46-5.369-1.02a34.693,34.693,0,0,0-4.7,1.75,0.843,0.843,0,1,0,.735,1.5c0.735-.34,1.41-0.69,2.085-1.02a14.571,14.571,0,0,1,2.145-.88c1.349-.41,3.044-0.44,4,0.66,0.69,0.79.6,2.02-.675,3.15a8.062,8.062,0,0,1-4.409,1.75,0.825,0.825,0,1,0,.3,1.59A10.421,10.421,0,0,0,731.207,1088.87Zm14.685,1.62a25.656,25.656,0,0,0-3.509-4.89,1.081,1.081,0,0,1,.18-1.71c0.93-.93,2.519-2.24,3.269-3.15a0.84,0.84,0,1,0-1.335-1.02,38.038,38.038,0,0,1-3.074,3.39c-1.17,1.21-1.17,2.28-.18,3.43a27.841,27.841,0,0,1,3.179,4.88C744.9,1092.38,746.357,1091.49,745.892,1090.49Zm15.465-.5a2.121,2.121,0,0,0-2.369-2.02c-1.77.06-2.475,1.92-.885,2.95a4.955,4.955,0,0,0,4.964-.37c1.575-1.14,2.28-3.78.12-5.07a4.608,4.608,0,0,0-4.214.04c0.54-.52,1.14-1.06,1.739-1.62s1.2-1.14,1.68-1.68c0.75-.84-0.24-1.9-1.44-1.56a22.476,22.476,0,0,1-3.3.74c-1.02.12-.8,1.6,0.39,1.35a11.628,11.628,0,0,0,2.519-.77c0.12-.06.27-0.12,0.105,0.09a53.085,53.085,0,0,1-4.529,4.85c-0.93.91,0.57,1.8,1.11,1a3.247,3.247,0,0,1,1.26-1.12,3.949,3.949,0,0,1,3.914-.26c0.855,0.57.9,2-.2,2.97A2.021,2.021,0,0,1,761.357,1089.99Zm-1.274.23a2.765,2.765,0,0,1-1.26-.23,0.479,0.479,0,0,1,.21-0.93A1,1,0,0,1,760.083,1090.22Zm18.569-6.8c1.215,0.26,1.545-1.29.285-1.56a15.924,15.924,0,0,0-4.784-.04c-1.335.19-1.14,1.78,0.045,1.56A11.306,11.306,0,0,1,778.652,1083.42Zm1.47,7.31c1.215-.38.855-2-0.39-1.65-2.265.64-4.694,0.75-5.969-.56a0.792,0.792,0,0,0-1.245.98C773.553,1090.95,777.152,1091.66,780.122,1090.73Zm11.731-5.54c-0.15.11-.285,0.23-0.435,0.35-2.43,1.93-2.52,4.36-.36,5.46,1.485,0.75,3.989.45,5.174,0.12,1.335-.38.885-2.1-0.375-1.62-0.9.33-3.044,0.72-4.094,0.19-1.17-.57-1.125-1.69.36-2.95a22.27,22.27,0,0,1,4.259-2.66,0.8,0.8,0,1,0-.645-1.45,28.459,28.459,0,0,0-2.639,1.65,15.265,15.265,0,0,0-1.755-3.5c-0.6-.85-2.07-0.04-1.29.92A12.234,12.234,0,0,1,791.853,1085.19Zm21.674-1.47a0.734,0.734,0,1,0,.255-1.44,9.132,9.132,0,0,0-3.945.09,0.709,0.709,0,1,0,.21,1.4A7.6,7.6,0,0,1,813.527,1083.72Zm0.81,6.84a0.81,0.81,0,1,0-.3-1.59c-1.17.24-2.97,0.48-3.78-.25a0.74,0.74,0,0,0-1.064,1.03C810.272,1090.92,812.732,1090.97,814.337,1090.56Zm-7.934.72a1.77,1.77,0,0,0,.285-1.2,7.687,7.687,0,0,1,.885-2.1,0.6,0.6,0,0,0-1.05-.58c-0.06.1-.225,0.4-0.255,0.48-0.06.13-.12,0.18-0.165-0.02-0.36-1.39.54-4.92,0.78-6.13a0.729,0.729,0,1,0-1.455-.09c-0.27,1.78-1.455,6.22-.255,9.18C805.473,1091.55,806.028,1091.61,806.4,1091.28Zm25.079-2.11v0.1c0,1.07-.285,1.25-1.14,1.25-0.63,0-.705-0.21-0.72-0.59,0-.22.015-1.78,0.03-3.6a0.955,0.955,0,0,0,.135.08,5.973,5.973,0,0,1,1.545,1.02,0.682,0.682,0,0,0,.465.21,0.723,0.723,0,0,0,.645-0.77,0.811,0.811,0,0,0-.315-0.64,4.958,4.958,0,0,0-2.055-.99,0.682,0.682,0,0,0-.42.15l0.015-1.32a0.548,0.548,0,0,0,.255.06,6.677,6.677,0,0,0,2.235-1.34,0.727,0.727,0,0,0,.255-0.55,0.768,0.768,0,0,0-.69-0.78,0.638,0.638,0,0,0-.48.22,7.979,7.979,0,0,1-1.575,1.28c0.015-1.62.015-2.96,0.015-3.2a0.661,0.661,0,0,0-1.32-.03c-0.03.47-.045,9.75-0.045,10.35,0,1.2.45,1.73,2.01,1.73,1.1,0,2.46-.06,2.46-2.57v-0.07a0.662,0.662,0,0,0-.705-0.62,0.565,0.565,0,0,0-.6.6v0.02Zm-5.265-3.74a6.786,6.786,0,0,1-2.084,1.2,0.637,0.637,0,0,0-.435.62,0.675,0.675,0,0,0,.66.69c0.09,0,.585,0,1.77-1.04a4.93,4.93,0,0,1-2.31,3.78,0.7,0.7,0,0,0-.33.57,0.705,0.705,0,0,0,.7.71c0.585,0,3.3-1.62,3.3-6.6,0-1.14.045-3.18,0.045-4.62,0-.36-0.015-0.69-0.015-0.95a0.689,0.689,0,0,0-.705-0.69,0.637,0.637,0,0,0-.659.65v0.03c0.015,0.73.03,1.92,0.044,3.06a2.769,2.769,0,0,0-1.289-1.05,0.679,0.679,0,0,0-.675.6,0.516,0.516,0,0,0,.165.37,5.934,5.934,0,0,1,.915,1.16,0.562,0.562,0,0,0,.48.3,0.621,0.621,0,0,0,.419-0.17v1.38Zm-4.829,4.67a0.505,0.505,0,0,1-.615.49,2.332,2.332,0,0,1-.48-0.06,0.614,0.614,0,0,0-.135-0.01,0.628,0.628,0,0,0-.585.69c0,0.58.4,0.81,1.35,0.81a1.663,1.663,0,0,0,1.9-1.68v-0.06c-0.015-.53-0.06-1.89-0.06-2.13v-1.62c1.665-.74,1.875-0.84,1.875-1.29a0.611,0.611,0,0,0-.57-0.62,0.648,0.648,0,0,0-.255.06c-0.33.17-.66,0.32-1.035,0.47v-1.97h0.78a0.66,0.66,0,1,0,0-1.32h-0.78v-2.34a0.66,0.66,0,0,0-.69-0.7,0.687,0.687,0,0,0-.72.7l0.015,2.34h-1.26a0.66,0.66,0,1,0,0,1.32h1.26v2.48c-0.54.18-1.08,0.34-1.62,0.51a0.647,0.647,0,0,0-.5.64,0.7,0.7,0,0,0,.72.72,5.3,5.3,0,0,0,1.395-.45v3.02Zm26.414-7.94a0.7,0.7,0,0,0,.66-0.67,0.682,0.682,0,0,0-.24-0.51,5.247,5.247,0,0,0-1.83-1.05,0.585,0.585,0,0,0-.6.58,0.562,0.562,0,0,0,.315.5,5.009,5.009,0,0,1,1.2.91A0.658,0.658,0,0,0,847.8,1082.16Zm0.525,1.59a0.629,0.629,0,0,0,.6-0.64,0.582,0.582,0,0,0-.6-0.6h-0.105l-2.625.31v-0.46c0-.98.03-1.94,0.06-2.79v-0.03a0.672,0.672,0,0,0-.705-0.71,0.7,0.7,0,0,0-.735.69c0,1.14.015,2.31,0.045,3.47l-0.81.09a0.668,0.668,0,0,0-.615.67,0.57,0.57,0,0,0,.615.59c0.03,0,.075-0.02.12-0.02l0.735-.09a18.737,18.737,0,0,0,.735,4.52,7.766,7.766,0,0,1-3.344,2.05,0.631,0.631,0,0,0-.48.6,0.706,0.706,0,0,0,.72.68,7.916,7.916,0,0,0,3.6-2.07c0.5,1.03,1.02,1.81,2,1.81,1.65,0,2.055-2.23,2.055-2.47a0.713,0.713,0,0,0-.75-0.72,0.606,0.606,0,0,0-.63.51c-0.15.82-.36,1.18-0.615,1.18-0.375,0-.825-0.88-1.065-1.42a9.768,9.768,0,0,0,1.74-3.72,0.709,0.709,0,0,0-.765-0.65,0.623,0.623,0,0,0-.645.5,8.216,8.216,0,0,1-.81,2.32,20.018,20.018,0,0,1-.4-3.27Zm-8.954-2.1a0.694,0.694,0,0,0,.7-0.72c0-.55-0.555-1.87-1.245-1.87a0.585,0.585,0,0,0-.63.51,0.531,0.531,0,0,0,.105.3,2.709,2.709,0,0,1,.525,1.3A0.522,0.522,0,0,0,839.373,1081.65Zm-1.245-.36c0-.49-0.84-1.92-1.53-1.92a0.648,0.648,0,0,0-.675.56,0.428,0.428,0,0,0,.165.34,2.837,2.837,0,0,1,.765,1.26,0.55,0.55,0,0,0,.555.42A0.694,0.694,0,0,0,838.128,1081.29Zm4.709,8.24a0.57,0.57,0,0,0,.585-0.6,0.589,0.589,0,0,0-.6-0.62l-2.655.02v-0.92c0.345,0,.69-0.01,1.02-0.03a1.47,1.47,0,0,0,1.515-1.36c0.014-.35.029-0.84,0.029-1.34s-0.015-.99-0.029-1.32a1.4,1.4,0,0,0-1.26-1.2,10.211,10.211,0,0,0,1.2-2.34,0.776,0.776,0,0,0-.81-0.64,0.518,0.518,0,0,0-.525.33,15.76,15.76,0,0,1-1.26,2.61c-0.765,0-1.53.01-2.205,0.03a1.343,1.343,0,0,0-1.5,1.32c-0.015.37-.015,0.91-0.015,1.45,0,0.41,0,.8.015,1.11,0.06,1.38,1.32,1.38,2.52,1.38v0.92l-2.49-.02a0.6,0.6,0,0,0-.615.62,0.574,0.574,0,0,0,.6.6h0.015l2.49-.05v2.06a0.617,0.617,0,0,0,.645.66,0.64,0.64,0,0,0,.66-0.66v-2.06l2.655,0.05h0.014Zm-1.3-5.3h-1.425v-1.06c1.05,0,1.41.09,1.425,0.64v0.42Zm0,1.46c-0.015.49-.165,0.67-1.425,0.67v-1.09h1.425v0.42Zm-2.61-1.46h-1.41c0-.15.015-0.28,0.015-0.4,0.045-.6.45-0.66,1.395-0.66v1.06Zm0,2.13c-1.395,0-1.41-.15-1.41-1.09h1.41v1.09Zm24.794,3.36a0.832,0.832,0,1,0-1.035-1.3c-2.61,2.05-5.279,2.2-5.369.01a41.678,41.678,0,0,1,.27-4.41c0.075-1,.18-2.43.21-3.37a0.818,0.818,0,0,0-1.635.03c0.03,0.93-.075,2.4-0.12,3.37-0.075,1.59-.24,2.87-0.18,4.44C855.993,1092.54,860.792,1092.11,863.717,1089.72Zm7.906,2.49a0.825,0.825,0,0,0,.81-0.82c0-1.02-2.4-2.34-2.925-2.34a0.665,0.665,0,0,0-.705.66,0.68,0.68,0,0,0,.4.6,5.774,5.774,0,0,1,1.845,1.57A0.671,0.671,0,0,0,871.623,1092.21Zm-288.991,24.87a0.686,0.686,0,0,0,.645-0.67,0.713,0.713,0,0,0-.285-0.54,4.975,4.975,0,0,0-1.86-.89,0.58,0.58,0,0,0-.6.57,0.569,0.569,0,0,0,.36.53,5.067,5.067,0,0,1,1.275.81A0.718,0.718,0,0,0,582.632,1117.08Zm1.38,1.53a0.6,0.6,0,0,0,.57-0.67,0.621,0.621,0,0,0-.6-0.69c-1.2,0-2.475-.02-3.78-0.02-0.03-.61-0.03-1.2-0.045-1.77a0.675,0.675,0,0,0-.735-0.67,0.7,0.7,0,0,0-.779.63c0,0.07.045,1.35,0.074,1.81-1.409,0-2.819.02-4.139,0.02a1.344,1.344,0,0,0-1.515,1.41v0.03c0.015,0.7.045,1.48,0.045,2.28a10.738,10.738,0,0,1-1.3,5.85,0.816,0.816,0,0,0-.15.45,0.684,0.684,0,0,0,.735.63,0.992,0.992,0,0,0,.825-0.5,11.462,11.462,0,0,0,1.365-6c0.33-.01.66-0.01,0.975-0.01,1.29,0,1.29.01,1.29,0.96,0,1.39-.315,1.77-1.125,1.77a2.959,2.959,0,0,1-.525-0.06,0.467,0.467,0,0,0-.165-0.02,0.629,0.629,0,0,0-.555.71c0,0.67.435,0.81,1.17,0.81a2.413,2.413,0,0,0,2.445-1.65,6.422,6.422,0,0,0,.15-1.62c0-.38-0.015-0.71-0.03-0.89a1.4,1.4,0,0,0-1.455-1.27c-0.285-.02-0.66-0.02-1.035-0.02s-0.78,0-1.14.02v-0.9a0.576,0.576,0,0,1,.615-0.62c1.17,0,2.4-.01,3.644-0.01a22.67,22.67,0,0,0,1.125,5.59,7.439,7.439,0,0,1-3.719,2.55,0.737,0.737,0,0,0-.57.71,0.714,0.714,0,0,0,.735.72,7.917,7.917,0,0,0,4.169-2.57c1.05,2.1,2.04,2.31,2.49,2.31,1.5,0,2.19-2.26,2.19-2.52a0.8,0.8,0,0,0-.81-0.73,0.628,0.628,0,0,0-.615.48c-0.285.81-.5,1.17-0.75,1.17-0.06,0-.615-0.12-1.5-1.91a14.717,14.717,0,0,0,2.025-4.03,0.857,0.857,0,0,0-.87-0.77,0.586,0.586,0,0,0-.585.41,15.767,15.767,0,0,1-1.2,2.74,20.278,20.278,0,0,1-.675-4.17c1.245,0,2.49.02,3.72,0.03h0.015Zm16.86,3.95a0.625,0.625,0,0,0,0-1.25h-8.219v-0.82h5.924a0.55,0.55,0,1,0,0-1.1h-5.924v-0.82h5.924a0.55,0.55,0,1,0,0-1.1h-5.894v-0.04a0.652,0.652,0,0,1,.705-0.74c0.9-.01,1.964-0.03,3.044-0.03,0.885,0,1.785.02,2.6,0.03h0.03a0.639,0.639,0,0,0,.69-0.64,0.65,0.65,0,0,0-.7-0.63c-0.705-.02-1.5-0.03-2.3-0.03-1.23,0-2.489.01-3.584,0.03a1.7,1.7,0,0,0-1.935,1.95c-0.015.73-.03,1.59-0.03,2.43,0,0.52,0,1.03.015,1.51h-2.055a0.631,0.631,0,0,0-.645.65,0.6,0.6,0,0,0,.645.6h2.055v3.81c-0.57.13-1.185,0.24-1.77,0.33a0.717,0.717,0,0,0-.675.7,0.739,0.739,0,0,0,.81.74,24.811,24.811,0,0,0,5.4-1.59,0.749,0.749,0,0,0,.539-0.66,0.672,0.672,0,0,0-.7-0.63,1.057,1.057,0,0,0-.33.07c-0.495.21-1.125,0.44-1.8,0.65v-3.42h1.545a7.735,7.735,0,0,0,6.554,5.5,0.783,0.783,0,0,0,.795-0.81,0.7,0.7,0,0,0-.6-0.72,7.233,7.233,0,0,1-3.615-1.47c2.55-.84,2.565-1.24,2.565-1.51a0.79,0.79,0,0,0-.75-0.77,0.66,0.66,0,0,0-.39.12,11.531,11.531,0,0,1-2.31,1.22,5.761,5.761,0,0,1-.81-1.56h5.2Zm15.345,3.16a0.832,0.832,0,1,0-1.035-1.3c-2.61,2.05-5.279,2.2-5.369.01a41.678,41.678,0,0,1,.27-4.41c0.075-1,.18-2.43.21-3.37a0.818,0.818,0,0,0-1.635.03c0.03,0.93-.075,2.4-0.12,3.37-0.075,1.59-.24,2.87-0.18,4.44C608.493,1128.54,613.292,1128.11,616.217,1125.72Zm16.44-4.68c0.945,0.32,1.35-1,.345-1.36a5.541,5.541,0,0,0-3.6-.08c-0.99.35-.525,1.58,0.255,1.29A5.319,5.319,0,0,1,632.657,1121.04Zm0,6.08a0.781,0.781,0,1,0-.2-1.55c-1.755.15-2.67,0.23-3.435-.55-0.78-.8-1.709.39-1.064,1.11A5.39,5.39,0,0,0,632.657,1127.12Zm-5.594-7.86a10.117,10.117,0,0,0,1.514-.6,0.716,0.716,0,1,0-.584-1.29c-0.18.1-.36,0.21-0.57,0.31a4.568,4.568,0,0,0-.015-1.2c-0.15-.82-1.56-0.78-1.5.08a6.537,6.537,0,0,1,.015,1.62,4.119,4.119,0,0,1-2.07-.09c-1.125-.41-1.275.96-0.51,1.29a4.375,4.375,0,0,0,2.19.21,46.431,46.431,0,0,1-2.625,6.51,0.8,0.8,0,1,0,1.41.7A58.876,58.876,0,0,0,627.063,1119.26Zm23.489,3.24a5.726,5.726,0,0,0-2.25-3.48c-0.9-.68-1.71.43-0.99,0.93a4.719,4.719,0,0,1,1.665,2.91A0.808,0.808,0,0,0,650.552,1122.5ZM644,1124.97a6.8,6.8,0,0,0,.585-1.15,0.737,0.737,0,0,0-1.365-.54,5.625,5.625,0,0,1-.5.88c-0.33.45-.525,0.41-0.915,0.03a5.757,5.757,0,0,1-1.185-3.87c-0.03-.69.03-0.72,0-1.3a0.765,0.765,0,1,0-1.53.01,15.068,15.068,0,0,0,.075,1.67,7.739,7.739,0,0,0,1.7,4.8C641.7,1126.4,643.038,1126.53,644,1124.97Zm18.269,2.55a0.645,0.645,0,0,0,.735.6,0.652,0.652,0,0,0,.735-0.6v-4c0.66-.02,1.305-0.03,1.905-0.06a1.653,1.653,0,0,0,1.635-1.47,12.475,12.475,0,0,0,.075-1.35c0-.48-0.03-0.99-0.075-1.46a1.62,1.62,0,0,0-1.56-1.35c-0.615-.01-1.29-0.03-1.98-0.03v-2.05a0.689,0.689,0,0,0-.75-0.65,0.659,0.659,0,0,0-.72.65v2.05c-0.645,0-1.244.02-1.784,0.03a1.521,1.521,0,0,0-1.635,1.46c-0.03.46-.045,0.97-0.045,1.48,0,0.44.015,0.86,0.045,1.25a1.55,1.55,0,0,0,1.665,1.44c0.54,0.03,1.139.04,1.754,0.06v4Zm-6.029-.01v0.03a0.662,0.662,0,0,0,.735.64,0.707,0.707,0,0,0,.765-0.67l0.165-8.85a11.683,11.683,0,0,0,1.485-2.79,0.805,0.805,0,0,0-.825-0.75,0.721,0.721,0,0,0-.675.48,13.573,13.573,0,0,1-3.585,5.14,0.738,0.738,0,0,0-.255.54,0.693,0.693,0,0,0,.705.68c0.33,0,.66-0.15,1.68-1.35Zm7.5-8.45c1.725,0,2.085,0,2.13.65,0.015,0.24.03,0.54,0.03,0.84,0,0.37-.015.75-0.03,1.05-0.045.66-.525,0.67-2.13,0.67v-3.21Zm-1.47,3.21c-0.435-.01-0.855-0.03-1.244-0.04-0.765-.05-0.78-0.44-0.78-1.58,0-1.08.03-1.54,0.765-1.56,0.4-.01.824-0.01,1.259-0.01v3.19Zm19.89-1.98v0.62c0,0.94.015,1.98,0.015,2.98,0,0.68-.015,1.32-0.03,1.92a0.788,0.788,0,0,1-.885.92,6.145,6.145,0,0,1-.795-0.09c-0.045,0-.075-0.02-0.12-0.02a0.607,0.607,0,0,0-.585.66c0,0.66.54,0.8,1.59,0.8,1.71,0,2.235-.93,2.235-2,0-.52-0.015-1.15-0.015-1.86,0-1.9-.03-4.23-0.03-6.48v-1.12a1.4,1.4,0,0,0-1.575-1.34c-0.255-.01-0.675-0.01-1.11-0.01-0.585,0-1.215,0-1.5.01a1.275,1.275,0,0,0-1.335,1.19c-0.015.52-.03,1.06-0.03,1.59,0,0.31,0,.64.015,0.94,0.045,1.32,1.29,1.32,3.06,1.32C681.5,1120.32,681.887,1120.31,682.157,1120.29Zm-1.98,4.76c0.015-.32.015-0.68,0.015-1.07,0-.61-0.015-1.27-0.06-1.8a1.408,1.408,0,0,0-1.365-1.23c-0.435-.01-0.93-0.03-1.424-0.03-0.4,0-.825.02-1.215,0.03a1.39,1.39,0,0,0-1.41,1.34c-0.03.6-.06,1.38-0.06,2.05,0,0.26,0,.51.015,0.72a1.46,1.46,0,0,0,1.485,1.4c0.4,0.03.855,0.04,1.3,0.04,0.434,0,.884-0.01,1.289-0.04A1.483,1.483,0,0,0,680.177,1125.05Zm-7.3,2.43c0.045-2.12.06-4.22,0.06-5.84v-1.35c0.27,0.02.645,0.03,1.035,0.03,2.955,0,2.985-.37,2.985-2.26,0-.53-0.015-1.07-0.03-1.59a1.3,1.3,0,0,0-1.365-1.19c-0.285-.01-0.885-0.01-1.455-0.01-1.53,0-2.565,0-2.565,1.47-0.03,3.25,0,7.99-.105,10.74v0.03A0.727,0.727,0,0,0,672.873,1127.48Zm6.434-10.17c0-.15.015-0.32,0.015-0.45,0.03-.48.2-0.48,1.395-0.48,1.38,0,1.41.01,1.41,0.93h-2.82Zm2.85,1.9c-0.21.02-.69,0.02-1.185,0.02-1.59,0-1.635-.06-1.65-0.48,0-.14-0.015-0.29-0.015-0.45h2.85v0.91Zm-9.224-1.9c0-.12.015-0.24,0.015-0.35,0.03-.54.135-0.58,1.365-0.58,1.2,0,1.275.04,1.305,0.46,0,0.15.015,0.3,0.015,0.47h-2.7Zm2.7,0.99c0,0.16-.015.31-0.015,0.45-0.015.42-.12,0.48-1.575,0.48-0.45,0-.9,0-1.11-0.02v-0.91h2.7Zm0.21,4.78c0-.16.03-0.31,0.03-0.45a0.582,0.582,0,0,1,.585-0.6c0.36-.01.765-0.01,1.14-0.01,1.019,0,1.3.04,1.334,0.6,0,0.13.03,0.28,0.03,0.46h-3.119Zm3.134,1.07c0,0.21-.015.42-0.015,0.58-0.03.59-.465,0.6-1.574,0.6-1.545,0-1.56-.01-1.56-1.18h3.149Zm15.255-7.25a2.815,2.815,0,0,0,.12-0.87,0.766,0.766,0,0,0-1.5.08,6.356,6.356,0,0,1-.165,1.26,1.443,1.443,0,0,0-.225.03,2.345,2.345,0,0,1-1.41-.03c-1.05-.71-1.785.7-0.705,1.24a3.025,3.025,0,0,0,1.86.17,12.923,12.923,0,0,1-.7,1.33,7.487,7.487,0,0,1-1.215,1.41c-0.9.81,0.195,1.67,1.02,0.93a2.926,2.926,0,0,0,.345-0.39,0.339,0.339,0,0,0,.06-0.06c0.975-1.12,2.13-1.27,2.534-.01-0.284.16-.524,0.33-0.734,0.46-2.715,1.79-3.075,3.81-1.05,4.95a6.549,6.549,0,0,0,4.094.21c1.38-.36.96-1.98-0.36-1.57a4.839,4.839,0,0,1-2.969.12c-0.84-.42-1.065-1.32.8-2.52,0.12-.08.254-0.15,0.389-0.23,0,0.32-.015.66-0.03,0.98a0.684,0.684,0,0,0,.675.85,0.883,0.883,0,0,0,.795-0.93,12,12,0,0,0-.03-1.65c0.6-.28,1.275-0.58,1.9-0.82,0.8-.3,1.14-0.38,1.62-0.62a0.8,0.8,0,1,0-.84-1.35,10.625,10.625,0,0,1-1.17.56c-0.585.25-1.215,0.57-1.83,0.88a2.182,2.182,0,0,0-2.519-1.3,15.926,15.926,0,0,0,.72-1.52,8.142,8.142,0,0,0,1.649-.49c1.11-.56.3-1.8-0.525-1.31a5.276,5.276,0,0,1-.63.27Zm21.99-.21a0.576,0.576,0,1,0,0-1.15h-3.345v-0.33a0.714,0.714,0,0,0-1.38,0v0.33h-2.024v-0.33a0.6,0.6,0,0,0-.675-0.53,0.608,0.608,0,0,0-.69.53v0.33h-3.24a0.577,0.577,0,1,0,0,1.15h3.24v0.12a0.7,0.7,0,0,0,1.365,0v-0.12H711.5v0.12a0.711,0.711,0,0,0,1.38,0v-0.12h3.345Zm0.225,6.32a0.553,0.553,0,0,0,.57-0.57,0.567,0.567,0,0,0-.585-0.59l-5.909.02a1.048,1.048,0,0,0,.4-0.59c0.915,0,1.83,0,2.61-.03,1.38-.04,1.425-0.87,1.425-2.02,0-.9-0.105-1.74-1.35-1.79-0.855-.03-1.98-0.04-3.074-0.04s-2.16.01-2.895,0.04c-1.365.06-1.44,0.69-1.44,1.89,0,1.91.135,1.95,3.3,1.95-0.2.21-.39,0.41-0.585,0.59l-4.3-.02a0.57,0.57,0,0,0-.585.6,0.532,0.532,0,0,0,.57.56h0.015l2.955-.05a12.664,12.664,0,0,1-3.135,1.56,0.618,0.618,0,0,0-.45.6,0.655,0.655,0,0,0,.66.66,8.8,8.8,0,0,0,2.355-1.06,0.51,0.51,0,0,0,.54.54h0.03c0.45-.02,1.02-0.02,1.605-0.02a3.954,3.954,0,0,1-3.06,1.62,0.675,0.675,0,0,0-.63.66,0.656,0.656,0,0,0,.705.65c0.165,0,3.285-.24,4.41-2.94h1.589c0.27,0,.42.09,0.42,0.33,0,0.9-.345,1.24-0.915,1.24a2.376,2.376,0,0,1-.66-0.12,0.816,0.816,0,0,0-.255-0.04,0.563,0.563,0,0,0-.584.58c0,0.38.285,0.72,1.634,0.72,1.785,0,2.13-1.41,2.13-2.47a1.418,1.418,0,0,0-.27-0.9,7.4,7.4,0,0,0,2.64,1.09,0.742,0.742,0,0,0,.765-0.75,0.609,0.609,0,0,0-.54-0.61,9.81,9.81,0,0,1-3.345-1.35l3.225,0.06h0.015Zm-2.835-4.07h-6.119l0.015-.1c0.03-.53.09-0.53,3.18-0.53,2.8,0,2.879,0,2.924.48v0.15Zm0,0.98a0.47,0.47,0,0,1-.57.43c-0.63.02-1.395,0.02-2.145,0.02-1.049,0-2.084,0-2.789-.02-0.435,0-.57-0.07-0.6-0.42,0-.06-0.015-0.12-0.015-0.19h6.119v0.18Zm-2.115,3.01a12.217,12.217,0,0,0,1.635,1.29,1.725,1.725,0,0,0-.48-0.06c-0.48,0-1.1-.01-1.74-0.01a2.432,2.432,0,0,0,.045-0.39,0.631,0.631,0,0,0-.674-0.62,0.6,0.6,0,0,0-.66.56,4.284,4.284,0,0,1-.045.45c-0.615,0-1.215.01-1.68,0.01a12.991,12.991,0,0,0,1.56-1.23H711.5Zm21.06,1.65a0.6,0.6,0,0,0,.615-0.63,0.58,0.58,0,0,0-.615-0.61l-4.875.01,0.015-.43a0.719,0.719,0,0,0-.075-0.32c1.7,0,3.435-.03,4.365-0.03a0.549,0.549,0,0,0,0-1.09h-0.015c-0.855.01-2.5,0.03-4.1,0.04v-0.76h3.03a0.425,0.425,0,0,0,.42-0.47,0.419,0.419,0,0,0-.42-0.45h-3.03v-0.66h3.03a0.458,0.458,0,0,0,0-.91h-3.03v-0.68c1.53,0,3.06,0,3.825.02h0.015a0.505,0.505,0,0,0,.48-0.56,0.493,0.493,0,0,0-.45-0.55c-0.765-.02-2.235-0.03-3.72-0.03a2.652,2.652,0,0,0,.45-0.93,0.717,0.717,0,0,0-.75-0.62,0.6,0.6,0,0,0-.554.33c-0.225.48-.45,0.9-0.63,1.22-0.75,0-1.44.01-2,.01,0.12-.16.255-0.33,0.39-0.49a0.564,0.564,0,0,0,.135-0.38,0.733,0.733,0,0,0-.735-0.67,0.661,0.661,0,0,0-.57.34,9.73,9.73,0,0,1-2.805,3.17,0.629,0.629,0,0,0-.3.52,0.689,0.689,0,0,0,.675.66,1.89,1.89,0,0,0,1.14-.79c-0.03.67-.045,1.44-0.045,2.02a1.412,1.412,0,0,0,1.56,1.73c0.585,0.01,1.425.01,2.37,0.01a0.718,0.718,0,0,0-.06.32l0.015,0.43-4.785-.01a0.616,0.616,0,0,0-.63.64,0.578,0.578,0,0,0,.615.6h0.015l4.1-.09a13.217,13.217,0,0,1-4.485,2.24,0.657,0.657,0,0,0-.525.63,0.672,0.672,0,0,0,.69.66,14.515,14.515,0,0,0,5.025-2.63l-0.03,2.34v0.02a0.611,0.611,0,0,0,.69.57,0.628,0.628,0,0,0,.7-0.57v-0.02l-0.03-2.4a15.655,15.655,0,0,0,4.95,2.58,0.789,0.789,0,0,0,.75-0.79,0.584,0.584,0,0,0-.45-0.59,14.715,14.715,0,0,1-4.605-2.04l4.23,0.09h0.015Zm-6-6.31h-2.79l0.015-.18a0.447,0.447,0,0,1,.5-0.48c0.51,0,1.335-.02,2.28-0.02v0.68Zm0,1.57h-2.835c0-.22.015-0.45,0.015-0.66h2.82v0.66Zm0,1.68c-0.9,0-1.71,0-2.205-.01a0.559,0.559,0,0,1-.63-0.59v-0.16h2.835v0.76Zm21.659,4.2a0.832,0.832,0,1,0-1.035-1.3c-2.61,2.05-5.279,2.2-5.369.01a41.678,41.678,0,0,1,.27-4.41c0.075-1,.18-2.43.21-3.37a0.818,0.818,0,0,0-1.635.03c0.03,0.93-.075,2.4-0.12,3.37-0.075,1.59-.24,2.87-0.18,4.44C740.493,1128.54,745.292,1128.11,748.217,1125.72Zm11.746-6.61c0.015,0.58.045,1.17,0.075,1.74a6.471,6.471,0,0,1-2.34.13,0.746,0.746,0,1,0-.315,1.44,8.132,8.132,0,0,0,2.73-.16c0.03,0.46.06,0.88,0.089,1.24s0.06,0.66.075,0.98a5.021,5.021,0,0,0-2.864.25,1.609,1.609,0,0,0-.12,3.08,3.06,3.06,0,0,0,4.2-1.37,7.228,7.228,0,0,1,1.1.81c0.945,0.87,1.92-.49.915-1.32a6.972,6.972,0,0,0-1.86-1.06c-0.03-.54-0.075-1.08-0.12-1.49-0.045-.43-0.075-0.9-0.105-1.41,0.435-.1.915-0.24,1.44-0.39,1.335-.37.765-1.75-0.345-1.39-0.4.13-.78,0.24-1.14,0.34-0.015-.55-0.015-1.11-0.015-1.66,0.345-.06.72-0.14,1.125-0.2,1.305-.21.9-1.6-0.09-1.38-0.36.08-.705,0.17-1.02,0.23,0.015-.6.045-1.2,0.09-1.74a0.765,0.765,0,0,0-1.529.01c-0.015.48-.015,1.19,0,1.98a8.88,8.88,0,0,1-2.325.11c-1.365-.17-1.3,1.39-0.15,1.42a13.027,13.027,0,0,0,2.355-.18Zm0.18,6.72a1.658,1.658,0,0,1-2.31.84,0.457,0.457,0,0,1,.045-0.86A3.268,3.268,0,0,1,760.143,1125.83Zm17.114-1.32a5.34,5.34,0,0,1-1.709,2.2c-1.3.93,0,2,1,1.2,1.589-1.27,3.179-4.45,1.844-6.55-0.015-.33-0.045-0.65-0.045-0.86,0-.43-0.015-0.9-0.03-1.38,0.39-.01.75-0.03,1.1-0.03,0.93,0.02,1.29.02,2.355,0.11,1.2,0.09,1.26-1.5,0-1.53-1.02-.02-1.545,0-2.28,0-0.33,0-.72.01-1.155,0.04,0-.07.015-0.15,0.015-0.22,0.03-.41.075-1.1,0.06-1.44a0.788,0.788,0,0,0-1.575.04c0,0.48.09,0.54,0.075,1.47v0.27c-1.319.12-2.669,0.29-3.419,0.41-0.63.1-1.605,0.21-2.205,0.31a0.765,0.765,0,1,0,.12,1.52c0.45-.08,1.155-0.27,2.235-0.44,0.78-.12,2.025-0.3,3.284-0.42,0.015,0.44.03,0.89,0.045,1.22a3.041,3.041,0,0,0-1.289.13,2.075,2.075,0,0,0-1.2,2.82A1.918,1.918,0,0,0,777.257,1124.51Zm-0.015-2.45a0.683,0.683,0,0,1,.09.57,0.891,0.891,0,0,1-1.724.26,0.917,0.917,0,0,1,.435-1.14,0.976,0.976,0,0,1,.959.06A1.627,1.627,0,0,1,777.242,1122.06Zm12.466,4.44a1.71,1.71,0,1,0-1.71,1.71A1.712,1.712,0,0,0,789.708,1126.5Zm-0.57,0a1.14,1.14,0,0,1-2.28,0A1.14,1.14,0,0,1,789.138,1126.5Z" transform="translate(-571.656 -970.781)"/>
</svg>
