<svg xmlns="http://www.w3.org/2000/svg" width="586.344" height="44.062" viewBox="0 0 586.344 44.062">
  <metadata><?xpacket begin="﻿" id="W5M0MpCehiHzreSzNTczkc9d"?>
<x:xmpmeta xmlns:x="adobe:ns:meta/" x:xmptk="Adobe XMP Core 5.6-c138 79.159824, 2016/09/14-01:09:01        ">
   <rdf:RDF xmlns:rdf="http://www.w3.org/1999/02/22-rdf-syntax-ns#">
      <rdf:Description rdf:about=""/>
   </rdf:RDF>
</x:xmpmeta>
                                                                                                    
                                                                                                    
                                                                                                    
                                                                                                    
                                                                                                    
                                                                                                    
                                                                                                    
                                                                                                    
                                                                                                    
                                                                                                    
                                                                                                    
                                                                                                    
                                                                                                    
                                                                                                    
                                                                                                    
                                                                                                    
                                                                                                    
                                                                                                    
                                                                                                    
                                                                                                    
                           
<?xpacket end="w"?></metadata>
<defs>
    <style>
      .cls-1 {
        fill: #0071bd;
        fill-rule: evenodd;
      }
    </style>
  </defs>
  <path id="LAB_TRIP_ジモ活_への想い" data-name="LAB TRIP(ジモ活)への想い" class="cls-1" d="M404.859,643.505v1.05c0,4.951-.2,15.9-0.2,22.752,0,1.85,0,3.45.05,4.5,0.15,4.4,2.9,6.05,7.5,6.4,0.65,0.05,3.6.1,6.5,0.1,2.95,0,5.9-.05,6.55-0.1,2.151-.1,3.151-1.5,3.151-2.85a2.614,2.614,0,0,0-2.7-2.65h-0.25c-0.95.05-4.15,0.1-7.05,0.1-6.8,0-7.9,0-8.1-2.4-0.05-.85-0.1-3.1-0.1-5.95,0-6.951.15-17.5,0.3-20.7v-0.2a2.836,2.836,0,0,0-2.85-3.05,2.77,2.77,0,0,0-2.8,2.95v0.05Zm63.592,32.152a3.962,3.962,0,0,0-.3-1.45c-1.65-3.9-8.151-21.3-11.351-30.3a4.987,4.987,0,0,0-4.65-3.45,4.621,4.621,0,0,0-4.4,3.35c-10.95,30.8-11.1,31.2-11.1,32.1a2.686,2.686,0,0,0,2.85,2.5,2.843,2.843,0,0,0,2.8-2.05c0.75-2.4,1.9-6,3.15-9.95a0.628,0.628,0,0,1,.6-0.45c1.05-.05,4.4-0.05,7.4-0.05,2.25,0,4.3,0,5.1.05a0.536,0.536,0,0,1,.55.45c1.55,4.65,2.85,8.65,3.45,10.1a2.932,2.932,0,0,0,2.85,1.85A2.836,2.836,0,0,0,468.451,675.657Zm-11.351-15.2c0,0.15-.1.2-0.4,0.2-0.7,0-2.45.05-4.25,0.05-1.75,0-3.6-.05-4.6-0.05-0.3,0-.4-0.1-0.4-0.3,0-.45,3.251-9.8,4-11.8,0.35-1,.65-1.451.9-1.451,0.3,0,.55.5,0.85,1.4,0.8,2.45,2.3,7,3.85,11.7A0.544,0.544,0,0,1,457.1,660.456Zm47.535,6.751c0-4.651-2.9-8.951-8.3-9.351a1.09,1.09,0,0,1-.751-0.2,1.2,1.2,0,0,1,.8-0.3c3.5-.5,6-4.2,6-8,0-4.2-3.1-8.6-11.4-9.151-0.75-.05-1.8-0.1-2.9-0.1-4.25,0-9.8.1-9.951,6.35-0.1,3.2-.15,10-0.15,16.1,0,4.051,0,7.8.1,9.9,0.2,6.25,5.951,6.45,10.8,6.45,1.25,0,2.55-.05,3.2-0.1C500.735,678.307,504.635,672.557,504.635,667.207Zm-14.151-21.9c4.4,0,6.251,2.2,6.251,4.551a6,6,0,0,1-5.9,5.65c-0.9.05-2.2,0.05-3.4,0.05-3.3,0-4,0-4-1.05,0.05-2.9,0-5.75.1-6.951,0.15-1.9,1.15-2.3,4.35-2.3C489.184,645.255,490.484,645.3,490.484,645.3Zm1.8,28.4c-0.95.05-2.2,0.1-3.35,0.1-4.65,0-5.15-.6-5.4-2.45-0.15-1.35-.15-3.65-0.15-9.9,0-1,.45-1.15,5.1-1.15,1.25,0,2.55.05,3.8,0.15,4.6,0.35,6.6,3.25,6.6,6.2A7,7,0,0,1,492.284,673.707Zm42.349,2.15c0,1.7,1.5,2.55,3,2.55,1.55,0,3.1-.85,3-2.6-0.15-3.7-.25-9.8-0.25-15.8,0-4.9.05-9.75,0.15-13.151,0-1,0-1,4.95-1,1.2,0,2.65,0,4.351.1h0.2a2.429,2.429,0,0,0,2.4-2.65,2.524,2.524,0,0,0-2.6-2.7c-2.851.05-7.1,0.1-11.351,0.1-5.2,0-10.5-.05-13.5-0.1h-0.1a2.569,2.569,0,0,0-2.75,2.65,2.664,2.664,0,0,0,2.85,2.7c2.35,0,4.7-.1,6.6-0.1,2.951,0,3.1,0,3.1,1,0.1,2.651.1,6.8,0.1,11.2,0,6.6-.05,13.851-0.15,17.751v0.05Zm45.795-3.65c3.4,6.05,7.5,6.2,8.3,6.2a2.966,2.966,0,0,0,.6-5.9c-1.7-.2-2.85-1.15-4.1-3.2-1.75-2.8-3.15-5.851-5.6-8.551a2.67,2.67,0,0,1-.7-0.85c0-.15.15-0.2,0.5-0.3a9.43,9.43,0,0,0,7.3-9.4c0-4.7-3.35-9.451-11.45-10-0.75-.05-1.9-0.1-3.051-0.1-4.2,0-9.9,0-10.05,6.4-0.05,2.051-.05,2.251-0.05,13.051,0,5.5,0,11.451-.15,16.1v0.1a2.519,2.519,0,0,0,2.7,2.5,2.779,2.779,0,0,0,2.95-2.75c0-1.8-.15-10-0.15-13.751,0-.9.7-0.95,1.65-0.95s2.1,0.05,2.75.05C574.277,660.906,577.228,666.657,580.428,672.207Zm-5.3-16c-0.9.05-2.2,0.1-3.451,0.1-3.5,0-4.15-.05-4.15-1.05,0.05-2.9,0-6.45.1-7.651,0.15-2.35,1.95-2.5,4.65-2.5,0.95,0,1.85,0,2.5.05,4.35,0.25,6.25,2.7,6.25,5.2A6.155,6.155,0,0,1,575.128,656.206Zm32.3,19.451c-0.1-6.15-.15-12.651-0.15-18.9,0-4.85.05-9.551,0.15-13.7v-0.1c0-1.65-1.5-2.45-2.95-2.45-0.9,0-3.151.55-3.051,2.65,0.15,4.05.25,8.6,0.25,13.351,0,6.45-.15,13.151-0.25,19.151v0.05a3.024,3.024,0,0,0,6,0v-0.05Zm18.859-.05v-1.95c0-3.3-.15-6.85-0.15-9.951,0-.4.05-0.55,0.3-0.55a0.976,0.976,0,0,1,.35.05,15.975,15.975,0,0,0,3.65.4,28.408,28.408,0,0,0,3.6-.25,11.8,11.8,0,0,0,10.85-11.9c0-5.4-3.65-10.751-11.55-11.251-0.751-.05-1.751-0.1-2.8-0.1-9.8,0-9.85,3.3-9.85,9.451,0,3.5.1,8.4,0.1,13.55,0,4.251-.05,8.651-0.25,12.551v0.15a2.659,2.659,0,0,0,2.85,2.55A2.708,2.708,0,0,0,626.291,675.607Zm6.55-30.2c4.5,0,6.451,2.8,6.451,5.8a6.951,6.951,0,0,1-6.1,7c-1.051.1-2.1,0.15-3.051,0.15-3.1,0-4.1-.35-4.1-1.4v-0.85c0-1.75-.05-3.8-0.05-5.55,0-4.651.45-5.2,4.45-5.2C631.641,645.355,632.841,645.405,632.841,645.405Zm30.527,35.864a2.119,2.119,0,0,0,1.98-2.088,1.78,1.78,0,0,0-.648-1.4,17.475,17.475,0,0,1-5.651-13.246,16.894,16.894,0,0,1,5.615-13.03,2.048,2.048,0,0,0,.792-1.548,1.945,1.945,0,0,0-1.908-1.908,2.1,2.1,0,0,0-1.4.612c-4.392,4.032-6.552,10.079-6.552,16.09,0,6.083,2.232,12.166,6.624,16.054A1.837,1.837,0,0,0,663.368,681.269Zm32.866-28c1.224,1.368,3.24-.9,1.8-2.339a11.49,11.49,0,0,0-3.636-2.052c-1.691-.54-2.987,1.656-1.151,2.376A13.241,13.241,0,0,1,696.234,653.264Zm-3.311,3.2c1.187,1.4,3.275-.792,1.871-2.3a11.128,11.128,0,0,0-3.563-2.159c-1.656-.612-3.1,1.547-1.26,2.3A12.728,12.728,0,0,1,692.923,656.468Zm-7.883,4.463a1.938,1.938,0,0,0-.18-2.807,19.692,19.692,0,0,0-4.788-2.988c-2.447-1.08-3.887,2.124-1.836,2.952a12.617,12.617,0,0,1,3.924,2.771A1.922,1.922,0,0,0,685.04,660.931Zm13.894-1.007c1.584-2.844-2.016-4.32-3.2-2.088-3.779,7.163-11.77,15.082-18.933,17.026a1.964,1.964,0,1,0,1.187,3.707C686.155,675.87,694.326,668.167,698.934,659.924Zm-18.178,6.731a1.946,1.946,0,0,0-.828-2.7,18.2,18.2,0,0,0-5.255-1.8c-2.628-.5-3.312,2.916-1.152,3.276a12.612,12.612,0,0,1,4.463,1.836A1.863,1.863,0,0,0,680.756,666.655Zm36.274,0.612c-0.036,1.368-.036,2.771-0.036,4.211a4.969,4.969,0,0,0,4.535,5.112,28.583,28.583,0,0,0,8.207.036c3.78-.5,2.736-4.464-0.324-3.78a21.875,21.875,0,0,1-6.443.468c-1.908-.18-2.592-1.188-2.592-2.7,0-1.044.036-2.2,0.072-3.347,3.6,0,7.2-.036,10.259-0.036,2.52,0,2.448-3.312.252-3.276-2.772.036-6.587,0.072-10.4,0.072,0.072-1.764.108-3.455,0.108-4.9,2.556-.036,5.04-0.036,6.8-0.108a1.646,1.646,0,1,0-.216-3.276c-3.923.108-11.338,0.216-15.118,0.036-2.771-.144-2.807,3.24-0.216,3.312,1.3,0.036,3.168.072,5.256,0.072,0,1.44-.036,3.059-0.072,4.859h-8.5a1.661,1.661,0,1,0,.108,3.312C711.054,667.3,713.97,667.267,717.03,667.267Zm53.27-5a1.6,1.6,0,1,0,0-3.167h-7.631V654.38c5.651-.9,6.335-1.368,6.335-2.7a1.619,1.619,0,0,0-1.619-1.656,2.446,2.446,0,0,0-.684.108,45.273,45.273,0,0,1-13.463,1.944,1.482,1.482,0,0,0-1.475,1.583,1.583,1.583,0,0,0,1.655,1.656c0.5,0,3.744-.216,5.8-0.468V659.1H751.8a1.59,1.59,0,1,0,0,3.167h7.415V666.8c-0.972,0-1.908.036-2.664,0.072-2.448.108-3.96,1.44-4.068,3.527-0.036.756-.072,1.584-0.072,2.448,0,1.008.036,2.052,0.072,3.1,0.144,3.6,3.1,3.779,8.567,3.779,1.62,0,3.24-.036,4.32-0.144,2.735-.216,4.139-1.62,4.247-3.743,0.036-.792.036-1.62,0.036-2.448,0-1.044,0-2.124-.072-3.132-0.108-2.015-2.015-3.311-4.211-3.383-0.792-.036-1.728-0.072-2.7-0.072v-4.536H770.3Zm-22.209-6.191a1.993,1.993,0,0,0,1.836-1.944c0-2.087-4.932-4.355-5.544-4.355a1.806,1.806,0,0,0-1.8,1.62,1.331,1.331,0,0,0,.684,1.116,14.967,14.967,0,0,1,3.635,2.951A1.55,1.55,0,0,0,748.091,656.072Zm-1.764,7.667a1.908,1.908,0,0,0,1.656-1.98,1.837,1.837,0,0,0-.756-1.511,13.149,13.149,0,0,0-5.291-2.124,1.775,1.775,0,0,0-1.728,1.728,1.2,1.2,0,0,0,.9,1.187,14.04,14.04,0,0,1,4.211,2.3A1.5,1.5,0,0,0,746.327,663.739ZM745.1,678.677c2.736-3.563,4.9-9,4.9-9.791a1.729,1.729,0,0,0-1.8-1.655,1.514,1.514,0,0,0-1.44.972,32.543,32.543,0,0,1-4.823,8.567,1.725,1.725,0,0,0-.432,1.079,1.871,1.871,0,0,0,1.908,1.764A2.066,2.066,0,0,0,745.1,678.677Zm21.022-5.579c0,3.528,0,3.528-5.076,3.528-3.851,0-5.039,0-5.111-1.728-0.036-.648-0.036-1.44-0.036-2.2,0-2.124,0-2.88,1.656-2.988,0.828-.036,2.088-0.072,3.383-0.072,4.356,0,4.968,0,5.112,1.476C766.089,671.766,766.125,672.45,766.125,673.1Zm14.457,7.6c4.427-3.816,6.7-9.863,6.7-15.91,0-6.011-2.2-12.022-6.623-15.982a2.252,2.252,0,0,0-1.44-.612,1.767,1.767,0,0,0-1.764,1.764,1.987,1.987,0,0,0,.792,1.548c3.636,3.059,5.471,7.991,5.471,12.994s-1.835,10.043-5.543,13.282a1.933,1.933,0,0,0-.684,1.4,2.009,2.009,0,0,0,1.908,1.98A1.851,1.851,0,0,0,780.582,680.693Zm53.765-6.636c3.85,1.9,6.5-3.35,3.25-5-6.951-3.6-13.9-9.651-20.3-14.251-3.6-2.6-6.95-3.25-11.3-.15-2.55,1.8-6.351,4.1-7.6,4.75-4,2.1-.4,6.651,2.9,4.7a66.9,66.9,0,0,0,7.4-5.6c2.1-1.65,3.4-1.75,5.9.1C820.4,662.906,828.3,671.057,834.347,674.057Zm36.174-24.151a12.969,12.969,0,0,1,6.2,2c4.95,3.15,6.3,9.7,2.75,15.3-1.65,2.6-5.5,4.75-9.3,5.6-4.3,1-2.751,6.05,1.65,4.9,4.95-1.3,9.85-4.4,12.2-8.25,4.351-7.151,3.1-16.351-4.65-21-6.3-3.8-15.451-3.1-21.6,1.15-6.7,4.65-10.051,13.95-6.9,20.151,2.2,4.3,6.4,6.25,10.251,2.7,4.8-4.45,9.3-13.9,10.1-20.251A2.5,2.5,0,0,0,870.521,649.906Zm-3.951.25a3.537,3.537,0,0,0-.45,1.55c-0.5,5.4-4,13.351-7.75,16.651-1.25,1.1-2.55.35-3.3-1.1-2.1-3.851.4-10.5,5.05-14.1A16.568,16.568,0,0,1,866.57,650.156Zm72.692,10.1c0.1-2.25.15-5.2,0.15-8.15s-0.05-5.951-.15-8.3c-0.1-2.25-1.8-4.15-4.8-4.3-1.35-.1-2.9-0.1-4.4-0.1-1.55,0-3.05,0-4.35.1-3.4.2-4.651,2.25-4.7,4.35-0.05,2.45-.1,5.451-0.1,8.4s0.05,5.8.1,8.05c0.1,2.55,1.551,4.4,4.651,4.5,1.45,0.05,3.1.1,4.8,0.1,1.35,0,2.75-.05,4-0.1A4.792,4.792,0,0,0,939.262,660.256Zm2.75,15.8c0-2.45-6-7.45-7.951-7.45a2.236,2.236,0,0,0-2.35,2.05,1.979,1.979,0,0,0,.9,1.55,17.79,17.79,0,0,1,4.85,5.25,2.126,2.126,0,0,0,1.9,1.2A2.691,2.691,0,0,0,942.012,676.057Zm-29.3-12.551s-0.2-3.8-.25-10.05a20.377,20.377,0,0,1,3.3,3.05,1.816,1.816,0,0,0,1.4.7,2.344,2.344,0,0,0,2.05-2.35c0-2.35-5.3-4.75-5.8-4.75a2.068,2.068,0,0,0-.95.25c0-.9.05-1.85,0.05-2.751l5.1,0.1h0.05a1.977,1.977,0,0,0,1.9-2.1,1.9,1.9,0,0,0-1.95-2h-5.05c0.05-2.5.15-4.25,0.15-4.25v-0.1a2.312,2.312,0,0,0-4.6.05v0.05l0.1,4.25h-6a2.064,2.064,0,0,0-2.2,2.05,2.023,2.023,0,0,0,2.15,2.051h0.05l5.951-.1a41.876,41.876,0,0,1-9.051,9.551,2.023,2.023,0,0,0-.95,1.7,2.4,2.4,0,0,0,2.3,2.3,2.334,2.334,0,0,0,1.55-.65,43.619,43.619,0,0,0,6.3-7.3l-0.2,10.3v0.05a2.331,2.331,0,0,0,4.6,0v-0.05Zm10.5,8.8a2.566,2.566,0,0,0,2.45-2.5c0-2.7-6.051-5.45-6.9-5.45a2.361,2.361,0,0,0-2.4,2.1,1.766,1.766,0,0,0,.95,1.45,14.486,14.486,0,0,1,4.25,3.55A2.083,2.083,0,0,0,923.211,672.307Zm8.6,1.95c0-1.2-1.35-1.95-2.65-1.95a1.894,1.894,0,0,0-2.15,1.85c0,2.4-1.95,2.7-6.4,2.7-3.35,0-5.05-.1-5.15-2.15,0-.55.05-4.35,0.05-5.45a2.216,2.216,0,0,0-2.4-2.1c-2.4,0-2.45,1.95-2.45,4.05,0,1.6.05,3.6,0.05,4,0,3.7,1.3,5.7,9.8,5.7C928.511,680.908,931.811,679.907,931.811,674.257Zm-30.552,5.85c3.1,0,7.8-6.3,7.8-8.4a2.411,2.411,0,0,0-2.45-2.2,2.025,2.025,0,0,0-1.951,1.4,12.792,12.792,0,0,1-4.55,4.8,2.161,2.161,0,0,0-1.3,1.95A2.485,2.485,0,0,0,901.259,680.107Zm23.8-33.452c0-.55.05-1.05,0.05-1.55,0.1-1.95,1-2,4.75-2,4.55,0,5.1.05,5.2,1.95,0,0.5.05,1.05,0.05,1.6h-10.05Zm10.1,7.151h-10.15v-3.55h10.15v3.55Zm-0.05,3.55c0,0.65-.05,1.3-0.05,1.9-0.05,1.9-.5,1.95-5.5,1.95-3.35,0-4.35-.05-4.45-1.9,0-.6-0.05-1.25-0.05-1.95h10.05Zm55.9,5.25c-0.5-4.25-3.951-8.95-7.5-11.6-3-2.25-5.7,1.45-3.3,3.1,2.7,1.85,4.75,5.7,5.55,9.7C986.456,667.257,991.407,666.257,991.007,662.606Zm-21.852,8.251a22.876,22.876,0,0,0,1.95-3.85c0.95-2.6-3.2-4.7-4.55-1.8a19.663,19.663,0,0,1-1.65,2.95c-1.1,1.5-1.75,1.35-3.05.1-2.8-2.7-3.75-7.651-3.95-12.9-0.1-2.3.1-2.4,0-4.35-0.15-3.751-5-3.1-5.1.05a49.806,49.806,0,0,0,.25,5.55c0.4,6.3,2.05,12.1,5.651,16C961.505,675.607,965.955,676.057,969.155,670.857Z" transform="translate(-404.656 -637.219)"/>
</svg>
