<svg xmlns="http://www.w3.org/2000/svg" width="233.531" height="33" viewBox="0 0 233.531 33">
  <metadata><?xpacket begin="﻿" id="W5M0MpCehiHzreSzNTczkc9d"?>
<x:xmpmeta xmlns:x="adobe:ns:meta/" x:xmptk="Adobe XMP Core 5.6-c138 79.159824, 2016/09/14-01:09:01        ">
   <rdf:RDF xmlns:rdf="http://www.w3.org/1999/02/22-rdf-syntax-ns#">
      <rdf:Description rdf:about=""/>
   </rdf:RDF>
</x:xmpmeta>
                                                                                                    
                                                                                                    
                                                                                                    
                                                                                                    
                                                                                                    
                                                                                                    
                                                                                                    
                                                                                                    
                                                                                                    
                                                                                                    
                                                                                                    
                                                                                                    
                                                                                                    
                                                                                                    
                                                                                                    
                                                                                                    
                                                                                                    
                                                                                                    
                                                                                                    
                                                                                                    
                           
<?xpacket end="w"?></metadata>
<defs>
    <style>
      .cls-1 {
        fill: #fff;
        fill-rule: evenodd;
      }
    </style>
  </defs>
  <path id="海外開発事業" class="cls-1" d="M783.14,3712.89a1.663,1.663,0,0,0,0-3.32l-13.712.11a5.034,5.034,0,0,0,.766-1.9,1.738,1.738,0,0,0-1.823-1.6,1.511,1.511,0,0,0-1.459.91,28.869,28.869,0,0,1-5.47,8.2,1.832,1.832,0,0,0-.547,1.17,1.74,1.74,0,0,0,1.823,1.57,2.044,2.044,0,0,0,1.459-.69,35.436,35.436,0,0,0,3.355-4.45H783.14Zm-22.792.73a2.029,2.029,0,0,0,1.859-2.01c0-1.86-4.3-4.16-5.215-4.16a1.831,1.831,0,0,0-1.823,1.65,1.36,1.36,0,0,0,.693,1.13,13,13,0,0,1,3.282,2.77A1.512,1.512,0,0,0,760.348,3713.62Zm23.376,19.95a1.457,1.457,0,0,0,1.5-1.5,1.427,1.427,0,0,0-1.5-1.49h-2.042c0.182-1.46.328-3.1,0.437-4.82h2.7a1.551,1.551,0,1,0,0-3.1h-2.553c0.037-1.46.073-2.84,0.073-4.01,0-2.26-1.641-3.36-4.048-3.43-0.948-.03-2.042-0.03-3.173-0.03-1.86,0-3.792.03-5.361,0.07-2.917.07-4.084,1.02-4.449,3.86-0.146,1.17-.328,2.37-0.474,3.54h-1.714a1.589,1.589,0,0,0-1.677,1.61,1.488,1.488,0,0,0,1.677,1.49H764.4a34.045,34.045,0,0,1-.73,3.47,5.007,5.007,0,0,0-.182,1.24c0,1.78,1.24,3.21,3.866,3.21h0.072l10.175-.08c-0.62,1.42-1.422,2.08-2.771,2.08a6.016,6.016,0,0,1-1.824-.29,2.55,2.55,0,0,0-.51-0.07,1.665,1.665,0,0,0-1.569,1.75,1.322,1.322,0,0,0,.985,1.38,11.9,11.9,0,0,0,2.881.4c3.1,0,5.288-1.67,6.346-5.28h2.589Zm-25.2-12a1.929,1.929,0,0,0,1.751-1.97,1.755,1.755,0,0,0-.8-1.53,13,13,0,0,0-4.959-1.97,1.8,1.8,0,0,0-1.751,1.75,1.241,1.241,0,0,0,.912,1.2,14.42,14.42,0,0,1,3.866,2.15A1.628,1.628,0,0,0,758.524,3721.57Zm-1.714,15.5c3.282-4.01,5.215-9.56,5.215-10.29a1.687,1.687,0,0,0-1.75-1.68,1.582,1.582,0,0,0-1.5,1.03,29.378,29.378,0,0,1-5.105,8.89,1.739,1.739,0,0,0-.474,1.17,1.889,1.889,0,0,0,1.9,1.79A2.212,2.212,0,0,0,756.81,3737.07Zm18.125-14.3c0.146-1.71.255-3.35,0.328-4.78,2.735,0,3.72,0,3.72,1.35,0,1.02,0,2.19-.036,3.43h-4.012Zm-6.965,0c0.182-1.24.328-2.44,0.437-3.35,0.182-1.39.912-1.43,3.756-1.43-0.073,1.43-.218,3.07-0.364,4.78H767.97Zm6.053,7.88c0.256-1.53.474-3.25,0.657-5h4.194c-0.11,1.79-.292,3.5-0.511,4.96Zm-5.944.03a1.047,1.047,0,0,1-1.131-1.02v-0.18c0.183-.98.4-2.37,0.62-3.83h3.975c-0.182,1.75-.364,3.43-0.62,5Zm45.187,6.39a1.579,1.579,0,0,0,1.787,1.46,1.6,1.6,0,0,0,1.787-1.46l-0.109-11.75c2.662,1.75,6.2,3.69,7.221,3.69a1.954,1.954,0,0,0,1.932-1.97,1.712,1.712,0,0,0-1.13-1.61,49.978,49.978,0,0,1-8.023-4.01l0.109-12.4a1.667,1.667,0,0,0-1.823-1.57,1.6,1.6,0,0,0-1.751,1.54v0.03l0.11,9.85c-0.693-.62-1.423-1.28-2.152-2.04a1.062,1.062,0,0,0-1.422-.22,21.546,21.546,0,0,0,.328-2.26c0-2.15-1.5-3.03-3.5-3.1-0.583,0-1.969,0-3.355.03a13.511,13.511,0,0,0,.656-2.55,1.722,1.722,0,0,0-1.787-1.68,1.835,1.835,0,0,0-1.787,1.53,34.5,34.5,0,0,1-6.746,14.41,1.856,1.856,0,0,0-.474,1.17,1.7,1.7,0,0,0,1.75,1.6,2.269,2.269,0,0,0,1.824-1.02,45.546,45.546,0,0,0,5.506-10.39c1.423-.04,3.246-0.11,3.246-0.11h0.109a0.783,0.783,0,0,1,.912.95,26.011,26.011,0,0,1-1.24,6.12,11.323,11.323,0,0,0-3.72-1.49,2.086,2.086,0,0,0-1.969,2,1.336,1.336,0,0,0,1.058,1.32,16.535,16.535,0,0,1,3.391,1.42,24.384,24.384,0,0,1-8.789,10.61,1.931,1.931,0,0,0-1.021,1.57,1.854,1.854,0,0,0,1.97,1.75,2.651,2.651,0,0,0,1.568-.55c6.09-4.45,9.773-11.6,11.56-18.93l0.037,0.04a35.775,35.775,0,0,0,4.048,3.79Zm47.85-17.84v1.5c0,2.3.036,5.07,0.036,7.69,0,1.72-.036,3.4-0.073,4.85-0.036,1.79-.875,2.23-2.078,2.23a14.034,14.034,0,0,1-1.97-.22c-0.109,0-.182-0.04-0.291-0.04a1.531,1.531,0,0,0-1.5,1.61c0,1.68,1.459,2,3.939,2,4.121,0,5.4-2.29,5.4-4.92,0-1.28-.036-2.81-0.036-4.56,0-4.67-.073-10.65-0.073-16.12v-2.7c0-1.6-1.094-2.99-3.829-3.13-0.62-.04-1.641-0.04-2.735-0.04-1.5,0-3.064,0-3.757.04a3.1,3.1,0,0,0-3.282,2.81c-0.036,1.24-.073,2.51-0.073,3.75,0,0.77,0,1.53.037,2.23,0.109,3.06,2.99,3.1,7.585,3.1C859.475,3719.31,860.459,3719.27,861.116,3719.23Zm-3.793,10.36a1.389,1.389,0,1,0,0-2.77h-2.917v-3.28h1.86a1.389,1.389,0,1,0,0-2.77h-13.64a1.489,1.489,0,0,0-1.6,1.42,1.4,1.4,0,0,0,1.6,1.35h2.225c0.036,0.84.073,1.75,0.073,2.7v0.58H841.97a1.5,1.5,0,0,0-1.605,1.42,1.405,1.405,0,0,0,1.605,1.35h2.844c-0.255,2.48-1.13,4.49-4.011,5.11a1.323,1.323,0,0,0-1.058,1.35,1.464,1.464,0,0,0,1.532,1.49,2.59,2.59,0,0,0,.693-0.11c4.121-1.24,5.58-3.94,5.981-7.84H851.2v5.94a1.606,1.606,0,0,0,3.21,0v-5.94h2.917Zm-18.854-10.36c0.656,0.04,1.568.08,2.553,0.08,7.366,0,7.4-.84,7.4-5.33,0-1.24-.037-2.51-0.073-3.75-0.073-1.61-1.5-2.74-3.355-2.81-0.693-.04-2.188-0.04-3.647-0.04-4.048,0-6.273.11-6.273,3.47-0.073,7.69,0,19.76-.255,26.51v0.07a1.6,1.6,0,0,0,1.714,1.53,1.654,1.654,0,0,0,1.787-1.6c0.109-5.22.146-10.72,0.146-14.81v-3.32Zm15.572-7.03c0-.37.036-0.73,0.036-1.06,0.073-1.1.474-1.13,3.5-1.13,3.319,0,3.465.03,3.465,2.19h-7Zm7.075,4.48c-0.511.04-1.751,0.04-2.954,0.04-3.246,0-4.048,0-4.085-1.13,0-.33-0.036-0.7-0.036-1.06h7.075v2.15Zm-22.647-4.48c0-.3.036-0.55,0.036-0.81,0.073-1.31.329-1.38,3.355-1.38,2.809,0,3.21.03,3.283,1.09,0,0.33.036,0.69,0.036,1.1h-6.71Zm6.71,2.33c0,0.36-.036.73-0.036,1.06-0.037.98-.292,1.13-3.9,1.13-1.13,0-2.224,0-2.771-.04v-2.15h6.71Zm6.017,12.29H848.06v-3.28H851.2v3.28Zm50.33,2.04a1.586,1.586,0,0,0,1.714-1.64,1.647,1.647,0,0,0-1.751-1.68l-6.783.04c0-1.64.037-3.17,0.037-4.27h0.583a1.577,1.577,0,0,0,1.714-1.6v-0.08c2.3,1.83,5.179,3.72,6.674,3.72a1.983,1.983,0,0,0,2.042-1.89,1.676,1.676,0,0,0-1.167-1.53,27.451,27.451,0,0,1-4.85-2.59c2.626-1.94,3.829-3.21,3.829-4.01a2.033,2.033,0,0,0-1.9-1.86,1.4,1.4,0,0,0-1.167.62,20.834,20.834,0,0,1-3.355,3.35c-0.62-.51-1.167-0.98-1.751-1.53,0.766-.62,3.574-2.99,3.574-4.23a1.967,1.967,0,0,0-1.9-1.82,1.376,1.376,0,0,0-1.2.69,19.726,19.726,0,0,1-2.7,3.17c-0.51-.55-0.984-1.09-1.458-1.64a1.313,1.313,0,0,0-.985-0.51c-0.474-2.01-2.334-2.04-4.668-2.04h-5.142a1.55,1.55,0,0,0,0,3.1c2.079,0,3.793-.04,5.142-0.08,0.365,0,.584.11,0.584,0.37,0,0.4-4.085,6.49-11.67,9.7a1.678,1.678,0,0,0-1.094,1.57,1.739,1.739,0,0,0,1.677,1.78c0.8,0,3.72-1.38,6.565-3.5a1.6,1.6,0,0,0,1.531.84h0.438v4.27l-6.054-.04a1.675,1.675,0,0,0-1.714,1.75,1.52,1.52,0,0,0,1.678,1.57h0.036l5.8-.11c-0.584,3.32-2.444,5.91-7.951,6.68a1.527,1.527,0,0,0-1.312,1.6,1.777,1.777,0,0,0,1.9,1.82,3.643,3.643,0,0,0,.62-0.07c7.257-1.49,9.591-5.62,10.248-10.06l3.938,0.03c-0.036,2.59-.036,4.85-0.036,5.33,0,4.19,4.157,4.23,6.126,4.23,4.96,0,7.4-1.32,7.4-5.62a1.862,1.862,0,0,0-1.969-2.01,1.564,1.564,0,0,0-1.677,1.65c0,2.15-1.131,2.73-3.465,2.73-1.787,0-2.954-.15-3.027-1.49,0-.48,0-2.45.037-4.78l6.819,0.07h0.037Zm-21.188-12.47a1.987,1.987,0,0,0,1.9-1.9,1.721,1.721,0,0,0-.474-1.13c-0.11-.11-3.136-2.7-4.6-2.7a1.78,1.78,0,0,0-1.824,1.61,1.26,1.26,0,0,0,.73,1.09,15.178,15.178,0,0,1,3.173,2.52A1.422,1.422,0,0,0,880.338,3716.39Zm4.558,1.71a38.863,38.863,0,0,0,4.923-5.54,53.948,53.948,0,0,0,5.4,5.54H884.9Zm2.662,7.48c0-.29-0.036-0.55-0.036-0.84v-3.43h3.829c-0.036,1.1-.036,2.63-0.036,4.27h-3.757Zm57.368,2.99a1.534,1.534,0,0,0,0-3.06h-3.355c0-.48-0.036-0.88-0.036-1.21-0.073-1.82-1.459-2.59-3.793-2.62-1.751-.04-3.793-0.04-5.944-0.04v-1.31c7.95,0,8.971-.04,9.226-2.37a11,11,0,0,0,.073-1.13c0-.37-0.036-0.77-0.073-1.17-0.109-1.5-1.13-2.15-3.464-2.19-1.423-.03-3.538-0.03-5.762-0.03v-1.43l10.831,0.04a1.46,1.46,0,1,0,0-2.92l-10.831.04v-1.5a1.569,1.569,0,0,0-1.642-1.64,1.6,1.6,0,0,0-1.677,1.64l0.036,1.5-11.013-.04a1.46,1.46,0,1,0,0,2.92l11.013-.04v1.43c-2.224,0-4.339.03-5.725,0.03-3.355,0-3.793,1.13-3.793,3.54,0,3.24.8,3.32,9.518,3.32v1.27c-3.245,0-6.528,0-9.117.04a1.329,1.329,0,0,0-1.386,1.35,1.176,1.176,0,0,0,1.2,1.24h0.036c2.371-.04,5.835-0.07,9.263-0.07v1.53H915.1a1.368,1.368,0,0,0,0,2.73h13.42v1.64c-3.282,0-6.564-.03-9.263-0.07h-0.036a1.312,1.312,0,0,0-1.386,1.35,1.329,1.329,0,0,0,1.386,1.35c2.917,0.04,6.127.04,9.3,0.04l-0.036.95c0,1.34-.875,1.71-1.969,1.71a8.557,8.557,0,0,1-1.933-.26,3.427,3.427,0,0,0-.547-0.07,1.578,1.578,0,0,0-1.605,1.64c0,1.9,2.662,1.93,3.829,1.93,3.72,0,5.58-2.04,5.58-4.23v-0.03l-0.036-1.68c2.078,0,4.084-.04,5.98-0.04,3.574,0,3.83-1.93,3.83-4.08h3.318ZM931.8,3715.81c1.9,0,3.61.03,4.667,0.03,1.022,0,1.2.33,1.2,0.91,0,1.06-.109,1.06-5.871,1.06v-2Zm6.564,9.88H931.8v-1.5c2.042,0,3.9,0,5.4.04a1,1,0,0,1,1.13.98Zm-9.847-7.88c-5.178,0-6.053-.04-6.053-0.66v-0.8c0.073-.33.364-0.51,1.13-0.51,1.131,0,2.954-.03,4.923-0.03v2Zm9.847,10.61c0,0.19-.037.37-0.037,0.55a1.023,1.023,0,0,1-1.13,1.02c-1.678.04-3.5,0.07-5.4,0.07v-1.64h6.564Zm45.333,0.95a1.248,1.248,0,0,0,1.313-1.35,1.285,1.285,0,0,0-1.349-1.38l-11.926.07,0.037-1.61,8.169,0.04a1.22,1.22,0,1,0,0-2.44l-8.133.03v-1.56l9.993,0.03a1.267,1.267,0,0,0,1.349-1.31,1.282,1.282,0,0,0-1.349-1.35l-6.346.04a7.344,7.344,0,0,0,.657-1.79,1.4,1.4,0,0,0-.912-1.2l8.789,0.03a1.438,1.438,0,0,0,1.5-1.53,1.4,1.4,0,0,0-1.459-1.49h-0.036l-4.96.07c1.751-2.23,1.751-2.95,1.751-3.06a1.846,1.846,0,0,0-1.9-1.65,1.6,1.6,0,0,0-1.531,1.1,21.727,21.727,0,0,1-1.824,3.65l-1.24.03,0.073-4.85v-0.03a1.5,1.5,0,0,0-1.6-1.5,1.52,1.52,0,0,0-1.642,1.53v4.85H969v-4.85a1.539,1.539,0,0,0-1.641-1.53,1.479,1.479,0,0,0-1.6,1.5v0.03l0.036,4.85-1.276-.03a11.511,11.511,0,0,0-2.954-4.38,1.4,1.4,0,0,0-.839-0.22,1.8,1.8,0,0,0-1.824,1.46,1.213,1.213,0,0,0,.329.77,13.858,13.858,0,0,1,1.9,2.33l-4.777-.07h-0.037a1.433,1.433,0,0,0-1.5,1.49,1.468,1.468,0,0,0,1.532,1.53l8.351-.03a1.106,1.106,0,0,0-.912.94,0.815,0.815,0,0,0,.183.55,9.457,9.457,0,0,1,.729,1.5l-6.382-.04a1.331,1.331,0,1,0,0,2.66l10.065-.03v1.56l-8.205-.03a1.22,1.22,0,1,0,0,2.44l8.242-.04,0.036,1.61-11.925-.07a1.335,1.335,0,0,0-1.386,1.38,1.277,1.277,0,0,0,1.35,1.35h0.036l8.862-.18h1.2a36.475,36.475,0,0,1-11.341,5.87,1.649,1.649,0,0,0-1.277,1.46,1.761,1.761,0,0,0,1.86,1.64c1.167,0,8.1-3.14,12.618-6.78l-0.073,6.23v0.04a1.5,1.5,0,0,0,1.714,1.39,1.545,1.545,0,0,0,1.714-1.39v-0.04l-0.073-6.27c5.544,4.3,11.889,6.67,12.619,6.67a2.025,2.025,0,0,0,1.932-2,1.464,1.464,0,0,0-1.13-1.42c-4.158-1.39-7.987-2.7-11.78-5.4h1.1l9.19,0.18H983.7Zm-10.43-13.78a0.872,0.872,0,0,0-.365.62,10.654,10.654,0,0,1-.765,2.37h-4.012l-0.036-.11a4.178,4.178,0,0,0-1.86-2.88h7.038Z" transform="translate(-752.75 -3706.03)"/>
</svg>
