<svg xmlns="http://www.w3.org/2000/svg" width="491" height="92" viewBox="0 0 491 92">
  <metadata><?xpacket begin="﻿" id="W5M0MpCehiHzreSzNTczkc9d"?>
<x:xmpmeta xmlns:x="adobe:ns:meta/" x:xmptk="Adobe XMP Core 5.6-c138 79.159824, 2016/09/14-01:09:01        ">
   <rdf:RDF xmlns:rdf="http://www.w3.org/1999/02/22-rdf-syntax-ns#">
      <rdf:Description rdf:about=""/>
   </rdf:RDF>
</x:xmpmeta>
                                                                                                    
                                                                                                    
                                                                                                    
                                                                                                    
                                                                                                    
                                                                                                    
                                                                                                    
                                                                                                    
                                                                                                    
                                                                                                    
                                                                                                    
                                                                                                    
                                                                                                    
                                                                                                    
                                                                                                    
                                                                                                    
                                                                                                    
                                                                                                    
                                                                                                    
                                                                                                    
                           
<?xpacket end="w"?></metadata>
<defs>
    <style>
      .cls-1 {
        fill: #0071bd;
        fill-rule: evenodd;
      }
    </style>
  </defs>
  <path id="ネオラボ東京本社から社長が_面接官として_あなたの地元に_" data-name="ネオラボ東京本社から社長が、 面接官として、あなたの地元に。" class="cls-1" d="M128.691,254.6a1.832,1.832,0,0,0-.432-2.569c-1.926-1.462-5.62-2.016-7.781-2.174-2.476-.158-2.712,3.123-0.629,3.241a16.735,16.735,0,0,1,6.445,2.055A1.629,1.629,0,0,0,128.691,254.6Zm9.275,19.208a2.024,2.024,0,0,0,0-2.767c-1.493-1.659-4.794-3.24-7.152-4.11-2.437-.869-3.616,2.174-1.651,2.846a18.349,18.349,0,0,1,6.209,4.11A1.709,1.709,0,0,0,137.966,273.807Zm-11.75-7.746c1.179-1.147,2.279-2.332,3.261-3.439,2.083-2.371,1.376-5.335-2.475-5.217-2.948.079-9,.119-11.672,0.316-2.83.238-2.712,3.834,0.2,3.676,2.515-.119,7.388-0.395,9.471-0.435,0.9-.039.826,0.316,0.315,0.909-2.633,3-8.764,8.458-14.816,10.75-2.908,1.107-1.1,4.664,1.493,3.557a44.387,44.387,0,0,0,10.808-6.955c0.039,3.24-.315,7.588-0.472,11.145a1.885,1.885,0,0,0,2.083,2.055,2.049,2.049,0,0,0,1.925-2.253c-0.117-3.675,0-8.537.079-11.461A9.011,9.011,0,0,0,126.216,266.061Zm38.086-3.637c2.162,0,4.323.08,6.367,0.159,2.947,0.158,3.144-3.715.118-3.755-2.083-.039-4.284,0-6.524,0-0.039-2.253-.079-4.189-0.079-5.3,0-2.49-3.969-2.766-3.812.158,0.04,1.028.118,2.925,0.2,5.178-4.245.039-8.528,0.118-12.458,0.276a1.835,1.835,0,1,0,.118,3.636c3.3-.118,6.8-0.237,10.3-0.316a35.631,35.631,0,0,1-13.2,12.292c-2.476,1.3-.551,5.059,2.711,2.964a45.594,45.594,0,0,0,12.773-12.055c0.118,4.15.235,8.261,0.275,10.592,0.039,2.095-2.044,1.858-3.655,1.344-2.476-.79-3.93,3.281-0.354,3.913,6.17,1.067,7.86-1.423,7.781-4.466-0.039-1.067-.039-1.739-0.117-2.964C164.538,271.12,164.381,266.574,164.3,262.424Zm37.823-7.509A1.923,1.923,0,0,0,200,253.1c-3.969.04-9.471,0.04-13.244,0-3.026-.039-2.869,3.6-0.275,3.676,4.245,0.118,9.668,0,13.362,0C201.457,256.773,202.125,255.864,202.125,254.915Zm2.516,11.62c1.611-3.873-.315-6.087-4.245-6.126-5.344-.04-11.947,0-17.016.119-3.027.078-2.673,3.833,0.117,3.715,4.2-.159,11.515-0.277,15.524-0.2,1.493,0.039,1.69.672,1.3,1.739-1.769,5.019-6.76,9.8-14.5,11.9-3.144.83-1.69,4.743,1.533,3.755C197.1,278.431,201.89,273.135,204.641,266.535Zm38.911-13a13.479,13.479,0,0,0-3.458-3.4c-1.69-1.146-3.812.949-1.965,2.293a13.727,13.727,0,0,1,2.712,3.161C241.784,257.484,244.731,255.587,243.552,253.532Zm-4.912,2.134a13.41,13.41,0,0,0-3.341-3.478c-1.65-1.186-3.89.751-2.082,2.174a14.646,14.646,0,0,1,2.633,3.241C236.753,259.539,239.74,257.761,238.64,255.666Zm2.122,20.117a2.124,2.124,0,0,0,.59-2.845c-1.572-2.49-5.031-4.822-6.721-5.81-2.24-1.344-4.126,1.66-2.2,2.806a20.507,20.507,0,0,1,5.737,5.375A1.713,1.713,0,0,0,240.762,275.783Zm-15.4-12.291c0.039,4.149.039,8.655,0,11.461-0.04,2.174-1.769,1.937-3.38,1.423-2.4-.79-3.93,3.28-0.432,3.913,5.619,0.988,7.506-1.384,7.506-4.506,0-1.107,0-1.739-.04-3-0.117-2.727-.117-6.127-0.078-9.328,2.947,0,5.856,0,8.764.158s3.144-3.675.157-3.715c-2.908-.039-5.856-0.079-8.882-0.039,0.039-2.055.039-3.874,0.079-5.1a1.893,1.893,0,1,0-3.773.158c0.039,1.107.079,2.886,0.079,4.98-3.184.04-6.406,0.158-9.511,0.277-2.908.118-2.554,3.754,0.079,3.636C219.069,263.689,222.213,263.571,225.357,263.492Zm-10.1,13.319c2.436-1.621,4.951-5.336,5.934-7.035a1.76,1.76,0,1,0-2.987-1.858,19.541,19.541,0,0,1-5.227,5.612,1.959,1.959,0,0,0-.511,2.806A1.994,1.994,0,0,0,215.257,276.811Zm47.542,5.1a1.666,1.666,0,0,0,1.847,1.541,1.7,1.7,0,0,0,1.926-1.58c0-3.557-.04-5.138-0.079-7.272,6.249,5.058,12.537,7.509,13.519,7.509a2.269,2.269,0,0,0,2.319-2.174,1.667,1.667,0,0,0-1.3-1.581c-4.677-1.62-8.921-3.28-13.165-6.482,1.3,0.04,2.593.08,3.772,0.08h0.826c2.594-.08,4.205-1.739,4.283-3.676,0.079-1.146.118-2.569,0.118-3.952,0-1.226-.039-2.372-0.118-3.32a3.941,3.941,0,0,0-4.087-3.241c-1.808-.04-3.93-0.079-6.131-0.079V255.35h12.026a1.581,1.581,0,1,0,0-3.162H266.572v-2.529a1.755,1.755,0,0,0-1.926-1.66,1.664,1.664,0,0,0-1.847,1.66v2.529H250.931a1.624,1.624,0,0,0-1.69,1.66,1.528,1.528,0,0,0,1.69,1.5h11.907v2.332c-2.161,0-4.165.039-5.619,0.079-3.1.079-4.166,1.857-4.245,3.517-0.078,1.107-.118,2.451-0.118,3.795,0,1.146.04,2.292,0.118,3.28,0.079,1.383.747,3.6,5.031,3.6,1.021,0,2.161-.04,3.379-0.08a39.479,39.479,0,0,1-12.89,6.956,1.7,1.7,0,0,0-1.376,1.581,1.943,1.943,0,0,0,2.044,1.779c1.218,0,8.607-3.281,13.716-7.47L262.8,281.87v0.039Zm3.694-18.5v-2.925c5.817,0,6.681,0,6.76,1.66,0,0.395.039,0.83,0.039,1.265h-6.8Zm6.8,2.727c0,1.62,0,2.924-1.965,2.924-1.533.04-3.183,0.04-4.873,0.04V266.14h6.838Zm-10.414-2.727h-6.563c0-1.5,0-2.767,1.965-2.846,1.218-.039,2.868-0.079,4.6-0.079v2.925Zm0.039,5.691c-1.651,0-3.223,0-4.6-.04-1.886-.079-2-1.027-2-2.924h6.563Zm55.041-12.252a1.838,1.838,0,0,0,0-3.676l-12.3.079v-3.082a2.053,2.053,0,0,0-4.087,0v3.082l-12.419-.079a1.808,1.808,0,0,0-1.847,1.9,1.736,1.736,0,0,0,1.847,1.779l14.384-.079Zm-0.432,24.583a2.211,2.211,0,0,0,2-2.253,2.284,2.284,0,0,0-.786-1.7c-2.476-2.332-7.585-4.625-8.685-4.625a1.792,1.792,0,0,0-1.729,1.818,1.686,1.686,0,0,0,1.061,1.542,20.314,20.314,0,0,1,6.759,4.5A1.76,1.76,0,0,0,317.526,281.435Zm-11.79-6.719v-3.438c1.572,0,3.144-.08,4.716-0.119a4.218,4.218,0,0,0,4.4-3.873c0.04-.712.079-1.5,0.079-2.292s-0.039-1.542-.079-2.174a4.06,4.06,0,0,0-4.2-3.4c-2.515-.04-5.305-0.079-7.9-0.079-2.122,0-4.126.039-5.777,0.079-3.144.079-4.284,1.937-4.4,3.715-0.039.632-.039,1.344-0.039,2.055s0,1.423.039,2.134c0.118,2.174,1.612,3.715,4.481,3.834,1.611,0.039,3.222.119,4.873,0.119v6.244c0,1.423-.747,2.016-2.162,2.016a10.475,10.475,0,0,1-2.24-.316,2.262,2.262,0,0,0-.511-0.079,1.894,1.894,0,0,0-1.807,1.976c0,2.094,2.672,2.134,4.362,2.134,4.048,0,6.209-2.016,6.209-4.861v-0.079Zm-7.939,1.067a1.849,1.849,0,0,0,.511-1.225,2.1,2.1,0,0,0-1.965-2.055,1.624,1.624,0,0,0-1.179.593,15.475,15.475,0,0,1-7.27,4.584,1.759,1.759,0,0,0-1.415,1.7,2.1,2.1,0,0,0,2.083,2.094C289.977,281.474,295.125,278.629,297.8,275.783Zm11.437-7.865c-1.808.04-3.734,0.079-5.66,0.079-6.681,0-7.074,0-7.231-1.581a10.866,10.866,0,0,1-.039-1.146c0-1.5.275-2.569,1.808-2.608,1.847-.04,4.008-0.079,6.13-0.079,1.769,0,3.459.039,4.913,0.079,1.533,0.039,1.847.474,1.847,2.766C311,266.614,310.963,267.839,309.234,267.918Zm38.385,7.114a1.68,1.68,0,1,0,0-3.359h-4.676v-1.028l-0.118-7.9A49.873,49.873,0,0,0,354.85,276.02a2.511,2.511,0,0,0,1.376.475,2.293,2.293,0,0,0,2.279-2.174,1.946,1.946,0,0,0-.943-1.621,42.085,42.085,0,0,1-13.048-12.963L355.4,259.9h0.04a1.76,1.76,0,0,0,0-3.517h-12.5v-6.6a1.785,1.785,0,0,0-1.926-1.7,1.694,1.694,0,0,0-1.847,1.7v6.6H326.633a1.789,1.789,0,0,0-1.808,1.857,1.624,1.624,0,0,0,1.769,1.66h0.039l10.886-.158a42.366,42.366,0,0,1-12.929,14.07,2.071,2.071,0,0,0-1.022,1.7,1.928,1.928,0,0,0,1.965,1.858,2.4,2.4,0,0,0,1.415-.514,50.2,50.2,0,0,0,12.34-13.872l-0.118,7.707v0.988h-4.638a1.707,1.707,0,0,0-1.768,1.739,1.6,1.6,0,0,0,1.768,1.62h4.638v6.8a1.908,1.908,0,0,0,3.773,0v-6.8h4.676Zm47.209,6.521a1.748,1.748,0,0,0,1.886-1.778A1.77,1.77,0,0,0,394.828,278l-7.624.04V264.243l5.7,0.039a1.769,1.769,0,0,0,1.886-1.778,1.737,1.737,0,0,0-1.847-1.779H392.9l-5.7.079,0.039-9.92a1.992,1.992,0,0,0-3.969,0v9.881l-5.109-.04h-0.04a1.693,1.693,0,0,0-1.768,1.779,1.724,1.724,0,0,0,1.808,1.778l5.109-.039,0.039,13.793-7.781-.04a1.7,1.7,0,0,0-1.808,1.779,1.724,1.724,0,0,0,1.808,1.778h19.3Zm-17.489-10.315a2.107,2.107,0,0,0,1.926-2.1c0-1.936-4.2-4.11-4.952-4.11a1.92,1.92,0,0,0-1.847,1.778,1.143,1.143,0,0,0,.629.989,9.692,9.692,0,0,1,3.026,2.727A1.453,1.453,0,0,0,377.339,271.238Zm-5.384,10.395s-0.157-10.118-.2-16.244c1.886-2.253,4.873-6.482,4.873-8.537,0-1.5-1.1-2.609-3.38-2.648h-1.3v-3.913a1.953,1.953,0,0,0-3.89,0l0.039,3.952c-1.218.04-2.437,0.04-3.655,0.079a1.675,1.675,0,0,0-1.768,1.7,1.709,1.709,0,0,0,1.807,1.7h0.04c2.436-.039,4.126-0.2,6.366-0.2H371.6c0.275,0,.864.039,0.864,0.435a22.5,22.5,0,0,1-9.864,10.434,1.9,1.9,0,0,0-1.14,1.62,1.935,1.935,0,0,0,2,1.818c1.139,0,3.458-1.66,4.833-2.846l-0.2,12.648v0.039a1.763,1.763,0,0,0,1.965,1.62,1.69,1.69,0,0,0,1.886-1.62v-0.039Zm62.091-14.742c-1.061-2.846-3.851-5.652-7-7.51-2.436-1.422-4.166,1.542-2.24,2.609a14.172,14.172,0,0,1,5.62,6.8C431.492,271.238,435.029,269.5,434.046,266.891Zm-19.374-6.877a52.428,52.428,0,0,0,1.139-5.573c0.315-2.648-3.694-2.885-3.969-.316a42.517,42.517,0,0,1-1.218,6.284l-1.965.2c-1.415.119-2.633,0.08-3.851,0.2a1.9,1.9,0,1,0,.118,3.794,26.542,26.542,0,0,0,4.244-.553l0.471-.079a38.176,38.176,0,0,1-6.956,12.845c-2.554,2.885,1.533,5.177,3.419,2.49a58.366,58.366,0,0,0,7.625-15.888c0.628-.079,1.218-0.159,1.807-0.2,1.808-.158,2.633.988,2.633,3.4a17.722,17.722,0,0,1-1.257,6.837c-1.1,2.332-2.751,2.688-4.991,2.135-2.4-.593-3.655,3.043-0.55,3.952a7.608,7.608,0,0,0,9.235-4.743,23.651,23.651,0,0,0,1.336-8.814c-0.157-4.426-2.672-6.363-5.973-6.086Zm37.933-2.688a2.567,2.567,0,0,0,2.476-2.767c-0.079-1.185-1.1-2.133-2.24-2.885s-2.476-1.343-3.183-1.857c-1.965-1.423-4.559.672-2.869,2.529a13.747,13.747,0,0,0,2.79,1.858c0.275,0.2-.118.395-0.314,0.514-1.651.909-.236,3.438,1.65,2.964C451.544,257.524,452.094,257.4,452.605,257.326Zm5.188,23.121c13.283-8.181,4.912-18.853-6.956-13.675-1.847.791-3.695,1.818-4.481,2.253-0.353.2-.55,0.2-0.668-0.119-0.275-.711-0.078-2.173.236-4.11,0.315-1.9.747-4.11,0.943-5.77,0.354-2.846-3.222-2.925-3.615-.4-0.315,2.015-.825,5.058-1.14,7.943s-0.393,5.336.315,6.719,2.279,2.49,4.6.237a24.781,24.781,0,0,1,5.266-3.4c4.165-1.9,7.034-1.3,7.86.277s-0.354,4.308-4.677,6.837a18.333,18.333,0,0,1-5.266,1.7c-3.341.672-2.319,4.585,0.864,3.952A21.227,21.227,0,0,0,457.793,280.447Zm46.249,1.106a1.748,1.748,0,0,0,1.886-1.778A1.77,1.77,0,0,0,504.042,278l-7.624.04V264.243l5.7,0.039A1.77,1.77,0,0,0,504,262.5a1.737,1.737,0,0,0-1.847-1.779h-0.04l-5.7.079,0.039-9.92a1.992,1.992,0,0,0-3.969,0v9.881l-5.109-.04H487.34a1.694,1.694,0,0,0-1.769,1.779,1.725,1.725,0,0,0,1.808,1.778l5.109-.039,0.039,13.793-7.781-.04a1.7,1.7,0,0,0-1.808,1.779,1.724,1.724,0,0,0,1.808,1.778h19.3Zm-17.488-10.315a2.107,2.107,0,0,0,1.925-2.1c0-1.936-4.2-4.11-4.951-4.11a1.919,1.919,0,0,0-1.847,1.778,1.142,1.142,0,0,0,.628.989,9.681,9.681,0,0,1,3.026,2.727A1.453,1.453,0,0,0,486.554,271.238Zm-5.384,10.395s-0.157-10.118-.2-16.244c1.887-2.253,4.873-6.482,4.873-8.537,0-1.5-1.1-2.609-3.379-2.648h-1.3v-3.913a1.953,1.953,0,0,0-3.891,0l0.039,3.952c-1.218.04-2.436,0.04-3.655,0.079a1.675,1.675,0,0,0-1.768,1.7,1.71,1.71,0,0,0,1.808,1.7h0.039c2.437-.039,4.126-0.2,6.367-0.2h0.707c0.275,0,.865.039,0.865,0.435a22.5,22.5,0,0,1-9.865,10.434,1.9,1.9,0,0,0-1.139,1.62,1.934,1.934,0,0,0,2,1.818c1.14,0,3.458-1.66,4.834-2.846l-0.2,12.648v0.039a1.764,1.764,0,0,0,1.965,1.62,1.69,1.69,0,0,0,1.887-1.62v-0.039Zm60.861-12.924a1.641,1.641,0,0,0,0-3.281H520.5v-2.174h15.523a1.443,1.443,0,1,0,0-2.885H520.5V258.2h15.523a1.443,1.443,0,1,0,0-2.885H520.573v-0.119a1.7,1.7,0,0,1,1.847-1.937c2.358-.039,5.149-0.079,7.978-0.079,2.319,0,4.677.04,6.8,0.079h0.079a1.687,1.687,0,0,0,1.807-1.7,1.714,1.714,0,0,0-1.847-1.66c-1.847-.04-3.93-0.079-6.012-0.079-3.223,0-6.524.039-9.393,0.079-3.616.04-4.991,1.778-5.07,5.138-0.039,1.937-.078,4.189-0.078,6.4,0,1.384,0,2.728.039,3.992h-5.384a1.656,1.656,0,0,0-1.69,1.7,1.563,1.563,0,0,0,1.69,1.581h5.384v10.038c-1.493.356-3.105,0.633-4.637,0.87a1.9,1.9,0,0,0-1.769,1.857,1.94,1.94,0,0,0,2.122,1.937,63.94,63.94,0,0,0,14.148-4.189A1.958,1.958,0,0,0,528,277.483a1.766,1.766,0,0,0-1.847-1.66,2.483,2.483,0,0,0-.865.2c-1.3.554-2.947,1.146-4.716,1.7v-9.011h4.048a20.307,20.307,0,0,0,17.174,14.5,2.056,2.056,0,0,0,2.083-2.134,1.829,1.829,0,0,0-1.572-1.9,19.127,19.127,0,0,1-9.471-3.873c6.681-2.213,6.72-3.281,6.72-3.992a2.066,2.066,0,0,0-1.965-2.016,1.725,1.725,0,0,0-1.022.317,30.806,30.806,0,0,1-6.052,3.2,15.046,15.046,0,0,1-2.122-4.11h13.637Zm38.676-13.6c1.415,1.423,3.5-1.146,1.847-2.648a13.008,13.008,0,0,0-4.126-2.055c-1.886-.514-3.144,2.016-1.1,2.687A13.691,13.691,0,0,1,580.707,255.113Zm-3.419,3.676c1.376,1.462,3.5-1.028,1.887-2.57a12.581,12.581,0,0,0-4.009-2.213c-1.847-.593-3.262,1.858-1.218,2.609A13.5,13.5,0,0,1,577.288,258.789Zm3.852,8.1c-1.061-2.846-3.852-5.652-7-7.51-2.436-1.422-4.165,1.542-2.24,2.609a14.172,14.172,0,0,1,5.62,6.8C578.585,271.238,582.122,269.5,581.14,266.891Zm-19.375-6.877a52.457,52.457,0,0,0,1.14-5.573c0.314-2.648-3.694-2.885-3.97-.316a42.259,42.259,0,0,1-1.218,6.284l-1.965.2c-1.415.119-2.633,0.08-3.851,0.2a1.9,1.9,0,1,0,.118,3.794,26.542,26.542,0,0,0,4.244-.553l0.472-.079a38.211,38.211,0,0,1-6.956,12.845c-2.555,2.885,1.532,5.177,3.419,2.49a58.4,58.4,0,0,0,7.624-15.888c0.629-.079,1.218-0.159,1.808-0.2,1.807-.158,2.633.988,2.633,3.4a17.723,17.723,0,0,1-1.258,6.837c-1.1,2.332-2.751,2.688-4.991,2.135-2.4-.593-3.655,3.043-0.55,3.952A7.607,7.607,0,0,0,567.7,274.8a23.651,23.651,0,0,0,1.336-8.814c-0.157-4.426-2.672-6.363-5.973-6.086Zm27.723,23.594a2.178,2.178,0,0,0,2.123-2.173c0-2.688-6.288-6.165-7.664-6.165a1.752,1.752,0,0,0-1.847,1.738,1.777,1.777,0,0,0,1.061,1.581,15.028,15.028,0,0,1,4.834,4.15A1.785,1.785,0,0,0,589.488,283.608Zm-447.12,27.651a1.759,1.759,0,1,0,0-3.518H112.107a1.791,1.791,0,0,0-1.847,1.818,1.679,1.679,0,0,0,1.847,1.7h11.947a33.452,33.452,0,0,1-.943,4.071c-1.965,0-3.89.039-5.659,0.039-2.947.04-4.873,1.779-4.912,4.308s-0.079,5.059-.079,7.628c0,2.095.039,4.19,0.079,6.245,0.078,2.924,1.807,4.663,5.226,4.782,3.066,0.118,6.328.158,9.629,0.158s6.681-.04,9.864-0.158a4.718,4.718,0,0,0,4.873-4.9c0.079-1.9.118-4.031,0.118-6.165,0-2.49-.039-5.02-0.118-7.352-0.078-3.122-2.4-4.5-4.794-4.545-1.415-.039-2.123-0.039-10.375-0.039a26.258,26.258,0,0,0,1.257-4.071h14.148Zm-9,7.232c0.786,0,1.533.04,2.319,0.04,1.926,0.04,2.712.435,2.79,2.688,0.04,1.818.079,3.794,0.079,5.731s-0.039,3.833-.079,5.493c-0.078,2.648-1.611,2.687-5.109,2.687V318.491Zm-3.379,3.479h-5.62v-3.518h5.62v3.518Zm0,6.323h-5.62v-3.517h5.62v3.517Zm0,6.917h-5.62V331.1h5.62v4.111Zm-8.921-.08c-0.629,0-1.219-.039-1.808-0.039-2.28-.079-3.066-0.474-3.144-2.569-0.039-1.344-.079-2.925-0.079-4.506,0-2.489.04-5.019,0.079-6.8,0.039-2.016.668-2.648,2.908-2.688l2.044-.04V335.13Zm57.768-23.4a1.585,1.585,0,1,0,0-3.162H172.43l0.039-2.45a1.726,1.726,0,0,0-1.886-1.7,1.686,1.686,0,0,0-1.847,1.659v0.04l0.039,2.45h-5.856a1.584,1.584,0,1,0,0,3.162h15.917Zm2.083,15.809a1.447,1.447,0,0,0,1.493-1.5,1.5,1.5,0,0,0-1.533-1.58H169.718a8.18,8.18,0,0,0,.472-2.016,1.462,1.462,0,0,0-.59-1.186h1.455a2.371,2.371,0,0,0,.55.04,3.314,3.314,0,0,0,.628-0.04h8.529a1.582,1.582,0,1,0,0-3.162H175.22c0.668-1.264,1.926-3.557,1.926-4.228a2,2,0,0,0-2.083-1.779,1.587,1.587,0,0,0-1.651,1.265,33.679,33.679,0,0,1-1.768,4.742h-2.4a1.887,1.887,0,0,0,.353-1.146c0-.988-2.318-4.822-3.929-4.822a1.771,1.771,0,0,0-1.808,1.542,1.31,1.31,0,0,0,.432.948,14.406,14.406,0,0,1,2.161,3.478h-4.715a1.489,1.489,0,0,0-1.612,1.542,2.337,2.337,0,0,0,.079.513,1.531,1.531,0,0,0-1.179-.553,1.643,1.643,0,0,0-.825.237c-0.472.277-.865,0.554-1.337,0.791V316h2.712a1.739,1.739,0,0,0,0-3.478h-2.712v-5.968a1.754,1.754,0,0,0-1.847-1.858,1.807,1.807,0,0,0-1.886,1.858l0.039,5.968H149.6a1.739,1.739,0,0,0,0,3.478h3.576v6.4c-1.375.593-2.829,1.146-4.519,1.779a1.763,1.763,0,0,0-1.218,1.7,1.865,1.865,0,0,0,1.886,1.9c0.629,0,1.218-.276,3.851-1.462v8.1a1.333,1.333,0,0,1-1.611,1.3,6.089,6.089,0,0,1-1.258-.158,1.092,1.092,0,0,0-.353-0.039,1.66,1.66,0,0,0-1.533,1.818c0,1.778,1.454,2.134,3.537,2.134,3.419,0,5.03-1.936,5.03-4.426v-0.159c-0.039-1.383-.157-4.98-0.157-5.612V324.46q1.475-.831,2.83-1.66a1.782,1.782,0,0,0,.943-1.542,1.171,1.171,0,0,0-.079-0.514,1.529,1.529,0,0,0,1.219.514H167.4c-0.472.356-.472,0.356-1.258,3.2h-5.227A1.521,1.521,0,0,0,159.343,326a1.467,1.467,0,0,0,1.533,1.541h0.039l4.284-.039a38.457,38.457,0,0,1-1.729,4.347,2.075,2.075,0,0,0-.236.87,1.569,1.569,0,0,0,1.69,1.5A1.983,1.983,0,0,0,166.771,333a17.913,17.913,0,0,1,3.458.751c-2.161,1.779-5.266,2.451-9.117,2.49a1.589,1.589,0,0,0-1.769,1.581,1.805,1.805,0,0,0,1.926,1.779c4.126,0,9.039-1.107,12.183-4.467a19.414,19.414,0,0,1,4.637,3.755,1.783,1.783,0,0,0,1.336.633,1.92,1.92,0,0,0,1.847-1.937c0-1.541-2.868-3.715-5.934-5.138a14.536,14.536,0,0,0,1.494-4.94l4.047,0.039h0.04Zm-7.585-.079a11.611,11.611,0,0,1-1.1,3.794,24.333,24.333,0,0,0-4.4-.948c0.354-.949.668-1.9,0.982-2.846h4.52Zm31.441-21.3a2.053,2.053,0,0,0-4.087,0v2.608c-3.183,0-6.366.04-9.392,0.079s-4.481,2.016-4.559,3.952c0,0.633-.039,1.344-0.039,2.056,0,0.672.039,1.3,0.039,1.818a1.835,1.835,0,0,0,1.926,1.857,1.875,1.875,0,0,0,2-1.818V314.3c0.118-1.462.432-2.094,2.554-2.134,2.4-.04,5.306-0.079,8.293-0.079,3.615,0,7.349.039,10.453,0.079,2.4,0.04,2.437.474,2.437,4.426v0.08a1.77,1.77,0,0,0,1.925,1.739,2.044,2.044,0,0,0,2.162-1.858c0.039-.395.039-0.909,0.039-1.462,0-.712,0-1.5-0.039-2.1a4.526,4.526,0,0,0-4.441-4.15c-2.987-.039-6.131-0.079-9.275-0.079v-2.608Zm-8.842,19.049c1.493,0,3.38.04,5.384,0.04,2.476,0,5.148-.04,7.467-0.119,3.891-.158,3.969-2.292,3.969-4.466,0-1.027-.039-2.094-0.118-2.885-0.078-.83-0.707-2.687-4.048-2.806-1.414-.079-2.868-0.079-4.362-0.079-2.476,0-5.03.04-7.663,0.079-2.79,0-4.048,1.739-4.087,3.359-0.079,2.372-.118,6.047-0.118,9.6,0,2.569.039,5.059,0.078,7,0.079,2.609,1.847,3.913,4.441,4.031,1.572,0.079,3.616.119,5.738,0.119,2.437,0,4.991-.04,7.035-0.119,3.5-.118,4.48-2.213,4.637-3.043a12.809,12.809,0,0,0,.157-2.292c0-.909-0.039-1.779-0.078-2.411-0.079-1.067-.787-3-4.245-3.083-3.93-.079-10.571-0.079-14.226-0.079C195.894,327.108,195.933,326.159,195.933,325.21Zm0.039-3.122c0-1.027.04-1.976,0.04-2.687a1.371,1.371,0,0,1,1.493-1.344c1.768-.04,4.048-0.079,6.249-0.079,4.951,0,5.226.079,5.305,1.067a9.4,9.4,0,0,1,.039,1.106c0,0.87-.039,1.779-1.257,1.858-1.847.079-4.755,0.119-7.506,0.119C198.763,322.128,197.23,322.088,195.972,322.088Zm-0.078,9.13c1.65,0,3.851-.04,6.13-0.04,2.751,0,5.581.04,7.389,0.119a1.175,1.175,0,0,1,1.218,1.067v2.213a1.49,1.49,0,0,1-1.611,1.186c-1.769.039-4.127,0.039-6.249,0.039s-4.048,0-4.991-.039C195.894,335.644,195.894,334.814,195.894,331.218Zm36.942-9.723c-0.393.277-.746,0.593-1.139,0.909-6.367,5.1-6.6,11.5-.943,14.386,3.89,1.977,10.453,1.186,13.558.317,3.5-.988,2.319-5.534-0.983-4.269-2.358.87-7.977,1.9-10.728,0.514-3.066-1.5-2.948-4.466.943-7.786a58.974,58.974,0,0,1,11.161-6.995c3.026-1.542.982-5.336-1.69-3.834a75.171,75.171,0,0,0-6.917,4.347,40.156,40.156,0,0,0-4.6-9.208c-1.572-2.253-5.423-.119-3.38,2.41A32.2,32.2,0,0,1,232.836,321.5Zm45.573,11.936c2.24-1.818-.157-5.454-2.712-3.438-6.838,5.414-13.833,5.809-14.069.039-0.157-3.834.432-7.43,0.707-11.619,0.2-2.649.472-6.4,0.551-8.893,0.078-2.609-4.363-2.846-4.284.079,0.078,2.45-.2,6.324-0.315,8.892-0.2,4.19-.628,7.549-0.471,11.7C258.17,340.861,270.745,339.715,278.409,333.431Zm25.632,4.466c4.165,0.04,3.93-4.624-.2-4.466-8.8.316-11.436-7.983-7.978-13.793,0.865-1.463,2.83-3.834,5.031-4.624a16.777,16.777,0,0,1,5.855-1.107c2.751,0.158,3.616-.632,3.852-1.3,0.432-1.265-.236-3.2-2.673-3.044a52.711,52.711,0,0,0-10.728,2.332c-4.009,1.147-7.428,1.937-9.354,2.411-1.257.316-3.537,0.751-4.362,0.949-3.144.672-2.122,5.217,1.336,4.268a36.924,36.924,0,0,0,3.537-1.186c2.672-1.027,2-1.027,4.952-1.976,0.747-.237.943-0.276,0.314,0.554a13.66,13.66,0,0,0-1.257,2.055C288.085,326.91,292.172,337.858,304.041,337.9Zm17.167,2.1a2.178,2.178,0,0,0,2.122-2.174c0-2.688-6.288-6.165-7.663-6.165a1.753,1.753,0,0,0-1.847,1.739,1.777,1.777,0,0,0,1.061,1.58,15.039,15.039,0,0,1,4.834,4.15A1.786,1.786,0,0,0,321.208,339.992Zm29.514-6.442c1.493,2.806,4.755.276,3.379-2.016a5.08,5.08,0,0,1-.432-0.791,25.48,25.48,0,0,0,6.8-9.84c7.113,1.778,6.72,11.1-3.065,14.307-3.223,1.067-2.24,4.742,1.3,3.557,13.4-4.427,13.99-18.971,2.515-21.066,0.157-1.9-3.459-2.648-3.734-.316v0.079H357.01a15.729,15.729,0,0,0-4.127.869c0.157-1.106.315-2.252,0.511-3.517a49.048,49.048,0,0,0,6.8-1.739c3.105-1.028,1.375-4.387-.9-3.518a39,39,0,0,1-5.305,1.542c0.157-.909.353-1.9,0.51-2.885,0.433-2.372-3.379-3-3.812-.079-0.157,1.185-.353,2.371-0.511,3.517a11.737,11.737,0,0,1-4.244-.316,1.827,1.827,0,1,0-1.1,3.478,14.566,14.566,0,0,0,4.912.4c-0.2,1.621-.353,3.2-0.471,4.7q-0.885.476-1.651,0.949c-3.576,2.292-6.72,6.6-7.035,10.473-0.432,5.3,3.3,5.929,5.738,4.664a32.77,32.77,0,0,0,4.284-2.687Zm5.973-12.885a18.5,18.5,0,0,1-4.087,6.443,26.777,26.777,0,0,1-.079-5.375,16.673,16.673,0,0,1,4.048-1.068H356.7Zm-7.192,9.248a31.115,31.115,0,0,1-3.5,2.293c-1.022.553-2.083,0.395-1.965-1.186,0.157-2.332,1.925-5.138,5.03-7.43A31.609,31.609,0,0,0,349.5,329.913Zm52.156-10.275c1.926,1.225,3.969-2.055,1.3-3.676a12.371,12.371,0,0,0-7.231-1.383c-2.515.237-2.358,3.517-.2,3.4A10.052,10.052,0,0,1,401.659,319.638Zm-17.724-3.952a77.252,77.252,0,0,1-6.445,10.789c-1.729,2.569,2.044,4.11,3.5,1.739a100.05,100.05,0,0,0,7.034-13.319,14.957,14.957,0,0,0,4.2-1.818c2.516-1.818.04-4.268-1.729-3a12.059,12.059,0,0,1-1.257.672,13.406,13.406,0,0,0,.55-2.411,1.882,1.882,0,0,0-3.734-.355,25.559,25.559,0,0,1-.786,3.991,10.43,10.43,0,0,1-5.384.119,1.807,1.807,0,1,0-1.139,3.4A10.69,10.69,0,0,0,383.935,315.686Zm12.379,18.536a11.393,11.393,0,0,1,2.241,2.055c1.886,2.292,5.069-.514,2.829-3a14.263,14.263,0,0,0-4.794-3.162c-0.04-.869-0.118-1.7-0.158-2.45-0.039-1.146-.039-2.134-0.039-3.043a7.925,7.925,0,0,1,.236-1.858,1.805,1.805,0,0,0-3.537-.711,11.881,11.881,0,0,0-.2,2.648c0.04,0.988.118,1.976,0.118,2.964v1.383a12.774,12.774,0,0,0-7.545.751c-4.048,1.818-3.616,6.087.039,7.944C390.262,340.15,395.175,337.383,396.314,334.222Zm-3.5-1.858c-0.039.119,0,.277-0.039,0.4-0.433,2.134-3.616,3.281-5.974,2.095a1.2,1.2,0,0,1-.039-2.292A7.836,7.836,0,0,1,392.817,332.364Zm43.8-11.264c2.476,0.83,3.537-2.648.9-3.6a14.506,14.506,0,0,0-9.432-.2c-2.594.909-1.376,4.15,0.668,3.4C430.837,319.914,434.413,320.349,436.614,321.1Zm0,16.007a2.052,2.052,0,1,0-.511-4.071c-4.6.395-7,.593-9-1.463-2.043-2.094-4.48,1.028-2.79,2.925C426.042,336.435,430.915,338.253,436.614,337.107ZM421.955,316.4a25.267,25.267,0,0,0,3.969-1.581c2.948-1.462.511-4.743-1.532-3.4-0.472.277-.944,0.553-1.494,0.83a12.1,12.1,0,0,0-.039-3.162c-0.393-2.174-4.087-2.055-3.93.2a17.3,17.3,0,0,1,.039,4.268,10.441,10.441,0,0,1-5.423-.237c-2.948-1.067-3.341,2.53-1.336,3.4a11.4,11.4,0,0,0,5.737.553,122.669,122.669,0,0,1-6.877,17.153c-1.651,3.359,2.515,4.506,3.694,1.858A156.023,156.023,0,0,0,421.955,316.4Zm39.552-1.5a10.163,10.163,0,0,1,4.874,1.581c3.89,2.49,4.951,7.667,2.161,12.094-1.3,2.055-4.323,3.755-7.31,4.426-3.379.791-2.161,4.782,1.3,3.874,3.891-1.028,7.742-3.478,9.589-6.522,3.419-5.651,2.437-12.924-3.654-16.6-4.952-3-12.144-2.451-16.978.909-5.266,3.675-7.9,11.027-5.423,15.927,1.729,3.4,5.03,4.941,8.056,2.135,3.773-3.518,7.31-10.987,7.939-16.007A1.982,1.982,0,0,0,461.507,314.9Zm-3.1.2a2.8,2.8,0,0,0-.354,1.225c-0.393,4.268-3.144,10.552-6.091,13.161-0.983.869-2.005,0.276-2.594-.87-1.651-3.043.314-8.3,3.969-11.145A12.991,12.991,0,0,1,458.4,315.093ZM501.288,330.7a1.769,1.769,0,0,0,3.5,0V317.741c1.257-.633,2.319-1.186,2.908-1.5a0.892,0.892,0,0,1,.432-0.119c0.629,0,.668,1.028.668,2.688,0,6.679-.982,7.232-1.611,7.232a1.95,1.95,0,0,1-.472-0.079,1.75,1.75,0,0,0-.392-0.079,1.518,1.518,0,0,0-1.258,1.739c0,1.265.55,1.9,2.319,1.9,4.008,0,4.873-3.122,4.873-12.173,0-2.134-.118-4.94-2.948-4.94a5.606,5.606,0,0,0-2.594.711l-1.925.989v-6.956a1.754,1.754,0,0,0-3.5,0v8.734l-3.576,1.778c0-2.845,0-5.414.039-7.034v-0.04a1.631,1.631,0,0,0-1.729-1.66,1.7,1.7,0,0,0-1.768,1.739c0,2.134-.079,5.375-0.079,8.814l-3.773,1.9a1.586,1.586,0,0,0-.943,1.462,1.7,1.7,0,0,0,1.572,1.739,1.907,1.907,0,0,0,.747-0.2l2.4-1.225c0,4.111,0,8.063.039,10.553,0.079,4.94,5.109,5.059,9.511,5.059,5.069,0,10.571,0,10.571-7.154a1.9,1.9,0,0,0-2-2.016,1.631,1.631,0,0,0-1.729,1.739c0,3.913-2.279,4.071-7.074,4.071-3.419,0-5.659-.039-5.738-2.371-0.039-2.1-.039-6.916-0.039-11.7l3.576-1.818V330.7Zm-16.938-.435c-1.454.593-2.947,1.107-4.441,1.621a1.736,1.736,0,0,0-1.257,1.7,1.765,1.765,0,0,0,1.729,1.818c1.611,0,10.1-4.308,11.475-5.059a1.893,1.893,0,0,0,1.14-1.581,1.628,1.628,0,0,0-1.69-1.541,1.953,1.953,0,0,0-.982.277c-0.747.434-1.572,0.83-2.4,1.225v-8.893h3.144a1.665,1.665,0,0,0,0-3.319h-3.1v-8.3a1.832,1.832,0,0,0-3.655,0v8.3h-3.576a1.66,1.66,0,1,0,0,3.319h3.615v10.434ZM545.168,311.1a1.715,1.715,0,0,0,1.847-1.779,1.767,1.767,0,0,0-1.847-1.818h-20.75a1.8,1.8,0,1,0,0,3.6h20.75Zm4.52,9.13a1.682,1.682,0,0,0,1.729-1.779,1.736,1.736,0,0,0-1.769-1.858H520.213a1.819,1.819,0,1,0-.039,3.637h0.039c10.061-.119,13.362-0.119,16.034-0.119-0.079,4.11-.118,12.845-0.118,14.11,0,4.031,2.83,4.7,6.563,4.7,3.065,0,9-.079,9-7.233a2,2,0,0,0-2.122-2.1,1.733,1.733,0,0,0-1.847,1.858c0,3.438-2,3.913-4.441,3.913-3.38,0-3.38-1.028-3.38-2.49,0-2.332.118-9.209,0.157-12.766l9.589,0.119h0.04Zm-29.279,19.207c9.511-2.568,12.026-10.433,12.615-16.718v-0.158a2.049,2.049,0,0,0-2.161-1.818,1.677,1.677,0,0,0-1.808,1.7c-0.393,5.3-2.122,11.382-10.1,13.4a1.669,1.669,0,0,0-1.218,1.739,1.859,1.859,0,0,0,1.886,1.976A2.883,2.883,0,0,0,520.409,339.438Zm61.085-21.816c2.673,0.593,3.419-3.122.668-3.794a23.6,23.6,0,0,0-10.335.237,1.86,1.86,0,1,0,.55,3.676A19.8,19.8,0,0,1,581.494,317.622Zm2.122,18.022c2.594-.672,2.4-4.861-0.786-4.189-3.065.632-7.781,1.265-9.9-.672a1.951,1.951,0,0,0-2.79,2.727C572.966,336.593,579.411,336.712,583.616,335.644Zm-20.789,1.9c0.982-.87.511-2.095,0.747-3.162a19.952,19.952,0,0,1,2.318-5.534,1.577,1.577,0,0,0-2.751-1.541c-0.157.277-.589,1.067-0.668,1.265-0.157.355-.314,0.474-0.432-0.04-0.943-3.675,1.415-12.963,2.043-16.164,0.433-2.293-3.379-3.162-3.812-.238-0.707,4.7-3.812,16.4-.668,24.188C560.39,338.253,561.844,338.411,562.827,337.542Zm37.163-2.056a4.48,4.48,0,1,0-4.48,4.506A4.49,4.49,0,0,0,599.99,335.486Zm-1.493,0a2.987,2.987,0,1,1-5.974,0A2.987,2.987,0,0,1,598.5,335.486Z" transform="translate(-109 -248)"/>
</svg>
