<svg xmlns="http://www.w3.org/2000/svg" width="410.592" height="30.78" viewBox="0 0 410.592 30.78">
  <metadata><?xpacket begin="﻿" id="W5M0MpCehiHzreSzNTczkc9d"?>
<x:xmpmeta xmlns:x="adobe:ns:meta/" x:xmptk="Adobe XMP Core 5.6-c138 79.159824, 2016/09/14-01:09:01        ">
   <rdf:RDF xmlns:rdf="http://www.w3.org/1999/02/22-rdf-syntax-ns#">
      <rdf:Description rdf:about=""/>
   </rdf:RDF>
</x:xmpmeta>
                                                                                                    
                                                                                                    
                                                                                                    
                                                                                                    
                                                                                                    
                                                                                                    
                                                                                                    
                                                                                                    
                                                                                                    
                                                                                                    
                                                                                                    
                                                                                                    
                                                                                                    
                                                                                                    
                                                                                                    
                                                                                                    
                                                                                                    
                                                                                                    
                                                                                                    
                                                                                                    
                           
<?xpacket end="w"?></metadata>
<defs>
    <style>
      .cls-1 {
        fill: #fff;
        fill-rule: evenodd;
      }
    </style>
  </defs>
  <path id="全社横断型Web事業開発" class="cls-1" d="M741.105,2828.55a1.43,1.43,0,0,0,1.53-1.46,1.508,1.508,0,0,0-1.53-1.57l-10.335.04v-4.35l6.221,0.03a1.435,1.435,0,0,0,1.564-1.46,1.484,1.484,0,0,0-1.564-1.5l-6.221.04v-3.98l6.289,0.03a1.454,1.454,0,0,0,1.564-1.46,1.974,1.974,0,0,0-.136-0.61c1.938,1.39,2.652,1.43,2.822,1.43a2.015,2.015,0,0,0,1.972-1.94,1.541,1.541,0,0,0-.918-1.4,37.632,37.632,0,0,1-10.267-7.92,4.745,4.745,0,0,0-3.332-1.59,3.862,3.862,0,0,0-3.025,1.59c-2.414,3.13-6.29,7.04-10,8.91a1.69,1.69,0,0,0-1.054,1.53,1.753,1.753,0,0,0,1.8,1.7c0.918,0,1.8-.61,3.264-1.77v0.07a1.446,1.446,0,0,0,1.53,1.46l6.119-.03v3.98l-6.425-.04a1.481,1.481,0,1,0,0,2.96l6.425-.03v4.35l-10.369-.04a1.517,1.517,0,1,0,0,3.03h24.07Zm-19.582-17.14a52.292,52.292,0,0,0,6.561-6.73,1.4,1.4,0,0,1,.952-0.71,1.568,1.568,0,0,1,1.02.71,54.247,54.247,0,0,0,7.241,6.73H721.523Zm58.546,16.97a1.51,1.51,0,0,0,1.632-1.53,1.526,1.526,0,0,0-1.632-1.53l-6.6.03v-11.86l4.93,0.03a1.526,1.526,0,0,0,1.632-1.53,1.5,1.5,0,0,0-1.6-1.53H778.4l-4.93.07,0.034-8.53a1.723,1.723,0,0,0-3.433,0v8.5l-4.42-.04H765.62a1.462,1.462,0,0,0-1.53,1.53,1.487,1.487,0,0,0,1.564,1.53l4.42-.03,0.034,11.86-6.731-.03a1.471,1.471,0,0,0-1.564,1.53,1.487,1.487,0,0,0,1.564,1.53h16.692Zm-15.129-8.87a1.819,1.819,0,0,0,1.666-1.81c0-1.66-3.637-3.53-4.283-3.53a1.655,1.655,0,0,0-1.6,1.53,1,1,0,0,0,.544.85,8.263,8.263,0,0,1,2.617,2.34A1.248,1.248,0,0,0,764.94,2819.51Zm-4.657,8.94s-0.136-8.71-.17-13.98c1.632-1.93,4.215-5.57,4.215-7.34,0-1.29-.951-2.24-2.923-2.28h-1.122v-3.36a1.691,1.691,0,0,0-3.366,0l0.034,3.4c-1.054.03-2.108,0.03-3.162,0.06a1.448,1.448,0,0,0-1.529,1.47,1.476,1.476,0,0,0,1.563,1.46h0.034c2.108-.04,3.57-0.17,5.508-0.17h0.612c0.238,0,.748.03,0.748,0.37a19.368,19.368,0,0,1-8.533,8.98,1.623,1.623,0,0,0-.986,1.39,1.671,1.671,0,0,0,1.734,1.57c0.985,0,2.991-1.43,4.181-2.45l-0.17,10.88v0.03a1.519,1.519,0,0,0,1.7,1.39,1.458,1.458,0,0,0,1.632-1.39v-0.03Zm57.288-17.07a1.313,1.313,0,1,0,0-2.62h-4.386v-2.58h3.264a1.313,1.313,0,1,0,0-2.62h-3.264v-2.58a1.29,1.29,0,0,0-1.462-1.09,1.255,1.255,0,0,0-1.427,1.09v2.58H807v-2.58a1.29,1.29,0,0,0-1.462-1.09,1.256,1.256,0,0,0-1.428,1.09v2.58H801.32a1.315,1.315,0,1,0,0,2.62h2.788v2.58h-3.637a1.785,1.785,0,0,0-.476.04,1.615,1.615,0,0,0,.1-0.58,1.446,1.446,0,0,0-1.5-1.5h-1.938c0.034-3.02.1-5.61,0.1-5.61v-0.03a1.487,1.487,0,0,0-1.632-1.46,1.527,1.527,0,0,0-1.7,1.46v0.03l0.1,5.61h-3.059a1.418,1.418,0,0,0-1.462,1.5,1.4,1.4,0,0,0,1.428,1.49h0.034l3.093-.06v0.78a29.95,29.95,0,0,1-5.371,8.12,1.694,1.694,0,0,0-.544,1.19,1.635,1.635,0,0,0,1.632,1.53,1.762,1.762,0,0,0,1.394-.71,31.806,31.806,0,0,0,2.889-4.28l-0.136,12.27v0.03a1.5,1.5,0,0,0,1.666,1.43,1.518,1.518,0,0,0,1.666-1.43v-0.03s-0.136-8.4-.17-13.7a14.56,14.56,0,0,1,1.19,1.53,1.193,1.193,0,0,0,1.02.54,1.523,1.523,0,0,0,1.394-1.53c0-1.43-2.856-3.02-3.434-3.02H796.6c0-.82.034-1.74,0.034-2.69l1.972,0.03a1.585,1.585,0,0,0,.544-0.06,1.643,1.643,0,0,0-.068.4,1.322,1.322,0,0,0,1.394,1.33h6.765v1.77c-1.326,0-2.584,0-3.6.03a2.85,2.85,0,0,0-3.127,2.82c-0.034.82-.034,1.77-0.034,2.72s0,1.94.034,2.93c0.068,1.66,1.121,2.72,3.2,2.78,1.734,0.07,3.5.11,5.3,0.11,1.53,0,3.127-.04,4.725-0.11a3.029,3.029,0,0,0,3.162-2.85c0.034-.95.068-2.11,0.068-3.23,0-.92-0.034-1.8-0.068-2.55a2.98,2.98,0,0,0-2.992-2.62c-1.224-.03-2.55-0.03-3.875-0.03v-1.77h7.547Zm0.068,18.49a1.564,1.564,0,0,0,1.53-1.63,1.422,1.422,0,0,0-1.36-1.49,12.759,12.759,0,0,1-5.27-1.81,1.544,1.544,0,0,0-.782-0.27,1.492,1.492,0,0,0-1.427,1.46C810.33,2828.11,816.381,2829.87,817.639,2829.87ZM807,2826.34a1.507,1.507,0,0,0-1.462-1.5,1.4,1.4,0,0,0-.816.27,12.838,12.838,0,0,1-5.269,1.91,1.446,1.446,0,0,0-1.36,1.49,1.5,1.5,0,0,0,1.5,1.57C800.777,2830.08,807,2828.31,807,2826.34Zm3.3-17.58H807v-2.58h3.3v2.58Zm-0.272,8.91v-2.28c3.841,0,4.113.14,4.147,1.29,0,0.31.034,0.65,0.034,0.99h-4.181Zm4.181,2.21c0,2.41-.068,2.41-4.181,2.41v-2.41h4.181Zm-6.969-2.21h-4.148c0-.34.034-0.68,0.034-0.99a1.2,1.2,0,0,1,1.326-1.22c0.85-.03,1.8-0.03,2.788-0.03v2.24Zm0,4.62c-4.08,0-4.148-.03-4.148-2.41h4.148v2.41Zm42.159,6.22a1.589,1.589,0,0,0,3.162,0l-0.034-15.57h2.618a1.483,1.483,0,1,0,0-2.95l-9.383.06v-2.31a1.766,1.766,0,0,1,1.53-1.9c0.918-.27,4.793-1.29,5.915-1.8a1.61,1.61,0,0,0,1.088-1.5,1.757,1.757,0,0,0-1.734-1.7,2.018,2.018,0,0,0-.85.21c-1.258.61-4.623,1.76-5.949,2.17-2.278.68-3.162,1.67-3.162,3.94v0.41c0.068,1.6.136,3.27,0.136,4.97,0,5.2-.612,10.6-3.842,14.41a1.345,1.345,0,0,0-.374.92,1.7,1.7,0,0,0,1.768,1.49,2.01,2.01,0,0,0,1.632-.88c3.026-4.15,3.672-10.1,3.808-15.57h3.7Zm-11.626-6.39s-0.136-2.1-.136-6.35a11.46,11.46,0,0,1,1.767,2.1,1.188,1.188,0,0,0,.986.58,1.525,1.525,0,0,0,1.462-1.49c0-1.19-2.72-3.23-3.4-3.23a1.381,1.381,0,0,0-.815.27v-1.46l2.923,0.06h0.034a1.293,1.293,0,0,0-.034-2.58l-2.889.03,0.034-1.83a1.311,1.311,0,0,0,1.155.68,1.141,1.141,0,0,0,.884-0.44c0.748-.99,2.176-2.93,2.176-3.61a1.513,1.513,0,0,0-1.5-1.39,1.058,1.058,0,0,0-1.02.71,21.8,21.8,0,0,1-1.6,2.96c-0.034.03-.068,0.14-0.1,0.17,0.034-2.86.068-5.23,0.068-5.23v-0.04a1.432,1.432,0,0,0-2.856,0v0.04l0.068,5.09a1.179,1.179,0,0,0-.068-0.23c-0.1-.34-1.19-3.23-2.516-3.23a1.282,1.282,0,0,0-1.36,1.08,1.121,1.121,0,0,0,.2.62,11.376,11.376,0,0,1,1.428,2.72,1.065,1.065,0,0,0,1.054.81,1.3,1.3,0,0,0,1.292-1.02l0.034,2.14-3.06-.03a1.276,1.276,0,0,0-1.292,1.33,1.19,1.19,0,0,0,1.258,1.25h0.034l2.482-.06a26.222,26.222,0,0,1-4.012,6.25c0-5.37.068-13.94,0.1-16.11v-0.04a1.435,1.435,0,0,0-1.5-1.46,1.453,1.453,0,0,0-1.5,1.46c-0.034,2.79-.1,13.84-0.1,18.87v1.9c0.034,2.04,1.291,3.3,3.637,3.3,2.04,0,5.134-.03,7.139-0.13a1.4,1.4,0,0,0,1.36-1.43,1.244,1.244,0,0,0-1.292-1.29h-0.068c-1.869.06-3.6,0.13-5.337,0.13h-1.156a1.205,1.205,0,0,1-1.292-1.26v-1.93a1.652,1.652,0,0,0,.952.34c0.748,0,1.564-.55,3.74-5.07l-0.238,6.05v0.07a1.276,1.276,0,0,0,1.394,1.19,1.3,1.3,0,0,0,1.462-1.22v-0.04Zm54.092-11.11v-9.28a1.447,1.447,0,0,0-1.53-1.47,1.429,1.429,0,0,0-1.53,1.47v2.03c0,3.4-.034,9.15-0.034,10.54-0.034,1.36-.646,1.7-1.428,1.7a6.373,6.373,0,0,1-1.564-.27,2.248,2.248,0,0,0-.441-0.07,1.538,1.538,0,0,0-1.462,1.64c0,1.29,1.258,1.8,3.467,1.8,3.434,0,4.59-2.21,4.59-4.18v-0.07Zm-9.519,2.38a1.5,1.5,0,0,0,2.992,0v-10a1.444,1.444,0,0,0-1.53-1.46,1.4,1.4,0,0,0-1.462,1.46v10Zm8.941,15.74a1.338,1.338,0,0,0,1.5-1.33,1.458,1.458,0,0,0-1.5-1.46l-10.947.03v-3.09l7.819,0.03a1.369,1.369,0,1,0,0-2.72l-7.819.04v-2.11a1.563,1.563,0,0,0-1.632-1.6,1.767,1.767,0,0,0-1.224.48l-0.034-6.29H880.2a1.324,1.324,0,0,0,1.326-1.4,1.3,1.3,0,0,0-1.326-1.39h-0.034l-2.72.03-0.034-3.87h1.8a1.3,1.3,0,0,0,1.326-1.4,1.323,1.323,0,0,0-1.36-1.39H866.635a1.418,1.418,0,0,0-1.529,1.43,1.378,1.378,0,0,0,1.5,1.36h1.87c0.034,0.51.034,0.98,0.034,1.49,0,0.48,0,.99-0.034,1.53l-0.034.85-2.855-.03h-0.034a1.4,1.4,0,0,0-1.5,1.39,1.367,1.367,0,0,0,1.5,1.4h2.719c-0.306,2.31-1.088,3.87-3.467,5.95a1.466,1.466,0,0,0-.578,1.12,1.4,1.4,0,0,0,1.5,1.36c1.564,0,4.692-2.99,5.474-8.47h3.3l-0.034,6.63a1.344,1.344,0,0,0,1.5,1.3,1.779,1.779,0,0,0,1.088-.34v1.97l-8.091-.04a1.369,1.369,0,1,0,0,2.72l8.125-.03v3.09l-11.151-.03a1.454,1.454,0,0,0-1.6,1.39,1.438,1.438,0,0,0,1.6,1.4h25.362Zm-16.794-20.78h-3.06v-0.74c0-.92.034-2.01,0.034-3.17h3.026v3.91Zm51.406,16.12c2.856-11.83,4.658-19.92,4.658-20.57a1.985,1.985,0,0,0-2.142-1.77,1.858,1.858,0,0,0-1.9,1.46c-3.841,19.52-4.045,19.52-4.521,19.52-0.17,0-.34-0.21-0.442-0.78-0.714-3.95-2.414-13.74-3.162-17.61a3.254,3.254,0,0,0-3.3-2.52,3.075,3.075,0,0,0-3.127,2.65c-0.884,4.52-2.72,14.83-3.366,17.65a0.933,0.933,0,0,1-.612.88c-0.476,0-.544-0.2-3.944-19.75a1.93,1.93,0,0,0-2.039-1.5,1.9,1.9,0,0,0-2.074,1.8c0,0.62.476,3.2,4.113,20.4,0.51,2.42,2.108,3.61,3.774,3.61,1.632,0,3.3-1.19,3.91-3.64,1.088-4.18,2.719-13.84,3.161-16.93a0.734,0.734,0,0,1,.272-0.61c0.1,0,.2.17,0.272,0.61,0.374,2.85,2.142,13.36,3.026,16.96,0.612,2.48,2.142,3.61,3.672,3.61A4.117,4.117,0,0,0,925.9,2824.47Zm25.535,0.92a1.647,1.647,0,0,0,.51-1.19,1.85,1.85,0,0,0-1.8-1.77,1.555,1.555,0,0,0-1.156.54,5.708,5.708,0,0,1-4.419,2.08,4.475,4.475,0,0,1-4.624-4.52c0-.38.068-0.65,0.272-0.65,6.6,0,7.31,0,8.364-.03,2.175-.07,3.229-1.36,3.229-2.96,0-2.59-2.652-6.02-7.343-6.02-4.386,0-8.057,3.57-8.057,8.77,0,5.07,3.467,8.57,8.125,8.57A8.558,8.558,0,0,0,951.43,2825.39Zm-3.841-8.33c-0.918.03-2.448,0.03-3.842,0.03-3.162,0-3.5,0-3.5-.3a4.465,4.465,0,0,1,4.25-2.96c3.06,0,3.774,2,3.774,2.48A0.724,0.724,0,0,1,947.589,2817.06Zm20.434,11.01c4.691,0,8.227-3.4,8.227-8.53a8.141,8.141,0,0,0-8.227-8.53,6.975,6.975,0,0,0-4.726,1.8,0.216,0.216,0,0,1-.17.07c-0.068,0-.1-0.04-0.1-0.17,0-3.95.068-7.38,0.1-8.81v-0.07a1.649,1.649,0,0,0-1.734-1.7,1.759,1.759,0,0,0-1.767,1.94c0.068,1.12.1,3.37,0.1,6.05,0,5.37-.1,12.51-0.1,15.91a1.732,1.732,0,0,0,1.733,1.87,1.69,1.69,0,0,0,1.7-1.43c0.034-.13.068-0.17,0.1-0.17a0.3,0.3,0,0,1,.2.11A7.106,7.106,0,0,0,968.023,2828.07Zm-0.068-3.16c-2.72,0-4.9-2.04-4.9-5.37,0-3.37,2.176-5.44,4.9-5.44s4.895,2.07,4.895,5.44C972.85,2822.87,970.674,2824.91,967.955,2824.91Zm44.235-4.49a1.429,1.429,0,0,0,0-2.85h-3.13c0-.44-0.03-0.82-0.03-1.12-0.07-1.7-1.36-2.42-3.54-2.45-1.63-.04-3.54-0.04-5.542-0.04v-1.22c7.412,0,8.362-.03,8.6-2.21,0.03-.34.07-0.68,0.07-1.05,0-.34-0.04-0.72-0.07-1.09-0.1-1.4-1.05-2.01-3.23-2.04-1.33-.04-3.3-0.04-5.372-0.04v-1.32l10.1,0.03a1.36,1.36,0,1,0,0-2.72l-10.1.04v-1.4a1.461,1.461,0,0,0-1.53-1.53,1.487,1.487,0,0,0-1.564,1.53l0.034,1.4-10.267-.04a1.36,1.36,0,1,0,0,2.72l10.267-.03v1.32c-2.073,0-4.045.04-5.337,0.04-3.128,0-3.536,1.05-3.536,3.3,0,3.02.748,3.09,8.873,3.09v1.19c-3.025,0-6.085,0-8.5.03a1.244,1.244,0,0,0-1.292,1.26,1.1,1.1,0,0,0,1.122,1.16h0.034c2.21-.04,5.44-0.07,8.635-0.07v1.43h-12.51a1.192,1.192,0,0,0-1.19,1.26,1.207,1.207,0,0,0,1.19,1.29h12.51v1.53c-3.059,0-6.119-.04-8.635-0.07h-0.034a1.221,1.221,0,0,0-1.292,1.26,1.235,1.235,0,0,0,1.292,1.25c2.72,0.04,5.712.04,8.669,0.04l-0.034.88c0,1.26-.816,1.6-1.835,1.6a7.964,7.964,0,0,1-1.8-.24,2.978,2.978,0,0,0-.51-0.07,1.474,1.474,0,0,0-1.5,1.53c0,1.77,2.482,1.81,3.57,1.81,3.467,0,5.2-1.91,5.2-3.95v-0.03l-0.034-1.57c1.942,0,3.812-.03,5.572-0.03,3.34,0,3.57-1.8,3.57-3.81h3.1Zm-12.242-11.9c1.772,0,3.362.04,4.352,0.04,0.95,0,1.12.3,1.12,0.85,0,0.98-.1.98-5.472,0.98v-1.87Zm6.122,9.22h-6.122v-1.4c1.9,0,3.642,0,5.032.04a0.925,0.925,0,0,1,1.05.92Zm-9.182-7.35c-4.827,0-5.643-.03-5.643-0.61v-0.75c0.068-.3.34-0.47,1.054-0.47,1.054,0,2.754-.04,4.589-0.04v1.87Zm9.182,9.9c0,0.17-.04.34-0.04,0.51a0.952,0.952,0,0,1-1.05.95c-1.56.03-3.26,0.07-5.032,0.07v-1.53h6.122Zm42.26,0.88a1.162,1.162,0,0,0,1.22-1.26,1.2,1.2,0,0,0-1.26-1.29l-11.11.07,0.03-1.5,7.62,0.04a1.14,1.14,0,1,0,0-2.28l-7.58.03v-1.46l9.31,0.04a1.245,1.245,0,1,0,0-2.49l-5.91.04a6.93,6.93,0,0,0,.61-1.67,1.325,1.325,0,0,0-.85-1.12l8.19,0.03a1.337,1.337,0,0,0,1.39-1.42,1.309,1.309,0,0,0-1.36-1.4h-0.03l-4.62.07c1.63-2.07,1.63-2.75,1.63-2.86a1.717,1.717,0,0,0-1.77-1.52,1.489,1.489,0,0,0-1.43,1.02,19.535,19.535,0,0,1-1.7,3.39l-1.15.04,0.07-4.52v-0.04a1.4,1.4,0,0,0-1.5-1.39,1.421,1.421,0,0,0-1.53,1.43v4.52h-1.97v-4.52a1.437,1.437,0,0,0-1.53-1.43,1.381,1.381,0,0,0-1.5,1.39v0.04l0.04,4.52-1.19-.04a10.619,10.619,0,0,0-2.76-4.07,1.279,1.279,0,0,0-.78-0.21,1.684,1.684,0,0,0-1.7,1.36,1.05,1.05,0,0,0,.31.71,14.072,14.072,0,0,1,1.77,2.18l-4.46-.07h-0.03a1.342,1.342,0,0,0-1.4,1.4,1.371,1.371,0,0,0,1.43,1.42l7.79-.03a1.041,1.041,0,0,0-.85.88,0.748,0.748,0,0,0,.17.51,10.782,10.782,0,0,1,.68,1.4l-5.95-.04a1.246,1.246,0,1,0,0,2.49l9.38-.04v1.46l-7.65-.03a1.14,1.14,0,1,0,0,2.28l7.68-.04,0.04,1.5-11.12-.07a1.248,1.248,0,0,0-1.29,1.29,1.194,1.194,0,0,0,1.26,1.26H1023l8.26-.17h1.12a33.679,33.679,0,0,1-10.57,5.47,1.547,1.547,0,0,0-1.19,1.36,1.644,1.644,0,0,0,1.74,1.53c1.08,0,7.54-2.92,11.76-6.32l-0.07,5.81v0.04a1.4,1.4,0,0,0,1.6,1.29,1.438,1.438,0,0,0,1.6-1.29v-0.04l-0.07-5.84c5.17,4.01,11.08,6.22,11.76,6.22a1.9,1.9,0,0,0,1.8-1.87,1.363,1.363,0,0,0-1.05-1.33c-3.88-1.29-7.45-2.51-10.98-5.03h1.02l8.56,0.17h0.04Zm-9.72-12.85a0.841,0.841,0,0,0-.34.58,10.393,10.393,0,0,1-.72,2.21h-3.74l-0.03-.1a3.93,3.93,0,0,0-1.74-2.69h6.57Zm45.05,3.4v1.39c0,2.15.03,4.73,0.03,7.18,0,1.6-.03,3.16-0.07,4.52-0.03,1.66-.81,2.07-1.94,2.07a13.382,13.382,0,0,1-1.83-.2c-0.1,0-.17-0.04-0.27-0.04a1.425,1.425,0,0,0-1.4,1.5c0,1.56,1.36,1.87,3.67,1.87,3.84,0,5.03-2.14,5.03-4.59,0-1.19-.03-2.62-0.03-4.25,0-4.35-.07-9.93-0.07-15.03v-2.51c0-1.5-1.02-2.79-3.57-2.92-0.57-.04-1.53-0.04-2.55-0.04-1.39,0-2.85,0-3.5.04a2.889,2.889,0,0,0-3.06,2.61c-0.03,1.16-.07,2.35-0.07,3.5,0,0.72,0,1.43.04,2.08,0.1,2.85,2.79,2.89,7.07,2.89C1082.13,2811.79,1083.04,2811.75,1083.66,2811.72Zm-3.54,9.66a1.3,1.3,0,1,0,0-2.59h-2.72v-3.06h1.73a1.294,1.294,0,1,0,0-2.58h-12.71a1.4,1.4,0,0,0-1.5,1.32,1.311,1.311,0,0,0,1.5,1.26h2.07c0.04,0.78.07,1.63,0.07,2.52v0.54h-2.75a1.4,1.4,0,0,0-1.5,1.33,1.316,1.316,0,0,0,1.5,1.26h2.65c-0.24,2.31-1.06,4.18-3.74,4.75a1.239,1.239,0,0,0-.99,1.26,1.371,1.371,0,0,0,1.43,1.4,2.328,2.328,0,0,0,.65-0.11c3.84-1.15,5.2-3.67,5.57-7.3h3.03v5.54a1.5,1.5,0,0,0,2.99,0v-5.54h2.72Zm-17.58-9.66c0.62,0.03,1.47.07,2.38,0.07,6.87,0,6.9-.78,6.9-4.97,0-1.15-.03-2.34-0.06-3.5a2.959,2.959,0,0,0-3.13-2.61c-0.65-.04-2.04-0.04-3.4-0.04-3.77,0-5.85.1-5.85,3.23-0.07,7.17,0,18.43-.24,24.72v0.06a1.5,1.5,0,0,0,1.6,1.43,1.547,1.547,0,0,0,1.67-1.49c0.1-4.87.13-10,.13-13.81v-3.09Zm14.52-6.56c0-.34.03-0.68,0.03-0.99,0.07-1.02.45-1.05,3.27-1.05,3.09,0,3.23.03,3.23,2.04h-6.53Zm6.6,4.18c-0.48.03-1.64,0.03-2.76,0.03-3.02,0-3.77,0-3.81-1.05,0-.31-0.03-0.65-0.03-0.99h6.6v2.01Zm-21.12-4.18c0-.27.04-0.51,0.04-0.75,0.07-1.22.3-1.29,3.12-1.29,2.62,0,3,.03,3.06,1.02,0,0.3.04,0.64,0.04,1.02h-6.26Zm6.26,2.17c0,0.34-.04.68-0.04,0.99-0.03.92-.27,1.05-3.63,1.05-1.06,0-2.08,0-2.59-.03v-2.01h6.26Zm5.61,11.46h-2.93v-3.06h2.93v3.06Zm46.92,1.91a1.473,1.473,0,0,0,1.59-1.53,1.531,1.531,0,0,0-1.63-1.57l-6.32.04c0-1.53.03-2.96,0.03-3.98h0.55a1.475,1.475,0,0,0,1.6-1.5v-0.07c2.14,1.7,4.82,3.47,6.22,3.47a1.85,1.85,0,0,0,1.9-1.77,1.566,1.566,0,0,0-1.09-1.42,25.483,25.483,0,0,1-4.52-2.42c2.45-1.8,3.57-2.99,3.57-3.74a1.9,1.9,0,0,0-1.77-1.73,1.3,1.3,0,0,0-1.08.58,19.621,19.621,0,0,1-3.13,3.12c-0.58-.47-1.09-0.91-1.63-1.42,0.71-.58,3.33-2.79,3.33-3.95a1.847,1.847,0,0,0-1.77-1.7,1.269,1.269,0,0,0-1.12.65,18.7,18.7,0,0,1-2.52,2.96c-0.47-.51-0.92-1.02-1.36-1.53a1.222,1.222,0,0,0-.92-0.48c-0.44-1.87-2.17-1.9-4.35-1.9h-4.79a1.445,1.445,0,0,0,0,2.89c1.94,0,3.53-.04,4.79-0.07,0.34,0,.55.1,0.55,0.34,0,0.37-3.81,6.05-10.88,9.04a1.561,1.561,0,0,0-1.02,1.46,1.625,1.625,0,0,0,1.56,1.67c0.75,0,3.47-1.29,6.12-3.26a1.507,1.507,0,0,0,1.43.78h0.41v3.98l-5.65-.04a1.557,1.557,0,0,0-1.59,1.63,1.419,1.419,0,0,0,1.56,1.47h0.03l5.41-.11c-0.55,3.1-2.28,5.51-7.41,6.22a1.446,1.446,0,0,0-1.23,1.5,1.66,1.66,0,0,0,1.77,1.7,3.151,3.151,0,0,0,.58-0.07c6.76-1.39,8.94-5.23,9.55-9.38l3.67,0.03c-0.03,2.42-.03,4.52-0.03,4.97,0,3.91,3.88,3.94,5.71,3.94,4.63,0,6.9-1.22,6.9-5.24a1.728,1.728,0,0,0-1.83-1.87,1.456,1.456,0,0,0-1.57,1.53c0,2.01-1.05,2.55-3.23,2.55-1.66,0-2.75-.13-2.82-1.39,0-.44,0-2.28.04-4.45l6.35,0.07h0.04Zm-19.75-11.63a1.847,1.847,0,0,0,1.76-1.77,1.556,1.556,0,0,0-.44-1.05c-0.1-.11-2.92-2.52-4.28-2.52a1.657,1.657,0,0,0-1.7,1.5,1.186,1.186,0,0,0,.68,1.02,14.177,14.177,0,0,1,2.96,2.34A1.3,1.3,0,0,0,1101.58,2809.07Zm4.24,1.6a36.45,36.45,0,0,0,4.59-5.17,50.335,50.335,0,0,0,5.04,5.17h-9.63Zm2.49,6.97c0-.28-0.04-0.51-0.04-0.79v-3.19h3.57c-0.03,1.02-.03,2.45-0.03,3.98h-3.5Z" transform="translate(-714.688 -2799.41)"/>
</svg>
