<svg 
 xmlns="http://www.w3.org/2000/svg"
 xmlns:xlink="http://www.w3.org/1999/xlink"
 width="405px" height="73px">
<path fill-rule="evenodd"  fill="rgb(255, 255, 255)"
 d="M402.959,56.151 C401.123,56.151 394.732,50.678 390.958,46.462 C390.585,46.054 390.313,45.850 390.075,45.850 C389.837,45.850 389.599,46.054 389.259,46.462 C386.471,49.998 381.983,54.282 378.346,56.661 C377.836,57.001 377.360,57.137 376.918,57.137 C375.830,57.137 375.048,56.253 375.048,55.335 C375.048,54.757 375.388,54.146 376.136,53.738 C380.080,51.698 384.295,47.550 386.879,44.185 C387.695,43.131 388.749,42.553 389.837,42.553 C390.890,42.553 392.012,43.063 393.032,44.185 C396.364,47.754 400.002,50.610 404.047,52.684 C404.693,53.024 404.965,53.568 404.965,54.146 C404.965,55.131 404.115,56.151 402.959,56.151 ZM366.647,53.942 L366.613,53.942 L357.910,53.840 C356.244,55.063 354.477,56.219 352.641,57.239 L352.573,57.409 C355.700,57.103 358.998,56.457 362.228,55.641 C362.398,55.607 362.568,55.573 362.704,55.573 C363.622,55.573 364.200,56.287 364.200,57.035 C364.200,57.613 363.792,58.225 362.874,58.463 C359.066,59.381 353.559,59.993 351.893,60.095 C351.757,60.537 351.621,61.013 351.485,61.455 C353.253,61.421 355.428,61.387 357.502,61.387 C358.454,61.387 359.372,61.387 360.256,61.421 C362.432,61.455 363.486,62.441 363.486,64.243 C363.486,66.826 361.616,71.892 354.681,71.892 C353.083,71.892 351.383,71.620 349.683,71.110 C348.969,70.906 348.629,70.294 348.629,69.682 C348.629,68.934 349.139,68.186 350.091,68.186 C350.295,68.186 350.499,68.220 350.737,68.288 C352.233,68.764 353.593,68.968 354.748,68.968 C359.474,68.968 360.222,65.704 360.222,64.786 C360.222,64.243 359.916,64.005 359.134,64.005 C358.046,63.971 356.652,63.971 355.190,63.971 C353.695,63.971 352.165,63.971 350.737,64.005 C350.261,65.568 349.751,65.908 348.799,65.908 C348.051,65.908 347.303,65.500 347.303,64.752 C347.303,64.549 347.337,64.345 347.439,64.141 C347.983,62.883 348.629,60.809 349.105,59.041 C344.584,61.149 340.878,62.169 340.232,62.169 C339.246,62.169 338.668,61.455 338.668,60.707 C338.668,60.061 339.110,59.415 340.062,59.177 C344.855,58.089 349.241,56.287 353.151,53.840 L341.422,53.942 L341.388,53.942 C340.402,53.942 339.926,53.262 339.926,52.548 C339.926,51.868 340.436,51.154 341.422,51.154 L350.703,51.188 L350.703,48.366 L344.448,48.400 C343.462,48.400 342.952,47.686 342.952,47.006 C342.952,46.292 343.462,45.612 344.448,45.612 L350.703,45.646 L350.703,43.403 C350.703,42.417 351.485,41.975 352.301,41.975 C353.117,41.975 353.933,42.451 353.933,43.403 L353.933,45.646 L358.420,45.612 C359.440,45.612 359.916,46.292 359.916,47.006 C359.916,47.686 359.440,48.400 358.420,48.400 L353.899,48.366 L353.899,51.188 L356.856,51.188 C359.372,49.148 361.616,46.768 363.588,44.083 C363.894,43.641 364.302,43.471 364.709,43.471 C365.627,43.471 366.511,44.321 366.511,45.204 C366.511,45.476 366.443,45.748 366.239,45.986 C364.811,47.822 363.112,49.522 361.276,51.154 L366.613,51.154 C367.599,51.154 368.075,51.868 368.075,52.548 C368.075,53.262 367.599,53.942 366.647,53.942 ZM329.198,17.454 C328.676,17.454 328.244,16.968 328.244,16.464 C328.244,16.230 328.352,15.978 328.586,15.762 C330.441,14.141 331.359,11.621 331.359,9.118 C331.359,6.615 330.441,4.148 328.622,2.618 C328.334,2.384 328.226,2.096 328.226,1.844 C328.226,1.376 328.604,0.962 329.108,0.962 C329.324,0.962 329.576,1.052 329.828,1.268 C332.043,3.248 333.141,6.255 333.141,9.262 C333.141,12.287 332.007,15.312 329.792,17.220 C329.594,17.382 329.396,17.454 329.198,17.454 ZM324.478,49.454 C323.832,49.454 323.832,49.760 323.832,50.542 C323.832,51.392 323.968,51.460 325.974,51.460 C327.673,51.460 328.455,51.392 328.523,50.168 C328.557,49.420 329.169,49.080 329.781,49.080 C330.529,49.080 331.311,49.556 331.311,50.372 C331.311,53.500 328.353,53.772 326.008,53.772 C325.498,53.772 325.022,53.738 324.546,53.704 C324.954,53.874 325.260,54.180 325.260,54.656 L325.260,55.607 L328.795,55.573 C329.645,55.573 330.053,56.151 330.053,56.729 C330.053,57.341 329.645,57.919 328.795,57.919 L325.260,57.885 L325.260,59.959 L330.223,59.925 C331.073,59.925 331.481,60.503 331.481,61.115 C331.481,61.693 331.073,62.305 330.223,62.305 L320.806,62.237 L311.763,62.305 C310.913,62.305 310.505,61.693 310.505,61.115 C310.505,60.503 310.913,59.925 311.763,59.925 L316.284,59.959 L316.284,57.885 L313.021,57.919 C312.171,57.919 311.763,57.341 311.763,56.729 C311.763,56.151 312.171,55.573 313.021,55.573 L316.284,55.607 L316.284,54.656 C316.284,54.180 316.590,53.874 316.998,53.704 C316.624,53.738 316.250,53.738 315.877,53.738 C312.511,53.738 311.219,53.296 311.219,50.066 C311.219,48.978 311.253,47.244 313.905,47.244 C314.211,47.244 315.163,47.244 315.877,47.244 C316.862,47.244 317.168,47.244 317.168,46.462 C317.168,45.986 317.100,45.850 316.624,45.816 C316.624,45.816 316.624,45.816 312.273,45.816 C311.457,45.816 311.083,45.238 311.083,44.627 C311.083,44.015 311.491,43.403 312.239,43.369 C312.579,43.369 312.987,43.369 313.395,43.369 C314.993,43.369 316.828,43.403 317.372,43.403 C319.174,43.403 319.854,44.151 319.854,46.564 C319.854,49.454 319.072,49.454 314.551,49.454 C314.007,49.454 313.939,49.692 313.939,50.576 C313.939,51.426 314.211,51.460 315.945,51.460 C317.100,51.460 317.984,51.392 318.052,50.338 C318.086,49.590 318.698,49.250 319.310,49.250 C320.058,49.250 320.806,49.692 320.806,50.508 C320.806,51.868 320.126,53.228 318.052,53.568 C318.630,53.670 319.174,54.010 319.174,54.656 L319.174,55.607 L320.806,55.641 L322.370,55.641 L322.370,54.656 C322.370,54.010 322.914,53.636 323.526,53.568 C321.214,53.126 321.214,51.528 321.214,50.474 C321.214,48.944 321.248,47.244 323.866,47.244 C324.172,47.244 325.192,47.244 325.940,47.244 C327.163,47.244 327.265,47.210 327.265,46.462 C327.265,45.986 327.197,45.850 326.721,45.816 C326.721,45.816 326.721,45.816 322.132,45.816 C321.350,45.816 320.976,45.238 320.976,44.661 C320.976,44.015 321.384,43.403 322.132,43.369 C322.472,43.369 322.880,43.369 323.288,43.369 C324.954,43.369 326.891,43.403 327.435,43.403 C329.407,43.403 329.951,44.321 329.951,46.564 C329.951,49.386 329.305,49.454 324.478,49.454 ZM322.370,57.885 L320.806,57.851 L319.174,57.885 L319.174,59.959 L320.840,59.993 L322.370,59.959 L322.370,57.885 ZM322.056,4.923 C321.012,4.923 320.166,4.076 320.166,3.032 C320.166,1.988 321.012,1.124 322.056,1.124 C323.101,1.124 323.965,1.988 323.965,3.032 C323.965,4.076 323.101,4.923 322.056,4.923 ZM322.056,2.096 C321.552,2.096 321.138,2.528 321.138,3.032 C321.138,3.536 321.552,3.932 322.056,3.932 C322.560,3.932 322.975,3.536 322.975,3.032 C322.975,2.528 322.560,2.096 322.056,2.096 ZM320.688,7.101 C319.428,10.702 317.231,14.195 312.189,16.122 C310.659,16.698 309.993,14.808 311.361,14.376 C315.340,13.115 317.699,9.838 318.509,7.191 C318.653,6.705 318.599,6.255 317.933,6.237 C316.169,6.183 313.324,6.291 310.731,6.381 C309.543,6.417 309.417,4.653 310.695,4.599 C313.072,4.491 316.439,4.473 318.725,4.509 C320.184,4.527 321.210,5.625 320.688,7.101 ZM308.669,50.236 C308.261,50.236 307.819,50.032 307.513,49.522 C306.629,48.162 305.134,47.108 304.182,46.564 C303.706,46.292 303.502,45.918 303.502,45.510 C303.502,44.763 304.318,43.981 305.236,43.981 C306.255,43.981 310.505,46.598 310.505,48.332 C310.505,49.318 309.587,50.236 308.669,50.236 ZM304.438,9.910 L293.130,9.910 C292.482,9.910 292.176,9.478 292.176,9.046 C292.176,8.596 292.518,8.128 293.130,8.128 L304.438,8.128 C305.050,8.128 305.356,8.578 305.356,9.028 C305.356,9.460 305.050,9.910 304.438,9.910 ZM292.517,42.859 C293.333,42.859 294.149,43.369 294.149,44.423 C294.149,44.423 294.149,44.423 294.149,63.257 L294.217,67.370 C294.217,67.404 294.217,67.404 294.217,67.438 C294.217,69.478 292.857,71.892 288.710,71.892 C285.412,71.892 284.766,71.144 284.766,69.954 C284.766,69.104 285.310,68.254 286.228,68.254 C286.364,68.254 286.466,68.254 286.602,68.288 C287.248,68.424 288.132,68.662 288.914,68.662 C289.933,68.662 290.817,68.288 290.851,66.826 C290.885,65.568 290.885,56.117 290.885,49.794 C290.885,47.210 290.885,45.136 290.885,44.423 C290.885,43.369 291.701,42.859 292.517,42.859 ZM282.036,14.268 C280.865,14.844 279.587,14.376 279.713,12.827 C279.839,11.207 279.965,6.921 279.965,5.859 C279.965,4.545 281.784,4.563 281.766,5.859 C281.748,6.561 281.567,11.315 281.549,11.927 C281.531,12.323 281.748,12.359 282.090,12.161 C283.638,11.279 285.061,9.604 286.105,7.660 C286.753,6.453 288.374,7.443 287.743,8.560 C286.501,10.792 284.484,13.025 282.036,14.268 ZM272.583,13.619 C275.248,12.431 276.850,9.658 276.688,6.219 C276.616,4.833 278.507,4.923 278.543,6.075 C278.669,9.478 277.120,13.223 273.591,15.186 C272.205,15.960 271.214,14.231 272.583,13.619 ZM270.994,3.014 C270.742,2.744 269.878,2.132 269.518,1.988 C268.599,1.628 269.248,0.547 270.094,0.817 C270.580,0.980 271.498,1.430 271.912,1.844 C272.633,2.564 271.606,3.698 270.994,3.014 ZM269.356,4.617 C269.122,4.329 268.239,3.698 267.879,3.536 C266.961,3.158 267.681,2.078 268.509,2.384 C268.996,2.564 269.896,3.032 270.292,3.464 C270.994,4.221 269.950,5.319 269.356,4.617 ZM268.401,6.525 C266.205,10.720 263.720,14.358 258.661,16.356 C257.130,16.950 256.392,15.186 257.886,14.664 C261.883,13.277 264.854,9.694 266.187,6.633 C266.331,6.291 266.187,5.949 265.755,5.967 C264.998,5.985 263.684,6.111 262.874,6.201 C261.649,7.822 260.065,9.712 258.823,10.558 C257.616,11.369 256.554,9.802 257.778,9.046 C259.507,7.984 261.847,4.689 262.676,3.266 C263.270,2.258 265.070,3.122 264.224,4.329 L264.098,4.491 C264.872,4.437 265.755,4.383 266.475,4.347 C267.861,4.275 269.068,5.247 268.401,6.525 ZM258.449,47.856 C258.449,48.570 257.973,49.250 256.987,49.250 L251.922,49.250 L251.922,52.310 L258.823,52.310 C259.775,52.310 260.251,52.990 260.251,53.704 C260.251,54.384 259.775,55.097 258.823,55.097 L242.743,55.097 C241.757,55.097 241.247,54.384 241.247,53.704 C241.247,52.990 241.757,52.310 242.743,52.310 L248.726,52.310 L248.726,49.250 L244.272,49.250 C243.253,49.250 242.743,48.570 242.743,47.856 C242.743,47.176 243.253,46.496 244.272,46.496 L248.692,46.496 L248.692,43.539 C248.692,42.553 249.508,42.077 250.324,42.077 C251.140,42.077 251.956,42.553 251.956,43.539 L251.956,46.496 L256.987,46.496 C257.973,46.496 258.449,47.176 258.449,47.856 ZM247.972,9.748 C247.558,9.892 247.198,9.856 246.946,9.694 C246.496,12.449 245.145,14.592 242.480,16.266 C241.760,16.716 241.094,16.518 240.788,16.104 C240.482,15.690 240.554,15.060 241.274,14.700 C244.299,13.205 245.325,10.234 245.055,7.624 C244.983,6.867 245.469,6.525 246.045,6.525 C246.604,6.525 247.144,6.795 247.126,7.552 C247.126,7.768 247.126,8.002 247.108,8.218 C247.162,8.200 247.198,8.164 247.252,8.146 C248.458,7.660 249.827,6.849 250.529,5.877 C250.799,5.499 250.799,5.229 250.331,5.229 C248.314,5.211 244.389,5.265 241.868,5.391 C240.284,5.463 240.374,3.734 241.724,3.662 C244.335,3.536 248.260,3.554 250.961,3.554 C252.833,3.554 253.698,5.121 252.437,6.543 C251.249,7.894 249.935,9.046 247.972,9.748 ZM241.383,49.148 C242.369,49.148 242.879,49.896 242.879,50.644 C242.879,51.392 242.369,52.140 241.417,52.140 L241.383,52.140 L239.003,52.140 L238.969,56.627 C241.145,55.539 241.281,55.471 241.553,55.471 C242.233,55.471 242.777,56.117 242.777,56.865 C242.777,57.851 242.403,58.055 238.969,59.789 L238.935,70.838 C238.935,71.824 238.119,72.300 237.303,72.300 C236.487,72.300 235.671,71.824 235.671,70.838 L235.705,61.285 C232.782,62.543 232.170,62.747 231.660,62.747 C230.640,62.747 230.028,61.965 230.028,61.149 C230.028,60.571 230.368,59.993 231.116,59.721 C232.782,59.143 234.311,58.565 235.739,58.021 L235.739,52.140 L233.903,52.208 C233.292,55.233 232.952,56.831 231.252,56.831 C230.504,56.831 229.790,56.389 229.790,55.641 C229.790,55.471 229.858,55.233 229.960,54.995 C231.218,52.140 231.524,49.454 231.660,46.564 C231.694,45.646 232.442,45.204 233.190,45.204 C233.937,45.204 234.685,45.680 234.685,46.564 C234.685,46.632 234.685,46.666 234.685,46.734 C234.617,47.482 234.481,48.298 234.379,49.148 L235.773,49.148 L235.773,43.505 C235.773,42.485 236.589,41.975 237.405,41.975 C238.221,41.975 239.037,42.485 239.037,43.505 L239.003,49.148 L241.383,49.148 ZM229.347,16.770 C227.870,17.617 227.078,15.924 228.212,15.294 C231.399,13.529 232.120,11.117 232.120,8.434 C232.120,7.029 232.030,4.797 232.030,3.374 C232.030,2.204 233.974,2.276 233.956,3.374 C233.920,4.905 234.010,6.921 234.010,8.416 C234.010,11.513 233.074,14.628 229.347,16.770 ZM228.068,10.937 C227.600,10.937 227.096,10.612 227.132,10.018 C227.240,8.236 227.186,5.409 227.096,3.698 C227.042,2.582 228.897,2.492 228.969,3.626 C229.059,5.247 229.059,8.326 229.023,10.000 C229.005,10.612 228.537,10.937 228.068,10.937 ZM218.312,53.466 C218.312,54.452 218.380,55.471 218.448,56.831 C218.754,63.631 216.987,68.560 211.683,72.300 C209.711,73.694 207.570,71.042 209.677,69.682 C214.029,66.860 215.389,62.713 215.253,56.899 C215.219,55.845 215.185,54.893 215.151,53.976 C213.145,54.248 211.207,54.384 209.439,54.214 C207.162,54.010 207.366,50.712 209.983,51.120 C211.343,51.324 213.213,51.188 215.117,50.950 C215.117,50.644 215.117,50.372 215.117,50.066 C215.151,47.992 214.879,47.312 214.743,46.054 C214.471,43.539 217.837,43.675 218.245,45.544 C218.482,46.700 218.482,47.856 218.414,49.590 L218.380,50.406 C219.128,50.236 219.808,50.100 220.386,49.930 C222.562,49.318 223.888,52.276 220.998,52.888 C220.114,53.092 219.230,53.296 218.312,53.466 ZM217.293,12.251 C216.267,13.151 215.259,11.837 216.177,11.081 C216.681,10.684 217.185,10.072 217.455,9.496 L217.473,9.478 C216.735,9.694 215.673,10.054 214.556,10.450 C215.097,12.269 215.745,14.322 216.177,15.510 C216.663,16.824 215.007,17.382 214.628,16.122 C214.268,14.898 213.656,12.827 213.098,10.973 C212.342,11.243 211.640,11.513 211.063,11.729 C210.001,12.125 209.551,10.612 210.559,10.270 C211.189,10.054 211.892,9.802 212.666,9.532 C212.450,8.830 212.270,8.236 212.126,7.786 C211.928,7.191 212.234,6.795 212.648,6.705 C213.026,6.615 213.494,6.831 213.638,7.317 C213.764,7.732 213.944,8.326 214.142,9.028 C215.331,8.632 216.573,8.218 217.779,7.840 C218.680,7.570 219.796,8.056 219.418,9.172 C219.004,10.396 218.194,11.459 217.293,12.251 ZM204.476,65.908 C204.442,66.282 204.680,67.268 204.204,67.880 C203.524,68.730 201.926,69.002 201.178,67.608 C198.119,61.727 199.682,55.267 200.056,51.086 C200.226,49.148 200.430,48.060 200.498,46.598 C200.600,44.491 203.796,44.525 203.796,46.666 C203.796,47.720 203.490,49.488 203.252,51.222 C202.844,54.078 201.858,57.001 202.368,60.367 C202.470,60.945 202.674,61.183 202.946,60.469 C203.116,60.061 203.490,59.381 203.660,58.973 C204.578,57.035 206.856,58.395 206.176,59.959 C205.088,62.441 204.544,64.447 204.476,65.908 ZM199.540,11.027 C200.116,12.845 200.638,14.538 200.980,15.600 C201.196,16.266 200.818,16.752 200.386,16.914 C199.954,17.076 199.414,16.914 199.252,16.266 C198.963,15.150 198.459,13.385 197.883,11.513 C196.281,11.999 194.714,12.485 193.616,12.863 C192.427,13.259 191.887,11.585 193.238,11.171 C194.282,10.846 195.794,10.378 197.397,9.910 C197.199,9.280 197.001,8.650 196.821,8.056 C195.704,8.362 194.606,8.668 193.670,8.884 C192.373,9.190 192.031,7.552 193.220,7.281 C194.210,7.065 195.272,6.795 196.335,6.507 C195.975,5.355 195.632,4.365 195.416,3.698 C195.002,2.474 196.839,2.186 197.127,3.176 C197.307,3.824 197.631,4.851 197.991,6.039 C199.017,5.751 199.990,5.427 200.836,5.157 C202.006,4.779 202.384,6.417 201.286,6.759 C200.476,7.011 199.504,7.317 198.477,7.606 L199.035,9.442 C200.494,9.028 201.952,8.614 203.051,8.326 C204.455,7.966 204.689,9.694 203.573,9.946 C202.547,10.180 201.070,10.576 199.540,11.027 ZM182.704,71.858 C180.563,71.858 178.625,71.586 178.625,69.886 C178.625,69.104 179.203,68.390 180.189,68.390 C180.325,68.390 180.495,68.390 180.631,68.424 C181.379,68.560 182.161,68.662 182.874,68.662 C184.370,68.662 185.560,68.220 185.560,66.690 C185.560,55.233 185.492,52.956 185.458,52.344 C185.390,50.406 184.710,50.066 183.044,50.032 C180.563,49.998 178.081,49.964 175.667,49.964 C173.219,49.964 170.840,49.998 168.528,50.032 C166.590,50.066 166.046,50.610 166.012,52.344 C165.944,55.437 165.910,58.531 165.910,61.591 C165.910,70.838 165.910,70.838 165.910,70.838 C165.910,71.824 165.060,72.334 164.244,72.334 C163.394,72.334 162.544,71.824 162.544,70.872 L162.544,70.838 C162.612,64.515 162.612,57.477 162.748,50.780 C162.782,48.604 164.448,47.108 166.998,47.074 C168.596,47.040 170.262,47.006 171.928,47.006 C172.370,45.680 172.811,43.947 172.981,42.927 C173.083,42.179 173.865,41.839 174.681,41.839 C175.633,41.839 176.687,42.349 176.687,43.335 C176.687,44.287 175.497,46.836 175.429,46.972 C178.489,46.972 181.617,47.006 184.676,47.074 C186.750,47.108 188.790,48.604 188.824,51.052 C188.892,54.893 188.892,58.633 188.960,62.475 L189.028,67.268 C189.028,67.302 189.028,67.302 189.028,67.336 C189.028,69.342 187.362,71.858 182.704,71.858 ZM185.726,7.606 C184.789,7.570 183.799,7.534 182.809,7.534 C182.845,9.424 182.917,11.495 183.007,12.845 C183.043,13.403 183.043,13.709 183.061,14.195 C183.097,15.582 182.323,16.716 179.496,16.230 C177.857,15.942 178.524,14.087 179.658,14.448 C180.396,14.682 181.350,14.790 181.332,13.835 C181.314,12.773 181.260,10.901 181.206,9.010 C179.298,11.495 177.803,12.935 175.355,14.502 C173.860,15.456 172.978,13.745 174.112,13.151 C176.615,11.855 178.632,9.874 180.162,7.552 C178.560,7.588 176.957,7.642 175.445,7.696 C174.238,7.750 174.058,6.093 175.391,6.039 C177.191,5.967 179.154,5.931 181.098,5.913 C181.062,4.887 181.026,4.022 181.008,3.554 C180.936,2.222 182.755,2.348 182.755,3.482 C182.755,3.986 182.773,4.869 182.791,5.895 C183.817,5.895 184.825,5.877 185.780,5.895 C187.166,5.913 187.076,7.678 185.726,7.606 ZM167.600,12.755 C166.861,12.035 165.763,11.225 164.755,10.882 C163.855,10.576 164.395,9.190 165.511,9.586 C166.591,9.982 168.104,10.702 168.788,11.459 C169.166,11.873 169.076,12.395 168.788,12.719 C168.500,13.043 167.996,13.151 167.600,12.755 ZM163.404,9.190 C163.476,9.442 163.512,9.802 163.494,10.396 C163.458,11.729 163.404,13.943 163.458,15.618 C163.476,16.320 163.008,16.590 162.576,16.644 C162.144,16.698 161.586,16.374 161.622,15.708 C161.694,14.087 161.856,12.107 161.838,10.630 C160.362,11.873 158.687,13.025 156.886,13.799 C155.698,14.304 154.870,12.683 156.202,12.179 C158.975,11.135 161.784,8.650 162.990,7.281 C163.224,7.011 163.260,6.849 162.846,6.867 C161.892,6.885 159.659,7.011 158.507,7.065 C157.175,7.137 157.121,5.499 158.417,5.391 C159.641,5.301 162.414,5.283 163.765,5.247 C165.529,5.193 165.853,6.543 164.899,7.624 C164.449,8.128 163.945,8.668 163.404,9.190 ZM163.440,4.221 C162.810,3.806 161.370,3.338 160.488,3.284 C159.533,3.230 159.641,1.736 160.776,1.808 C161.766,1.880 163.458,2.132 164.341,2.798 C164.773,3.122 164.773,3.608 164.539,3.968 C164.305,4.329 163.891,4.509 163.440,4.221 ZM152.944,64.277 L141.487,64.243 L141.487,70.906 C141.487,71.824 140.671,72.300 139.821,72.300 C139.005,72.300 138.189,71.824 138.189,70.906 L138.189,64.243 L126.868,64.277 C125.746,64.277 125.236,63.563 125.236,62.849 C125.236,62.067 125.814,61.251 126.868,61.251 L138.189,61.285 L138.189,60.435 C138.189,59.823 138.495,59.415 138.903,59.177 C138.393,58.905 138.053,58.395 138.053,57.851 C138.053,57.477 138.223,57.103 138.665,56.831 C140.841,55.505 142.575,53.296 143.731,50.372 C143.969,49.726 144.479,49.488 144.988,49.488 C145.770,49.488 146.586,50.066 146.586,50.916 C146.586,51.120 146.552,51.460 145.872,52.684 C147.334,54.078 149.170,55.131 150.836,55.947 C151.448,56.253 151.720,56.763 151.720,57.307 C151.720,58.157 151.040,59.007 150.088,59.007 C148.864,59.007 146.246,56.967 144.445,54.995 C143.289,56.627 142.031,58.055 140.603,59.007 L140.501,59.075 C141.045,59.279 141.487,59.721 141.487,60.435 L141.487,61.285 L152.944,61.251 C153.964,61.251 154.508,62.033 154.508,62.815 C154.508,63.529 153.998,64.277 152.944,64.277 ZM137.305,57.273 C136.999,57.273 136.693,57.137 136.421,56.831 C135.673,56.015 134.789,55.335 134.212,54.961 C132.954,56.899 130.778,59.483 129.418,59.483 C128.534,59.483 127.752,58.769 127.752,57.953 C127.752,57.511 127.990,57.035 128.534,56.627 C130.710,55.029 132.308,53.160 133.226,50.644 C133.498,49.862 134.076,49.556 134.653,49.556 C135.401,49.556 136.149,50.100 136.149,50.950 C136.149,51.460 135.537,52.616 135.469,52.752 C136.285,53.058 138.631,54.248 138.631,55.675 C138.631,56.491 138.019,57.273 137.305,57.273 ZM151.618,49.182 L139.787,49.114 L128.330,49.182 C127.242,49.182 126.664,48.400 126.664,47.618 C126.664,46.870 127.242,46.088 128.330,46.088 L138.121,46.156 L138.087,43.607 L138.087,43.573 C138.087,42.519 138.971,41.975 139.855,41.975 C140.739,41.975 141.623,42.519 141.623,43.573 L141.623,43.607 L141.589,46.156 L151.618,46.088 C152.672,46.088 153.182,46.870 153.182,47.618 C153.182,48.400 152.672,49.182 151.618,49.182 ZM149.262,9.136 C149.262,11.621 150.198,14.123 152.088,15.762 C152.323,15.960 152.413,16.212 152.413,16.464 C152.413,16.986 151.962,17.508 151.422,17.508 C151.242,17.508 151.044,17.436 150.846,17.274 C148.649,15.330 147.533,12.287 147.533,9.244 C147.533,6.237 148.613,3.212 150.810,1.196 C151.044,0.980 151.296,0.890 151.512,0.890 C152.034,0.890 152.467,1.340 152.467,1.844 C152.467,2.114 152.341,2.384 152.070,2.618 C150.198,4.185 149.262,6.651 149.262,9.136 ZM139.545,4.419 C139.365,4.076 138.645,3.212 138.303,2.978 C137.457,2.366 138.429,1.412 139.203,1.934 C139.653,2.222 140.481,2.960 140.788,3.482 C141.328,4.419 139.977,5.283 139.545,4.419 ZM137.259,5.337 C137.096,4.995 136.376,4.112 136.052,3.860 C135.224,3.212 136.250,2.330 137.006,2.870 C137.439,3.176 138.249,3.914 138.537,4.455 C139.041,5.409 137.673,6.219 137.259,5.337 ZM136.700,9.676 C137.475,10.126 139.059,11.189 139.779,12.323 C140.085,12.809 139.869,13.367 139.509,13.619 C139.149,13.871 138.645,13.907 138.321,13.403 C137.763,12.521 136.484,11.423 135.692,10.955 C134.810,10.432 135.674,9.064 136.700,9.676 ZM138.177,6.381 C139.545,6.399 139.437,8.146 138.105,8.074 C136.772,8.002 135.440,8.002 134.090,8.002 C134.072,9.460 134.072,11.009 134.126,12.251 C134.144,12.827 134.144,13.115 134.144,13.619 C134.144,15.042 133.279,16.122 130.705,15.672 C129.102,15.384 129.804,13.529 130.903,13.889 C131.641,14.123 132.433,14.231 132.451,13.241 C132.469,11.963 132.469,9.910 132.451,8.020 C131.011,8.056 129.570,8.110 128.130,8.164 C126.923,8.218 126.761,6.561 128.094,6.507 C129.516,6.453 130.993,6.399 132.451,6.381 C132.451,5.427 132.433,4.617 132.415,4.112 C132.379,2.780 134.162,2.906 134.144,4.040 C134.126,4.599 134.126,5.427 134.108,6.363 C135.494,6.345 136.844,6.363 138.177,6.381 ZM130.542,10.882 C130.092,11.657 128.940,13.349 127.824,14.087 C127.338,14.412 126.797,14.231 126.545,13.871 C126.293,13.511 126.275,12.917 126.779,12.593 C127.644,12.035 128.724,10.828 129.174,10.036 C129.678,9.154 131.155,9.838 130.542,10.882 ZM113.063,16.194 C111.586,16.644 110.920,14.862 112.360,14.484 C115.908,13.529 118.194,11.351 119.004,9.064 C119.185,8.578 119.094,8.290 118.410,8.272 C116.574,8.236 113.225,8.290 111.298,8.362 C110.020,8.416 109.858,6.705 111.244,6.669 C113.567,6.615 116.592,6.597 119.040,6.615 C120.841,6.633 121.723,7.642 120.985,9.406 C119.725,12.413 117.528,14.826 113.063,16.194 ZM118.788,4.959 C117.096,4.959 114.611,5.013 112.667,4.959 C111.478,4.923 111.406,3.266 112.793,3.284 C114.521,3.302 117.042,3.302 118.860,3.284 C119.473,3.284 119.833,3.680 119.833,4.112 C119.833,4.545 119.527,4.959 118.788,4.959 ZM116.302,42.859 C117.288,42.859 118.036,43.709 118.036,44.559 C118.036,45.136 117.730,45.714 116.948,46.054 C115.826,46.564 112.018,47.788 111.101,48.060 C109.979,48.400 109.605,48.944 109.605,49.964 L109.605,52.276 L119.328,52.208 C120.416,52.208 120.960,52.956 120.960,53.670 C120.960,54.418 120.416,55.165 119.328,55.165 L116.098,55.165 L116.132,70.736 C116.132,71.688 115.350,72.164 114.534,72.164 C113.752,72.164 112.970,71.688 112.970,70.736 L113.004,55.131 L109.571,55.131 C109.435,60.605 108.789,66.554 105.763,70.702 C105.321,71.314 104.709,71.586 104.131,71.586 C103.213,71.586 102.363,70.906 102.363,70.090 C102.363,69.784 102.465,69.478 102.737,69.172 C105.967,65.364 106.579,59.959 106.579,54.757 C106.579,53.058 106.511,51.392 106.443,49.794 C106.443,49.658 106.443,49.522 106.443,49.386 C106.443,47.108 107.293,46.122 109.571,45.442 C110.897,45.034 114.194,43.675 115.452,43.063 C115.758,42.927 116.030,42.859 116.302,42.859 ZM104.471,55.607 L91.723,55.607 C90.839,55.607 90.363,54.961 90.363,54.282 C90.363,53.636 90.839,52.990 91.723,52.990 L95.156,52.990 C94.986,52.820 94.850,52.616 94.748,52.310 C94.408,51.324 94.000,50.644 93.694,50.236 C93.490,49.998 93.422,49.726 93.422,49.522 C93.422,48.842 94.136,48.298 94.884,48.298 C96.346,48.298 97.502,51.188 97.502,51.766 C97.502,52.310 97.264,52.718 96.890,52.990 L98.488,52.990 C98.998,51.970 99.610,50.338 99.916,49.216 C100.120,48.468 100.630,48.162 101.174,48.162 C101.989,48.162 102.839,48.808 102.839,49.658 C102.839,50.134 102.329,51.188 101.344,52.990 L104.471,52.990 C105.389,52.990 105.831,53.636 105.831,54.282 C105.831,54.961 105.389,55.607 104.471,55.607 ZM103.689,47.890 L92.674,47.890 C91.689,47.890 91.213,47.244 91.213,46.598 C91.213,45.918 91.689,45.272 92.674,45.272 L96.754,45.272 L96.720,43.335 C96.720,42.383 97.502,41.907 98.284,41.907 C99.066,41.907 99.848,42.383 99.848,43.335 L99.848,45.272 L103.689,45.272 C104.641,45.272 105.083,45.918 105.083,46.564 C105.083,47.244 104.641,47.890 103.689,47.890 ZM103.449,7.606 C102.513,7.570 101.523,7.534 100.533,7.534 C100.569,9.424 100.641,11.495 100.731,12.845 C100.767,13.403 100.767,13.709 100.785,14.195 C100.821,15.582 100.046,16.716 97.220,16.230 C95.581,15.942 96.247,14.087 97.382,14.448 C98.120,14.682 99.074,14.790 99.056,13.835 C99.038,12.773 98.984,10.901 98.930,9.010 C97.022,11.495 95.527,12.935 93.078,14.502 C91.584,15.456 90.702,13.745 91.836,13.151 C94.339,11.855 96.355,9.874 97.886,7.552 C96.283,7.588 94.681,7.642 93.168,7.696 C91.962,7.750 91.782,6.093 93.114,6.039 C94.915,5.967 96.878,5.931 98.822,5.913 C98.786,4.887 98.750,4.022 98.732,3.554 C98.660,2.222 100.479,2.348 100.479,3.482 C100.479,3.986 100.497,4.869 100.515,5.895 C101.541,5.895 102.549,5.877 103.503,5.895 C104.890,5.913 104.800,7.678 103.449,7.606 ZM96.686,61.149 L92.266,61.251 L92.232,61.251 C91.315,61.251 90.839,60.571 90.839,59.925 C90.839,59.245 91.281,58.599 92.232,58.599 L92.266,58.599 L96.924,58.633 L96.890,57.137 L96.890,57.103 C96.890,56.185 97.570,55.743 98.284,55.743 C98.998,55.743 99.678,56.185 99.678,57.103 L99.678,57.137 L99.644,58.633 L103.859,58.599 L103.893,58.599 C104.709,58.599 105.151,59.279 105.151,59.959 C105.151,60.605 104.743,61.251 103.893,61.251 L103.859,61.251 L99.610,61.149 L99.644,62.407 C99.848,62.271 100.086,62.169 100.290,62.169 C100.834,62.169 103.145,63.291 103.995,64.005 C104.369,64.311 104.539,64.718 104.539,65.126 C104.539,65.942 103.859,66.758 103.043,66.758 C102.771,66.758 102.465,66.656 102.159,66.384 C101.344,65.636 100.392,64.888 99.644,64.515 L99.712,70.872 C99.712,71.722 98.998,72.130 98.284,72.130 C97.570,72.130 96.856,71.722 96.856,70.838 L96.890,64.617 C95.258,66.622 92.640,69.206 91.451,69.206 C90.601,69.206 89.921,68.526 89.921,67.778 C89.921,67.336 90.159,66.894 90.737,66.554 C92.538,65.534 94.918,63.461 96.686,61.149 ZM85.323,12.755 C84.585,12.035 83.487,11.225 82.479,10.882 C81.578,10.576 82.119,9.190 83.235,9.586 C84.315,9.982 85.828,10.702 86.512,11.459 C86.890,11.873 86.800,12.395 86.512,12.719 C86.224,13.043 85.720,13.151 85.323,12.755 ZM81.128,9.190 C81.200,9.442 81.236,9.802 81.218,10.396 C81.182,11.729 81.128,13.943 81.182,15.618 C81.200,16.320 80.732,16.590 80.300,16.644 C79.868,16.698 79.310,16.374 79.346,15.708 C79.418,14.087 79.580,12.107 79.562,10.630 C78.085,11.873 76.411,13.025 74.610,13.799 C73.422,14.304 72.594,12.683 73.926,12.179 C76.699,11.135 79.508,8.650 80.714,7.281 C80.948,7.011 80.984,6.849 80.570,6.867 C79.616,6.885 77.383,7.011 76.231,7.065 C74.898,7.137 74.844,5.499 76.141,5.391 C77.365,5.301 80.138,5.283 81.488,5.247 C83.253,5.193 83.577,6.543 82.623,7.624 C82.173,8.128 81.668,8.668 81.128,9.190 ZM81.164,4.221 C80.534,3.806 79.094,3.338 78.211,3.284 C77.257,3.230 77.365,1.736 78.499,1.808 C79.490,1.880 81.182,2.132 82.065,2.798 C82.497,3.122 82.497,3.608 82.263,3.968 C82.028,4.329 81.614,4.509 81.164,4.221 ZM82.368,50.712 C82.368,52.990 81.076,54.927 79.376,55.879 C82.062,57.001 83.592,59.551 83.592,62.577 C83.592,68.356 78.866,70.498 74.582,70.498 C69.789,70.498 65.777,67.676 65.777,62.577 C65.777,58.871 68.191,56.729 69.993,55.879 C68.293,54.961 67.001,53.024 67.001,50.712 C67.001,46.020 70.945,44.117 74.684,44.117 C79.784,44.117 82.368,47.278 82.368,50.712 ZM69.449,62.543 C69.449,65.398 72.033,67.030 74.684,67.030 C77.336,67.030 79.920,65.398 79.920,62.543 C79.920,60.945 79.240,57.783 74.684,57.783 C71.319,57.783 69.449,60.027 69.449,62.543 ZM70.639,50.848 C70.639,53.296 72.407,54.350 74.582,54.350 C78.594,54.350 78.730,51.562 78.730,50.848 C78.730,48.196 76.078,47.448 74.684,47.448 C72.339,47.448 70.639,49.012 70.639,50.848 ZM55.733,68.390 C55.733,68.424 55.733,68.424 55.733,68.458 C55.733,69.648 54.747,70.260 53.761,70.260 C52.775,70.260 51.755,69.614 51.755,68.390 C51.755,65.228 51.891,57.987 51.891,53.500 C51.891,48.740 51.721,48.366 50.565,48.366 C50.463,48.366 50.361,48.366 50.259,48.366 C50.191,48.366 50.157,48.366 50.089,48.366 C48.933,48.366 48.355,47.482 48.355,46.564 C48.355,45.578 48.967,44.593 50.123,44.491 C50.803,44.457 51.075,44.457 51.789,44.457 C54.135,44.457 55.631,45.850 55.733,48.094 C55.767,48.536 55.767,49.148 55.767,49.896 C55.767,52.616 55.665,57.171 55.665,62.033 C55.665,64.141 55.665,66.282 55.733,68.390 ZM32.249,70.498 C27.728,70.498 24.498,67.370 23.954,61.659 C23.818,60.197 23.750,58.769 23.750,57.341 C23.750,56.049 23.818,54.724 23.920,53.330 C24.396,47.414 27.626,44.151 32.249,44.151 C36.805,44.151 40.000,47.278 40.544,52.956 C40.680,54.452 40.782,55.947 40.782,57.409 C40.782,61.251 40.476,70.498 32.249,70.498 ZM36.907,57.001 C36.907,54.384 36.907,47.652 32.249,47.652 C29.869,47.652 28.067,49.828 27.728,53.466 C27.626,54.724 27.558,55.981 27.558,57.205 C27.558,58.633 27.626,60.061 27.796,61.455 C28.203,64.922 30.039,66.928 32.249,66.928 C34.357,66.928 36.125,65.024 36.601,61.795 C36.805,60.299 36.907,58.633 36.907,57.001 ZM5.172,66.588 C7.994,66.554 11.835,66.282 14.623,66.282 C16.017,66.282 16.663,67.166 16.663,68.050 C16.663,69.036 15.915,70.056 14.521,70.056 L2.350,70.056 C1.160,70.056 0.446,69.172 0.446,68.050 C0.446,67.302 0.752,66.486 1.432,65.738 C3.778,63.087 7.722,59.041 10.713,55.369 C12.073,53.738 12.617,52.242 12.617,51.018 C12.617,48.876 10.985,47.550 9.081,47.550 C7.620,47.550 6.022,48.332 4.900,50.168 C4.458,50.882 3.778,51.188 3.132,51.188 C2.112,51.188 1.126,50.440 1.126,49.386 C1.126,48.196 3.710,44.151 9.047,44.151 C12.991,44.151 16.731,46.598 16.731,50.644 C16.731,52.582 15.915,54.825 13.909,57.375 C11.325,60.639 7.994,63.529 5.172,66.588 ZM172.234,53.330 C173.049,53.296 174.069,53.262 175.123,53.262 C176.415,53.262 177.741,53.296 178.829,53.330 C180.223,53.398 181.821,54.384 181.889,56.049 C181.923,56.899 181.957,57.953 181.957,58.973 C181.957,60.027 181.923,61.047 181.889,61.829 C181.821,63.563 180.563,64.922 178.727,65.024 C177.775,65.058 176.619,65.092 175.497,65.092 C174.375,65.092 173.253,65.058 172.302,65.024 C170.636,64.922 169.548,63.597 169.480,61.863 C169.480,61.149 169.446,60.163 169.446,59.177 C169.446,58.157 169.480,57.103 169.480,56.253 C169.514,54.791 170.466,53.432 172.234,53.330 ZM172.403,61.217 C172.437,62.169 172.845,62.271 175.803,62.271 C178.081,62.271 178.829,62.135 178.863,61.183 C178.897,60.809 178.897,60.197 178.897,59.517 C178.897,58.633 178.897,57.647 178.863,57.069 C178.795,55.947 177.911,55.947 175.905,55.947 C175.021,55.947 174.103,55.947 173.491,55.981 C172.403,56.049 172.370,56.797 172.370,58.871 C172.370,59.755 172.370,60.673 172.403,61.217 ZM242.743,58.089 L252.296,58.089 L252.262,56.831 C252.262,55.913 253.044,55.437 253.859,55.437 C254.641,55.437 255.423,55.913 255.423,56.831 L255.457,58.089 L259.027,58.089 C259.979,58.089 260.455,58.769 260.455,59.483 C260.455,60.163 259.979,60.877 259.027,60.877 L255.457,60.877 L255.491,62.951 L255.627,67.710 C255.627,67.744 255.627,67.812 255.627,67.846 C255.627,69.716 254.505,72.096 250.596,72.096 C247.570,72.096 246.958,71.348 246.958,70.260 C246.958,69.444 247.502,68.662 248.454,68.662 C248.556,68.662 248.658,68.662 248.794,68.696 C249.474,68.832 250.086,68.934 250.630,68.934 C251.650,68.934 252.330,68.526 252.330,67.098 L252.296,60.877 L242.743,60.877 C241.757,60.877 241.247,60.163 241.247,59.483 C241.247,58.769 241.757,58.089 242.743,58.089 ZM245.360,61.795 C246.244,61.795 250.052,63.767 250.052,65.534 C250.052,66.486 249.304,67.302 248.488,67.302 C248.080,67.302 247.672,67.098 247.332,66.656 C246.414,65.466 245.224,64.651 244.510,64.277 C244.000,64.005 243.797,63.631 243.797,63.223 C243.797,62.509 244.442,61.795 245.360,61.795 ZM271.779,54.384 C268.788,54.384 267.904,53.126 267.802,51.358 C267.768,50.576 267.734,49.658 267.734,48.774 C267.734,47.856 267.768,46.972 267.802,46.292 C267.904,44.797 269.026,43.607 270.793,43.505 C271.949,43.437 273.139,43.403 274.295,43.403 C275.451,43.403 276.607,43.437 277.695,43.505 C279.327,43.607 280.686,44.559 280.788,46.088 C280.856,46.802 280.856,47.754 280.856,48.706 C280.856,53.194 280.720,54.418 274.975,54.418 C274.907,55.267 274.771,56.185 274.635,57.069 C275.281,57.035 275.927,57.035 276.505,57.035 C278.885,57.035 280.856,57.171 280.856,59.823 C280.856,59.891 280.856,59.925 280.856,59.993 C280.686,64.854 280.244,71.620 275.009,71.620 C274.261,71.620 271.779,71.416 271.779,69.614 C271.779,68.798 272.357,67.982 273.309,67.982 C273.581,67.982 273.921,68.050 274.261,68.220 C274.499,68.356 274.771,68.390 275.009,68.390 C276.811,68.390 277.559,64.922 277.627,60.435 C277.627,59.653 277.389,59.653 274.193,59.653 C273.275,64.175 271.541,68.628 268.584,71.484 C268.176,71.858 267.734,72.028 267.326,72.028 C266.408,72.028 265.558,71.280 265.558,70.430 C265.558,70.056 265.694,69.716 266.034,69.376 C269.842,65.500 271.371,59.857 271.779,54.384 ZM277.831,50.576 C277.865,50.100 277.899,49.522 277.899,48.910 C277.899,46.972 277.831,46.292 276.811,46.292 C275.893,46.258 274.771,46.224 273.717,46.224 C270.691,46.224 270.691,46.224 270.691,48.978 C270.691,49.624 270.691,50.236 270.725,50.712 C270.759,51.426 271.167,51.664 273.853,51.664 C277.151,51.664 277.763,51.630 277.831,50.576 ZM285.616,44.695 C286.398,44.695 287.214,45.204 287.214,46.224 L287.214,63.563 C287.214,64.549 286.398,65.024 285.616,65.024 C284.800,65.024 284.018,64.549 284.018,63.563 L284.018,46.224 C284.018,45.204 284.800,44.695 285.616,44.695 ZM329.101,67.404 C327.843,67.404 324.478,66.316 322.166,64.956 C321.724,64.718 321.554,64.345 321.554,63.971 C321.554,63.291 322.166,62.611 322.880,62.611 C323.084,62.611 323.322,62.679 323.526,62.781 C325.328,63.801 327.673,64.481 329.407,64.617 C330.257,64.685 330.631,65.262 330.631,65.874 C330.631,66.622 330.053,67.404 329.101,67.404 ZM306.935,65.194 C306.969,63.359 307.071,61.761 307.071,60.231 C307.071,59.041 307.037,58.667 305.644,58.667 C305.100,58.667 304.658,58.701 304.148,58.701 C303.672,58.701 302.516,58.667 302.516,57.239 C302.516,56.491 302.992,55.709 303.876,55.709 C304.658,55.709 305.270,55.709 305.950,55.709 C308.363,55.709 310.233,55.981 310.233,58.905 C310.233,60.877 310.097,63.189 310.097,65.364 C310.505,65.874 311.015,66.350 311.627,66.792 C311.457,66.554 311.389,66.248 311.389,65.976 C311.389,65.432 311.729,64.922 312.477,64.854 C314.041,64.718 316.013,64.073 317.610,62.917 C317.814,62.747 318.052,62.679 318.256,62.679 C318.902,62.679 319.446,63.393 319.446,64.073 C319.446,64.447 319.310,64.820 318.936,65.058 C317.304,66.180 314.959,67.166 313.055,67.438 C313.055,67.438 313.055,67.438 312.647,67.438 C313.939,68.118 315.843,68.798 320.602,68.798 C324.138,68.798 327.979,68.424 330.563,68.220 C330.631,68.220 330.665,68.220 330.733,68.220 C331.787,68.220 332.365,69.036 332.365,69.852 C332.365,70.634 331.855,71.450 330.665,71.552 C328.523,71.756 325.328,71.960 322.098,71.960 C313.531,71.960 310.879,70.430 308.431,67.778 C307.479,68.866 304.896,71.790 303.570,71.790 C302.618,71.790 301.768,70.906 301.768,70.022 C301.768,69.580 302.006,69.104 302.584,68.764 C304.318,67.744 305.814,66.554 306.935,65.194 ZM385.349,54.859 C384.295,54.859 383.751,54.112 383.751,53.330 C383.751,52.582 384.295,51.800 385.349,51.800 L395.106,51.800 C396.160,51.800 396.704,52.582 396.704,53.330 C396.704,54.112 396.160,54.859 395.106,54.859 L385.349,54.859 ZM377.598,59.721 C377.598,58.939 378.142,58.123 379.196,58.123 L400.784,58.123 C401.871,58.123 402.415,58.905 402.415,59.687 C402.415,60.435 401.871,61.183 400.784,61.183 L389.225,61.115 C388.613,63.053 387.763,65.568 386.743,67.744 C389.871,67.506 392.964,67.132 395.922,66.690 C395.140,65.976 394.290,65.296 393.440,64.718 C392.930,64.379 392.726,63.971 392.726,63.563 C392.726,62.849 393.440,62.169 394.324,62.169 C396.330,62.169 402.449,67.846 402.449,69.852 C402.449,70.872 401.497,71.688 400.546,71.688 C400.002,71.688 399.492,71.416 399.152,70.770 C398.812,70.158 398.438,69.580 398.030,69.036 C390.075,70.702 380.420,71.348 379.740,71.348 C378.720,71.348 378.176,70.464 378.176,69.648 C378.176,68.900 378.618,68.152 379.570,68.118 C380.760,68.084 381.983,68.050 383.207,67.982 C384.159,66.010 385.043,63.393 385.621,61.149 L379.196,61.183 C378.108,61.183 377.598,60.469 377.598,59.721 Z"/>
</svg>