<svg 
 xmlns="http://www.w3.org/2000/svg"
 xmlns:xlink="http://www.w3.org/1999/xlink"
 width="162px" height="54px">
<path fill-rule="evenodd"  fill="rgb(0, 113, 189)"
 d="M160.838,10.335 L156.064,10.335 C155.954,10.357 155.822,10.357 155.712,10.357 C155.602,10.357 155.492,10.357 155.404,10.335 L154.589,10.335 C154.787,10.489 154.919,10.710 154.919,10.996 C154.919,11.150 154.875,11.392 154.655,12.118 L160.904,12.118 C161.476,12.118 161.762,12.558 161.762,12.998 C161.762,13.416 161.476,13.834 160.926,13.834 L160.904,13.834 L158.638,13.812 C158.506,14.846 158.220,15.770 157.802,16.562 C159.518,17.354 161.124,18.565 161.124,19.423 C161.124,20.017 160.640,20.501 160.090,20.501 C159.826,20.501 159.562,20.391 159.342,20.149 C158.572,19.335 157.736,18.609 156.746,18.059 C154.985,19.929 152.235,20.545 149.925,20.545 C149.221,20.545 148.847,20.039 148.847,19.555 C148.847,19.115 149.155,18.675 149.837,18.675 C151.993,18.653 153.731,18.279 154.941,17.288 C154.347,17.090 153.709,16.958 153.005,16.870 C152.785,17.354 152.367,17.552 151.971,17.552 C151.487,17.552 151.025,17.244 151.025,16.716 C151.025,16.584 151.069,16.408 151.157,16.232 C151.531,15.462 151.839,14.648 152.125,13.812 L149.727,13.834 L149.705,13.834 C149.133,13.834 148.847,13.416 148.847,12.976 C148.847,12.558 149.155,12.118 149.727,12.118 L152.653,12.118 C153.093,10.533 153.093,10.533 153.357,10.335 L150.189,10.335 C149.881,10.335 149.661,10.225 149.507,10.049 C149.551,10.137 149.551,10.247 149.551,10.335 C149.551,10.643 149.397,10.974 149.023,11.194 C148.517,11.502 147.988,11.810 147.438,12.118 L147.438,14.802 C147.438,15.154 147.504,17.156 147.526,17.927 C147.526,17.949 147.526,17.993 147.526,18.015 C147.526,19.401 146.624,20.479 144.710,20.479 C143.544,20.479 142.730,20.281 142.730,19.291 C142.730,18.785 143.038,18.279 143.588,18.279 C143.654,18.279 143.720,18.279 143.786,18.301 C143.984,18.345 144.248,18.389 144.490,18.389 C144.952,18.389 145.392,18.235 145.392,17.663 L145.392,13.152 C143.918,13.812 143.588,13.966 143.236,13.966 C142.576,13.966 142.180,13.438 142.180,12.910 C142.180,12.536 142.378,12.140 142.862,11.964 C143.808,11.612 144.622,11.304 145.392,10.974 L145.392,7.409 L143.390,7.409 C142.752,7.409 142.422,6.925 142.422,6.441 C142.422,5.957 142.752,5.473 143.390,5.473 L145.392,5.473 L145.370,2.150 C145.370,1.468 145.898,1.116 146.426,1.116 C146.954,1.116 147.460,1.446 147.460,2.150 L147.460,5.473 L148.979,5.473 C149.639,5.473 149.947,5.957 149.947,6.441 C149.947,6.925 149.639,7.409 148.979,7.409 L147.460,7.409 L147.460,9.983 C147.724,9.851 147.944,9.697 148.208,9.543 C148.362,9.455 148.517,9.411 148.671,9.411 C148.935,9.411 149.155,9.521 149.331,9.719 C149.309,9.631 149.287,9.521 149.287,9.433 C149.287,8.993 149.573,8.575 150.189,8.575 L152.829,8.575 C152.169,7.277 151.795,6.815 151.619,6.639 C151.443,6.463 151.377,6.287 151.377,6.111 C151.377,5.649 151.883,5.253 152.389,5.253 C153.291,5.253 154.589,7.387 154.589,7.937 C154.589,8.179 154.523,8.399 154.391,8.575 L155.734,8.575 C156.108,7.739 156.526,6.705 156.724,5.935 C156.856,5.429 157.230,5.231 157.648,5.231 C158.220,5.231 158.814,5.649 158.814,6.221 C158.814,6.595 158.110,7.871 157.736,8.575 L160.838,8.575 C161.454,8.575 161.762,9.015 161.762,9.455 C161.762,9.895 161.454,10.335 160.838,10.335 ZM154.149,13.790 C153.973,14.318 153.797,14.846 153.599,15.374 C154.413,15.462 155.271,15.660 156.064,15.902 C156.372,15.308 156.570,14.604 156.680,13.790 L154.149,13.790 ZM159.760,5.033 L150.849,5.033 C150.233,5.033 149.903,4.593 149.903,4.153 C149.903,3.712 150.233,3.272 150.849,3.272 L154.127,3.272 L154.105,1.908 L154.105,1.886 C154.105,1.270 154.611,0.962 155.139,0.962 C155.668,0.962 156.196,1.270 156.196,1.908 L156.174,3.272 L159.760,3.272 C160.398,3.272 160.706,3.712 160.706,4.153 C160.706,4.593 160.398,5.033 159.760,5.033 ZM142.096,42.652 C142.194,42.399 142.404,42.301 142.614,42.301 C142.964,42.301 143.315,42.554 143.315,42.918 C143.315,43.310 142.166,45.173 141.073,46.574 C141.564,46.518 142.012,46.462 142.362,46.420 C142.096,46.027 142.068,45.971 142.068,45.859 C142.068,45.607 142.320,45.411 142.600,45.411 C142.810,45.411 143.034,45.523 143.399,46.083 C143.385,46.041 143.385,46.013 143.385,45.971 C143.385,45.845 143.441,45.705 143.553,45.565 C144.351,44.613 145.318,43.114 145.836,41.881 C146.060,41.335 146.508,41.055 146.957,41.055 C147.391,41.055 147.839,41.307 148.147,41.797 C148.918,43.002 149.912,44.234 150.893,45.271 C151.033,45.411 151.089,45.565 151.089,45.733 C151.089,46.111 150.725,46.490 150.318,46.490 C150.136,46.490 149.926,46.392 149.758,46.181 C148.890,45.089 147.881,43.604 147.209,42.512 C147.139,42.399 147.069,42.343 147.013,42.343 C146.957,42.343 146.901,42.413 146.844,42.526 C146.452,43.436 145.864,44.417 145.304,45.285 C145.402,45.215 145.514,45.173 145.668,45.173 L148.637,45.173 C149.030,45.173 149.226,45.467 149.226,45.761 C149.226,46.055 149.030,46.350 148.637,46.350 L145.668,46.350 C145.276,46.350 145.080,46.069 145.080,45.775 C145.080,45.719 145.094,45.649 145.108,45.593 C144.491,46.462 144.421,46.574 144.057,46.574 C143.875,46.574 143.693,46.504 143.567,46.378 C143.875,46.924 143.931,47.176 143.931,47.330 C143.931,47.722 143.623,48.002 143.329,48.002 C143.034,48.002 142.978,47.876 142.782,47.302 C142.586,47.344 142.306,47.386 141.998,47.442 L142.026,52.555 C142.026,53.003 141.690,53.213 141.368,53.213 C141.031,53.213 140.709,53.003 140.709,52.569 L140.709,52.555 L140.751,47.638 C140.737,47.638 139.196,47.848 139.028,47.848 C138.692,47.848 138.510,47.554 138.510,47.274 C138.510,47.022 138.664,46.770 138.958,46.756 C139.126,46.756 139.322,46.728 139.547,46.714 C139.813,46.420 140.093,46.055 140.387,45.649 C139.911,45.159 139.140,44.585 138.804,44.361 C138.622,44.234 138.538,44.066 138.538,43.898 C138.538,43.618 138.762,43.338 139.098,43.338 C139.196,43.338 139.294,43.366 139.406,43.422 L139.491,43.464 C139.883,42.834 140.373,41.811 140.555,41.055 C140.625,40.775 140.863,40.648 141.115,40.648 C141.452,40.648 141.816,40.873 141.816,41.237 C141.816,41.699 140.863,43.436 140.401,44.122 C140.625,44.304 140.835,44.501 141.031,44.683 C141.466,43.968 141.858,43.226 142.096,42.652 ZM139.757,48.409 C140.079,48.409 140.401,48.633 140.401,49.025 C140.401,49.599 139.953,51.196 139.477,51.925 C139.322,52.163 139.084,52.275 138.860,52.275 C138.538,52.275 138.244,52.051 138.244,51.728 C138.244,51.602 138.286,51.476 138.370,51.336 C138.762,50.692 139.098,49.711 139.196,48.899 C139.238,48.563 139.491,48.409 139.757,48.409 ZM137.028,4.769 L129.106,4.769 C129.018,5.319 128.666,6.353 128.402,7.035 C133.023,7.035 133.419,7.035 134.211,7.057 C135.553,7.079 136.852,7.849 136.896,9.587 C136.940,10.886 136.962,12.294 136.962,13.680 C136.962,14.868 136.940,16.056 136.896,17.112 C136.852,18.653 135.883,19.797 134.167,19.841 C132.385,19.907 130.493,19.929 128.644,19.929 C126.796,19.929 124.970,19.907 123.254,19.841 C121.339,19.775 120.371,18.807 120.327,17.178 C120.305,16.034 120.283,14.868 120.283,13.702 C120.283,12.272 120.305,10.864 120.327,9.455 C120.349,8.047 121.427,7.079 123.078,7.057 C124.068,7.057 125.146,7.035 126.246,7.035 C126.466,6.309 126.664,5.451 126.774,4.769 L120.085,4.769 C119.381,4.769 119.051,4.307 119.051,3.823 C119.051,3.316 119.425,2.810 120.085,2.810 L137.028,2.810 C137.688,2.810 138.018,3.294 138.018,3.801 C138.018,4.285 137.688,4.769 137.028,4.769 ZM125.102,8.795 L123.958,8.817 C122.704,8.839 122.352,9.191 122.330,10.313 C122.308,11.304 122.286,12.712 122.286,14.098 C122.286,14.978 122.308,15.858 122.330,16.606 C122.374,17.773 122.814,17.993 124.090,18.037 C124.420,18.037 124.750,18.059 125.102,18.059 L125.102,8.795 ZM131.989,18.059 C133.947,18.059 134.805,18.037 134.849,16.562 C134.871,15.638 134.893,14.582 134.893,13.504 C134.893,12.426 134.871,11.326 134.849,10.313 C134.805,9.059 134.365,8.839 133.287,8.817 C132.847,8.817 132.429,8.795 131.989,8.795 L131.989,18.059 ZM126.950,18.103 L130.097,18.103 L130.097,15.814 L126.950,15.814 L126.950,18.103 ZM126.950,14.252 L130.097,14.252 L130.097,12.294 L126.950,12.294 L126.950,14.252 ZM126.950,10.732 L130.097,10.732 L130.097,8.773 L126.950,8.773 L126.950,10.732 ZM114.084,13.592 C113.732,13.592 111.224,12.822 108.737,10.688 C106.537,12.888 104.337,13.878 103.874,13.878 C103.302,13.878 102.928,13.394 102.928,12.866 C102.928,12.514 103.126,12.140 103.588,11.920 C105.041,11.260 106.317,10.335 107.351,9.323 C106.713,8.575 106.185,7.761 105.811,6.903 C104.425,8.729 103.962,8.751 103.676,8.751 C103.170,8.751 102.708,8.377 102.708,7.915 C102.708,7.695 102.796,7.475 103.038,7.255 C104.513,5.935 105.679,3.977 106.515,1.732 C106.691,1.248 107.065,1.072 107.417,1.072 C107.967,1.072 108.495,1.446 108.495,1.974 C108.495,2.150 108.451,2.260 108.055,3.096 C108.825,3.074 109.639,3.074 110.475,3.074 C111.400,3.074 112.324,3.580 112.324,4.681 C112.324,5.627 111.312,7.585 109.991,9.279 C111.268,10.225 112.830,10.974 114.458,11.502 C114.986,11.678 115.228,12.074 115.228,12.470 C115.228,13.020 114.788,13.592 114.084,13.592 ZM110.101,5.077 C110.101,4.879 109.991,4.769 109.683,4.769 C108.891,4.769 107.989,4.791 107.197,4.791 C107.131,4.923 107.043,5.055 106.977,5.165 C107.263,6.221 107.813,7.145 108.561,7.981 C109.551,6.727 110.101,5.517 110.101,5.077 ZM101.300,10.027 C101.190,9.829 101.058,9.675 100.948,9.521 C100.838,9.389 100.794,9.235 100.794,9.103 C100.794,8.685 101.256,8.355 101.696,8.355 C102.664,8.355 103.676,10.754 103.676,11.238 C103.676,11.810 103.148,12.206 102.686,12.206 C102.378,12.206 102.070,12.052 101.916,11.392 C101.608,11.458 101.168,11.524 100.662,11.612 L100.706,19.577 C100.706,20.259 100.178,20.611 99.650,20.611 C99.144,20.611 98.638,20.281 98.638,19.599 L98.638,19.577 L98.704,11.920 C97.384,12.118 96.085,12.250 95.997,12.250 C95.469,12.250 95.183,11.810 95.183,11.370 C95.183,10.974 95.425,10.577 95.887,10.555 C96.195,10.533 96.569,10.511 96.965,10.489 C97.384,10.027 97.824,9.455 98.264,8.839 C97.516,8.091 96.305,7.167 95.777,6.815 C95.491,6.617 95.359,6.353 95.359,6.089 C95.359,5.649 95.711,5.231 96.217,5.231 C96.371,5.231 96.481,5.253 96.855,5.451 C97.472,4.461 98.242,2.876 98.528,1.688 C98.638,1.248 99.012,1.072 99.386,1.072 C99.936,1.072 100.508,1.424 100.508,1.974 C100.508,2.854 98.594,6.023 98.286,6.463 C98.638,6.749 98.968,7.035 99.276,7.321 C99.958,6.221 100.574,5.077 100.948,4.175 C101.102,3.779 101.432,3.624 101.762,3.624 C102.290,3.624 102.862,4.021 102.862,4.593 C102.862,5.231 100.970,8.201 99.364,10.247 C100.112,10.159 100.794,10.093 101.300,10.027 ZM97.141,13.130 C97.648,13.130 98.154,13.482 98.154,14.098 C98.154,14.714 97.516,17.354 96.701,18.587 C96.459,18.961 96.085,19.115 95.733,19.115 C95.227,19.115 94.765,18.785 94.765,18.279 C94.765,18.103 94.831,17.905 94.963,17.685 C95.579,16.694 96.107,15.154 96.261,13.900 C96.327,13.372 96.723,13.130 97.141,13.130 ZM102.202,16.936 C102.048,16.012 101.564,14.868 101.190,14.230 C101.080,14.054 101.036,13.900 101.036,13.746 C101.036,13.328 101.432,13.042 101.872,13.042 C103.192,13.042 104.116,16.342 104.116,16.628 C104.116,17.310 103.566,17.729 103.038,17.729 C102.664,17.729 102.290,17.486 102.202,16.936 ZM98.745,41.195 C99.207,41.195 99.697,41.419 100.118,41.853 C101.406,43.212 102.779,44.318 104.348,45.117 C104.614,45.257 104.726,45.467 104.726,45.691 C104.726,46.083 104.376,46.490 103.914,46.490 C103.844,46.490 103.549,46.476 102.751,45.901 C102.779,45.985 102.807,46.069 102.807,46.153 C102.807,46.462 102.583,46.756 102.163,46.756 L99.571,46.742 L99.571,48.381 L102.135,48.367 C102.555,48.367 102.779,48.675 102.779,48.983 C102.779,49.291 102.569,49.585 102.135,49.585 L99.571,49.571 L99.571,51.364 L103.830,51.350 C104.236,51.350 104.460,51.672 104.460,51.995 C104.460,52.303 104.250,52.597 103.830,52.597 L93.912,52.597 C93.478,52.597 93.254,52.289 93.254,51.967 C93.254,51.658 93.478,51.350 93.912,51.350 L98.185,51.364 L98.185,49.571 L95.537,49.585 C95.117,49.585 94.907,49.277 94.907,48.969 C94.907,48.675 95.117,48.367 95.537,48.367 L98.185,48.381 L98.185,46.742 L95.663,46.756 C95.243,46.756 95.033,46.448 95.033,46.153 C95.033,46.139 95.033,46.139 95.033,46.125 C94.431,46.602 94.066,46.854 93.688,46.854 C93.254,46.854 92.946,46.518 92.946,46.153 C92.946,45.915 93.072,45.677 93.380,45.523 C94.907,44.753 96.504,43.142 97.498,41.853 C97.820,41.433 98.283,41.195 98.745,41.195 ZM102.261,45.537 C101.224,44.753 100.118,43.702 99.277,42.764 C99.109,42.568 98.983,42.469 98.857,42.469 C98.731,42.469 98.619,42.568 98.465,42.764 C97.750,43.660 96.756,44.683 95.761,45.537 L102.261,45.537 ZM89.646,10.599 L80.647,10.599 L80.647,19.753 C80.647,20.369 80.207,20.655 79.745,20.655 C79.305,20.655 78.843,20.369 78.843,19.753 L78.843,17.795 C77.148,18.345 73.100,19.599 72.242,19.599 C71.648,19.599 71.318,19.137 71.318,18.675 C71.318,18.279 71.560,17.861 72.110,17.773 C72.748,17.685 73.452,17.530 74.178,17.376 L74.178,10.599 L72.176,10.599 C71.560,10.599 71.274,10.181 71.274,9.763 C71.274,9.301 71.582,8.839 72.176,8.839 L89.646,8.839 C90.218,8.839 90.504,9.279 90.504,9.719 C90.504,10.159 90.218,10.599 89.646,10.599 ZM78.843,10.599 L75.982,10.599 L75.982,11.700 L78.843,11.700 L78.843,10.599 ZM78.843,13.020 L75.982,13.020 L75.982,14.098 L78.843,14.098 L78.843,13.020 ZM78.843,15.440 L75.982,15.440 L75.982,16.936 C77.038,16.672 78.073,16.408 78.843,16.188 L78.843,15.440 ZM85.070,7.915 C83.837,7.937 82.627,7.959 81.417,7.959 C79.943,7.959 78.491,7.937 77.104,7.915 C74.838,7.893 74.728,6.727 74.728,4.659 C74.728,2.634 74.904,1.578 77.038,1.490 C77.919,1.446 79.261,1.424 80.691,1.424 C82.341,1.424 84.079,1.446 85.224,1.490 C87.270,1.556 87.314,3.162 87.314,4.483 C87.314,6.419 87.292,7.849 85.070,7.915 ZM85.334,3.757 C85.290,3.228 85.114,3.030 84.432,3.008 C83.617,2.986 82.429,2.964 81.241,2.964 C79.789,2.964 78.359,2.986 77.633,3.008 C76.884,3.030 76.664,3.382 76.664,3.823 L76.664,4.065 L85.356,4.065 C85.356,3.955 85.334,3.845 85.334,3.757 ZM76.642,5.429 C76.642,5.561 76.664,5.671 76.664,5.781 C76.708,6.353 76.972,6.485 77.655,6.485 C78.711,6.507 80.075,6.507 81.439,6.507 C82.451,6.507 83.485,6.507 84.432,6.485 C84.960,6.485 85.312,6.287 85.334,5.759 C85.334,5.649 85.356,5.539 85.356,5.429 L76.642,5.429 ZM74.335,43.702 C74.349,43.912 74.349,44.164 74.349,44.403 C74.349,44.907 74.349,45.495 73.606,45.495 C73.270,45.495 72.934,45.299 72.934,44.907 C72.934,44.893 72.934,44.893 72.934,44.879 C72.934,43.562 72.920,43.436 72.052,43.408 C70.945,43.394 69.656,43.380 68.410,43.380 C67.387,43.380 66.392,43.394 65.538,43.408 C64.768,43.422 64.656,43.618 64.613,44.136 C64.613,44.136 64.613,44.136 64.613,44.921 L64.613,44.935 C64.613,45.327 64.263,45.537 63.927,45.537 C63.591,45.537 63.269,45.341 63.255,44.907 C63.255,44.725 63.241,44.515 63.241,44.304 C63.241,44.080 63.255,43.856 63.255,43.632 C63.283,42.974 63.787,42.301 64.866,42.287 C65.930,42.273 67.009,42.259 68.087,42.259 L68.087,41.265 C68.087,40.817 68.452,40.592 68.816,40.592 C69.180,40.592 69.544,40.817 69.544,41.265 L69.544,42.259 C70.637,42.259 71.715,42.273 72.780,42.287 C73.536,42.301 74.307,42.890 74.335,43.702 ZM65.446,9.895 C65.138,9.543 63.994,8.773 63.532,8.597 C62.344,8.135 63.202,6.727 64.280,7.079 C64.896,7.277 66.084,7.871 66.612,8.399 C67.537,9.323 66.238,10.776 65.446,9.895 ZM62.564,6.243 C61.442,6.177 60.056,6.595 59.307,6.859 C58.075,7.299 56.953,8.619 56.469,9.433 C54.533,12.668 56.007,17.288 60.936,17.112 C63.246,17.024 63.400,19.621 61.068,19.599 C54.423,19.577 52.134,13.482 54.533,9.059 C54.753,8.641 54.951,8.289 55.237,7.915 C55.589,7.453 55.479,7.475 55.061,7.607 C53.411,8.135 53.785,8.135 52.288,8.707 C51.584,8.971 50.968,9.191 50.308,9.367 C48.372,9.895 47.778,7.365 49.538,6.991 C50.000,6.881 51.276,6.639 51.980,6.463 C53.059,6.199 54.995,5.759 57.239,5.121 C59.505,4.483 61.288,3.955 63.224,3.823 C64.588,3.734 64.962,4.813 64.720,5.517 C64.588,5.891 64.104,6.331 62.564,6.243 ZM48.406,44.683 C48.406,44.445 48.533,43.884 48.687,43.646 C48.967,43.184 49.261,43.128 50.073,43.128 C50.522,43.128 51.166,43.114 51.880,43.114 L51.880,42.512 C50.844,42.512 49.877,42.526 49.163,42.526 C48.841,42.526 48.673,42.301 48.673,42.063 C48.673,41.825 48.841,41.587 49.177,41.587 C49.877,41.587 50.816,41.601 51.838,41.601 L51.824,41.223 C51.824,41.209 51.824,41.195 51.824,41.181 C51.824,40.803 52.132,40.606 52.441,40.606 C52.763,40.606 53.085,40.817 53.099,41.223 L53.099,41.601 L54.556,41.601 L54.556,41.195 C54.556,40.789 54.864,40.578 55.186,40.578 C55.494,40.578 55.816,40.789 55.816,41.181 L55.816,41.195 L55.802,41.601 L57.665,41.601 C58.940,41.601 58.982,42.063 58.982,42.764 C58.982,43.548 58.912,43.926 57.665,43.940 L55.788,43.940 L55.788,44.543 L58.450,44.543 C59.080,44.543 59.627,44.795 59.627,45.397 C59.627,45.579 59.528,46.013 59.388,46.280 C59.122,46.756 58.674,47.036 57.792,47.036 C57.763,47.036 57.749,47.036 57.721,47.036 C57.749,47.092 57.763,47.148 57.763,47.204 C57.792,47.666 57.806,48.171 57.806,48.675 C57.806,49.179 57.792,49.697 57.763,50.202 C57.735,50.734 57.245,51.196 56.363,51.210 C56.139,51.210 55.900,51.224 55.662,51.224 C56.769,51.658 57.806,51.883 58.968,51.925 C59.430,51.939 59.655,52.261 59.655,52.569 C59.655,52.905 59.402,53.241 58.912,53.241 C58.394,53.241 56.643,52.975 55.116,52.303 C54.864,52.191 54.752,51.995 54.752,51.785 C54.752,51.560 54.892,51.336 55.102,51.224 C54.668,51.224 54.220,51.238 53.785,51.238 C53.351,51.238 52.917,51.224 52.483,51.224 C52.679,51.336 52.805,51.560 52.805,51.785 C52.805,51.995 52.707,52.191 52.455,52.317 C51.306,52.849 49.667,53.283 48.603,53.283 C48.112,53.283 47.860,52.961 47.860,52.653 C47.860,52.345 48.098,52.037 48.575,52.023 C49.751,51.981 50.816,51.757 51.908,51.224 L51.404,51.210 C50.438,51.196 49.975,50.776 49.947,50.216 C49.919,49.739 49.905,49.263 49.905,48.815 C49.905,48.283 49.919,47.778 49.947,47.274 C49.947,47.190 49.975,47.120 50.003,47.036 C49.877,47.078 48.743,47.344 48.434,47.344 C48.070,47.344 47.874,47.036 47.874,46.742 C47.874,46.476 48.014,46.238 48.308,46.210 C49.653,46.083 50.494,45.803 51.026,45.355 L49.611,45.355 C48.673,45.355 48.406,45.159 48.406,44.683 ZM54.556,42.512 L53.113,42.512 C53.113,42.722 53.099,42.932 53.085,43.128 L54.556,43.128 L54.556,42.512 ZM54.556,43.940 L52.987,43.940 C52.945,44.150 52.903,44.346 52.847,44.543 L54.556,44.543 L54.556,43.940 ZM54.556,45.971 L54.556,45.341 L52.511,45.341 C52.301,45.691 52.006,46.013 51.642,46.280 C52.623,46.266 53.603,46.266 54.626,46.266 C54.570,46.181 54.556,46.083 54.556,45.971 ZM53.827,47.092 C53.085,47.092 52.343,47.106 51.698,47.120 C51.278,47.134 51.166,47.358 51.152,47.568 L51.152,47.694 L56.517,47.694 L56.517,47.540 C56.503,47.288 56.377,47.134 55.943,47.120 C55.312,47.106 54.570,47.092 53.827,47.092 ZM57.273,43.128 C57.567,43.128 57.609,43.044 57.609,42.834 C57.609,42.582 57.511,42.526 57.273,42.526 L55.788,42.526 L55.788,43.128 L57.273,43.128 ZM56.769,45.901 C57.175,45.985 57.483,46.069 57.721,46.069 C58.114,46.069 58.324,45.677 58.324,45.467 C58.324,45.383 58.254,45.341 58.128,45.341 L55.802,45.341 L55.816,45.971 C55.816,46.083 55.788,46.181 55.732,46.266 L56.167,46.280 C56.223,46.069 56.391,45.887 56.657,45.887 C56.699,45.887 56.727,45.901 56.769,45.901 ZM51.152,49.893 C51.166,50.202 51.334,50.314 51.726,50.328 C52.371,50.342 53.085,50.342 53.813,50.342 C54.542,50.342 55.284,50.342 55.957,50.328 C56.307,50.314 56.503,50.202 56.517,49.893 L56.517,49.725 L51.152,49.725 L51.152,49.893 ZM51.124,48.997 L56.545,48.997 L56.545,48.423 L51.124,48.423 L51.124,48.997 ZM50.213,44.543 L51.614,44.543 C51.698,44.361 51.754,44.164 51.796,43.940 L50.339,43.940 C50.031,43.940 49.863,43.940 49.863,44.290 C49.863,44.473 49.961,44.543 50.213,44.543 ZM44.112,52.919 C43.243,53.003 41.954,53.087 40.666,53.087 C37.402,53.087 36.379,52.611 35.161,51.364 C34.460,52.149 33.592,53.031 33.046,53.031 C32.639,53.031 32.275,52.667 32.275,52.289 C32.275,52.093 32.373,51.897 32.625,51.757 C33.382,51.336 34.026,50.860 34.502,50.300 C34.516,49.669 34.530,49.123 34.530,48.591 C34.530,48.395 34.530,48.213 34.530,48.016 C34.530,47.652 34.362,47.610 33.886,47.610 C33.690,47.610 33.522,47.610 33.340,47.610 C33.074,47.610 32.569,47.596 32.569,47.008 C32.569,46.700 32.779,46.378 33.158,46.378 C33.662,46.378 34.054,46.378 34.516,46.392 C35.413,46.420 35.833,46.812 35.833,47.708 C35.833,48.521 35.805,49.487 35.805,50.384 C36.688,51.504 38.130,51.799 40.077,51.799 C41.478,51.799 43.005,51.644 44.070,51.560 C44.098,51.560 44.112,51.560 44.140,51.560 C44.574,51.560 44.812,51.897 44.812,52.233 C44.812,52.555 44.602,52.877 44.112,52.919 ZM42.389,51.042 C41.926,51.042 41.380,50.916 41.380,50.342 C41.380,50.076 41.548,49.809 41.842,49.809 C41.884,49.809 41.926,49.809 41.968,49.823 C42.066,49.851 42.165,49.865 42.263,49.865 C42.487,49.865 42.655,49.725 42.655,49.123 L42.655,48.661 L40.974,48.661 L40.974,50.636 C40.974,51.000 40.680,51.182 40.372,51.182 C40.077,51.182 39.783,51.000 39.783,50.636 L39.783,48.661 L38.158,48.661 C38.158,49.291 38.158,49.950 38.172,50.608 L38.172,50.622 C38.172,51.000 37.878,51.182 37.570,51.182 C37.276,51.182 36.968,50.986 36.954,50.608 C36.940,49.781 36.940,48.969 36.940,48.171 C36.940,47.092 36.940,46.055 36.954,45.089 C36.968,44.234 37.416,43.814 38.396,43.814 C38.775,43.814 39.139,43.800 39.517,43.800 C39.307,43.674 39.125,43.590 39.013,43.548 C38.831,43.478 38.761,43.352 38.761,43.212 C38.761,42.946 39.055,42.652 39.377,42.652 C39.685,42.652 40.330,43.072 40.372,43.100 C40.666,42.960 41.590,42.455 41.590,42.357 C41.590,42.315 41.548,42.301 41.464,42.301 C40.470,42.301 38.565,42.329 37.458,42.371 C37.444,42.371 37.444,42.371 37.430,42.371 C37.108,42.371 36.954,42.105 36.954,41.839 C36.954,41.559 37.122,41.279 37.444,41.279 C38.915,41.237 40.638,41.237 42.010,41.237 C42.865,41.237 43.341,41.643 43.341,42.091 C43.341,42.483 42.991,42.932 41.240,43.786 C43.383,43.786 43.845,43.856 43.845,45.607 C43.845,47.904 43.859,48.549 43.901,49.305 C43.901,49.347 43.901,49.389 43.901,49.431 C43.901,50.286 43.425,51.042 42.389,51.042 ZM39.783,44.795 C38.298,44.795 38.172,44.795 38.172,45.257 L38.158,45.747 L39.783,45.747 L39.783,44.795 ZM39.783,46.700 L38.158,46.700 C38.158,47.022 38.144,47.358 38.144,47.708 L39.783,47.708 L39.783,46.700 ZM42.627,45.257 C42.613,45.005 42.487,44.823 42.150,44.809 C41.758,44.795 41.366,44.795 40.974,44.795 L40.974,45.747 L42.641,45.747 C42.641,45.565 42.627,45.397 42.627,45.257 ZM42.655,46.700 L40.974,46.700 L40.974,47.708 L42.669,47.708 C42.669,47.386 42.655,47.036 42.655,46.700 ZM42.694,5.869 L34.619,5.825 L26.565,5.869 C25.861,5.869 25.531,5.363 25.531,4.879 C25.531,4.351 25.883,3.823 26.565,3.823 L33.518,3.867 L33.518,2.150 C33.518,1.468 34.091,1.116 34.663,1.116 C35.235,1.116 35.807,1.468 35.807,2.150 L35.807,3.867 L42.694,3.823 C43.376,3.823 43.706,4.329 43.706,4.835 C43.706,5.363 43.376,5.869 42.694,5.869 ZM29.932,14.912 C30.130,14.692 30.372,14.582 30.592,14.582 C31.164,14.582 31.692,15.132 31.692,15.726 C31.692,15.946 31.604,16.188 31.406,16.408 C29.910,17.993 27.028,19.577 26.235,19.577 C25.531,19.577 25.069,18.983 25.069,18.411 C25.069,18.015 25.311,17.618 25.861,17.464 C27.402,17.024 28.832,16.144 29.932,14.912 ZM28.842,43.016 C28.842,43.338 28.632,43.660 28.211,43.660 L23.281,43.632 L18.364,43.660 C17.916,43.660 17.692,43.338 17.692,43.016 C17.692,42.708 17.916,42.385 18.364,42.385 L22.594,42.399 L22.580,41.335 L22.580,41.321 C22.580,40.901 22.931,40.691 23.295,40.691 C23.659,40.691 24.023,40.901 24.023,41.335 L24.023,42.399 L28.211,42.385 C28.632,42.385 28.842,42.708 28.842,43.016 ZM19.147,19.929 C18.597,19.929 15.077,18.565 11.578,15.748 C11.600,16.936 11.622,17.817 11.622,19.797 C11.622,20.391 11.094,20.677 10.544,20.677 C10.038,20.677 9.510,20.391 9.510,19.819 L9.510,19.797 L9.554,15.814 C6.693,18.147 2.557,19.973 1.875,19.973 C1.215,19.973 0.731,19.489 0.731,18.983 C0.731,18.631 0.951,18.279 1.501,18.103 C4.339,17.112 6.473,16.056 8.718,14.230 C8.036,14.252 7.398,14.274 6.825,14.274 C4.427,14.274 4.053,13.042 4.009,12.272 C3.965,11.722 3.943,11.084 3.943,10.445 C3.943,9.697 3.965,8.949 4.009,8.333 C4.053,7.409 4.647,6.419 6.385,6.375 C7.200,6.353 8.322,6.331 9.532,6.331 L9.532,5.033 L2.865,5.033 C2.227,5.033 1.919,4.615 1.919,4.197 C1.919,3.734 2.249,3.272 2.865,3.272 L9.510,3.272 L9.510,1.864 C9.510,1.226 10.016,0.940 10.544,0.940 C11.072,0.940 11.622,1.248 11.622,1.864 L11.622,3.272 L18.333,3.272 C18.949,3.272 19.235,3.712 19.235,4.153 C19.235,4.593 18.949,5.033 18.333,5.033 L11.600,5.033 L11.600,6.331 C12.832,6.331 14.021,6.353 15.033,6.375 C16.353,6.397 17.255,7.299 17.321,8.179 C17.365,8.707 17.387,9.345 17.387,10.027 C17.387,10.798 17.365,11.590 17.321,12.228 C17.277,13.306 16.375,14.230 14.923,14.274 C14.769,14.274 14.615,14.274 14.461,14.274 C13.800,14.274 13.074,14.252 12.348,14.230 C14.725,16.012 17.101,16.936 19.719,17.839 C20.225,18.015 20.445,18.345 20.445,18.719 C20.445,19.225 20.005,19.929 19.147,19.929 ZM9.554,7.893 C8.586,7.893 7.662,7.915 6.979,7.937 C5.879,7.981 5.879,8.685 5.879,9.521 L9.554,9.521 L9.554,7.893 ZM9.554,11.040 L5.879,11.040 C5.879,12.096 5.945,12.624 7.001,12.668 C7.772,12.690 8.652,12.690 9.576,12.690 L9.554,11.040 ZM15.363,8.817 C15.319,7.893 14.835,7.893 11.578,7.893 L11.578,9.521 L15.385,9.521 C15.385,9.279 15.363,9.037 15.363,8.817 ZM14.285,12.668 C15.385,12.668 15.385,11.942 15.385,11.040 L11.556,11.040 L11.556,12.690 C12.502,12.690 13.426,12.690 14.285,12.668 ZM4.512,45.551 C5.254,45.551 5.842,46.167 5.842,46.896 C5.842,47.624 5.254,48.241 4.512,48.241 C3.783,48.241 3.181,47.624 3.181,46.896 C3.181,46.167 3.783,45.551 4.512,45.551 ZM7.327,42.736 C7.327,42.007 7.943,41.391 8.672,41.391 C9.400,41.391 10.016,42.007 10.016,42.736 C10.016,43.478 9.400,44.066 8.672,44.066 C7.943,44.066 7.327,43.478 7.327,42.736 ZM12.832,48.241 C12.090,48.241 11.501,47.624 11.501,46.896 C11.501,46.167 12.090,45.551 12.832,45.551 C13.560,45.551 14.177,46.167 14.177,46.896 C14.177,47.624 13.560,48.241 12.832,48.241 ZM7.971,47.078 C8.027,47.022 8.055,46.966 8.055,46.896 C8.055,46.826 8.027,46.756 7.957,46.686 C6.290,45.005 4.652,43.394 3.643,42.441 C3.559,42.371 3.531,42.287 3.531,42.189 C3.531,41.965 3.755,41.741 3.979,41.741 C4.063,41.741 4.161,41.769 4.231,41.853 C5.184,42.848 6.795,44.501 8.462,46.181 C8.518,46.252 8.602,46.280 8.672,46.280 C8.742,46.280 8.812,46.252 8.868,46.195 C10.549,44.515 12.146,42.862 13.112,41.853 C13.182,41.769 13.280,41.741 13.364,41.741 C13.588,41.741 13.813,41.965 13.813,42.189 C13.813,42.273 13.785,42.371 13.700,42.441 C12.678,43.408 11.025,45.047 9.330,46.742 C9.302,46.770 9.274,46.826 9.274,46.882 C9.274,46.938 9.302,47.008 9.358,47.064 C11.039,48.745 12.678,50.370 13.700,51.350 C13.771,51.420 13.813,51.504 13.813,51.602 C13.813,51.827 13.602,52.051 13.378,52.051 C13.294,52.051 13.210,52.023 13.126,51.939 C8.910,47.610 8.812,47.512 8.686,47.512 C8.630,47.512 8.574,47.540 8.518,47.596 C6.851,49.277 5.198,50.930 4.217,51.939 C4.133,52.023 4.049,52.051 3.965,52.051 C3.741,52.051 3.531,51.827 3.531,51.602 C3.531,51.504 3.573,51.420 3.643,51.350 C4.666,50.370 6.290,48.745 7.971,47.078 ZM8.672,49.725 C9.400,49.725 10.016,50.314 10.016,51.056 C10.016,51.785 9.400,52.387 8.672,52.387 C7.943,52.387 7.327,51.785 7.327,51.056 C7.327,50.314 7.943,49.725 8.672,49.725 ZM18.910,47.456 C18.462,47.456 18.154,47.092 18.154,46.728 C18.154,46.476 18.294,46.238 18.630,46.111 C19.597,45.747 20.507,45.047 21.152,44.206 C21.292,44.024 21.460,43.954 21.628,43.954 C21.992,43.954 22.356,44.304 22.356,44.697 C22.356,44.823 22.314,44.963 22.202,45.103 C21.432,46.041 19.569,47.456 18.910,47.456 ZM27.035,46.798 C26.376,46.125 25.522,45.551 24.668,45.159 C24.401,45.033 24.289,44.823 24.289,44.627 C24.289,44.304 24.569,43.982 24.976,43.982 C25.382,43.982 27.231,44.851 28.085,45.705 C28.267,45.887 28.337,46.083 28.337,46.280 C28.337,46.686 28.001,47.064 27.595,47.064 C27.413,47.064 27.217,46.980 27.035,46.798 ZM17.958,51.813 C19.793,51.532 21.362,50.776 22.496,49.739 C22.104,49.263 21.768,48.759 21.502,48.227 C20.801,48.969 20.563,49.081 20.353,49.081 C19.989,49.081 19.667,48.787 19.667,48.451 C19.667,48.255 19.765,48.059 20.017,47.890 C20.535,47.540 20.998,47.022 21.166,46.658 C21.250,46.462 21.460,46.378 21.670,46.378 C21.992,46.378 22.342,46.588 22.342,46.910 C22.342,46.966 22.342,47.022 22.314,47.078 C22.300,47.106 22.286,47.148 22.272,47.190 C22.524,47.806 22.861,48.367 23.295,48.885 C23.785,48.255 24.135,47.554 24.331,46.826 C24.429,46.448 24.696,46.308 24.962,46.308 C25.326,46.308 25.704,46.574 25.704,46.952 C25.704,47.176 25.326,48.423 24.205,49.781 C25.312,50.664 26.783,51.294 28.632,51.574 C29.052,51.644 29.234,51.911 29.234,52.191 C29.234,52.583 28.912,52.989 28.394,52.989 C28.323,52.989 25.648,52.737 23.365,50.664 C20.984,52.835 18.224,53.157 18.140,53.157 C17.636,53.157 17.328,52.779 17.328,52.429 C17.328,52.149 17.524,51.883 17.958,51.813 ZM43.134,17.354 C43.442,17.641 43.574,17.971 43.574,18.301 C43.574,18.961 43.046,19.555 42.452,19.555 C42.188,19.555 41.924,19.445 41.682,19.159 C40.780,18.125 39.239,17.244 37.897,16.650 C37.479,16.452 37.303,16.122 37.303,15.792 C37.303,15.286 37.699,14.780 38.271,14.780 C38.887,14.780 41.748,16.056 43.134,17.354 ZM35.987,43.352 C35.987,43.758 35.609,44.136 35.231,44.136 C35.063,44.136 34.881,44.052 34.755,43.842 C34.390,43.282 33.774,42.848 33.382,42.624 C33.186,42.512 33.102,42.357 33.102,42.189 C33.102,41.881 33.438,41.559 33.816,41.559 C34.236,41.559 35.987,42.638 35.987,43.352 ZM30.966,18.279 C31.054,18.279 31.164,18.301 31.252,18.323 C31.736,18.433 32.154,18.499 32.506,18.499 C33.298,18.499 33.716,18.169 33.716,17.376 L33.716,13.900 C32.792,13.900 31.890,13.856 30.988,13.834 C29.382,13.768 28.546,12.910 28.480,11.700 C28.458,11.304 28.458,10.908 28.458,10.511 C28.458,10.115 28.458,9.719 28.480,9.367 C28.546,8.377 29.184,7.343 30.944,7.299 C31.868,7.277 32.990,7.255 34.179,7.255 C35.631,7.255 37.193,7.277 38.601,7.299 C39.943,7.321 40.890,8.245 40.956,9.191 C40.978,9.543 41.000,9.961 41.000,10.401 C41.000,10.842 40.978,11.282 40.956,11.678 C40.890,12.822 39.965,13.790 38.491,13.834 C37.611,13.856 36.731,13.900 35.851,13.900 L35.851,15.814 L35.873,17.817 C35.873,17.839 35.873,17.839 35.873,17.861 C35.873,19.445 34.663,20.567 32.396,20.567 C31.450,20.567 29.954,20.545 29.954,19.379 C29.954,18.829 30.350,18.279 30.966,18.279 ZM34.641,12.074 C35.719,12.074 36.797,12.052 37.809,12.030 C38.777,11.986 38.799,11.304 38.799,10.643 C38.799,9.367 38.623,9.125 37.765,9.103 C36.951,9.081 36.005,9.059 35.015,9.059 C33.826,9.059 32.616,9.081 31.582,9.103 C30.724,9.125 30.570,9.719 30.570,10.555 C30.570,10.776 30.570,10.996 30.592,11.194 C30.680,12.074 30.900,12.074 34.641,12.074 ZM62.102,9.037 C62.718,9.257 63.906,9.873 64.412,10.423 C65.314,11.392 63.950,12.800 63.180,11.898 C62.872,11.546 61.772,10.710 61.310,10.511 C60.144,10.005 61.024,8.641 62.102,9.037 ZM63.507,51.869 C65.776,51.546 67.037,50.762 67.639,49.683 L63.829,49.739 L63.815,49.739 C63.423,49.739 63.227,49.459 63.227,49.165 C63.227,48.871 63.437,48.563 63.829,48.563 L68.031,48.577 C68.087,48.283 68.115,47.988 68.115,47.680 L65.426,47.694 C65.034,47.694 64.852,47.428 64.852,47.162 C64.852,46.882 65.048,46.602 65.426,46.602 L68.129,46.616 C68.129,46.336 68.143,46.055 68.143,45.775 L65.230,45.789 C64.824,45.789 64.628,45.523 64.628,45.243 C64.628,44.949 64.838,44.655 65.230,44.655 L68.129,44.669 C68.129,44.487 68.129,44.304 68.115,44.122 C68.115,44.108 68.115,44.108 68.115,44.094 C68.115,43.730 68.438,43.548 68.774,43.548 C69.124,43.548 69.474,43.744 69.488,44.108 C69.502,44.290 69.502,44.473 69.502,44.669 L72.346,44.655 C72.724,44.655 72.920,44.935 72.920,45.229 C72.920,45.509 72.724,45.789 72.346,45.789 L69.502,45.775 C69.502,46.055 69.488,46.350 69.474,46.616 L72.150,46.602 C72.514,46.602 72.696,46.882 72.696,47.148 C72.696,47.428 72.514,47.694 72.150,47.694 L69.460,47.680 C69.460,47.988 69.418,48.297 69.376,48.577 L73.774,48.563 C74.167,48.563 74.363,48.857 74.363,49.165 C74.363,49.445 74.167,49.739 73.788,49.739 L73.774,49.739 L69.782,49.669 C70.497,50.650 72.023,51.546 74.027,51.686 C74.475,51.714 74.685,52.009 74.685,52.317 C74.685,52.681 74.405,53.073 73.901,53.073 C73.438,53.073 70.441,52.653 68.802,50.286 C67.317,52.877 63.675,53.143 63.661,53.143 C63.213,53.143 62.975,52.807 62.975,52.471 C62.975,52.191 63.143,51.925 63.507,51.869 ZM78.637,52.023 C79.813,51.981 80.878,51.757 81.971,51.224 L81.466,51.210 C80.500,51.196 80.037,50.776 80.009,50.216 C79.981,49.739 79.967,49.263 79.967,48.815 C79.967,48.283 79.981,47.778 80.009,47.274 C80.009,47.190 80.037,47.120 80.066,47.036 C79.939,47.078 78.805,47.344 78.497,47.344 C78.132,47.344 77.936,47.036 77.936,46.742 C77.936,46.476 78.076,46.238 78.371,46.210 C79.715,46.083 80.556,45.803 81.088,45.355 L79.673,45.355 C78.735,45.355 78.469,45.159 78.469,44.683 C78.469,44.445 78.595,43.884 78.749,43.646 C79.029,43.184 79.323,43.128 80.136,43.128 C80.584,43.128 81.228,43.114 81.943,43.114 L81.943,42.512 C80.906,42.512 79.939,42.526 79.225,42.526 C78.903,42.526 78.735,42.301 78.735,42.063 C78.735,41.825 78.903,41.587 79.239,41.587 C79.939,41.587 80.878,41.601 81.900,41.601 L81.886,41.223 C81.886,41.209 81.886,41.195 81.886,41.181 C81.886,40.803 82.195,40.606 82.503,40.606 C82.825,40.606 83.147,40.817 83.161,41.223 L83.161,41.601 L84.618,41.601 L84.618,41.195 C84.618,40.789 84.926,40.578 85.248,40.578 C85.556,40.578 85.879,40.789 85.879,41.181 L85.879,41.195 L85.865,41.601 L87.728,41.601 C89.002,41.601 89.044,42.063 89.044,42.764 C89.044,43.548 88.974,43.926 87.728,43.940 L85.851,43.940 L85.851,44.543 L88.512,44.543 C89.142,44.543 89.689,44.795 89.689,45.397 C89.689,45.579 89.591,46.013 89.451,46.280 C89.184,46.756 88.736,47.036 87.854,47.036 C87.826,47.036 87.812,47.036 87.784,47.036 C87.812,47.092 87.826,47.148 87.826,47.204 C87.854,47.666 87.868,48.171 87.868,48.675 C87.868,49.179 87.854,49.697 87.826,50.202 C87.798,50.734 87.307,51.196 86.425,51.210 C86.201,51.210 85.963,51.224 85.725,51.224 C86.831,51.658 87.868,51.883 89.030,51.925 C89.493,51.939 89.717,52.261 89.717,52.569 C89.717,52.905 89.465,53.241 88.974,53.241 C88.456,53.241 86.705,52.975 85.178,52.303 C84.926,52.191 84.814,51.995 84.814,51.785 C84.814,51.560 84.954,51.336 85.164,51.224 C84.730,51.224 84.282,51.238 83.848,51.238 C83.413,51.238 82.979,51.224 82.545,51.224 C82.741,51.336 82.867,51.560 82.867,51.785 C82.867,51.995 82.769,52.191 82.517,52.317 C81.368,52.849 79.729,53.283 78.665,53.283 C78.174,53.283 77.922,52.961 77.922,52.653 C77.922,52.345 78.160,52.037 78.637,52.023 ZM80.402,43.940 C80.094,43.940 79.925,43.940 79.925,44.290 C79.925,44.473 80.023,44.543 80.276,44.543 L81.676,44.543 C81.760,44.361 81.816,44.164 81.858,43.940 L80.402,43.940 ZM84.618,42.512 L83.175,42.512 C83.175,42.722 83.161,42.932 83.147,43.128 L84.618,43.128 L84.618,42.512 ZM84.618,43.940 L83.049,43.940 C83.007,44.150 82.965,44.346 82.909,44.543 L84.618,44.543 L84.618,43.940 ZM84.618,45.971 L84.618,45.341 L82.573,45.341 C82.363,45.691 82.069,46.013 81.704,46.280 C82.685,46.266 83.665,46.266 84.688,46.266 C84.632,46.181 84.618,46.083 84.618,45.971 ZM83.890,47.092 C83.147,47.092 82.405,47.106 81.760,47.120 C81.340,47.134 81.228,47.358 81.214,47.568 L81.214,47.694 L86.579,47.694 L86.579,47.540 C86.565,47.288 86.439,47.134 86.005,47.120 C85.374,47.106 84.632,47.092 83.890,47.092 ZM87.335,43.128 C87.630,43.128 87.672,43.044 87.672,42.834 C87.672,42.582 87.574,42.526 87.335,42.526 L85.851,42.526 L85.851,43.128 L87.335,43.128 ZM86.831,45.901 C87.237,45.985 87.546,46.069 87.784,46.069 C88.176,46.069 88.386,45.677 88.386,45.467 C88.386,45.383 88.316,45.341 88.190,45.341 L85.865,45.341 L85.879,45.971 C85.879,46.083 85.851,46.181 85.795,46.266 L86.229,46.280 C86.285,46.069 86.453,45.887 86.719,45.887 C86.761,45.887 86.789,45.901 86.831,45.901 ZM86.607,48.423 L81.186,48.423 L81.186,48.997 L86.607,48.997 L86.607,48.423 ZM83.876,50.342 C84.604,50.342 85.346,50.342 86.019,50.328 C86.369,50.314 86.565,50.202 86.579,49.893 L86.579,49.725 L81.214,49.725 L81.214,49.893 C81.228,50.202 81.396,50.314 81.788,50.328 C82.433,50.342 83.147,50.342 83.876,50.342 ZM89.558,18.411 C90.042,18.543 90.284,18.917 90.284,19.291 C90.284,19.819 89.866,20.369 89.184,20.369 C88.260,20.369 86.324,19.335 85.202,18.499 C83.969,19.555 82.495,20.259 81.989,20.259 C81.417,20.259 81.021,19.775 81.021,19.291 C81.021,18.961 81.197,18.631 81.637,18.477 C82.517,18.147 83.243,17.751 83.837,17.288 C82.737,16.188 81.835,14.802 81.835,14.362 C81.835,13.878 82.385,13.482 82.891,13.482 C83.133,13.482 83.353,13.592 83.485,13.834 C83.925,14.692 84.476,15.418 85.114,16.034 C85.796,15.154 86.346,13.856 86.346,13.548 C86.346,13.350 86.170,13.262 86.016,13.262 C85.774,13.262 85.554,13.262 85.312,13.262 C84.277,13.262 83.199,13.284 81.835,13.306 L81.813,13.306 C81.307,13.306 81.065,12.888 81.065,12.492 C81.065,12.052 81.307,11.634 81.813,11.612 C82.715,11.590 83.573,11.590 84.432,11.590 C85.268,11.590 86.126,11.590 87.028,11.634 C88.150,11.678 88.502,12.338 88.502,13.042 C88.502,14.626 86.632,17.002 86.522,17.134 C87.446,17.707 88.458,18.147 89.558,18.411 ZM109.573,15.594 C108.957,14.912 108.275,14.428 107.329,14.054 C106.933,13.900 106.779,13.614 106.779,13.306 C106.779,12.822 107.175,12.316 107.747,12.316 C108.385,12.316 111.268,13.614 111.268,14.802 C111.268,15.374 110.783,15.924 110.233,15.924 C110.013,15.924 109.771,15.814 109.573,15.594 ZM106.075,16.078 C106.603,16.078 112.060,17.552 112.060,19.401 C112.060,20.017 111.554,20.545 110.981,20.545 C110.761,20.545 110.497,20.457 110.255,20.237 C109.023,19.115 107.285,18.323 105.701,17.883 C105.217,17.751 104.997,17.420 104.997,17.068 C104.997,16.584 105.437,16.078 106.075,16.078 ZM114.113,43.366 C114.113,44.262 114.113,44.262 114.113,44.262 C114.099,44.585 113.791,44.753 113.497,44.753 C113.202,44.753 112.922,44.599 112.922,44.276 L112.922,44.262 L112.922,43.660 C112.922,43.254 112.838,43.198 111.283,43.198 C109.280,43.198 109.266,43.226 109.266,43.660 L109.266,44.290 L109.266,44.304 C109.266,44.627 108.958,44.781 108.664,44.781 C108.356,44.781 108.048,44.627 108.048,44.290 C108.048,44.122 108.034,43.954 108.034,43.786 C108.034,42.974 108.104,42.231 109.364,42.217 L110.443,42.217 L110.429,41.349 L110.429,41.335 C110.429,40.985 110.751,40.803 111.087,40.803 C111.409,40.803 111.746,40.985 111.746,41.335 L111.746,41.349 L111.732,42.217 L112.824,42.217 C113.553,42.217 114.113,42.624 114.113,43.366 ZM111.507,44.977 C111.283,44.977 111.003,44.991 110.695,44.991 C110.149,45.789 108.804,47.344 108.258,47.344 C107.936,47.344 107.669,47.064 107.669,46.784 C107.669,46.644 107.739,46.504 107.894,46.392 C108.650,45.845 109.560,44.921 110.163,43.730 C110.261,43.534 110.429,43.450 110.611,43.450 C110.919,43.450 111.255,43.702 111.255,43.996 C111.255,44.038 111.241,44.094 111.227,44.136 C111.493,44.122 111.746,44.122 111.914,44.122 C111.928,44.122 111.928,44.122 111.942,44.122 C112.656,44.122 112.950,44.501 112.950,44.921 C112.950,45.117 112.894,45.523 112.082,46.658 C113.819,47.512 113.917,47.960 113.917,48.171 C113.917,48.507 113.651,48.829 113.356,48.829 C113.230,48.829 113.104,48.773 112.992,48.661 C112.614,48.283 112.012,47.848 111.381,47.484 C110.947,47.932 110.457,48.353 109.883,48.745 C109.953,48.731 110.023,48.717 110.107,48.717 C110.345,48.703 110.639,48.689 110.961,48.689 C111.339,48.689 111.746,48.703 112.054,48.717 C112.558,48.731 113.090,49.067 113.104,49.599 C113.118,49.936 113.118,50.286 113.118,50.636 C113.118,50.986 113.118,51.336 113.104,51.672 C113.104,51.799 113.076,51.925 113.034,52.037 C113.118,51.939 113.244,51.855 113.413,51.813 C114.155,51.616 114.911,51.224 115.374,50.734 C115.402,50.692 115.430,50.678 115.472,50.650 C114.799,50.538 114.463,50.048 114.449,49.417 C114.435,48.801 114.421,47.974 114.421,47.120 C114.421,46.280 114.435,45.411 114.449,44.739 C114.463,44.164 114.813,43.590 115.738,43.534 C115.836,43.534 115.948,43.520 116.060,43.520 C116.130,43.240 116.172,42.974 116.228,42.610 L114.687,42.610 C114.281,42.610 114.085,42.315 114.085,42.021 C114.085,41.727 114.281,41.433 114.687,41.433 L119.520,41.433 C119.926,41.433 120.122,41.727 120.122,42.021 C120.122,42.315 119.926,42.610 119.520,42.610 L117.545,42.610 C117.475,42.904 117.377,43.240 117.307,43.506 C117.587,43.506 117.853,43.520 118.105,43.534 C118.917,43.576 119.380,44.108 119.408,44.725 C119.436,45.383 119.450,46.238 119.450,47.092 C119.450,47.932 119.436,48.773 119.408,49.403 C119.380,50.020 118.960,50.538 118.287,50.650 L118.343,50.706 C118.791,51.168 119.268,51.546 119.926,51.742 C120.276,51.841 120.416,52.093 120.416,52.345 C120.416,52.709 120.136,53.073 119.702,53.073 C119.058,53.073 117.293,51.714 117.293,51.154 C117.293,50.986 117.377,50.804 117.517,50.692 C117.307,50.692 117.082,50.706 116.872,50.706 C116.648,50.706 116.438,50.692 116.228,50.692 C116.396,50.818 116.508,51.000 116.508,51.196 C116.508,51.869 114.183,53.115 113.511,53.115 C113.090,53.115 112.866,52.793 112.866,52.471 C112.866,52.401 112.866,52.331 112.894,52.261 C112.628,52.569 112.390,52.681 111.045,52.681 C110.709,52.681 110.387,52.667 110.121,52.653 C109.518,52.611 109.140,52.233 109.126,51.686 C109.112,51.350 109.112,51.014 109.112,50.678 C109.112,50.342 109.112,50.006 109.126,49.669 C109.140,49.459 109.196,49.263 109.322,49.095 C108.594,49.501 108.370,49.557 108.286,49.557 C107.978,49.557 107.725,49.277 107.725,48.997 C107.725,48.801 107.837,48.605 108.118,48.493 C109.000,48.115 109.785,47.582 110.415,46.980 C110.275,46.924 110.135,46.868 110.009,46.826 C109.813,46.756 109.743,46.616 109.743,46.448 C109.743,46.210 109.939,45.929 110.233,45.929 C110.443,45.929 111.031,46.181 111.101,46.210 C111.115,46.195 111.718,45.341 111.718,45.103 C111.718,45.019 111.662,44.977 111.507,44.977 ZM115.570,49.207 C115.598,49.725 115.878,49.739 116.774,49.739 C118.119,49.739 118.245,49.711 118.259,49.193 C118.259,49.011 118.273,48.801 118.273,48.577 L115.556,48.577 C115.556,48.801 115.570,49.025 115.570,49.207 ZM115.556,47.596 L118.287,47.596 L118.287,46.532 L115.556,46.532 L115.556,47.596 ZM118.273,45.537 C118.273,45.341 118.259,45.173 118.259,45.005 C118.245,44.501 118.161,44.473 116.858,44.473 C115.808,44.473 115.598,44.473 115.570,45.019 C115.570,45.173 115.556,45.355 115.556,45.537 L118.273,45.537 ZM110.275,51.350 C110.289,51.518 110.387,51.658 111.101,51.658 C111.746,51.658 111.956,51.560 111.970,51.336 C111.984,51.098 111.998,50.874 111.998,50.650 C111.998,50.426 111.984,50.188 111.970,49.964 C111.942,49.641 111.465,49.641 111.157,49.641 C110.961,49.641 110.765,49.641 110.625,49.655 C110.289,49.669 110.261,49.795 110.261,50.664 C110.261,50.902 110.261,51.126 110.275,51.350 ZM123.955,51.813 C125.650,51.658 127.092,51.098 128.255,50.356 C127.611,49.767 126.406,48.367 126.406,47.806 C126.406,47.428 126.770,47.190 127.106,47.190 C127.316,47.190 127.513,47.274 127.625,47.470 C128.087,48.241 128.647,48.941 129.348,49.543 C130.496,48.549 131.267,47.428 131.267,47.134 C131.267,47.008 131.155,46.924 130.944,46.924 C130.538,46.924 130.020,46.924 129.432,46.924 C128.269,46.924 126.868,46.924 125.678,46.966 C125.664,46.966 125.664,46.966 125.650,46.966 C125.243,46.966 125.033,46.672 125.033,46.364 C125.033,46.041 125.257,45.705 125.692,45.705 L128.591,45.705 L128.577,44.080 L124.249,44.108 C123.801,44.108 123.562,43.786 123.562,43.464 C123.562,43.142 123.801,42.820 124.249,42.820 L128.577,42.848 L128.563,41.391 C128.563,40.985 128.913,40.803 129.250,40.803 C129.614,40.803 129.978,40.999 129.978,41.391 L129.964,42.848 L134.362,42.820 C134.811,42.820 135.035,43.142 135.035,43.464 C135.035,43.786 134.811,44.108 134.362,44.108 L129.964,44.080 L129.950,45.691 L131.673,45.691 C132.499,45.691 132.990,46.153 132.990,46.798 C132.990,47.638 131.729,49.193 130.468,50.328 C131.603,50.986 133.018,51.392 134.768,51.420 C135.147,51.420 135.357,51.742 135.357,52.093 C135.357,52.485 135.091,52.905 134.516,52.905 C132.135,52.905 130.272,51.855 129.348,51.210 C126.686,53.073 124.137,53.227 123.997,53.227 C123.548,53.227 123.296,52.863 123.296,52.499 C123.296,52.163 123.492,51.855 123.955,51.813 ZM142.796,48.353 C142.964,48.353 143.161,48.423 143.301,48.605 C143.735,49.151 144.099,50.426 144.099,50.692 C144.099,51.140 143.735,51.420 143.413,51.420 C143.161,51.420 142.922,51.238 142.880,50.860 C142.824,50.258 142.558,49.515 142.348,49.095 C142.292,48.997 142.278,48.899 142.278,48.815 C142.278,48.535 142.516,48.353 142.796,48.353 ZM145.780,47.750 C146.186,47.736 146.620,47.722 147.055,47.722 C147.573,47.722 148.077,47.736 148.511,47.750 C149.212,47.778 149.870,48.255 149.898,48.983 C149.912,49.501 149.940,50.188 149.940,50.804 C149.940,51.042 149.940,51.280 149.926,51.490 C149.898,52.247 149.408,52.779 148.539,52.849 C148.161,52.877 147.713,52.891 147.251,52.891 C144.883,52.891 144.421,52.849 144.421,50.776 C144.421,50.174 144.449,49.529 144.463,49.039 C144.491,48.297 144.995,47.792 145.780,47.750 ZM147.181,51.714 C148.609,51.714 148.651,51.574 148.651,50.790 C148.651,50.300 148.637,49.683 148.623,49.291 C148.595,48.815 148.385,48.815 147.153,48.815 C146.802,48.815 146.466,48.815 146.214,48.829 C145.654,48.857 145.654,49.095 145.654,50.664 C145.654,51.700 145.682,51.714 147.181,51.714 Z"/>
</svg>