<svg 
 xmlns="http://www.w3.org/2000/svg"
 xmlns:xlink="http://www.w3.org/1999/xlink"
 width="231px" height="103px">
<path fill-rule="evenodd"  fill="rgb(0, 113, 189)"
 d="M226.248,20.809 C226.006,21.007 225.764,21.095 225.522,21.095 C224.884,21.095 224.356,20.501 224.356,19.885 C224.356,19.599 224.488,19.291 224.774,19.027 C227.040,17.046 228.162,13.966 228.162,10.908 C228.162,7.849 227.040,4.835 224.818,2.964 C224.466,2.678 224.334,2.326 224.334,2.018 C224.334,1.446 224.796,0.940 225.412,0.940 C225.676,0.940 225.984,1.050 226.292,1.314 C228.999,3.734 230.341,7.409 230.341,11.084 C230.341,14.780 228.955,18.477 226.248,20.809 ZM224.062,69.750 C224.287,69.666 224.497,69.582 224.651,69.497 C225.421,69.035 226.178,70.198 225.141,70.716 C224.791,70.884 224.188,71.052 223.600,71.178 C223.418,71.627 223.180,72.131 222.928,72.593 C223.894,72.425 224.819,72.775 225.281,73.812 C225.855,73.518 226.444,73.224 226.990,72.985 C227.326,72.845 227.704,72.677 228.083,72.467 C229.133,71.879 229.763,73.280 228.867,73.728 C228.419,73.952 228.097,74.022 227.354,74.302 C226.766,74.526 226.136,74.806 225.575,75.073 C225.617,75.535 225.631,76.109 225.603,76.613 C225.575,77.174 225.211,77.468 224.861,77.482 C224.511,77.496 224.188,77.230 224.230,76.683 C224.245,76.389 224.259,76.067 224.259,75.773 C224.132,75.843 224.006,75.913 223.894,75.983 C222.157,77.104 222.367,77.944 223.152,78.336 C223.894,78.714 225.267,78.434 225.925,78.224 C227.158,77.846 227.550,79.359 226.262,79.695 C225.435,79.905 223.530,80.115 222.438,79.499 C220.547,78.434 220.883,76.543 223.418,74.876 C223.614,74.750 223.838,74.596 224.104,74.442 C223.726,73.266 222.648,73.406 221.737,74.456 C221.723,74.470 221.695,74.498 221.681,74.512 C221.555,74.666 221.457,74.792 221.359,74.876 C220.589,75.563 219.566,74.764 220.406,74.008 C220.771,73.672 221.247,73.167 221.541,72.691 C221.779,72.299 222.003,71.879 222.199,71.445 C221.443,71.557 220.911,71.515 220.462,71.290 C219.454,70.786 220.140,69.469 221.121,70.128 C221.387,70.310 221.947,70.240 222.438,70.156 C222.494,70.142 222.578,70.142 222.648,70.128 C222.746,69.722 222.774,69.441 222.802,68.951 C222.858,68.111 224.174,68.195 224.202,68.881 C224.216,69.161 224.160,69.427 224.090,69.694 L224.062,69.750 ZM219.640,6.419 L212.202,6.375 C212.114,7.211 212.026,8.025 211.850,8.839 C213.061,8.817 214.381,8.817 215.569,8.817 C216.999,8.839 217.857,9.719 217.857,11.128 C217.857,11.172 217.857,11.194 217.857,11.238 C217.681,17.905 215.679,20.391 212.114,20.391 C211.234,20.391 210.244,20.215 209.144,19.863 C208.682,19.709 208.484,19.313 208.484,18.917 C208.484,18.323 208.880,17.729 209.496,17.729 C209.628,17.729 209.760,17.751 209.914,17.817 C210.684,18.125 211.432,18.301 212.092,18.301 C213.171,18.301 215.657,17.839 215.657,11.480 C215.657,10.886 215.283,10.665 214.843,10.665 L211.366,10.665 C210.068,14.846 207.450,18.301 203.445,20.325 C203.225,20.435 203.005,20.479 202.807,20.479 C202.103,20.479 201.597,19.929 201.597,19.335 C201.597,18.961 201.817,18.587 202.323,18.345 C207.362,15.968 209.628,11.216 209.958,6.375 L203.203,6.419 L203.181,6.419 C202.477,6.419 202.169,5.935 202.169,5.451 C202.169,4.923 202.543,4.373 203.203,4.373 L210.332,4.373 L210.332,2.238 C210.332,1.578 210.904,1.248 211.476,1.248 C212.048,1.248 212.621,1.578 212.621,2.238 L212.621,4.373 L219.640,4.373 C220.300,4.373 220.630,4.901 220.630,5.407 C220.630,5.913 220.322,6.419 219.640,6.419 ZM199.677,72.831 C198.991,72.831 196.372,71.052 194.551,69.245 C194.410,69.105 194.298,69.035 194.186,69.035 C194.074,69.035 193.962,69.105 193.836,69.245 C193.416,69.722 192.884,70.240 192.295,70.758 L195.937,70.758 C196.343,70.758 196.554,71.052 196.554,71.346 C196.554,71.627 196.343,71.907 195.937,71.907 L192.407,71.907 C192.001,71.907 191.791,71.613 191.791,71.332 C191.791,71.276 191.805,71.220 191.819,71.164 C191.301,71.599 189.270,73.195 188.611,73.195 C188.205,73.195 187.953,72.859 187.953,72.523 C187.953,72.271 188.093,72.019 188.387,71.879 C190.012,71.136 191.833,69.624 192.898,68.405 C193.234,68.013 193.654,67.803 194.102,67.803 C194.523,67.803 194.971,67.999 195.377,68.391 C196.736,69.680 198.361,70.730 200.027,71.487 C200.308,71.613 200.434,71.851 200.434,72.075 C200.434,72.453 200.126,72.831 199.677,72.831 ZM191.541,20.083 C189.076,20.083 186.260,20.017 186.216,17.266 C186.194,15.880 186.194,13.680 186.194,11.392 L184.852,12.074 C184.698,12.140 184.566,12.184 184.434,12.184 C183.927,12.184 183.553,11.700 183.553,11.216 C183.553,10.908 183.707,10.577 184.081,10.401 L186.194,9.345 C186.194,7.431 186.238,5.627 186.238,4.439 C186.238,3.801 186.744,3.470 187.228,3.470 C187.712,3.470 188.196,3.779 188.196,4.395 L188.196,4.417 C188.174,5.319 188.174,6.749 188.174,8.333 L190.176,7.343 L190.176,2.480 C190.176,1.886 190.660,1.578 191.166,1.578 C191.651,1.578 192.135,1.886 192.135,2.480 L192.135,6.353 L193.213,5.803 C193.763,5.517 194.247,5.407 194.665,5.407 C196.249,5.407 196.315,6.969 196.315,8.157 C196.315,13.196 195.831,14.934 193.587,14.934 C192.597,14.934 192.289,14.582 192.289,13.878 C192.289,13.394 192.531,12.910 192.993,12.910 C193.059,12.910 193.125,12.932 193.213,12.954 C193.301,12.976 193.389,12.998 193.477,12.998 C193.829,12.998 194.379,12.690 194.379,8.971 C194.379,8.047 194.357,7.475 194.005,7.475 C193.917,7.475 193.851,7.497 193.763,7.541 C193.433,7.717 192.839,8.025 192.135,8.377 L192.135,15.594 C192.135,16.144 191.651,16.430 191.144,16.430 C190.660,16.430 190.176,16.144 190.176,15.594 L190.176,9.367 L188.174,10.379 C188.174,13.042 188.174,15.726 188.196,16.892 C188.240,18.191 189.494,18.213 191.409,18.213 C194.093,18.213 195.369,18.125 195.369,15.946 C195.369,15.286 195.831,14.978 196.337,14.978 C196.535,14.978 197.459,15.044 197.459,16.100 C197.459,20.083 194.379,20.083 191.541,20.083 ZM184.456,9.543 L182.695,9.543 L182.695,14.494 C183.157,14.274 183.619,14.054 184.037,13.812 C184.235,13.702 184.412,13.658 184.588,13.658 C185.116,13.658 185.534,14.054 185.534,14.516 C185.534,14.824 185.336,15.154 184.896,15.396 C184.125,15.814 179.373,18.213 178.471,18.213 C177.877,18.213 177.503,17.707 177.503,17.200 C177.503,16.804 177.723,16.408 178.207,16.254 C179.043,15.968 179.879,15.682 180.693,15.352 L180.693,9.543 L178.669,9.543 C178.053,9.543 177.723,9.081 177.723,8.619 C177.723,8.157 178.053,7.695 178.669,7.695 L180.671,7.695 L180.671,3.074 C180.671,2.436 181.177,2.128 181.683,2.128 C182.211,2.128 182.717,2.436 182.717,3.074 L182.717,7.695 L184.456,7.695 C185.028,7.695 185.314,8.157 185.314,8.619 C185.314,9.081 185.028,9.543 184.456,9.543 ZM176.152,46.490 C175.970,46.490 175.760,46.392 175.591,46.181 C174.723,45.089 173.714,43.604 173.042,42.512 C172.972,42.399 172.902,42.343 172.846,42.343 C172.790,42.343 172.734,42.413 172.678,42.526 C172.286,43.436 171.697,44.417 171.137,45.285 C171.235,45.215 171.347,45.173 171.501,45.173 L174.471,45.173 C174.863,45.173 175.059,45.467 175.059,45.761 C175.059,46.055 174.863,46.350 174.471,46.350 L171.501,46.350 C171.109,46.350 170.913,46.069 170.913,45.775 C170.913,45.719 170.927,45.649 170.941,45.593 C170.325,46.462 170.255,46.574 169.890,46.574 C169.708,46.574 169.526,46.504 169.400,46.378 C169.708,46.924 169.764,47.176 169.764,47.330 C169.764,47.722 169.456,48.002 169.162,48.002 C168.868,48.002 168.812,47.876 168.616,47.302 C168.420,47.344 168.139,47.386 167.831,47.442 L167.859,52.555 C167.859,53.003 167.523,53.213 167.201,53.213 C166.865,53.213 166.543,53.003 166.543,52.569 L166.543,52.555 L166.585,47.638 C166.571,47.638 165.030,47.848 164.862,47.848 C164.525,47.848 164.343,47.554 164.343,47.274 C164.343,47.022 164.497,46.770 164.792,46.756 C164.960,46.756 165.156,46.728 165.380,46.714 C165.646,46.420 165.926,46.055 166.220,45.649 C165.744,45.159 164.974,44.585 164.638,44.361 C164.455,44.234 164.371,44.066 164.371,43.898 C164.371,43.618 164.595,43.338 164.932,43.338 C165.030,43.338 165.128,43.366 165.240,43.422 L165.324,43.464 C165.716,42.834 166.206,41.811 166.388,41.055 C166.458,40.775 166.697,40.648 166.949,40.648 C167.285,40.648 167.649,40.873 167.649,41.237 C167.649,41.699 166.697,43.436 166.234,44.122 C166.458,44.304 166.669,44.501 166.865,44.683 C167.299,43.968 167.691,43.226 167.929,42.652 C168.027,42.399 168.237,42.301 168.448,42.301 C168.798,42.301 169.148,42.554 169.148,42.918 C169.148,43.310 167.999,45.173 166.907,46.574 C167.397,46.518 167.845,46.462 168.195,46.420 C167.929,46.027 167.901,45.971 167.901,45.859 C167.901,45.607 168.153,45.411 168.434,45.411 C168.644,45.411 168.868,45.523 169.232,46.083 C169.218,46.041 169.218,46.013 169.218,45.971 C169.218,45.845 169.274,45.705 169.386,45.565 C170.185,44.613 171.151,43.114 171.669,41.881 C171.893,41.335 172.342,41.055 172.790,41.055 C173.224,41.055 173.672,41.307 173.981,41.797 C174.751,43.002 175.746,44.234 176.726,45.271 C176.866,45.411 176.922,45.565 176.922,45.733 C176.922,46.111 176.558,46.490 176.152,46.490 ZM170.076,10.930 C170.076,13.966 171.220,17.024 173.530,19.027 C173.816,19.269 173.926,19.577 173.926,19.885 C173.926,20.523 173.376,21.161 172.716,21.161 C172.496,21.161 172.254,21.073 172.012,20.875 C169.328,18.499 167.963,14.780 167.963,11.062 C167.963,7.387 169.284,3.690 171.968,1.226 C172.254,0.962 172.562,0.852 172.826,0.852 C173.464,0.852 173.992,1.402 173.992,2.018 C173.992,2.348 173.838,2.678 173.508,2.964 C171.220,4.879 170.076,7.893 170.076,10.930 ZM165.590,48.409 C165.912,48.409 166.234,48.633 166.234,49.025 C166.234,49.599 165.786,51.196 165.310,51.925 C165.156,52.163 164.918,52.275 164.694,52.275 C164.371,52.275 164.077,52.051 164.077,51.728 C164.077,51.602 164.119,51.476 164.203,51.336 C164.595,50.692 164.932,49.711 165.030,48.899 C165.072,48.563 165.324,48.409 165.590,48.409 ZM166.273,72.425 C166.651,72.425 167.029,72.677 167.029,73.111 C167.029,73.210 167.015,73.322 166.959,73.448 C166.287,75.087 165.082,77.944 164.255,79.933 C163.471,81.810 162.673,82.861 161.048,82.875 C160.600,82.875 160.417,82.483 160.417,82.132 C160.417,81.782 160.600,81.432 161.048,81.418 C161.972,81.376 162.406,80.732 162.995,79.373 C163.009,79.317 163.023,79.247 163.023,79.149 C163.023,79.037 163.009,78.911 162.953,78.785 C162.533,77.734 161.118,74.372 160.782,73.448 C160.740,73.336 160.726,73.238 160.726,73.139 C160.726,72.705 161.104,72.425 161.468,72.425 C161.720,72.425 161.986,72.565 162.098,72.873 C163.401,76.417 163.765,77.314 163.849,77.314 C163.947,77.314 164.970,74.708 165.586,72.901 C165.698,72.565 165.992,72.425 166.273,72.425 ZM163.091,12.998 C163.091,13.416 162.805,13.834 162.255,13.834 L162.233,13.834 L159.967,13.812 C159.835,14.846 159.548,15.770 159.130,16.562 C160.847,17.354 162.453,18.565 162.453,19.423 C162.453,20.017 161.969,20.501 161.419,20.501 C161.155,20.501 160.891,20.391 160.671,20.149 C159.901,19.335 159.064,18.609 158.074,18.059 C156.314,19.929 153.564,20.545 151.253,20.545 C150.549,20.545 150.175,20.039 150.175,19.555 C150.175,19.115 150.483,18.675 151.165,18.675 C153.322,18.653 155.060,18.279 156.270,17.288 C155.676,17.090 155.038,16.958 154.334,16.870 C154.114,17.354 153.696,17.552 153.300,17.552 C152.816,17.552 152.353,17.244 152.353,16.716 C152.353,16.584 152.397,16.408 152.485,16.232 C152.860,15.462 153.168,14.648 153.454,13.812 L151.055,13.834 L151.033,13.834 C150.461,13.834 150.175,13.416 150.175,12.976 C150.175,12.558 150.483,12.118 151.055,12.118 L153.982,12.118 C154.422,10.533 154.422,10.533 154.686,10.335 L151.517,10.335 C151.209,10.335 150.989,10.225 150.835,10.049 C150.879,10.137 150.879,10.247 150.879,10.335 C150.879,10.643 150.725,10.974 150.351,11.194 C149.845,11.502 149.317,11.810 148.767,12.118 L148.767,14.802 C148.767,15.154 148.833,17.156 148.855,17.927 C148.855,17.949 148.855,17.993 148.855,18.015 C148.855,19.401 147.953,20.479 146.039,20.479 C144.872,20.479 144.058,20.281 144.058,19.291 C144.058,18.785 144.366,18.279 144.916,18.279 C144.982,18.279 145.048,18.279 145.114,18.301 C145.312,18.345 145.576,18.389 145.819,18.389 C146.281,18.389 146.721,18.235 146.721,17.663 L146.721,13.152 C145.246,13.812 144.916,13.966 144.564,13.966 C143.904,13.966 143.508,13.438 143.508,12.910 C143.508,12.536 143.706,12.140 144.190,11.964 C145.136,11.612 145.951,11.304 146.721,10.974 L146.721,7.409 L144.718,7.409 C144.080,7.409 143.750,6.925 143.750,6.441 C143.750,5.957 144.080,5.473 144.718,5.473 L146.721,5.473 L146.699,2.150 C146.699,1.468 147.227,1.116 147.755,1.116 C148.283,1.116 148.789,1.446 148.789,2.150 L148.789,5.473 L150.307,5.473 C150.967,5.473 151.275,5.957 151.275,6.441 C151.275,6.925 150.967,7.409 150.307,7.409 L148.789,7.409 L148.789,9.983 C149.053,9.851 149.273,9.697 149.537,9.543 C149.691,9.455 149.845,9.411 149.999,9.411 C150.263,9.411 150.483,9.521 150.659,9.719 C150.637,9.631 150.615,9.521 150.615,9.433 C150.615,8.993 150.901,8.575 151.517,8.575 L154.158,8.575 C153.498,7.277 153.124,6.815 152.948,6.639 C152.772,6.463 152.706,6.287 152.706,6.111 C152.706,5.649 153.212,5.253 153.718,5.253 C154.620,5.253 155.918,7.387 155.918,7.937 C155.918,8.179 155.852,8.399 155.720,8.575 L157.062,8.575 C157.436,7.739 157.854,6.705 158.052,5.935 C158.184,5.429 158.558,5.231 158.976,5.231 C159.548,5.231 160.143,5.649 160.143,6.221 C160.143,6.595 159.438,7.871 159.064,8.575 L162.167,8.575 C162.783,8.575 163.091,9.015 163.091,9.455 C163.091,9.895 162.783,10.335 162.167,10.335 L157.392,10.335 C157.282,10.357 157.150,10.357 157.040,10.357 C156.930,10.357 156.820,10.357 156.732,10.335 L155.918,10.335 C156.116,10.489 156.248,10.710 156.248,10.996 C156.248,11.150 156.204,11.392 155.984,12.118 L162.233,12.118 C162.805,12.118 163.091,12.558 163.091,12.998 ZM155.478,13.790 C155.302,14.318 155.126,14.846 154.928,15.374 C155.742,15.462 156.600,15.660 157.392,15.902 C157.700,15.308 157.898,14.604 158.008,13.790 L155.478,13.790 ZM161.089,5.033 L152.177,5.033 C151.561,5.033 151.231,4.593 151.231,4.153 C151.231,3.712 151.561,3.272 152.177,3.272 L155.456,3.272 L155.434,1.908 L155.434,1.886 C155.434,1.270 155.940,0.962 156.468,0.962 C156.996,0.962 157.524,1.270 157.524,1.908 L157.502,3.272 L161.089,3.272 C161.727,3.272 162.035,3.712 162.035,4.153 C162.035,4.593 161.727,5.033 161.089,5.033 ZM145.718,43.240 C145.774,45.299 145.746,47.596 145.774,49.179 L145.802,51.154 C145.802,51.168 145.802,51.168 145.802,51.182 C145.802,52.009 145.228,53.059 143.337,53.059 C142.483,53.059 141.796,53.003 141.796,52.261 C141.796,51.911 142.006,51.574 142.385,51.574 C142.427,51.574 142.469,51.574 142.511,51.588 C142.819,51.644 143.113,51.686 143.379,51.686 C143.939,51.686 144.360,51.504 144.360,50.888 L144.360,47.750 L136.459,47.750 C136.459,48.213 136.459,48.675 136.459,49.151 C136.459,50.286 136.459,51.448 136.473,52.625 L136.473,52.639 C136.473,53.045 136.123,53.255 135.773,53.255 C135.409,53.255 135.045,53.045 135.045,52.639 C135.045,48.129 135.115,43.996 135.129,43.128 C135.143,42.245 135.829,41.657 136.894,41.643 C137.972,41.615 139.177,41.615 140.410,41.615 C141.642,41.615 142.889,41.615 144.009,41.643 C144.864,41.657 145.690,42.259 145.718,43.240 ZM139.723,42.820 C138.911,42.820 138.154,42.834 137.538,42.848 C136.740,42.862 136.529,43.058 136.515,43.744 C136.487,44.627 136.487,45.565 136.473,46.532 L139.723,46.546 L139.723,42.820 ZM143.337,42.848 C142.651,42.834 141.894,42.820 141.124,42.820 L141.124,46.546 L144.360,46.532 C144.360,45.509 144.346,44.515 144.318,43.744 C144.290,42.974 144.023,42.862 143.337,42.848 ZM138.356,4.769 L130.435,4.769 C130.347,5.319 129.995,6.353 129.731,7.035 C134.352,7.035 134.748,7.035 135.540,7.057 C136.882,7.079 138.180,7.849 138.224,9.587 C138.268,10.886 138.290,12.294 138.290,13.680 C138.290,14.868 138.268,16.056 138.224,17.112 C138.180,18.653 137.212,19.797 135.496,19.841 C133.714,19.907 131.821,19.929 129.973,19.929 C128.125,19.929 126.298,19.907 124.582,19.841 C122.668,19.775 121.700,18.807 121.656,17.178 C121.634,16.034 121.612,14.868 121.612,13.702 C121.612,12.272 121.634,10.864 121.656,9.455 C121.678,8.047 122.756,7.079 124.406,7.057 C125.396,7.057 126.474,7.035 127.575,7.035 C127.795,6.309 127.993,5.451 128.103,4.769 L121.414,4.769 C120.710,4.769 120.380,4.307 120.380,3.823 C120.380,3.316 120.754,2.810 121.414,2.810 L138.356,2.810 C139.016,2.810 139.346,3.294 139.346,3.801 C139.346,4.285 139.016,4.769 138.356,4.769 ZM126.430,8.795 L125.286,8.817 C124.032,8.839 123.680,9.191 123.658,10.313 C123.636,11.304 123.614,12.712 123.614,14.098 C123.614,14.978 123.636,15.858 123.658,16.606 C123.702,17.773 124.142,17.993 125.418,18.037 C125.748,18.037 126.078,18.059 126.430,18.059 L126.430,8.795 ZM133.317,18.059 C135.276,18.059 136.134,18.037 136.178,16.562 C136.200,15.638 136.222,14.582 136.222,13.504 C136.222,12.426 136.200,11.326 136.178,10.313 C136.134,9.059 135.694,8.839 134.616,8.817 C134.176,8.817 133.758,8.795 133.317,8.795 L133.317,18.059 ZM128.279,18.103 L131.425,18.103 L131.425,15.814 L128.279,15.814 L128.279,18.103 ZM128.279,14.252 L131.425,14.252 L131.425,12.294 L128.279,12.294 L128.279,14.252 ZM128.279,10.732 L131.425,10.732 L131.425,8.773 L128.279,8.773 L128.279,10.732 ZM121.250,47.092 C121.250,48.675 121.123,52.485 117.734,52.485 C115.871,52.485 114.540,51.196 114.316,48.843 C114.260,48.241 114.232,47.652 114.232,47.064 C114.232,46.532 114.260,45.985 114.302,45.411 C114.498,42.974 115.829,41.629 117.734,41.629 C119.611,41.629 120.927,42.918 121.151,45.257 C121.207,45.873 121.250,46.490 121.250,47.092 ZM117.734,43.072 C116.753,43.072 116.011,43.968 115.871,45.467 C115.829,45.985 115.801,46.504 115.801,47.008 C115.801,47.596 115.829,48.185 115.899,48.759 C116.067,50.188 116.823,51.014 117.734,51.014 C118.602,51.014 119.330,50.230 119.527,48.899 C119.611,48.283 119.653,47.596 119.653,46.924 C119.653,45.845 119.653,43.072 117.734,43.072 ZM110.453,20.083 C107.989,20.083 105.172,20.017 105.128,17.266 C105.106,15.880 105.106,13.680 105.106,11.392 L103.764,12.074 C103.610,12.140 103.478,12.184 103.346,12.184 C102.840,12.184 102.466,11.700 102.466,11.216 C102.466,10.908 102.620,10.577 102.994,10.401 L105.106,9.345 C105.106,7.431 105.150,5.627 105.150,4.439 C105.150,3.801 105.656,3.470 106.140,3.470 C106.624,3.470 107.108,3.779 107.108,4.395 L107.108,4.417 C107.086,5.319 107.086,6.749 107.086,8.333 L109.089,7.343 L109.089,2.480 C109.089,1.886 109.573,1.578 110.079,1.578 C110.563,1.578 111.047,1.886 111.047,2.480 L111.047,6.353 L112.125,5.803 C112.675,5.517 113.159,5.407 113.577,5.407 C115.162,5.407 115.228,6.969 115.228,8.157 C115.228,13.196 114.744,14.934 112.499,14.934 C111.509,14.934 111.201,14.582 111.201,13.878 C111.201,13.394 111.443,12.910 111.905,12.910 C111.971,12.910 112.037,12.932 112.125,12.954 C112.213,12.976 112.301,12.998 112.389,12.998 C112.741,12.998 113.291,12.690 113.291,8.971 C113.291,8.047 113.269,7.475 112.917,7.475 C112.829,7.475 112.763,7.497 112.675,7.541 C112.345,7.717 111.751,8.025 111.047,8.377 L111.047,15.594 C111.047,16.144 110.563,16.430 110.057,16.430 C109.573,16.430 109.089,16.144 109.089,15.594 L109.089,9.367 L107.086,10.379 C107.086,13.042 107.086,15.726 107.108,16.892 C107.152,18.191 108.407,18.213 110.321,18.213 C113.005,18.213 114.282,18.125 114.282,15.946 C114.282,15.286 114.744,14.978 115.250,14.978 C115.448,14.978 116.372,15.044 116.372,16.100 C116.372,20.083 113.291,20.083 110.453,20.083 ZM103.368,9.543 L101.608,9.543 L101.608,14.494 C102.070,14.274 102.532,14.054 102.950,13.812 C103.148,13.702 103.324,13.658 103.500,13.658 C104.028,13.658 104.446,14.054 104.446,14.516 C104.446,14.824 104.248,15.154 103.808,15.396 C103.038,15.814 98.285,18.213 97.383,18.213 C96.789,18.213 96.415,17.707 96.415,17.200 C96.415,16.804 96.635,16.408 97.119,16.254 C97.955,15.968 98.791,15.682 99.605,15.352 L99.605,9.543 L97.581,9.543 C96.965,9.543 96.635,9.081 96.635,8.619 C96.635,8.157 96.965,7.695 97.581,7.695 L99.583,7.695 L99.583,3.074 C99.583,2.436 100.089,2.128 100.596,2.128 C101.124,2.128 101.630,2.436 101.630,3.074 L101.630,7.695 L103.368,7.695 C103.940,7.695 104.226,8.157 104.226,8.619 C104.226,9.081 103.940,9.543 103.368,9.543 ZM101.168,94.929 C101.168,95.336 100.776,95.770 100.300,95.770 C100.159,95.770 99.991,95.714 99.837,95.616 C98.577,94.789 96.770,93.094 95.551,91.722 C95.397,91.540 95.271,91.441 95.145,91.441 C95.019,91.441 94.907,91.540 94.767,91.722 C93.674,93.122 91.783,94.957 90.480,95.938 C90.256,96.106 90.046,96.176 89.850,96.176 C89.402,96.176 89.079,95.826 89.079,95.462 C89.079,95.238 89.192,95.027 89.458,94.859 C90.971,93.977 92.791,92.114 93.800,90.783 C94.136,90.335 94.584,90.125 95.047,90.125 C95.523,90.125 95.999,90.349 96.391,90.769 C97.694,92.170 99.235,93.473 100.860,94.425 C101.084,94.551 101.168,94.733 101.168,94.929 ZM94.574,51.616 C94.574,51.630 94.574,51.630 94.574,51.644 C94.574,52.135 94.168,52.387 93.762,52.387 C93.355,52.387 92.935,52.121 92.935,51.616 C92.935,50.314 92.991,47.330 92.991,45.481 C92.991,43.520 92.921,43.366 92.445,43.366 C92.403,43.366 92.361,43.366 92.319,43.366 C92.291,43.366 92.277,43.366 92.249,43.366 C91.772,43.366 91.534,43.002 91.534,42.624 C91.534,42.217 91.786,41.811 92.263,41.769 C92.543,41.755 92.655,41.755 92.949,41.755 C93.916,41.755 94.532,42.329 94.574,43.254 C94.588,43.436 94.588,43.688 94.588,43.996 C94.588,45.117 94.546,46.994 94.546,48.997 C94.546,49.865 94.546,50.748 94.574,51.616 ZM88.704,20.281 C86.416,20.281 86.042,19.181 86.042,17.751 C86.042,16.474 86.064,15.154 86.108,13.944 C85.206,13.944 84.303,13.922 83.577,13.900 C82.037,13.856 81.267,12.976 81.245,11.766 C81.223,10.423 81.201,8.949 81.201,7.475 C81.201,6.265 81.223,5.033 81.245,3.823 C81.267,2.832 81.927,1.842 83.599,1.754 C84.237,1.710 85.074,1.710 85.888,1.710 C86.724,1.710 87.560,1.710 88.220,1.754 C89.694,1.820 90.552,2.744 90.596,3.801 C90.640,5.077 90.662,6.419 90.662,7.783 C90.662,9.125 90.640,10.467 90.596,11.744 C90.552,12.888 89.584,13.834 88.176,13.900 L88.132,13.900 C88.088,15.242 88.044,16.496 88.044,17.530 C88.044,18.103 88.242,18.367 88.924,18.367 C89.804,18.367 90.200,18.279 90.200,16.628 C90.200,16.562 90.200,16.474 90.200,16.408 L90.200,16.386 C90.200,15.770 90.640,15.506 91.102,15.506 C91.543,15.506 92.159,15.748 92.159,16.584 C92.159,18.983 91.587,20.281 88.704,20.281 ZM88.594,4.329 C88.594,3.448 88.264,3.426 85.800,3.426 C85.140,3.426 84.502,3.448 84.105,3.470 C83.511,3.514 83.225,3.889 83.225,4.351 L83.203,5.209 L88.616,5.209 L88.594,4.329 ZM88.638,6.903 L83.203,6.903 L83.203,8.619 L88.638,8.619 L88.638,6.903 ZM88.594,11.348 C88.594,10.996 88.616,10.665 88.616,10.313 L83.203,10.313 C83.203,10.665 83.225,11.018 83.225,11.370 C83.247,12.074 83.467,12.272 85.580,12.272 C88.132,12.272 88.550,12.272 88.594,11.348 ZM79.265,12.668 C79.441,12.580 79.595,12.558 79.771,12.558 C80.299,12.558 80.695,12.976 80.695,13.416 C80.695,13.746 80.475,14.098 79.991,14.318 C76.888,15.726 73.940,16.760 73.390,16.760 C72.752,16.760 72.422,16.254 72.422,15.748 C72.422,15.330 72.664,14.912 73.170,14.780 C74.006,14.560 74.842,14.318 75.678,14.054 L75.678,9.499 L73.984,9.499 C73.368,9.499 73.082,9.059 73.082,8.619 C73.082,8.135 73.412,7.651 73.984,7.651 L75.678,7.651 L75.678,4.263 L73.742,4.263 C73.126,4.263 72.840,3.823 72.840,3.382 C72.840,2.898 73.170,2.414 73.742,2.414 L79.463,2.414 C80.035,2.414 80.321,2.876 80.321,3.338 C80.321,3.801 80.035,4.263 79.463,4.263 L77.615,4.263 L77.615,7.651 L79.133,7.651 C79.705,7.651 79.991,8.113 79.991,8.575 C79.991,9.037 79.705,9.499 79.133,9.499 L77.615,9.499 L77.615,13.372 C78.187,13.152 78.759,12.910 79.265,12.668 ZM72.042,47.792 L61.410,47.792 C60.892,47.792 60.626,47.414 60.626,47.036 C60.626,46.658 60.892,46.280 61.410,46.280 L72.042,46.280 C72.546,46.280 72.784,46.658 72.784,47.022 C72.784,47.414 72.532,47.792 72.042,47.792 ZM67.167,4.901 C66.858,4.593 65.736,3.933 65.274,3.779 C64.130,3.404 64.834,1.996 65.890,2.282 C66.484,2.436 67.673,2.964 68.201,3.426 C69.125,4.263 67.959,5.693 67.167,4.901 ZM65.252,6.947 C64.944,6.617 63.822,5.891 63.382,5.737 C62.238,5.319 63.030,3.955 64.064,4.285 C64.658,4.461 65.802,5.033 66.308,5.517 C67.211,6.375 66.022,7.761 65.252,6.947 ZM63.492,7.277 C65.252,8.311 66.814,9.873 67.409,11.458 C67.959,12.910 65.978,13.878 65.384,12.514 C64.856,11.304 63.866,9.631 62.238,8.729 C61.160,8.135 62.128,6.485 63.492,7.277 ZM54.713,18.499 C52.974,17.993 53.679,15.968 55.021,16.298 C56.275,16.606 57.199,16.408 57.815,15.110 C58.321,14.032 58.519,12.470 58.519,11.304 C58.519,9.961 58.057,9.323 57.045,9.411 C56.715,9.433 56.385,9.477 56.033,9.521 C54.955,12.932 53.481,15.924 51.764,18.367 C50.708,19.863 48.420,18.587 49.850,16.980 C51.368,15.286 52.732,12.778 53.745,9.829 L53.481,9.873 C52.534,10.049 51.676,10.181 51.104,10.181 C49.608,10.181 49.630,8.201 51.038,8.069 C51.720,8.003 52.402,8.025 53.195,7.959 L54.295,7.849 C54.559,6.881 54.845,5.583 54.977,4.351 C55.131,2.920 57.375,3.052 57.199,4.527 C57.111,5.275 56.825,6.595 56.561,7.629 L57.287,7.563 C59.135,7.409 60.544,8.487 60.632,10.952 C60.676,12.492 60.456,14.472 59.883,15.858 C58.981,18.037 56.825,19.115 54.713,18.499 ZM49.824,41.223 C49.824,41.209 49.824,41.195 49.824,41.181 C49.824,40.803 50.132,40.606 50.441,40.606 C50.763,40.606 51.085,40.817 51.099,41.223 L51.099,41.601 L52.556,41.601 L52.556,41.195 C52.556,40.789 52.864,40.578 53.186,40.578 C53.494,40.578 53.816,40.789 53.816,41.181 L53.816,41.195 L53.802,41.601 L55.665,41.601 C56.940,41.601 56.982,42.063 56.982,42.764 C56.982,43.548 56.912,43.926 55.665,43.940 L53.788,43.940 L53.788,44.543 L56.450,44.543 C57.080,44.543 57.627,44.795 57.627,45.397 C57.627,45.579 57.528,46.013 57.388,46.280 C57.122,46.756 56.674,47.036 55.792,47.036 C55.763,47.036 55.749,47.036 55.721,47.036 C55.749,47.092 55.763,47.148 55.763,47.204 C55.792,47.666 55.806,48.171 55.806,48.675 C55.806,49.179 55.792,49.697 55.763,50.202 C55.735,50.734 55.245,51.196 54.363,51.210 C54.139,51.210 53.900,51.224 53.662,51.224 C54.769,51.658 55.806,51.883 56.968,51.925 C57.430,51.939 57.655,52.261 57.655,52.569 C57.655,52.905 57.402,53.241 56.912,53.241 C56.394,53.241 54.643,52.975 53.116,52.303 C52.864,52.191 52.752,51.995 52.752,51.785 C52.752,51.560 52.892,51.336 53.102,51.224 C52.668,51.224 52.220,51.238 51.785,51.238 C51.351,51.238 50.917,51.224 50.483,51.224 C50.679,51.336 50.805,51.560 50.805,51.785 C50.805,51.995 50.707,52.191 50.455,52.317 C49.306,52.849 47.667,53.283 46.603,53.283 C46.112,53.283 45.860,52.961 45.860,52.653 C45.860,52.345 46.098,52.037 46.575,52.023 C47.751,51.981 48.816,51.757 49.908,51.224 L49.404,51.210 C48.438,51.196 47.975,50.776 47.947,50.216 C47.919,49.739 47.905,49.263 47.905,48.815 C47.905,48.283 47.919,47.778 47.947,47.274 C47.947,47.190 47.975,47.120 48.003,47.036 C47.877,47.078 46.743,47.344 46.434,47.344 C46.070,47.344 45.874,47.036 45.874,46.742 C45.874,46.476 46.014,46.238 46.308,46.210 C47.653,46.083 48.494,45.803 49.026,45.355 L47.611,45.355 C46.673,45.355 46.406,45.159 46.406,44.683 C46.406,44.445 46.533,43.884 46.687,43.646 C46.967,43.184 47.261,43.128 48.073,43.128 C48.522,43.128 49.166,43.114 49.880,43.114 L49.880,42.512 C48.844,42.512 47.877,42.526 47.163,42.526 C46.841,42.526 46.673,42.301 46.673,42.063 C46.673,41.825 46.841,41.587 47.177,41.587 C47.877,41.587 48.816,41.601 49.838,41.601 L49.824,41.223 ZM52.556,42.512 L51.113,42.512 C51.113,42.722 51.099,42.932 51.085,43.128 L52.556,43.128 L52.556,42.512 ZM52.556,43.940 L50.987,43.940 C50.945,44.150 50.903,44.346 50.847,44.543 L52.556,44.543 L52.556,43.940 ZM51.827,47.092 C51.085,47.092 50.343,47.106 49.698,47.120 C49.278,47.134 49.166,47.358 49.152,47.568 L49.152,47.694 L54.517,47.694 L54.517,47.540 C54.503,47.288 54.377,47.134 53.943,47.120 C53.312,47.106 52.570,47.092 51.827,47.092 ZM55.273,43.128 C55.567,43.128 55.609,43.044 55.609,42.834 C55.609,42.582 55.511,42.526 55.273,42.526 L53.788,42.526 L53.788,43.128 L55.273,43.128 ZM54.769,45.901 C55.175,45.985 55.483,46.069 55.721,46.069 C56.114,46.069 56.324,45.677 56.324,45.467 C56.324,45.383 56.254,45.341 56.128,45.341 L53.802,45.341 L53.816,45.971 C53.816,46.083 53.788,46.181 53.732,46.266 L54.167,46.280 C54.223,46.069 54.391,45.887 54.657,45.887 C54.699,45.887 54.727,45.901 54.769,45.901 ZM49.152,49.893 C49.166,50.202 49.334,50.314 49.726,50.328 C50.371,50.342 51.085,50.342 51.813,50.342 C52.542,50.342 53.284,50.342 53.957,50.328 C54.307,50.314 54.503,50.202 54.517,49.893 L54.517,49.725 L49.152,49.725 L49.152,49.893 ZM49.124,48.997 L54.545,48.997 L54.545,48.423 L49.124,48.423 L49.124,48.997 ZM48.339,43.940 C48.031,43.940 47.863,43.940 47.863,44.290 C47.863,44.473 47.961,44.543 48.213,44.543 L49.614,44.543 C49.698,44.361 49.754,44.164 49.796,43.940 L48.339,43.940 ZM49.642,46.280 C50.623,46.266 51.603,46.266 52.626,46.266 C52.570,46.181 52.556,46.083 52.556,45.971 L52.556,45.341 L50.511,45.341 C50.301,45.691 50.006,46.013 49.642,46.280 ZM47.756,70.464 C47.532,71.599 46.692,74.890 47.028,76.193 C47.070,76.375 47.126,76.333 47.182,76.207 C47.210,76.137 47.364,75.857 47.420,75.759 C47.854,75.073 48.723,75.745 48.401,76.305 C47.882,77.216 47.658,77.860 47.574,78.266 C47.490,78.644 47.658,79.079 47.308,79.387 C46.958,79.695 46.440,79.639 46.159,78.953 C45.039,76.193 46.145,72.047 46.397,70.380 C46.552,69.343 47.910,69.652 47.756,70.464 ZM43.349,18.301 C43.943,18.389 44.229,18.873 44.229,19.357 C44.229,19.929 43.833,20.545 43.063,20.545 C43.019,20.545 35.890,20.083 33.448,12.470 L31.181,12.470 L31.181,17.486 C32.172,17.178 33.096,16.848 33.822,16.540 C33.998,16.474 34.152,16.430 34.306,16.430 C34.900,16.430 35.340,16.870 35.340,17.354 C35.340,17.707 35.120,18.081 34.548,18.323 C31.336,19.709 27.221,20.655 26.627,20.655 C25.835,20.655 25.439,20.127 25.439,19.577 C25.439,19.115 25.747,18.653 26.429,18.543 C27.287,18.411 28.189,18.257 29.025,18.059 L29.025,12.470 L26.011,12.470 C25.373,12.470 25.065,12.030 25.065,11.590 C25.065,11.128 25.395,10.643 26.011,10.643 L29.025,10.643 C29.003,9.939 29.003,9.191 29.003,8.421 C29.003,7.189 29.025,5.935 29.047,4.857 C29.091,2.986 29.861,2.018 31.886,1.996 C33.492,1.974 35.340,1.952 37.144,1.952 C38.311,1.952 39.477,1.974 40.511,1.996 C41.215,2.018 41.545,2.480 41.545,2.920 C41.545,3.404 41.193,3.867 40.533,3.867 C40.511,3.867 40.511,3.867 40.489,3.867 C39.301,3.845 37.980,3.823 36.682,3.823 C35.098,3.823 33.536,3.845 32.216,3.867 C31.446,3.889 31.203,4.307 31.181,4.945 L31.181,5.011 L39.829,5.011 C40.401,5.011 40.665,5.407 40.665,5.803 C40.665,6.221 40.401,6.617 39.829,6.617 L31.137,6.617 L31.137,7.827 L39.829,7.827 C40.401,7.827 40.665,8.223 40.665,8.619 C40.665,9.037 40.401,9.433 39.829,9.433 L31.137,9.433 L31.137,10.643 L43.195,10.643 C43.811,10.643 44.097,11.106 44.097,11.546 C44.097,12.008 43.811,12.470 43.195,12.470 L35.560,12.470 C35.846,13.328 36.264,14.098 36.748,14.758 C37.914,14.318 39.037,13.702 40.137,12.976 C40.335,12.844 40.511,12.800 40.709,12.800 C41.303,12.800 41.809,13.350 41.809,13.922 C41.809,14.318 41.787,14.912 38.046,16.144 C39.411,17.266 41.193,17.971 43.349,18.301 ZM26.842,43.016 C26.842,43.338 26.632,43.660 26.211,43.660 L21.281,43.632 L16.364,43.660 C15.916,43.660 15.692,43.338 15.692,43.016 C15.692,42.708 15.916,42.385 16.364,42.385 L20.594,42.399 L20.580,41.335 L20.580,41.321 C20.580,40.901 20.931,40.691 21.295,40.691 C21.659,40.691 22.023,40.901 22.023,41.335 L22.023,42.399 L26.211,42.385 C26.632,42.385 26.842,42.708 26.842,43.016 ZM19.620,19.621 L8.816,19.621 C8.134,19.621 7.804,19.115 7.804,18.631 C7.804,18.125 8.134,17.641 8.816,17.641 L13.173,17.663 L13.151,9.983 L10.291,10.005 C9.609,10.005 9.279,9.499 9.279,9.015 C9.279,8.509 9.609,8.025 10.269,8.025 L10.291,8.025 L13.151,8.047 L13.151,2.546 C13.151,1.864 13.701,1.534 14.273,1.534 C14.823,1.534 15.373,1.864 15.373,2.546 L15.351,8.069 L18.542,8.025 L18.564,8.025 C19.246,8.025 19.598,8.509 19.598,9.015 C19.598,9.499 19.246,10.005 18.542,10.005 L15.351,9.983 L15.351,17.663 L19.620,17.641 C20.324,17.641 20.676,18.147 20.676,18.631 C20.676,19.137 20.324,19.621 19.620,19.621 ZM6.814,19.665 L6.814,19.687 C6.814,20.303 6.286,20.589 5.758,20.589 C5.208,20.589 4.658,20.281 4.658,19.687 L4.658,19.665 L4.768,12.624 C3.998,13.284 2.700,14.208 2.062,14.208 C1.423,14.208 0.939,13.724 0.939,13.196 C0.939,12.866 1.137,12.536 1.577,12.294 C5.538,10.159 7.100,6.617 7.100,6.485 C7.100,6.265 6.770,6.243 6.616,6.243 C6.484,6.243 6.352,6.243 6.220,6.243 C4.966,6.243 4.020,6.331 2.656,6.353 L2.634,6.353 C1.974,6.353 1.621,5.869 1.621,5.407 C1.621,4.945 1.952,4.461 2.612,4.461 C3.294,4.439 3.976,4.439 4.658,4.417 L4.636,2.216 C4.636,1.556 5.186,1.226 5.714,1.226 C6.264,1.226 6.814,1.556 6.814,2.216 L6.814,4.395 L7.540,4.395 C8.816,4.417 9.433,5.033 9.433,5.869 C9.433,7.013 7.760,9.367 6.704,10.621 C6.726,14.032 6.814,19.665 6.814,19.665 ZM2.512,45.551 C3.254,45.551 3.842,46.167 3.842,46.896 C3.842,47.624 3.254,48.241 2.512,48.241 C1.783,48.241 1.181,47.624 1.181,46.896 C1.181,46.167 1.783,45.551 2.512,45.551 ZM2.512,72.551 C3.254,72.551 3.842,73.167 3.842,73.896 C3.842,74.624 3.254,75.241 2.512,75.241 C1.783,75.241 1.181,74.624 1.181,73.896 C1.181,73.167 1.783,72.551 2.512,72.551 ZM10.832,75.241 C10.090,75.241 9.501,74.624 9.501,73.896 C9.501,73.167 10.090,72.551 10.832,72.551 C11.560,72.551 12.177,73.167 12.177,73.896 C12.177,74.624 11.560,75.241 10.832,75.241 ZM5.971,74.078 C6.027,74.022 6.055,73.966 6.055,73.896 C6.055,73.826 6.027,73.756 5.957,73.686 C4.290,72.005 2.652,70.394 1.643,69.441 C1.559,69.371 1.531,69.287 1.531,69.189 C1.531,68.965 1.755,68.741 1.979,68.741 C2.063,68.741 2.161,68.769 2.231,68.853 C3.184,69.848 4.795,71.501 6.462,73.181 C6.518,73.252 6.602,73.280 6.672,73.280 C6.742,73.280 6.812,73.252 6.868,73.195 C8.549,71.515 10.146,69.862 11.112,68.853 C11.182,68.769 11.280,68.741 11.364,68.741 C11.588,68.741 11.813,68.965 11.813,69.189 C11.813,69.273 11.785,69.371 11.700,69.441 C10.678,70.408 9.025,72.047 7.330,73.742 C7.302,73.770 7.274,73.826 7.274,73.882 C7.274,73.938 7.302,74.008 7.358,74.064 C9.039,75.745 10.678,77.370 11.700,78.350 C11.771,78.420 11.813,78.504 11.813,78.602 C11.813,78.827 11.602,79.051 11.378,79.051 C11.294,79.051 11.210,79.023 11.126,78.939 C6.910,74.610 6.812,74.512 6.686,74.512 C6.630,74.512 6.574,74.540 6.518,74.596 C4.851,76.277 3.198,77.930 2.217,78.939 C2.133,79.023 2.049,79.051 1.965,79.051 C1.741,79.051 1.531,78.827 1.531,78.602 C1.531,78.504 1.573,78.420 1.643,78.350 C2.666,77.370 4.290,75.745 5.971,74.078 ZM6.672,76.725 C7.400,76.725 8.016,77.314 8.016,78.056 C8.016,78.785 7.400,79.387 6.672,79.387 C5.943,79.387 5.327,78.785 5.327,78.056 C5.327,77.314 5.943,76.725 6.672,76.725 ZM10.832,48.241 C10.090,48.241 9.501,47.624 9.501,46.896 C9.501,46.167 10.090,45.551 10.832,45.551 C11.560,45.551 12.177,46.167 12.177,46.896 C12.177,47.624 11.560,48.241 10.832,48.241 ZM6.672,68.391 C7.400,68.391 8.016,69.007 8.016,69.736 C8.016,70.478 7.400,71.066 6.672,71.066 C5.943,71.066 5.327,70.478 5.327,69.736 C5.327,69.007 5.943,68.391 6.672,68.391 ZM6.672,49.725 C7.400,49.725 8.016,50.314 8.016,51.056 C8.016,51.785 7.400,52.387 6.672,52.387 C5.943,52.387 5.327,51.785 5.327,51.056 C5.327,50.314 5.943,49.725 6.672,49.725 ZM11.364,41.741 C11.588,41.741 11.813,41.965 11.813,42.189 C11.813,42.273 11.785,42.371 11.700,42.441 C10.678,43.408 9.025,45.047 7.330,46.742 C7.302,46.770 7.274,46.826 7.274,46.882 C7.274,46.938 7.302,47.008 7.358,47.064 C9.039,48.745 10.678,50.370 11.700,51.350 C11.771,51.420 11.813,51.504 11.813,51.602 C11.813,51.827 11.602,52.051 11.378,52.051 C11.294,52.051 11.210,52.023 11.126,51.939 C6.910,47.610 6.812,47.512 6.686,47.512 C6.630,47.512 6.574,47.540 6.518,47.596 C4.851,49.277 3.198,50.930 2.217,51.939 C2.133,52.023 2.049,52.051 1.965,52.051 C1.741,52.051 1.531,51.827 1.531,51.602 C1.531,51.504 1.573,51.420 1.643,51.350 C2.666,50.370 4.290,48.745 5.971,47.078 C6.027,47.022 6.055,46.966 6.055,46.896 C6.055,46.826 6.027,46.756 5.957,46.686 C4.290,45.005 2.652,43.394 1.643,42.441 C1.559,42.371 1.531,42.287 1.531,42.189 C1.531,41.965 1.755,41.741 1.979,41.741 C2.063,41.741 2.161,41.769 2.231,41.853 C3.184,42.848 4.795,44.501 6.462,46.181 C6.518,46.252 6.602,46.280 6.672,46.280 C6.742,46.280 6.812,46.252 6.868,46.195 C8.549,44.515 10.146,42.862 11.112,41.853 C11.182,41.769 11.280,41.741 11.364,41.741 ZM8.134,10.423 C8.552,10.423 10.907,11.634 10.907,12.712 C10.907,13.328 10.379,13.878 9.829,13.878 C9.587,13.878 9.345,13.768 9.147,13.482 C8.684,12.822 8.002,12.272 7.452,11.964 C7.210,11.832 7.100,11.612 7.100,11.414 C7.100,10.930 7.584,10.423 8.134,10.423 ZM6.672,44.066 C5.943,44.066 5.327,43.478 5.327,42.736 C5.327,42.007 5.943,41.391 6.672,41.391 C7.400,41.391 8.016,42.007 8.016,42.736 C8.016,43.478 7.400,44.066 6.672,44.066 ZM16.910,47.456 C16.462,47.456 16.154,47.092 16.154,46.728 C16.154,46.476 16.294,46.238 16.630,46.111 C17.597,45.747 18.507,45.047 19.152,44.206 C19.292,44.024 19.460,43.954 19.628,43.954 C19.992,43.954 20.356,44.304 20.356,44.697 C20.356,44.823 20.314,44.963 20.202,45.103 C19.432,46.041 17.569,47.456 16.910,47.456 ZM25.035,46.798 C24.376,46.125 23.522,45.551 22.668,45.159 C22.401,45.033 22.289,44.823 22.289,44.627 C22.289,44.304 22.569,43.982 22.976,43.982 C23.382,43.982 25.231,44.851 26.085,45.705 C26.267,45.887 26.337,46.083 26.337,46.280 C26.337,46.686 26.001,47.064 25.595,47.064 C25.413,47.064 25.217,46.980 25.035,46.798 ZM27.234,52.191 C27.234,52.583 26.912,52.989 26.394,52.989 C26.323,52.989 23.648,52.737 21.365,50.664 C18.984,52.835 16.224,53.157 16.140,53.157 C15.636,53.157 15.328,52.779 15.328,52.429 C15.328,52.149 15.524,51.883 15.958,51.813 C17.793,51.532 19.362,50.776 20.496,49.739 C20.104,49.263 19.768,48.759 19.502,48.227 C18.801,48.969 18.563,49.081 18.353,49.081 C17.989,49.081 17.667,48.787 17.667,48.451 C17.667,48.255 17.765,48.059 18.017,47.890 C18.535,47.540 18.998,47.022 19.166,46.658 C19.250,46.462 19.460,46.378 19.670,46.378 C19.992,46.378 20.342,46.588 20.342,46.910 C20.342,46.966 20.342,47.022 20.314,47.078 C20.300,47.106 20.286,47.148 20.272,47.190 C20.524,47.806 20.861,48.367 21.295,48.885 C21.785,48.255 22.135,47.554 22.331,46.826 C22.429,46.448 22.696,46.308 22.962,46.308 C23.326,46.308 23.704,46.574 23.704,46.952 C23.704,47.176 23.326,48.423 22.205,49.781 C23.312,50.664 24.783,51.294 26.632,51.574 C27.052,51.644 27.234,51.911 27.234,52.191 ZM15.622,75.143 L20.776,75.143 L20.776,74.554 C19.460,74.554 18.129,74.568 17.219,74.582 L17.205,74.582 C16.896,74.582 16.742,74.344 16.742,74.106 C16.742,73.854 16.910,73.602 17.275,73.588 C18.269,73.574 19.530,73.574 20.776,73.574 L20.776,73.083 C17.429,73.083 17.120,73.055 17.120,71.809 C17.120,70.884 17.289,70.450 18.577,70.450 C19.110,70.450 19.922,70.436 20.776,70.436 L20.776,69.890 L16.546,69.904 C16.168,69.904 15.972,69.624 15.972,69.343 C15.972,69.063 16.168,68.783 16.546,68.783 L20.776,68.797 L20.762,68.223 C20.762,67.803 21.085,67.592 21.407,67.592 C21.729,67.592 22.037,67.803 22.037,68.223 L22.037,68.797 L26.197,68.783 C26.590,68.783 26.772,69.063 26.772,69.343 C26.772,69.624 26.590,69.904 26.197,69.904 L22.037,69.890 L22.037,70.436 C22.892,70.436 23.704,70.436 24.250,70.450 C25.147,70.464 25.539,70.716 25.581,71.290 C25.595,71.445 25.609,71.599 25.609,71.739 C25.609,71.893 25.595,72.033 25.581,72.173 C25.483,73.069 25.091,73.083 22.037,73.083 L22.037,73.588 C22.864,73.588 23.648,73.588 24.320,73.602 C25.217,73.616 25.749,73.910 25.777,74.610 C25.777,74.736 25.791,74.890 25.791,75.073 L27.080,75.073 C27.444,75.073 27.626,75.367 27.626,75.661 C27.626,75.955 27.444,76.249 27.080,76.249 L25.805,76.249 C25.805,77.076 25.707,77.818 24.334,77.818 C23.606,77.818 22.836,77.832 22.037,77.832 L22.051,78.476 L22.051,78.490 C22.051,79.331 21.337,80.115 19.908,80.115 C19.460,80.115 18.437,80.101 18.437,79.373 C18.437,79.051 18.661,78.742 19.054,78.742 C19.124,78.742 19.194,78.757 19.264,78.771 C19.502,78.827 19.768,78.869 20.006,78.869 C20.426,78.869 20.762,78.728 20.762,78.210 L20.776,77.846 C19.558,77.846 18.325,77.846 17.205,77.832 C16.854,77.832 16.672,77.566 16.672,77.314 C16.672,77.048 16.854,76.795 17.205,76.795 L17.219,76.795 C18.255,76.809 19.516,76.823 20.776,76.823 L20.776,76.193 L15.622,76.193 C15.299,76.193 15.131,75.927 15.131,75.661 C15.131,75.409 15.299,75.143 15.622,75.143 ZM20.776,71.346 C20.020,71.346 19.320,71.361 18.885,71.361 C18.591,71.361 18.479,71.431 18.451,71.557 C18.451,71.557 18.451,71.557 18.451,71.865 C18.451,72.103 18.787,72.117 20.776,72.117 L20.776,71.346 ZM22.037,76.823 C22.766,76.823 23.466,76.809 24.110,76.795 C24.362,76.795 24.530,76.655 24.544,76.403 C24.544,76.333 24.559,76.263 24.559,76.193 L22.037,76.193 L22.037,76.823 ZM22.037,75.143 L24.559,75.143 L24.544,74.960 C24.530,74.708 24.362,74.582 24.110,74.582 C23.536,74.568 22.822,74.568 22.037,74.568 L22.037,75.143 ZM22.037,72.117 C24.250,72.117 24.292,72.117 24.292,71.711 C24.292,71.487 24.222,71.361 23.830,71.361 C23.424,71.361 22.766,71.346 22.037,71.346 L22.037,72.117 ZM22.100,89.592 C22.464,89.592 22.828,89.817 22.828,90.265 L22.828,91.259 C23.921,91.259 24.999,91.273 26.064,91.287 C26.820,91.301 27.591,91.890 27.619,92.702 C27.633,92.912 27.633,93.164 27.633,93.403 C27.633,93.907 27.633,94.495 26.890,94.495 C26.554,94.495 26.218,94.299 26.218,93.907 C26.218,93.893 26.218,93.893 26.218,93.879 C26.218,92.562 26.204,92.436 25.336,92.408 C24.229,92.394 22.940,92.380 21.694,92.380 C20.671,92.380 19.676,92.394 18.822,92.408 C18.052,92.422 17.940,92.618 17.897,93.136 C17.897,93.136 17.897,93.136 17.897,93.921 L17.897,93.935 C17.897,94.327 17.547,94.537 17.211,94.537 C16.875,94.537 16.553,94.341 16.539,93.907 C16.539,93.725 16.525,93.515 16.525,93.304 C16.525,93.080 16.539,92.856 16.539,92.632 C16.567,91.974 17.071,91.301 18.150,91.287 C19.214,91.273 20.293,91.259 21.371,91.259 L21.371,90.265 C21.371,89.817 21.736,89.592 22.100,89.592 ZM16.791,100.869 C19.060,100.546 20.321,99.762 20.923,98.683 L17.113,98.739 L17.099,98.739 C16.707,98.739 16.511,98.459 16.511,98.165 C16.511,97.871 16.721,97.563 17.113,97.563 L21.315,97.577 C21.371,97.283 21.399,96.988 21.399,96.680 L18.710,96.694 C18.318,96.694 18.136,96.428 18.136,96.162 C18.136,95.882 18.332,95.602 18.710,95.602 L21.413,95.616 C21.413,95.336 21.427,95.055 21.427,94.775 L18.514,94.789 C18.108,94.789 17.912,94.523 17.912,94.243 C17.912,93.949 18.122,93.655 18.514,93.655 L21.413,93.669 C21.413,93.487 21.413,93.304 21.399,93.122 C21.399,93.108 21.399,93.108 21.399,93.094 C21.399,92.730 21.722,92.548 22.058,92.548 C22.408,92.548 22.758,92.744 22.772,93.108 C22.786,93.290 22.786,93.473 22.786,93.669 L25.630,93.655 C26.008,93.655 26.204,93.935 26.204,94.229 C26.204,94.509 26.008,94.789 25.630,94.789 L22.786,94.775 C22.786,95.055 22.772,95.350 22.758,95.616 L25.434,95.602 C25.798,95.602 25.980,95.882 25.980,96.148 C25.980,96.428 25.798,96.694 25.434,96.694 L22.744,96.680 C22.744,96.988 22.702,97.297 22.660,97.577 L27.058,97.563 C27.451,97.563 27.647,97.857 27.647,98.165 C27.647,98.445 27.451,98.739 27.072,98.739 L27.058,98.739 L23.066,98.669 C23.781,99.650 25.308,100.546 27.311,100.686 C27.759,100.714 27.969,101.009 27.969,101.317 C27.969,101.681 27.689,102.073 27.185,102.073 C26.722,102.073 23.725,101.653 22.086,99.286 C20.601,101.877 16.959,102.143 16.945,102.143 C16.497,102.143 16.259,101.807 16.259,101.471 C16.259,101.191 16.427,100.925 16.791,100.869 ZM30.876,69.820 L30.890,69.820 L33.902,69.848 C33.678,69.469 33.398,69.175 33.090,68.853 C32.991,68.741 32.949,68.643 32.949,68.531 C32.949,68.223 33.300,67.957 33.664,67.957 C34.266,67.957 35.261,69.259 35.261,69.708 C35.261,69.764 35.247,69.806 35.233,69.862 L36.886,69.862 C37.222,69.413 37.530,68.755 37.712,68.265 C37.838,67.957 38.076,67.831 38.328,67.831 C38.707,67.831 39.099,68.125 39.099,68.503 C39.099,68.573 39.099,68.895 38.300,69.862 L41.298,69.820 L41.312,69.820 C41.718,69.820 41.928,70.128 41.928,70.436 C41.928,70.758 41.718,71.066 41.298,71.066 L30.890,71.066 C30.470,71.066 30.260,70.758 30.260,70.436 C30.260,70.128 30.470,69.820 30.876,69.820 ZM32.431,79.709 C32.431,80.059 32.123,80.227 31.815,80.227 C31.507,80.227 31.185,80.045 31.170,79.695 C31.170,78.981 31.156,77.720 31.156,76.417 C31.156,75.129 31.170,73.798 31.170,72.957 C31.170,71.683 32.179,71.683 33.524,71.683 C33.902,71.683 34.266,71.697 34.574,71.711 C35.303,71.753 35.807,72.159 35.821,72.929 C35.835,73.195 35.835,74.050 35.835,74.890 C35.835,75.731 35.835,76.557 35.835,76.795 C35.849,77.048 35.849,77.342 35.849,77.622 C35.849,77.902 35.849,78.182 35.849,78.392 C35.849,78.406 35.849,78.420 35.849,78.434 C35.849,79.149 35.499,80.045 34.140,80.045 C33.062,80.045 32.935,79.653 32.935,79.373 C32.935,79.051 33.160,78.742 33.524,78.742 C33.566,78.742 33.608,78.742 33.650,78.757 C33.804,78.785 33.944,78.813 34.084,78.813 C34.364,78.813 34.574,78.672 34.588,78.070 C34.588,77.776 34.602,77.426 34.602,77.034 L32.417,77.034 C32.417,78.126 32.417,79.135 32.431,79.695 L32.431,79.709 ZM34.560,73.238 C34.560,72.873 34.350,72.775 33.650,72.775 C32.585,72.775 32.431,72.887 32.431,73.238 L32.431,73.882 L34.574,73.882 C34.574,73.644 34.560,73.420 34.560,73.238 ZM34.602,75.983 C34.602,75.619 34.588,75.269 34.588,74.918 L32.417,74.918 L32.417,75.983 L34.602,75.983 ZM33.003,93.150 L32.023,93.164 L32.009,93.164 C31.603,93.164 31.392,92.856 31.392,92.548 C31.392,92.240 31.603,91.932 32.009,91.932 L32.023,91.932 L33.368,91.960 L33.354,90.391 C33.354,89.957 33.690,89.747 34.040,89.747 C34.376,89.747 34.726,89.957 34.726,90.391 L34.726,91.960 L36.029,91.932 L36.043,91.932 C36.449,91.932 36.631,92.226 36.631,92.534 C36.631,92.842 36.421,93.164 36.029,93.164 L36.015,93.164 L34.250,93.136 C34.222,93.557 34.194,93.991 34.166,94.425 C34.334,94.411 34.502,94.411 34.670,94.411 C35.511,94.411 36.253,94.495 36.253,95.658 C36.253,95.686 36.253,95.714 36.253,95.742 C36.169,98.627 36.043,101.723 33.914,101.723 C33.704,101.723 32.681,101.681 32.681,100.925 C32.681,100.897 32.681,100.869 32.681,100.841 C32.289,101.527 32.023,101.933 31.589,101.933 C31.224,101.933 30.874,101.653 30.874,101.317 C30.874,101.191 30.916,101.079 31.014,100.953 C32.541,99.048 32.863,95.910 33.003,93.150 ZM33.213,100.308 C33.283,100.308 33.382,100.322 33.466,100.364 C33.620,100.434 33.746,100.462 33.872,100.462 C34.138,100.462 34.964,100.434 35.020,95.994 C35.020,95.700 34.866,95.560 34.642,95.546 C34.642,95.546 34.642,95.546 34.068,95.546 C33.886,97.269 33.564,99.006 32.905,100.406 C32.975,100.350 33.087,100.308 33.213,100.308 ZM37.558,77.720 C37.236,77.720 36.914,77.524 36.914,77.146 L36.914,72.607 C36.914,72.201 37.222,71.991 37.544,71.991 C37.866,71.991 38.188,72.201 38.188,72.607 L38.188,77.146 C38.188,77.524 37.866,77.720 37.558,77.720 ZM40.233,71.431 C40.570,71.431 40.906,71.641 40.906,72.061 C40.906,72.061 40.906,72.061 40.906,76.585 L40.934,78.252 C40.934,78.266 40.934,78.266 40.934,78.280 C40.934,79.093 40.458,80.059 38.819,80.059 C37.600,80.059 37.208,79.821 37.208,79.247 C37.208,78.925 37.418,78.602 37.768,78.602 C37.824,78.602 37.866,78.602 37.922,78.616 C38.188,78.672 38.524,78.771 38.819,78.771 C39.211,78.771 39.547,78.616 39.561,78.028 C39.575,77.510 39.575,75.241 39.575,73.602 C39.575,72.915 39.575,72.355 39.575,72.061 C39.575,71.641 39.911,71.431 40.233,71.431 ZM43.467,92.268 C43.467,92.576 43.271,92.884 42.865,92.884 L38.200,92.884 C37.472,94.159 37.178,94.551 36.729,94.551 C36.393,94.551 36.071,94.299 36.071,93.963 C36.071,93.837 36.127,93.683 36.239,93.543 C37.066,92.520 37.612,91.371 38.032,90.209 C38.130,89.929 38.368,89.803 38.606,89.803 C38.957,89.803 39.293,90.041 39.293,90.405 C39.293,90.671 38.873,91.568 38.816,91.680 L42.865,91.652 C43.271,91.652 43.467,91.960 43.467,92.268 ZM33.231,44.136 C33.063,44.136 32.881,44.052 32.755,43.842 C32.390,43.282 31.774,42.848 31.382,42.624 C31.186,42.512 31.102,42.357 31.102,42.189 C31.102,41.881 31.438,41.559 31.816,41.559 C32.236,41.559 33.987,42.638 33.987,43.352 C33.987,43.758 33.609,44.136 33.231,44.136 ZM42.140,51.560 C42.574,51.560 42.812,51.897 42.812,52.233 C42.812,52.555 42.602,52.877 42.112,52.919 C41.243,53.003 39.954,53.087 38.666,53.087 C35.402,53.087 34.379,52.611 33.161,51.364 C32.460,52.149 31.592,53.031 31.046,53.031 C30.639,53.031 30.275,52.667 30.275,52.289 C30.275,52.093 30.373,51.897 30.625,51.757 C31.382,51.336 32.026,50.860 32.502,50.300 C32.516,49.669 32.530,49.123 32.530,48.591 C32.530,48.395 32.530,48.213 32.530,48.016 C32.530,47.652 32.362,47.610 31.886,47.610 C31.690,47.610 31.522,47.610 31.340,47.610 C31.074,47.610 30.569,47.596 30.569,47.008 C30.569,46.700 30.779,46.378 31.158,46.378 C31.662,46.378 32.054,46.378 32.516,46.392 C33.413,46.420 33.833,46.812 33.833,47.708 C33.833,48.521 33.805,49.487 33.805,50.384 C34.688,51.504 36.130,51.799 38.077,51.799 C39.478,51.799 41.005,51.644 42.070,51.560 C42.098,51.560 42.112,51.560 42.140,51.560 ZM41.845,45.607 C41.845,47.904 41.859,48.549 41.901,49.305 C41.901,49.347 41.901,49.389 41.901,49.431 C41.901,50.286 41.425,51.042 40.389,51.042 C39.926,51.042 39.380,50.916 39.380,50.342 C39.380,50.076 39.548,49.809 39.842,49.809 C39.884,49.809 39.926,49.809 39.968,49.823 C40.066,49.851 40.165,49.865 40.263,49.865 C40.487,49.865 40.655,49.725 40.655,49.123 L40.655,48.661 L38.974,48.661 L38.974,50.636 C38.974,51.000 38.680,51.182 38.372,51.182 C38.077,51.182 37.783,51.000 37.783,50.636 L37.783,48.661 L36.158,48.661 C36.158,49.291 36.158,49.950 36.172,50.608 L36.172,50.622 C36.172,51.000 35.878,51.182 35.570,51.182 C35.276,51.182 34.968,50.986 34.954,50.608 C34.940,49.781 34.940,48.969 34.940,48.171 C34.940,47.092 34.940,46.055 34.954,45.089 C34.968,44.234 35.416,43.814 36.396,43.814 C36.775,43.814 37.139,43.800 37.517,43.800 C37.307,43.674 37.125,43.590 37.013,43.548 C36.831,43.478 36.761,43.352 36.761,43.212 C36.761,42.946 37.055,42.652 37.377,42.652 C37.685,42.652 38.330,43.072 38.372,43.100 C38.666,42.960 39.590,42.455 39.590,42.357 C39.590,42.315 39.548,42.301 39.464,42.301 C38.470,42.301 36.565,42.329 35.458,42.371 C35.444,42.371 35.444,42.371 35.430,42.371 C35.108,42.371 34.954,42.105 34.954,41.839 C34.954,41.559 35.122,41.279 35.444,41.279 C36.915,41.237 38.638,41.237 40.010,41.237 C40.865,41.237 41.341,41.643 41.341,42.091 C41.341,42.483 40.991,42.932 39.240,43.786 C41.383,43.786 41.845,43.856 41.845,45.607 ZM37.783,44.795 C36.298,44.795 36.172,44.795 36.172,45.257 L36.158,45.747 L37.783,45.747 L37.783,44.795 ZM37.783,46.700 L36.158,46.700 C36.158,47.022 36.144,47.358 36.144,47.708 L37.783,47.708 L37.783,46.700 ZM40.627,45.257 C40.613,45.005 40.487,44.823 40.150,44.809 C39.758,44.795 39.366,44.795 38.974,44.795 L38.974,45.747 L40.641,45.747 C40.641,45.565 40.627,45.397 40.627,45.257 ZM40.655,46.700 L38.974,46.700 L38.974,47.708 L40.669,47.708 C40.669,47.386 40.655,47.036 40.655,46.700 ZM37.388,96.176 C37.388,95.658 37.402,95.167 37.402,94.677 C37.402,94.285 37.710,94.103 38.004,94.103 C38.298,94.103 38.592,94.285 38.592,94.649 L38.592,94.663 C38.592,94.957 38.578,95.280 38.578,95.602 L39.531,95.153 L39.531,93.781 C39.531,93.417 39.825,93.234 40.133,93.234 C40.427,93.234 40.722,93.417 40.722,93.781 L40.722,94.579 L41.128,94.383 C41.338,94.271 41.576,94.229 41.800,94.229 C42.949,94.229 42.977,95.280 42.977,95.756 C42.977,96.316 42.921,96.988 42.879,97.507 C42.753,98.823 42.248,99.272 41.380,99.272 C40.988,99.272 40.876,99.244 40.722,99.118 L40.722,99.468 C40.722,99.804 40.427,99.972 40.133,99.972 C39.825,99.972 39.531,99.804 39.531,99.468 L39.531,96.330 C39.209,96.498 38.887,96.666 38.578,96.820 C38.578,98.011 38.578,99.216 38.592,100.028 C38.592,100.630 38.929,100.658 40.133,100.658 C41.884,100.658 42.556,100.658 42.556,99.398 C42.556,98.992 42.837,98.809 43.131,98.809 C43.327,98.809 43.803,98.893 43.803,99.496 C43.803,100.827 43.145,101.667 41.772,101.821 C41.450,101.849 40.932,101.863 40.399,101.863 C38.382,101.863 37.416,101.821 37.388,100.336 C37.374,99.412 37.374,98.417 37.374,97.423 L37.038,97.591 C36.939,97.633 36.855,97.661 36.771,97.661 C36.463,97.661 36.239,97.367 36.239,97.073 C36.239,96.890 36.323,96.708 36.547,96.596 L37.388,96.176 ZM40.722,98.137 C40.792,98.081 40.862,98.053 40.960,98.053 C40.988,98.053 41.044,98.053 41.086,98.067 C41.170,98.095 41.240,98.109 41.310,98.109 C41.450,98.109 41.786,98.039 41.786,96.120 C41.786,95.420 41.716,95.378 41.576,95.378 C41.534,95.378 41.492,95.392 41.436,95.420 C41.254,95.504 41.016,95.616 40.722,95.756 L40.722,98.137 ZM53.962,72.327 C52.953,72.117 51.888,72.075 50.712,72.369 C49.941,72.565 49.493,71.318 50.516,71.066 C51.762,70.758 53.219,70.744 54.200,70.982 C55.180,71.220 54.914,72.537 53.962,72.327 ZM54.718,78.714 C53.219,79.093 50.922,79.051 49.913,77.958 C49.339,77.328 50.180,76.333 50.908,76.992 C51.664,77.678 53.345,77.454 54.438,77.230 C55.572,76.992 55.642,78.476 54.718,78.714 ZM47.129,93.234 C47.689,93.136 48.600,93.038 49.188,92.940 C49.889,92.828 51.149,92.674 52.382,92.562 C52.382,92.478 52.382,92.380 52.382,92.310 C52.396,91.441 52.312,91.385 52.312,90.937 C52.312,89.915 53.727,90.013 53.783,90.895 C53.797,91.217 53.755,91.862 53.727,92.240 C53.727,92.310 53.713,92.380 53.713,92.450 C54.119,92.422 54.483,92.408 54.791,92.408 C55.478,92.408 55.968,92.394 56.920,92.408 C58.097,92.436 58.041,93.921 56.920,93.837 C55.926,93.753 55.590,93.753 54.721,93.739 C54.399,93.739 54.063,93.753 53.699,93.767 C53.713,94.215 53.727,94.649 53.727,95.055 C53.727,95.252 53.755,95.546 53.769,95.854 C55.015,97.815 53.531,100.785 52.046,101.975 C51.107,102.718 49.889,101.723 51.107,100.855 C51.780,100.378 52.368,99.594 52.704,98.795 C51.780,99.272 50.561,99.006 50.113,97.745 C49.622,96.386 50.379,95.378 51.233,95.111 C51.640,94.985 52.060,94.929 52.438,94.985 C52.424,94.677 52.410,94.257 52.396,93.851 C51.219,93.963 50.057,94.131 49.328,94.243 C48.320,94.397 47.661,94.579 47.241,94.649 C46.303,94.817 46.023,93.417 47.129,93.234 ZM51.570,96.218 C51.233,96.372 51.009,96.806 51.163,97.283 C51.415,98.039 52.634,98.039 52.774,97.044 C52.816,96.750 52.774,96.624 52.690,96.512 C52.620,96.428 52.550,96.344 52.466,96.274 C52.270,96.106 51.864,96.078 51.570,96.218 ZM59.460,77.300 C59.950,77.300 62.191,78.532 62.191,79.485 C62.191,79.933 61.813,80.255 61.435,80.255 C61.239,80.255 61.043,80.157 60.903,79.947 C60.553,79.429 59.782,78.785 59.180,78.476 C58.914,78.336 58.802,78.126 58.802,77.916 C58.802,77.594 59.054,77.300 59.460,77.300 ZM66.043,92.786 C66.197,92.590 66.057,92.646 65.945,92.702 C65.553,92.912 64.629,93.192 63.592,93.417 C62.485,93.655 62.275,92.268 63.228,92.156 C64.166,92.044 65.511,91.708 66.309,91.469 C67.430,91.147 68.355,92.142 67.654,92.926 C67.206,93.431 66.646,93.977 66.085,94.495 C65.525,95.013 64.965,95.518 64.460,96.008 C65.693,95.350 67.360,95.350 68.397,95.966 C70.414,97.171 69.755,99.636 68.285,100.700 C66.898,101.695 64.713,101.751 63.648,101.051 C62.163,100.084 62.822,98.347 64.474,98.291 C65.595,98.249 66.646,98.922 66.688,100.182 C66.954,100.126 67.248,99.958 67.500,99.734 C68.523,98.823 68.481,97.493 67.682,96.960 C66.954,96.470 65.441,96.372 64.026,97.199 C63.466,97.521 63.172,97.773 62.850,98.249 C62.345,98.992 60.945,98.165 61.813,97.311 C63.354,95.784 64.488,94.705 66.043,92.786 ZM64.516,99.314 C63.900,99.370 63.872,99.944 64.320,100.182 C64.643,100.350 65.105,100.406 65.497,100.392 C65.511,99.748 65.133,99.258 64.516,99.314 ZM67.511,76.795 C67.497,76.445 67.497,76.095 67.497,75.773 C67.497,75.437 67.497,75.115 67.511,74.806 C67.539,74.260 67.931,73.700 69.023,73.672 C69.612,73.658 70.438,73.644 71.321,73.644 C72.399,73.644 73.548,73.658 74.444,73.672 C75.271,73.686 75.845,74.204 75.887,74.722 C75.915,75.030 75.929,75.353 75.929,75.675 C75.929,76.039 75.915,76.417 75.887,76.767 C75.845,77.398 75.271,77.930 74.360,77.958 C73.604,77.972 72.946,78.000 72.287,78.000 L72.287,78.280 C72.315,78.827 72.539,78.883 74.136,78.883 C75.691,78.883 76.391,78.855 76.391,77.776 C76.391,77.384 76.700,77.216 77.022,77.216 C77.358,77.216 77.722,77.412 77.722,77.762 C77.722,79.947 75.789,79.961 74.136,79.961 C72.273,79.961 71.069,79.961 71.069,78.420 L71.069,77.986 C70.438,77.986 69.794,77.972 69.066,77.958 C68.057,77.930 67.539,77.468 67.511,76.795 ZM72.287,77.034 C72.876,77.034 73.450,77.020 73.982,77.020 C74.360,77.020 74.585,76.879 74.613,76.515 C74.613,76.417 74.627,76.305 74.627,76.207 L72.287,76.207 L72.287,77.034 ZM74.627,75.339 C74.627,75.255 74.613,75.157 74.613,75.073 C74.599,74.750 74.444,74.596 73.968,74.582 C73.534,74.568 72.932,74.568 72.301,74.568 C72.301,74.764 72.287,75.030 72.287,75.339 L74.627,75.339 ZM71.083,74.568 C70.452,74.568 69.850,74.568 69.388,74.582 C68.799,74.596 68.729,75.002 68.729,75.339 L71.083,75.339 L71.083,74.568 ZM71.069,77.034 L71.083,76.207 L68.729,76.207 C68.729,76.305 68.743,76.417 68.743,76.515 C68.757,76.893 68.981,77.006 69.402,77.020 C69.906,77.034 70.466,77.034 71.069,77.034 ZM75.379,97.157 L75.365,94.117 L74.328,94.117 C73.936,94.117 73.754,93.837 73.754,93.557 C73.754,93.248 73.964,92.940 74.328,92.940 L75.365,92.940 L75.365,90.615 C75.365,90.209 75.687,90.013 76.009,90.013 C76.345,90.013 76.667,90.209 76.667,90.615 L76.667,92.940 L77.620,92.940 C77.984,92.940 78.166,93.234 78.166,93.529 C78.166,93.823 77.984,94.117 77.620,94.117 L76.653,94.117 L76.653,96.638 C76.961,96.498 77.242,96.372 77.508,96.232 C77.578,96.204 77.634,96.176 77.690,96.162 C77.634,96.078 77.606,95.980 77.606,95.882 C77.606,95.602 77.816,95.322 78.194,95.322 L85.506,95.322 C85.884,95.322 86.066,95.588 86.066,95.854 C86.066,96.134 85.884,96.400 85.506,96.400 L80.884,96.400 C80.743,96.624 80.589,96.848 80.435,97.073 C81.248,97.059 82.256,97.059 83.153,97.059 C83.517,97.059 83.867,97.059 84.175,97.059 C85.002,97.073 85.450,97.563 85.450,98.459 C85.450,99.020 85.282,100.196 85.072,100.728 C84.708,101.667 83.951,102.101 83.013,102.101 C82.116,102.101 81.738,101.905 81.738,101.401 C81.738,101.359 81.738,101.317 81.752,101.275 C81.038,101.933 80.379,102.255 80.113,102.255 C79.735,102.255 79.483,101.961 79.483,101.667 C79.483,101.485 79.581,101.289 79.819,101.177 C81.206,100.476 81.990,99.538 82.606,98.039 L81.794,98.039 C80.617,100.210 78.530,101.667 77.858,101.667 C77.480,101.667 77.242,101.359 77.242,101.051 C77.242,100.855 77.340,100.672 77.564,100.574 C78.838,100.028 79.805,99.202 80.505,98.039 C80.211,98.039 79.917,98.053 79.651,98.053 C78.894,98.879 77.494,99.944 77.017,99.944 C76.653,99.944 76.387,99.636 76.387,99.342 C76.387,99.174 76.485,99.006 76.695,98.893 C77.998,98.221 78.810,97.493 79.539,96.400 L78.250,96.400 C78.292,96.484 78.320,96.568 78.320,96.666 C78.320,96.876 78.208,97.101 77.928,97.255 C76.891,97.801 74.664,98.809 74.160,98.809 C73.768,98.809 73.558,98.501 73.558,98.193 C73.558,97.941 73.698,97.675 74.020,97.591 C74.468,97.465 74.930,97.311 75.379,97.157 ZM82.242,100.771 C82.270,100.771 82.298,100.757 82.340,100.757 C82.382,100.757 82.424,100.771 82.480,100.785 C82.676,100.827 82.845,100.855 82.999,100.855 C83.545,100.855 84.063,100.644 84.231,98.571 C84.231,98.543 84.231,98.515 84.231,98.501 C84.231,98.207 84.091,98.067 83.853,98.039 C83.503,99.020 82.943,99.986 82.242,100.771 ZM83.083,94.733 C82.620,94.761 82.102,94.775 81.584,94.775 C79.315,94.775 78.754,94.691 78.754,93.094 C78.754,92.548 78.782,91.904 78.810,91.399 C78.838,90.783 79.301,90.195 80.183,90.167 C80.659,90.153 81.150,90.139 81.626,90.139 C82.116,90.139 82.592,90.153 83.041,90.167 C83.741,90.195 84.343,90.727 84.385,91.301 C84.427,91.750 84.441,92.296 84.441,92.814 C84.441,93.066 84.441,93.318 84.427,93.543 C84.399,94.271 83.881,94.691 83.083,94.733 ZM83.153,91.708 C83.125,91.175 83.041,91.161 81.612,91.161 C80.169,91.161 80.015,91.161 79.987,91.722 L79.973,91.946 L83.167,91.946 L83.153,91.708 ZM83.181,92.926 L79.945,92.926 C79.945,93.753 79.959,93.781 81.528,93.781 C83.041,93.781 83.167,93.739 83.181,93.290 L83.181,92.926 ZM84.426,79.793 C84.132,79.807 83.712,79.821 83.306,79.821 C82.914,79.821 82.507,79.807 82.227,79.793 C81.569,79.751 81.163,79.303 81.149,78.686 C81.135,78.378 81.135,78.084 81.135,77.776 C81.135,77.370 81.135,76.964 81.149,76.613 C81.163,76.081 81.499,75.591 82.199,75.549 C82.521,75.535 82.886,75.521 83.250,75.521 C83.698,75.521 84.132,75.535 84.468,75.549 C85.015,75.577 85.617,75.941 85.631,76.543 C85.645,76.865 85.645,77.244 85.645,77.622 C85.645,77.986 85.645,78.364 85.631,78.672 C85.617,79.303 85.155,79.751 84.426,79.793 ZM84.398,76.964 C84.370,76.599 84.062,76.585 83.348,76.585 C83.152,76.585 82.956,76.585 82.745,76.599 C82.339,76.627 82.339,76.865 82.339,77.650 C82.339,77.902 82.353,78.154 82.353,78.364 C82.367,78.658 82.633,78.700 83.348,78.700 C84.146,78.700 84.384,78.616 84.398,78.350 C84.412,78.154 84.412,77.902 84.412,77.664 C84.412,77.412 84.412,77.160 84.398,76.964 ZM84.819,73.700 C85.211,73.700 85.407,73.980 85.407,74.274 C85.407,74.554 85.211,74.848 84.819,74.848 L81.905,74.848 C81.499,74.848 81.303,74.554 81.303,74.274 C81.303,73.980 81.499,73.700 81.905,73.700 L84.819,73.700 ZM81.905,71.893 L84.819,71.893 C85.211,71.893 85.407,72.173 85.407,72.467 C85.407,72.747 85.211,73.041 84.819,73.041 L81.905,73.041 C81.513,73.041 81.303,72.747 81.303,72.467 C81.303,72.173 81.513,71.893 81.905,71.893 ZM81.877,69.301 C81.485,69.301 81.289,69.021 81.289,68.727 C81.289,68.447 81.485,68.153 81.877,68.153 L84.791,68.153 C85.183,68.153 85.379,68.433 85.379,68.727 C85.379,69.007 85.183,69.301 84.791,69.301 L81.877,69.301 ZM86.149,70.632 C86.149,70.926 85.953,71.220 85.533,71.220 L81.275,71.220 C80.868,71.220 80.672,70.926 80.672,70.632 C80.672,70.338 80.868,70.044 81.275,70.044 L85.533,70.044 C85.953,70.044 86.149,70.338 86.149,70.632 ZM73.324,72.327 L75.509,72.327 C75.845,72.327 75.999,72.537 75.999,72.733 C75.999,72.943 75.845,73.153 75.509,73.153 L73.324,73.153 C72.988,73.153 72.820,72.943 72.820,72.747 C72.820,72.537 72.988,72.327 73.324,72.327 ZM73.324,71.038 L75.313,71.038 C75.649,71.038 75.803,71.248 75.803,71.445 C75.803,71.655 75.649,71.865 75.313,71.865 L73.324,71.865 C72.988,71.865 72.820,71.655 72.820,71.459 C72.820,71.248 72.988,71.038 73.324,71.038 ZM70.046,71.865 L68.057,71.865 C67.735,71.865 67.567,71.655 67.567,71.445 C67.567,71.248 67.735,71.038 68.057,71.038 L70.046,71.038 C70.382,71.038 70.550,71.248 70.550,71.459 C70.550,71.655 70.382,71.865 70.046,71.865 ZM70.046,73.153 L67.847,73.153 C67.525,73.153 67.357,72.943 67.357,72.733 C67.357,72.537 67.525,72.327 67.847,72.327 L70.046,72.327 C70.382,72.327 70.550,72.537 70.550,72.747 C70.550,72.943 70.382,73.153 70.046,73.153 ZM67.735,69.091 C67.343,69.091 67.132,68.811 67.132,68.545 C67.132,68.265 67.343,67.999 67.735,67.999 L75.705,67.999 C76.083,67.999 76.279,68.265 76.279,68.545 C76.279,68.811 76.083,69.091 75.705,69.091 L72.357,69.091 L72.357,69.638 C73.618,69.638 74.851,69.652 75.943,69.666 C76.700,69.680 77.554,69.974 77.582,70.800 C77.596,70.982 77.596,71.234 77.596,71.459 C77.596,72.019 77.582,72.481 76.910,72.481 C76.574,72.481 76.251,72.299 76.251,71.963 C76.251,71.949 76.251,71.949 76.251,71.935 L76.251,71.094 C76.237,70.688 76.041,70.604 75.495,70.590 C74.655,70.576 73.520,70.562 72.357,70.562 L72.357,72.677 C72.357,73.125 72.035,73.364 71.699,73.364 C71.377,73.364 71.041,73.125 71.041,72.677 L71.041,70.562 C69.864,70.562 68.743,70.576 67.931,70.590 C67.174,70.604 67.132,70.814 67.118,71.136 C67.118,71.136 67.118,71.136 67.118,71.949 L67.118,71.963 C67.118,72.299 66.782,72.495 66.460,72.495 C66.152,72.495 65.830,72.313 65.830,71.949 C65.830,71.781 65.816,71.599 65.816,71.417 C65.816,71.234 65.830,71.038 65.830,70.828 C65.858,70.212 66.250,69.680 67.315,69.666 C68.435,69.652 69.724,69.638 71.041,69.638 L71.041,69.091 L67.735,69.091 ZM87.116,43.898 L87.844,43.898 C88.208,43.898 88.376,44.178 88.376,44.473 C88.376,44.753 88.208,45.047 87.844,45.047 L87.116,45.047 C87.102,45.327 87.102,45.579 87.088,45.789 C87.032,46.560 86.401,46.868 85.561,46.882 C85.267,46.896 84.790,46.896 84.272,46.896 L84.272,47.806 L86.934,47.806 C87.284,47.806 87.452,48.059 87.452,48.311 C87.452,48.577 87.284,48.829 86.934,48.829 L84.272,48.829 L84.286,49.753 L87.746,49.753 C88.096,49.753 88.264,50.020 88.264,50.286 C88.264,50.552 88.096,50.818 87.746,50.818 L84.286,50.818 L84.300,52.681 C84.300,53.073 83.978,53.269 83.656,53.269 C83.334,53.269 83.011,53.073 83.011,52.681 L83.025,50.818 L80.056,50.818 C79.692,50.818 79.510,50.552 79.510,50.286 C79.510,50.020 79.692,49.753 80.056,49.753 L83.039,49.753 L83.039,48.829 L80.728,48.829 C80.378,48.829 80.196,48.577 80.196,48.311 C80.196,48.059 80.378,47.806 80.728,47.806 L83.053,47.806 L83.053,46.910 C82.115,46.910 81.218,46.910 80.784,46.896 C80.490,46.882 80.336,46.630 80.336,46.392 C80.336,46.139 80.476,45.901 80.770,45.901 L80.784,45.901 C81.246,45.915 82.143,45.915 83.053,45.915 L83.053,45.005 L80.588,45.005 C80.406,45.005 80.280,44.921 80.196,44.795 C79.832,45.313 79.453,45.775 79.061,46.210 L78.907,52.597 C78.893,53.017 78.543,53.227 78.207,53.227 C77.871,53.227 77.548,53.031 77.548,52.625 C77.548,52.611 77.548,52.611 77.548,52.597 L77.717,47.526 C76.778,48.297 76.540,48.437 76.274,48.437 C75.882,48.437 75.601,48.087 75.601,47.736 C75.601,47.526 75.699,47.316 75.938,47.176 C77.142,46.476 78.249,45.425 79.103,43.996 C79.243,43.772 79.439,43.674 79.636,43.674 C79.888,43.674 80.154,43.842 80.280,44.066 C80.364,43.996 80.462,43.940 80.588,43.940 L83.039,43.940 L83.039,43.044 C82.143,43.044 81.246,43.058 80.798,43.058 L80.784,43.058 C80.448,43.058 80.280,42.806 80.280,42.554 C80.280,42.273 80.462,42.007 80.812,41.993 C81.218,41.979 82.115,41.979 83.039,41.979 L83.025,41.307 C83.025,40.915 83.348,40.719 83.656,40.719 C83.978,40.719 84.300,40.915 84.300,41.307 L84.300,41.993 L85.547,42.007 C87.116,42.035 87.116,42.624 87.116,43.898 ZM84.272,45.915 C84.762,45.915 85.169,45.915 85.421,45.901 C85.897,45.873 85.897,45.551 85.897,45.005 L84.272,45.005 L84.272,45.915 ZM84.286,43.044 L84.286,43.940 L85.897,43.940 C85.897,43.254 85.897,43.072 85.421,43.058 C85.183,43.058 84.762,43.044 84.286,43.044 ZM79.453,40.747 C79.818,40.747 80.154,41.055 80.154,41.433 C80.154,41.559 80.112,41.713 80.014,41.853 C79.131,43.128 77.268,45.103 76.442,45.103 C76.050,45.103 75.741,44.809 75.741,44.473 C75.741,44.248 75.882,43.996 76.204,43.814 C77.296,43.184 78.207,42.231 78.893,41.097 C79.047,40.845 79.257,40.747 79.453,40.747 ZM77.196,18.741 C80.629,18.279 82.433,17.002 83.093,14.978 C83.291,14.384 83.709,14.142 84.127,14.142 C84.678,14.142 85.250,14.582 85.250,15.176 C85.250,15.286 85.206,15.418 85.162,15.550 C84.039,18.279 81.883,20.083 77.747,20.699 C77.637,20.721 77.549,20.721 77.461,20.721 C76.690,20.721 76.316,20.215 76.316,19.709 C76.316,19.269 76.602,18.829 77.196,18.741 ZM86.612,71.795 L88.867,71.795 L88.867,70.142 C87.998,70.254 87.130,70.310 86.892,70.310 C86.500,70.310 86.303,70.002 86.303,69.708 C86.303,69.399 86.500,69.077 86.864,69.077 C88.573,69.049 90.113,68.755 91.500,68.265 C91.584,68.237 91.654,68.223 91.724,68.223 C92.075,68.223 92.327,68.545 92.327,68.867 C92.327,69.315 92.047,69.568 90.155,69.946 L90.155,71.795 L92.607,71.795 C93.055,71.795 93.265,72.089 93.265,72.397 C93.265,72.691 93.055,72.999 92.607,72.999 L90.155,72.999 L90.155,74.820 C90.422,74.820 90.674,74.834 90.912,74.848 C91.654,74.876 92.299,75.367 92.355,76.081 C92.397,76.543 92.411,77.062 92.411,77.552 C92.411,79.317 92.355,79.835 89.651,79.835 C87.200,79.835 86.724,79.751 86.724,77.762 C86.724,77.188 86.752,76.627 86.766,76.137 C86.822,74.820 88.138,74.820 88.867,74.820 L88.867,72.999 L86.612,72.999 C86.191,72.999 85.967,72.691 85.967,72.397 C85.967,72.089 86.191,71.795 86.612,71.795 ZM88.601,75.927 C88.026,75.955 88.026,76.221 88.026,77.482 C88.026,78.658 88.026,78.658 89.567,78.658 C91.052,78.658 91.066,78.616 91.066,77.426 C91.066,77.062 91.052,76.697 91.038,76.389 C91.010,75.913 90.744,75.913 89.525,75.913 C89.203,75.913 88.867,75.913 88.601,75.927 ZM97.610,95.364 L92.904,95.364 C92.469,95.364 92.259,95.055 92.259,94.747 C92.259,94.439 92.469,94.131 92.904,94.131 L97.610,94.131 C98.044,94.131 98.254,94.439 98.254,94.747 C98.254,95.055 98.044,95.364 97.610,95.364 ZM92.777,96.904 C93.366,96.890 94.080,96.876 94.837,96.876 C95.761,96.876 96.756,96.890 97.652,96.904 C98.507,96.918 99.095,97.535 99.137,98.165 C99.151,98.459 99.165,98.809 99.165,99.174 C99.165,99.524 99.151,99.888 99.137,100.238 C99.095,100.995 98.521,101.653 97.582,101.681 C96.770,101.709 95.957,101.723 95.159,101.723 C94.374,101.723 93.590,101.709 92.805,101.681 C91.783,101.639 91.265,101.065 91.223,100.252 C91.209,100.000 91.209,99.706 91.209,99.412 C91.209,99.020 91.209,98.613 91.223,98.291 C91.251,97.633 91.657,96.946 92.777,96.904 ZM93.198,100.476 C93.800,100.490 94.458,100.504 95.131,100.504 C95.817,100.504 96.503,100.490 97.148,100.476 C97.792,100.448 97.792,100.000 97.792,99.370 C97.792,98.319 97.764,98.067 97.120,98.053 C96.602,98.039 95.999,98.025 95.369,98.025 C94.612,98.025 93.842,98.039 93.184,98.053 C92.539,98.067 92.525,98.501 92.525,99.286 C92.525,100.322 92.651,100.462 93.198,100.476 ZM100.991,73.896 C100.991,74.722 100.332,75.381 99.506,75.381 C98.679,75.381 98.021,74.722 98.021,73.896 C98.021,73.069 98.679,72.411 99.506,72.411 C100.332,72.411 100.991,73.069 100.991,73.896 ZM100.518,50.398 C100.939,50.398 101.331,50.748 101.331,51.182 C101.331,51.336 101.275,51.504 101.163,51.672 C100.798,52.205 100.154,53.059 99.790,53.479 C99.650,53.634 99.482,53.704 99.314,53.704 C98.991,53.704 98.683,53.451 98.683,53.101 C98.683,52.849 98.823,52.541 99.860,50.818 C100.028,50.524 100.280,50.398 100.518,50.398 ZM107.603,41.629 C109.480,41.629 110.797,42.918 111.021,45.257 C111.077,45.873 111.119,46.490 111.119,47.092 C111.119,48.675 110.993,52.485 107.603,52.485 C105.740,52.485 104.410,51.196 104.185,48.843 C104.129,48.241 104.101,47.652 104.101,47.064 C104.101,46.532 104.129,45.985 104.171,45.411 C104.367,42.974 105.698,41.629 107.603,41.629 ZM105.768,48.759 C105.936,50.188 106.693,51.014 107.603,51.014 C108.472,51.014 109.200,50.230 109.396,48.899 C109.480,48.283 109.522,47.596 109.522,46.924 C109.522,45.845 109.522,43.072 107.603,43.072 C106.623,43.072 105.880,43.968 105.740,45.467 C105.698,45.985 105.670,46.504 105.670,47.008 C105.670,47.596 105.698,48.185 105.768,48.759 ZM107.199,95.294 L107.031,95.322 C106.428,95.434 105.882,95.518 105.518,95.518 C104.565,95.518 104.579,94.257 105.476,94.173 C105.910,94.131 106.344,94.145 106.849,94.103 L107.549,94.033 C107.717,93.417 107.899,92.590 107.983,91.806 C108.081,90.895 109.510,90.979 109.398,91.918 C109.342,92.394 109.160,93.234 108.992,93.893 L109.454,93.851 C110.631,93.753 111.527,94.439 111.583,96.008 C111.611,96.988 111.471,98.249 111.107,99.132 C110.533,100.518 109.160,101.205 107.815,100.813 C106.708,100.490 107.157,99.202 108.011,99.412 C108.810,99.608 109.398,99.482 109.790,98.655 C110.112,97.969 110.238,96.974 110.238,96.232 C110.238,95.378 109.944,94.971 109.300,95.027 C109.090,95.041 108.880,95.069 108.656,95.097 C107.969,97.269 107.031,99.174 105.938,100.728 C105.266,101.681 103.809,100.869 104.719,99.846 C105.686,98.767 106.554,97.171 107.199,95.294 ZM106.713,77.972 C106.699,77.244 106.685,76.501 106.685,75.759 C106.685,74.848 106.699,73.952 106.713,73.055 C106.727,72.159 107.413,71.543 108.464,71.529 C109.094,71.529 109.781,71.515 110.481,71.515 C110.621,71.052 110.747,70.506 110.817,70.072 L106.559,70.072 C106.111,70.072 105.900,69.778 105.900,69.469 C105.900,69.147 106.139,68.825 106.559,68.825 L117.345,68.825 C117.765,68.825 117.975,69.133 117.975,69.455 C117.975,69.764 117.765,70.072 117.345,70.072 L112.302,70.072 C112.246,70.422 112.022,71.080 111.854,71.515 C114.795,71.515 115.047,71.515 115.552,71.529 C116.406,71.543 117.233,72.033 117.261,73.139 C117.289,73.966 117.303,74.862 117.303,75.745 C117.303,76.501 117.289,77.258 117.261,77.930 C117.233,78.911 116.616,79.639 115.524,79.667 C114.389,79.709 113.184,79.723 112.008,79.723 C110.831,79.723 109.669,79.709 108.576,79.667 C107.357,79.625 106.741,79.009 106.713,77.972 ZM114.137,78.532 C115.384,78.532 115.930,78.518 115.958,77.580 C115.972,76.992 115.986,76.319 115.986,75.633 C115.986,74.946 115.972,74.246 115.958,73.602 C115.930,72.803 115.650,72.663 114.963,72.649 C114.683,72.649 114.417,72.635 114.137,72.635 L114.137,78.532 ZM110.929,78.560 L112.932,78.560 L112.932,77.104 L110.929,77.104 L110.929,78.560 ZM110.929,76.109 L112.932,76.109 L112.932,74.862 L110.929,74.862 L110.929,76.109 ZM110.929,73.868 L112.932,73.868 L112.932,72.621 L110.929,72.621 L110.929,73.868 ZM109.753,78.532 L109.753,72.635 L109.024,72.649 C108.226,72.663 108.002,72.887 107.988,73.602 C107.974,74.232 107.960,75.129 107.960,76.011 C107.960,76.571 107.974,77.132 107.988,77.608 C108.016,78.350 108.296,78.490 109.108,78.518 C109.318,78.518 109.528,78.532 109.753,78.532 ZM113.404,93.669 C114.525,94.327 115.519,95.322 115.897,96.330 C116.248,97.255 114.987,97.871 114.609,97.002 C114.273,96.232 113.642,95.167 112.606,94.593 C111.919,94.215 112.536,93.164 113.404,93.669 ZM114.525,93.459 C114.329,93.248 113.614,92.786 113.334,92.688 C112.606,92.422 113.110,91.554 113.768,91.764 C114.147,91.876 114.875,92.240 115.197,92.548 C115.771,93.094 115.015,93.977 114.525,93.459 ZM115.743,92.156 C115.547,91.960 114.833,91.540 114.539,91.441 C113.810,91.203 114.259,90.307 114.931,90.489 C115.309,90.587 116.066,90.923 116.402,91.217 C116.990,91.750 116.248,92.660 115.743,92.156 ZM122.354,95.139 C122.396,94.607 122.452,94.047 122.522,93.473 C121.850,93.515 121.248,93.473 120.771,93.332 C119.945,93.094 120.225,91.806 121.164,92.100 C121.556,92.226 122.088,92.254 122.676,92.212 C122.732,91.806 122.802,91.385 122.858,90.965 C123.013,89.929 124.371,90.153 124.217,90.993 C124.161,91.343 124.091,91.694 124.035,92.016 C124.679,91.876 125.324,91.694 125.926,91.469 C126.739,91.161 127.355,92.352 126.248,92.716 C125.478,92.968 124.637,93.192 123.825,93.332 C123.755,93.781 123.699,94.187 123.643,94.579 C124.133,94.411 124.637,94.299 125.114,94.271 C125.170,94.271 125.226,94.271 125.282,94.271 L125.282,94.243 C125.380,93.417 126.668,93.683 126.612,94.355 C130.703,95.097 130.493,100.252 125.716,101.821 C124.455,102.241 124.105,100.939 125.254,100.560 C128.742,99.426 128.882,96.120 126.346,95.490 C125.884,96.806 124.974,97.997 123.923,98.978 C123.965,99.076 124.021,99.174 124.077,99.258 C124.567,100.070 123.405,100.967 122.872,99.972 L122.830,99.888 C122.312,100.266 121.794,100.588 121.304,100.841 C120.435,101.289 119.104,101.065 119.258,99.188 C119.371,97.815 120.491,96.288 121.766,95.476 C121.948,95.364 122.144,95.252 122.354,95.139 ZM123.545,97.689 C124.175,97.030 124.693,96.260 125.002,95.406 L124.960,95.406 C124.553,95.448 124.021,95.588 123.517,95.784 C123.461,96.498 123.475,97.129 123.545,97.689 ZM121.192,99.496 C121.612,99.258 122.032,98.992 122.438,98.683 C122.312,98.025 122.270,97.269 122.284,96.442 C121.178,97.255 120.547,98.249 120.491,99.076 C120.449,99.636 120.827,99.692 121.192,99.496 ZM126.912,74.540 C127.220,74.540 127.528,74.708 127.542,75.002 C127.556,75.213 127.556,75.437 127.556,75.661 C127.556,77.202 127.220,77.524 126.758,77.524 C126.464,77.524 126.170,77.328 126.170,77.020 C126.170,76.950 126.184,76.865 126.226,76.781 C126.380,76.431 126.380,75.689 126.380,75.016 C126.380,74.680 126.646,74.540 126.912,74.540 ZM127.038,68.993 C127.346,68.993 127.654,69.161 127.669,69.455 C127.683,69.666 127.683,69.890 127.683,70.114 C127.683,71.234 127.500,71.963 126.884,71.963 C126.590,71.963 126.296,71.767 126.296,71.459 C126.296,71.389 126.310,71.304 126.352,71.220 C126.506,70.870 126.506,70.142 126.506,69.469 C126.506,69.133 126.772,68.993 127.038,68.993 ZM127.864,41.629 C129.741,41.629 131.058,42.918 131.282,45.257 C131.338,45.873 131.380,46.490 131.380,47.092 C131.380,48.675 131.254,52.485 127.864,52.485 C126.001,52.485 124.670,51.196 124.446,48.843 C124.390,48.241 124.362,47.652 124.362,47.064 C124.362,46.532 124.390,45.985 124.432,45.411 C124.628,42.974 125.959,41.629 127.864,41.629 ZM126.029,48.759 C126.197,50.188 126.954,51.014 127.864,51.014 C128.732,51.014 129.461,50.230 129.657,48.899 C129.741,48.283 129.783,47.596 129.783,46.924 C129.783,45.845 129.783,43.072 127.864,43.072 C126.883,43.072 126.141,43.968 126.001,45.467 C125.959,45.985 125.931,46.504 125.931,47.008 C125.931,47.596 125.959,48.185 126.029,48.759 ZM121.939,68.223 L124.741,68.223 C125.119,68.223 125.315,68.503 125.315,68.783 C125.315,69.063 125.119,69.343 124.741,69.343 L121.939,69.343 C121.561,69.343 121.379,69.063 121.379,68.783 C121.379,68.503 121.561,68.223 121.939,68.223 ZM120.763,70.688 C120.763,70.408 120.959,70.114 121.365,70.114 L125.273,70.114 C125.679,70.114 125.876,70.394 125.876,70.688 C125.876,70.968 125.679,71.262 125.273,71.262 L121.365,71.262 C120.959,71.262 120.763,70.982 120.763,70.688 ZM125.357,77.664 C125.357,78.028 125.357,78.392 125.343,78.700 C125.329,79.331 124.881,79.779 124.181,79.821 C123.886,79.835 123.550,79.849 123.228,79.849 C122.906,79.849 122.584,79.835 122.304,79.821 C121.673,79.779 121.281,79.331 121.267,78.714 C121.267,78.350 121.253,78.000 121.253,77.650 C121.253,77.314 121.267,76.978 121.267,76.669 C121.281,76.137 121.617,75.647 122.290,75.605 C122.556,75.591 122.850,75.577 123.158,75.577 C123.522,75.577 123.900,75.591 124.223,75.605 C124.755,75.633 125.329,75.997 125.343,76.599 C125.357,76.922 125.357,77.300 125.357,77.664 ZM124.181,76.992 C124.153,76.655 123.886,76.613 123.284,76.613 C122.388,76.613 122.388,76.627 122.388,77.692 C122.388,77.944 122.402,78.210 122.402,78.420 C122.416,78.602 122.472,78.757 123.256,78.757 C124.055,78.757 124.167,78.616 124.181,78.406 C124.195,78.210 124.195,77.958 124.195,77.706 C124.195,77.454 124.195,77.188 124.181,76.992 ZM124.769,73.083 L121.967,73.083 C121.589,73.083 121.407,72.803 121.407,72.523 C121.407,72.243 121.589,71.963 121.967,71.963 L124.769,71.963 C125.147,71.963 125.343,72.243 125.343,72.523 C125.343,72.803 125.147,73.083 124.769,73.083 ZM124.769,74.890 L121.967,74.890 C121.589,74.890 121.407,74.610 121.407,74.330 C121.407,74.050 121.589,73.770 121.967,73.770 L124.769,73.770 C125.147,73.770 125.343,74.050 125.343,74.330 C125.343,74.610 125.147,74.890 124.769,74.890 ZM132.851,73.125 C133.201,73.224 133.370,73.476 133.370,73.742 C133.370,74.078 133.103,74.414 132.683,74.414 C131.955,74.414 130.232,73.224 129.405,71.585 C128.537,73.714 126.562,74.526 126.282,74.526 C125.918,74.526 125.665,74.218 125.665,73.896 C125.665,73.686 125.777,73.476 126.072,73.350 C128.075,72.509 128.635,70.982 128.635,69.021 C128.635,68.881 128.621,68.727 128.621,68.573 C128.621,68.559 128.621,68.559 128.621,68.545 C128.621,68.125 128.957,67.887 129.279,67.887 C129.882,67.887 129.896,68.447 129.896,68.867 C129.896,69.161 129.882,69.441 129.854,69.722 L129.868,69.764 C129.910,70.072 129.966,70.366 130.092,70.660 C130.596,70.296 131.170,69.694 131.493,69.245 C131.605,69.077 131.759,69.007 131.913,69.007 C132.263,69.007 132.613,69.357 132.613,69.736 C132.613,69.876 132.501,70.450 130.638,71.599 C131.226,72.341 132.053,72.915 132.851,73.125 ZM125.848,80.129 C125.455,80.129 125.203,79.793 125.203,79.471 C125.203,79.233 125.329,78.995 125.651,78.897 C128.047,78.126 128.635,76.277 128.635,74.148 C128.635,74.078 128.635,73.994 128.635,73.924 L128.635,73.910 C128.635,73.476 128.985,73.238 129.307,73.238 C129.616,73.238 129.910,73.448 129.910,73.910 C129.910,74.274 129.882,74.624 129.854,74.974 C129.854,75.002 129.868,75.030 129.868,75.059 C129.896,75.381 129.980,75.689 130.106,75.997 C130.554,75.633 131.044,75.101 131.324,74.708 C131.437,74.540 131.577,74.484 131.731,74.484 C132.053,74.484 132.389,74.820 132.389,75.171 C132.389,75.633 131.381,76.459 130.638,76.936 C131.254,77.762 132.123,78.420 132.963,78.658 C133.328,78.757 133.482,79.037 133.482,79.303 C133.482,79.653 133.230,80.003 132.795,80.003 C132.137,80.003 130.344,78.911 129.405,76.936 C128.467,79.387 126.086,80.129 125.848,80.129 ZM140.270,79.695 C140.270,80.101 139.920,80.507 139.499,80.507 C139.359,80.507 139.205,80.451 139.051,80.325 C137.342,78.813 136.474,76.445 136.474,74.078 C136.474,71.739 137.314,69.385 139.023,67.817 C139.205,67.648 139.401,67.578 139.570,67.578 C139.976,67.578 140.312,67.929 140.312,68.321 C140.312,68.531 140.214,68.741 140.004,68.923 C138.547,70.142 137.819,72.061 137.819,73.994 C137.819,75.927 138.547,77.874 140.018,79.149 C140.200,79.303 140.270,79.499 140.270,79.695 ZM135.433,90.727 C135.545,89.845 136.904,90.013 136.834,90.853 C136.792,91.329 136.624,91.820 136.469,92.156 C136.287,92.534 136.427,92.352 136.568,92.170 C137.590,90.853 139.411,91.427 139.985,93.010 C141.008,95.840 140.504,99.524 137.212,101.947 C136.077,102.788 135.055,101.625 136.231,100.855 C138.403,99.440 139.635,96.414 138.669,93.487 C138.206,92.086 136.876,92.604 136.469,93.473 C136.063,94.327 136.035,94.901 136.105,96.120 C136.175,97.479 134.663,97.465 134.578,96.456 C134.494,95.350 134.733,94.005 134.901,93.220 C135.055,92.506 135.321,91.582 135.433,90.727 ZM143.176,76.683 C143.400,76.683 143.624,76.795 143.792,77.034 C144.156,77.552 144.843,77.972 145.837,77.972 C147.378,77.972 147.714,76.922 147.714,76.473 C147.714,75.913 147.378,75.311 146.650,74.904 C146.033,74.554 145.277,74.134 144.534,73.798 C143.302,73.238 142.741,72.243 142.741,71.276 C142.741,69.918 143.834,68.615 145.767,68.615 C147.700,68.615 148.807,69.540 148.807,70.198 C148.807,70.618 148.457,71.010 148.022,71.010 C147.812,71.010 147.574,70.912 147.364,70.674 C147.098,70.380 146.622,70.030 145.753,70.030 C144.857,70.030 144.310,70.590 144.310,71.220 C144.310,71.655 144.576,72.131 145.193,72.453 C145.767,72.761 146.734,73.210 147.378,73.560 C148.779,74.330 149.367,75.395 149.367,76.431 C149.367,77.930 148.092,79.471 145.823,79.471 C143.540,79.471 142.363,78.168 142.363,77.482 C142.363,77.020 142.769,76.683 143.176,76.683 ZM149.812,98.767 C149.798,98.473 149.770,98.179 149.742,97.857 C149.714,97.521 149.686,97.129 149.658,96.694 C148.551,96.904 147.809,96.946 147.109,96.848 C146.114,96.708 146.282,95.266 147.403,95.504 C147.809,95.588 148.509,95.588 149.588,95.378 C149.560,94.845 149.532,94.299 149.518,93.753 L149.378,93.767 C148.649,93.879 147.949,93.949 147.179,93.935 C146.100,93.907 146.044,92.450 147.319,92.604 C147.893,92.674 148.537,92.646 149.490,92.506 C149.476,91.764 149.476,91.105 149.490,90.657 C149.518,89.578 150.975,89.831 150.919,90.643 C150.877,91.147 150.849,91.708 150.835,92.268 C151.129,92.212 151.451,92.128 151.787,92.058 C152.712,91.848 153.090,93.150 151.871,93.346 C151.493,93.403 151.143,93.473 150.821,93.529 C150.821,94.047 150.821,94.565 150.835,95.083 C151.171,94.985 151.521,94.887 151.899,94.761 C152.936,94.425 153.468,95.714 152.221,96.064 C151.731,96.204 151.283,96.330 150.877,96.428 C150.905,96.904 150.933,97.339 150.975,97.745 C151.017,98.123 151.059,98.627 151.087,99.132 C151.787,99.398 152.389,99.776 152.824,100.126 C153.762,100.897 152.852,102.171 151.969,101.359 C151.675,101.093 151.325,100.827 150.947,100.602 C150.456,101.793 148.748,102.732 147.025,101.877 C145.694,101.219 145.610,99.650 147.137,99.006 C147.991,98.641 148.930,98.613 149.812,98.767 ZM147.529,100.813 C148.383,101.233 149.476,100.813 149.686,100.028 C148.930,99.790 148.187,99.748 147.571,100.014 C147.207,100.168 147.137,100.616 147.529,100.813 ZM152.400,78.686 C152.400,78.672 152.400,78.672 152.400,78.658 C152.442,77.202 152.470,75.101 152.470,73.195 C152.470,71.627 152.456,70.198 152.428,69.357 C152.414,68.979 152.722,68.713 153.199,68.713 C153.563,68.713 153.927,68.909 153.927,69.343 C153.927,69.357 153.927,69.357 153.927,69.371 C153.885,70.912 153.871,74.526 153.871,74.526 C153.871,74.652 153.997,74.722 154.095,74.722 C154.305,74.722 154.361,74.680 157.009,72.565 C157.163,72.453 157.317,72.397 157.457,72.397 C157.877,72.397 158.227,72.817 158.227,73.224 C158.227,73.434 158.143,73.630 157.947,73.770 C157.121,74.358 156.504,74.792 155.762,75.283 C155.664,75.339 155.622,75.395 155.622,75.437 C155.622,75.493 155.664,75.549 155.734,75.619 C156.448,76.333 157.849,77.594 158.227,78.000 C158.395,78.182 158.465,78.378 158.465,78.560 C158.465,78.995 158.073,79.373 157.639,79.373 C157.457,79.373 157.261,79.289 157.093,79.121 C156.686,78.700 155.020,76.893 154.417,76.193 C154.361,76.123 154.263,76.095 154.137,76.095 C153.815,76.095 153.815,76.179 153.815,77.118 C153.815,77.426 153.829,77.874 153.857,78.658 C153.871,78.953 153.703,79.373 153.143,79.373 C152.764,79.373 152.400,79.135 152.400,78.686 ZM160.602,51.420 C160.980,51.420 161.190,51.742 161.190,52.093 C161.190,52.485 160.924,52.905 160.350,52.905 C157.968,52.905 156.105,51.855 155.181,51.210 C152.520,53.073 149.970,53.227 149.830,53.227 C149.382,53.227 149.130,52.863 149.130,52.499 C149.130,52.163 149.326,51.855 149.788,51.813 C151.483,51.658 152.926,51.098 154.088,50.356 C153.444,49.767 152.239,48.367 152.239,47.806 C152.239,47.428 152.604,47.190 152.940,47.190 C153.150,47.190 153.346,47.274 153.458,47.470 C153.920,48.241 154.481,48.941 155.181,49.543 C156.330,48.549 157.100,47.428 157.100,47.134 C157.100,47.008 156.988,46.924 156.778,46.924 C156.372,46.924 155.853,46.924 155.265,46.924 C154.102,46.924 152.702,46.924 151.511,46.966 C151.497,46.966 151.497,46.966 151.483,46.966 C151.077,46.966 150.867,46.672 150.867,46.364 C150.867,46.041 151.091,45.705 151.525,45.705 L154.425,45.705 L154.411,44.080 L150.082,44.108 C149.634,44.108 149.396,43.786 149.396,43.464 C149.396,43.142 149.634,42.820 150.082,42.820 L154.411,42.848 L154.397,41.391 C154.397,40.985 154.747,40.803 155.083,40.803 C155.447,40.803 155.811,40.999 155.811,41.391 L155.797,42.848 L160.196,42.820 C160.644,42.820 160.868,43.142 160.868,43.464 C160.868,43.786 160.644,44.108 160.196,44.108 L155.797,44.080 L155.783,45.691 L157.506,45.691 C158.333,45.691 158.823,46.153 158.823,46.798 C158.823,47.638 157.562,49.193 156.302,50.328 C157.436,50.986 158.851,51.392 160.602,51.420 ZM158.053,93.234 C158.613,93.136 159.523,93.038 160.112,92.940 C160.812,92.828 162.073,92.674 163.305,92.562 C163.305,92.478 163.305,92.380 163.305,92.310 C163.319,91.441 163.235,91.385 163.235,90.937 C163.235,89.915 164.650,90.013 164.706,90.895 C164.720,91.217 164.678,91.862 164.650,92.240 C164.650,92.310 164.636,92.380 164.636,92.450 C165.042,92.422 165.406,92.408 165.715,92.408 C166.401,92.408 166.891,92.394 167.844,92.408 C169.020,92.436 168.964,93.921 167.844,93.837 C166.849,93.753 166.513,93.753 165.645,93.739 C165.322,93.739 164.986,93.753 164.622,93.767 C164.636,94.215 164.650,94.649 164.650,95.055 C164.650,95.252 164.678,95.546 164.692,95.854 C165.939,97.815 164.454,100.785 162.969,101.975 C162.031,102.718 160.812,101.723 162.031,100.855 C162.703,100.378 163.291,99.594 163.628,98.795 C162.703,99.272 161.484,99.006 161.036,97.745 C160.546,96.386 161.302,95.378 162.157,95.111 C162.563,94.985 162.983,94.929 163.361,94.985 C163.347,94.677 163.333,94.257 163.319,93.851 C162.143,93.963 160.980,94.131 160.252,94.243 C159.243,94.397 158.585,94.579 158.165,94.649 C157.226,94.817 156.946,93.417 158.053,93.234 ZM162.493,96.218 C162.157,96.372 161.933,96.806 162.087,97.283 C162.339,98.039 163.557,98.039 163.698,97.044 C163.740,96.750 163.698,96.624 163.614,96.512 C163.543,96.428 163.473,96.344 163.389,96.274 C163.193,96.106 162.787,96.078 162.493,96.218 ZM168.111,48.815 C168.111,48.535 168.350,48.353 168.630,48.353 C168.798,48.353 168.994,48.423 169.134,48.605 C169.568,49.151 169.932,50.426 169.932,50.692 C169.932,51.140 169.568,51.420 169.246,51.420 C168.994,51.420 168.756,51.238 168.714,50.860 C168.658,50.258 168.392,49.515 168.181,49.095 C168.125,48.997 168.111,48.899 168.111,48.815 ZM171.346,99.062 C172.228,99.062 172.942,99.776 172.942,100.658 C172.942,101.541 172.228,102.255 171.346,102.255 C170.463,102.255 169.749,101.541 169.749,100.658 C169.749,99.776 170.463,99.062 171.346,99.062 ZM171.346,101.723 C171.934,101.723 172.410,101.247 172.410,100.658 C172.410,100.070 171.934,99.608 171.346,99.608 C170.757,99.608 170.281,100.070 170.281,100.658 C170.281,101.247 170.757,101.723 171.346,101.723 ZM174.373,52.849 C173.995,52.877 173.546,52.891 173.084,52.891 C170.717,52.891 170.255,52.849 170.255,50.776 C170.255,50.174 170.283,49.529 170.297,49.039 C170.325,48.297 170.829,47.792 171.613,47.750 C172.020,47.736 172.454,47.722 172.888,47.722 C173.406,47.722 173.911,47.736 174.345,47.750 C175.045,47.778 175.703,48.255 175.732,48.983 C175.746,49.501 175.774,50.188 175.774,50.804 C175.774,51.042 175.774,51.280 175.760,51.490 C175.732,52.247 175.241,52.779 174.373,52.849 ZM174.457,49.291 C174.429,48.815 174.219,48.815 172.986,48.815 C172.636,48.815 172.300,48.815 172.048,48.829 C171.487,48.857 171.487,49.095 171.487,50.664 C171.487,51.700 171.515,51.714 173.014,51.714 C174.443,51.714 174.485,51.574 174.485,50.790 C174.485,50.300 174.471,49.683 174.457,49.291 ZM171.307,78.658 C171.279,78.644 171.251,78.616 171.237,78.616 C171.209,78.616 171.195,78.644 171.195,78.700 C171.195,80.241 171.223,81.572 171.237,82.146 C171.251,82.581 170.956,82.875 170.522,82.875 C170.144,82.875 169.780,82.623 169.780,82.146 C169.780,82.118 169.780,82.104 169.780,82.076 C169.822,81.572 169.822,80.521 169.822,79.289 C169.822,77.174 169.794,74.540 169.794,73.210 C169.794,72.691 170.158,72.425 170.522,72.425 C170.844,72.425 171.167,72.649 171.223,73.069 C171.237,73.097 171.251,73.111 171.265,73.111 C171.279,73.111 171.293,73.111 171.307,73.097 C171.825,72.649 172.483,72.369 173.254,72.369 C175.187,72.369 176.643,73.770 176.643,75.885 C176.643,77.930 175.187,79.401 173.254,79.401 C172.483,79.401 171.825,79.107 171.307,78.658 ZM173.226,78.126 C174.346,78.126 175.243,77.272 175.243,75.885 C175.243,74.512 174.346,73.672 173.226,73.672 C172.105,73.672 171.209,74.512 171.209,75.885 C171.209,77.272 172.105,78.126 173.226,78.126 ZM182.601,72.313 C184.534,72.313 185.627,73.728 185.627,74.792 C185.627,75.451 185.192,75.983 184.296,76.011 C183.862,76.025 183.568,76.025 180.850,76.025 C180.766,76.025 180.738,76.137 180.738,76.291 C180.752,77.454 181.649,78.154 182.643,78.154 C183.526,78.154 184.058,77.734 184.464,77.300 C184.604,77.146 184.772,77.076 184.940,77.076 C185.319,77.076 185.683,77.412 185.683,77.804 C185.683,77.972 185.627,78.140 185.473,78.294 C184.800,78.995 184.044,79.457 182.629,79.457 C180.710,79.457 179.281,78.014 179.281,75.927 C179.281,73.784 180.794,72.313 182.601,72.313 ZM182.307,74.876 C182.881,74.876 183.512,74.876 183.890,74.862 C184.058,74.848 184.170,74.722 184.170,74.554 C184.170,74.358 183.876,73.532 182.615,73.532 C181.480,73.532 180.864,74.512 180.864,74.750 C180.864,74.876 181.004,74.876 182.307,74.876 ZM191.651,75.521 C192.449,75.493 193.556,75.493 194.677,75.493 C195.419,74.750 195.671,74.106 195.671,74.008 C195.671,73.896 195.601,73.812 195.405,73.812 C195.209,73.812 194.985,73.812 194.719,73.812 C193.612,73.812 192.015,73.826 191.091,73.840 L191.077,73.840 C190.670,73.840 190.474,73.560 190.474,73.280 C190.474,72.985 190.684,72.691 191.091,72.677 C191.889,72.649 192.968,72.635 193.990,72.635 C194.719,72.635 195.419,72.649 195.965,72.663 C196.708,72.677 197.156,73.097 197.156,73.672 C197.156,74.218 196.750,74.820 196.245,75.507 L196.750,75.521 C197.604,75.535 198.221,76.123 198.249,76.725 C198.263,76.964 198.277,77.272 198.277,77.594 C198.277,77.902 198.263,78.210 198.249,78.476 C198.206,79.205 197.618,79.821 196.680,79.849 C195.867,79.877 194.999,79.891 194.144,79.891 C193.304,79.891 192.463,79.877 191.679,79.849 C190.656,79.807 190.110,79.261 190.082,78.490 C190.082,78.238 190.068,77.930 190.068,77.636 C190.068,77.342 190.082,77.048 190.082,76.837 C190.096,76.207 190.530,75.549 191.651,75.521 ZM192.071,78.686 C192.674,78.700 193.388,78.714 194.116,78.714 C194.859,78.714 195.601,78.700 196.245,78.686 C196.848,78.658 196.876,78.350 196.876,77.636 C196.876,76.922 196.848,76.641 196.217,76.627 C195.699,76.613 195.041,76.599 194.368,76.599 C193.556,76.599 192.716,76.613 192.057,76.627 C191.441,76.641 191.413,77.020 191.413,77.636 C191.413,78.434 191.455,78.658 192.071,78.686 ZM205.301,72.957 C205.385,72.971 205.455,72.985 205.539,72.999 C205.553,72.663 205.581,72.313 205.609,71.977 C204.783,72.075 204.278,71.935 204.040,71.837 C203.284,71.543 203.690,70.310 204.530,70.646 C204.853,70.772 205.245,70.800 205.693,70.730 C205.707,70.128 205.609,69.736 205.581,69.427 C205.469,68.349 207.024,68.419 207.066,69.357 C207.080,69.582 207.080,69.946 207.052,70.296 C207.192,70.226 207.332,70.156 207.444,70.072 C208.158,69.596 208.901,70.716 207.976,71.248 C207.696,71.403 207.290,71.557 206.898,71.683 C206.870,72.131 206.856,72.579 206.828,73.097 C206.814,73.294 206.800,73.588 206.786,73.882 C206.968,74.218 207.010,74.652 206.828,75.171 C206.674,75.605 206.337,76.207 206.113,76.725 C205.847,77.356 205.763,77.972 206.281,78.294 C206.870,78.658 208.397,78.644 209.391,78.308 C210.456,77.944 210.638,77.118 210.330,75.787 C210.119,74.876 211.520,74.554 211.744,75.647 C212.165,77.622 211.716,78.953 209.783,79.597 C208.593,79.989 206.604,80.003 205.553,79.373 C204.671,78.841 204.404,77.916 204.825,76.641 C204.376,76.599 203.942,76.347 203.704,75.941 C202.723,74.302 203.928,72.803 205.301,72.957 ZM204.446,75.115 C204.572,75.437 205.175,75.899 205.539,74.988 C205.567,74.904 205.595,74.820 205.609,74.750 L205.609,74.736 C205.623,74.582 205.609,74.442 205.567,74.330 L205.553,74.316 C205.483,74.162 205.371,74.064 205.175,74.036 C204.544,73.952 204.250,74.596 204.446,75.115 ZM210.638,72.229 C209.783,72.201 209.839,70.912 210.848,70.982 C211.842,71.052 213.033,71.711 213.467,72.495 C213.691,72.915 213.509,73.280 213.215,73.462 C212.921,73.644 212.501,73.644 212.249,73.252 C211.954,72.803 211.352,72.257 210.638,72.229 ZM215.786,73.980 C215.786,72.033 215.072,70.114 213.657,68.923 C213.433,68.741 213.349,68.517 213.349,68.321 C213.349,67.957 213.643,67.634 214.035,67.634 C214.203,67.634 214.399,67.705 214.596,67.873 C216.318,69.413 217.173,71.753 217.173,74.092 C217.173,76.445 216.290,78.799 214.568,80.283 C214.413,80.409 214.259,80.465 214.105,80.465 C213.699,80.465 213.363,80.087 213.363,79.695 C213.363,79.513 213.447,79.317 213.629,79.149 C215.072,77.888 215.786,75.927 215.786,73.980 Z"/>
</svg>