<svg xmlns="http://www.w3.org/2000/svg" width="493.874" height="45.44" viewBox="0 0 493.874 45.44">
  <metadata><?xpacket begin="﻿" id="W5M0MpCehiHzreSzNTczkc9d"?>
<x:xmpmeta xmlns:x="adobe:ns:meta/" x:xmptk="Adobe XMP Core 5.6-c138 79.159824, 2016/09/14-01:09:01        ">
   <rdf:RDF xmlns:rdf="http://www.w3.org/1999/02/22-rdf-syntax-ns#">
      <rdf:Description rdf:about=""/>
   </rdf:RDF>
</x:xmpmeta>
                                                                                                    
                                                                                                    
                                                                                                    
                                                                                                    
                                                                                                    
                                                                                                    
                                                                                                    
                                                                                                    
                                                                                                    
                                                                                                    
                                                                                                    
                                                                                                    
                                                                                                    
                                                                                                    
                                                                                                    
                                                                                                    
                                                                                                    
                                                                                                    
                                                                                                    
                                                                                                    
                           
<?xpacket end="w"?></metadata>
<defs>
    <style>
      .cls-1 {
        fill: #fff;
        stroke: #0071bd;
        stroke-linejoin: round;
        stroke-width: 1px;
        fill-rule: evenodd;
      }
    </style>
  </defs>
  <path id="LAB_TRIP選考の流れ" data-name="LAB TRIP選考の流れ" class="cls-1" d="M433.38,1066.27v1.05c0,4.95-.2,15.9-0.2,22.75,0,1.85,0,3.45.05,4.5,0.15,4.4,2.9,6.05,7.5,6.4,0.65,0.05,3.6.1,6.5,0.1,2.95,0,5.9-.05,6.55-0.1,2.15-.1,3.15-1.5,3.15-2.85a2.614,2.614,0,0,0-2.7-2.65h-0.25c-0.95.05-4.15,0.1-7.05,0.1-6.8,0-7.9,0-8.1-2.4-0.05-.85-0.1-3.1-0.1-5.95,0-6.95.15-17.5,0.3-20.7v-0.2a2.836,2.836,0,0,0-2.85-3.05,2.77,2.77,0,0,0-2.8,2.95v0.05Zm63.591,32.15a3.962,3.962,0,0,0-.3-1.45c-1.65-3.9-8.15-21.3-11.35-30.3a4.988,4.988,0,0,0-4.651-3.45,4.62,4.62,0,0,0-4.4,3.35c-10.951,30.8-11.1,31.2-11.1,32.1a2.686,2.686,0,0,0,2.851,2.5,2.843,2.843,0,0,0,2.8-2.05c0.75-2.4,1.9-6,3.15-9.95a0.628,0.628,0,0,1,.6-0.45c1.05-.05,4.4-0.05,7.4-0.05,2.251,0,4.3,0,5.1.05a0.536,0.536,0,0,1,.55.45c1.55,4.65,2.85,8.65,3.45,10.1a2.932,2.932,0,0,0,2.85,1.85A2.836,2.836,0,0,0,496.971,1098.42Zm-11.35-15.2c0,0.15-.1.2-0.4,0.2-0.7,0-2.451.05-4.251,0.05-1.75,0-3.6-.05-4.6-0.05-0.3,0-.4-0.1-0.4-0.3,0-.45,3.25-9.8,4-11.8,0.35-1,.65-1.45.9-1.45,0.3,0,.55.5,0.85,1.4,0.8,2.45,2.3,7,3.851,11.7A0.544,0.544,0,0,1,485.621,1083.22Zm47.535,6.75c0-4.65-2.9-8.95-8.3-9.35a1.088,1.088,0,0,1-.75-0.2,1.2,1.2,0,0,1,.8-0.3c3.5-.5,6-4.2,6-8,0-4.2-3.1-8.6-11.4-9.15-0.75-.05-1.8-0.1-2.9-0.1-4.251,0-9.8.1-9.951,6.35-0.1,3.2-.15,10-0.15,16.1,0,4.05,0,7.8.1,9.9,0.2,6.25,5.95,6.45,10.8,6.45,1.25,0,2.55-.05,3.2-0.1C529.255,1101.07,533.156,1095.32,533.156,1089.97Zm-14.151-21.9c4.4,0,6.25,2.2,6.25,4.55a6,6,0,0,1-5.9,5.65c-0.9.05-2.2,0.05-3.4,0.05-3.3,0-4,0-4-1.05,0.05-2.9,0-5.75.1-6.95,0.15-1.9,1.15-2.3,4.351-2.3C517.705,1068.02,519.005,1068.07,519.005,1068.07Zm1.8,28.4c-0.95.05-2.2,0.1-3.35,0.1-4.651,0-5.151-.6-5.4-2.45-0.15-1.35-.15-3.65-0.15-9.9,0-1,.45-1.15,5.1-1.15,1.25,0,2.55.05,3.8,0.15,4.6,0.35,6.6,3.25,6.6,6.2A7,7,0,0,1,520.8,1096.47Zm42.348,2.15c0,1.7,1.5,2.55,3,2.55,1.551,0,3.1-.85,3-2.6-0.15-3.7-.25-9.8-0.25-15.8,0-4.9.05-9.75,0.15-13.15,0-1,0-1,4.95-1,1.2,0,2.65,0,4.35.1h0.2a2.429,2.429,0,0,0,2.4-2.65,2.524,2.524,0,0,0-2.6-2.7c-2.85.05-7.1,0.1-11.351,0.1-5.2,0-10.5-.05-13.5-0.1h-0.1a2.57,2.57,0,0,0-2.751,2.65,2.665,2.665,0,0,0,2.851,2.7c2.35,0,4.7-.1,6.6-0.1,2.95,0,3.1,0,3.1,1,0.1,2.65.1,6.8,0.1,11.2,0,6.6-.05,13.85-0.15,17.75v0.05Zm45.8-3.65c3.4,6.05,7.5,6.2,8.3,6.2a2.966,2.966,0,0,0,.6-5.9c-1.7-.2-2.85-1.15-4.1-3.2-1.75-2.8-3.15-5.85-5.6-8.55a2.67,2.67,0,0,1-.7-0.85c0-.15.15-0.2,0.5-0.3a9.43,9.43,0,0,0,7.3-9.4c0-4.7-3.35-9.45-11.451-10-0.75-.05-1.9-0.1-3.05-0.1-4.2,0-9.9,0-10.051,6.4-0.05,2.05-.05,2.25-0.05,13.05,0,5.5,0,11.45-.15,16.1v0.1a2.519,2.519,0,0,0,2.7,2.5,2.779,2.779,0,0,0,2.95-2.75c0-1.8-.15-10-0.15-13.75,0-.9.7-0.95,1.65-0.95s2.1,0.05,2.75.05C602.8,1083.67,605.748,1089.42,608.949,1094.97Zm-5.3-16c-0.9.05-2.2,0.1-3.45,0.1-3.5,0-4.15-.05-4.15-1.05,0.05-2.9,0-6.45.1-7.65,0.15-2.35,1.95-2.5,4.65-2.5,0.95,0,1.85,0,2.5.05,4.35,0.25,6.251,2.7,6.251,5.2A6.156,6.156,0,0,1,603.648,1078.97Zm32.3,19.45c-0.1-6.15-.15-12.65-0.15-18.9,0-4.85.05-9.55,0.15-13.7v-0.1c0-1.65-1.5-2.45-2.95-2.45-0.9,0-3.15.55-3.05,2.65,0.15,4.05.25,8.6,0.25,13.35,0,6.45-.15,13.15-0.25,19.15v0.05a3.023,3.023,0,0,0,6,0v-0.05Zm18.86-.05v-1.95c0-3.3-.15-6.85-0.15-9.95,0-.4.05-0.55,0.3-0.55a0.976,0.976,0,0,1,.35.05,15.975,15.975,0,0,0,3.65.4,28.379,28.379,0,0,0,3.6-.25,11.8,11.8,0,0,0,10.851-11.9c0-5.4-3.65-10.75-11.551-11.25-0.75-.05-1.75-0.1-2.8-0.1-9.8,0-9.851,3.3-9.851,9.45,0,3.5.1,8.4,0.1,13.55,0,4.25-.05,8.65-0.25,12.55v0.15a2.659,2.659,0,0,0,2.851,2.55A2.708,2.708,0,0,0,654.812,1098.37Zm6.55-30.2c4.5,0,6.451,2.8,6.451,5.8a6.952,6.952,0,0,1-6.1,7c-1.05.1-2.1,0.15-3.05,0.15-3.1,0-4.1-.35-4.1-1.4v-0.85c0-1.75-.05-3.8-0.05-5.55,0-4.65.45-5.2,4.45-5.2C660.162,1068.12,661.362,1068.17,661.362,1068.17Zm63.751,21.45a1.732,1.732,0,0,0,1.85-1.75,1.706,1.706,0,0,0-1.85-1.75l-7.3.05v-3.05l5.2,0.05a1.729,1.729,0,1,0,0-3.45l-5.2.05v-1.4a1.5,1.5,0,0,0-1.05-1.4c0.7,0.05,1.4.1,2.15,0.1,3.45,0,7.8-.4,7.8-5a2.082,2.082,0,0,0-2.25-1.9,1.7,1.7,0,0,0-1.85,1.6c-0.1,1.8-1.25,1.9-3.75,1.9-2.95,0-3.15-.1-3.15-1.35,0-1.15,0-1.6.95-1.6,7.1,0,8.05-.1,8.05-4.25,0-3.3-.8-4.65-3.7-4.65-0.8,0-3.65-.05-6.1-0.05h-1.7a1.792,1.792,0,0,0-1.7,1.9,1.624,1.624,0,0,0,1.7,1.7h6.751c0.7,0.05.8,0.25,0.8,0.95,0,1.1-.15,1.15-1.95,1.15h-3.05c-3.851,0-3.9,2.5-3.9,4.75,0,1.55,0,3.9,3.4,4.55a1.7,1.7,0,0,0-1.7,1.6v1.45h-2.3l-2.4-.05v-1.4a1.728,1.728,0,0,0-1.65-1.6c3.05-.5,4.05-2.5,4.05-4.5a2,2,0,0,0-2.2-1.85,1.7,1.7,0,0,0-1.85,1.6c-0.1,1.55-1.4,1.65-3.1,1.65-2.55,0-2.95-.05-2.95-1.3,0-1.3.1-1.65,0.9-1.65,6.65,0,7.8,0,7.8-4.25,0-3.55-1-4.65-3.65-4.65-0.8,0-3.5-.05-5.85-0.05h-1.7a1.778,1.778,0,0,0-1.7,1.85,1.65,1.65,0,0,0,1.751,1.75h6.4c0.7,0.05.8,0.25,0.8,0.95,0,1.15-.45,1.15-1.9,1.15h-2.9c-3.9,0-3.95,2.55-3.95,4.15,0,4.75,1.9,5.4,6.85,5.4,0.55,0,1.1,0,1.65-.05a1.5,1.5,0,0,0-1.05,1.4v1.4l-4.8-.05a1.729,1.729,0,1,0,0,3.45l4.8-.05v3.05l-6.65-.05a1.706,1.706,0,0,0-1.851,1.75,1.732,1.732,0,0,0,1.851,1.75l13.3-.1Zm-1.65,7.5a2.237,2.237,0,0,0,2.25-2.25,1.792,1.792,0,0,0-1.8-1.85,22.791,22.791,0,0,1-8.65-2.7,2.243,2.243,0,0,0-.95-0.25,2.066,2.066,0,0,0-1.951,2,1.592,1.592,0,0,0,.9,1.45C716.663,1095.52,721.613,1097.12,723.463,1097.12Zm-30.052-25.25a2.919,2.919,0,0,0,2.7-2.8c0-2.55-6.25-6.4-7.75-6.4a2.559,2.559,0,0,0-2.55,2.25,1.748,1.748,0,0,0,1,1.55,14.93,14.93,0,0,1,4.9,4.35A1.975,1.975,0,0,0,693.411,1071.87Zm-0.35,25.8c3.6,3.9,7.5,6.15,20.1,6.15,4.751,0,9.451-.3,12.6-0.6a2.488,2.488,0,0,0,2.5-2.5,2.335,2.335,0,0,0-2.4-2.4h-0.25c-3.8.3-9.45,0.85-14.651,0.85-7,0-9.8-1-11.7-2h0.6a22.421,22.421,0,0,0,8.65-3.5,1.638,1.638,0,0,0,.75-1.45,2.02,2.02,0,0,0-1.75-2.05,1.5,1.5,0,0,0-.95.35,15.882,15.882,0,0,1-7.55,2.85,1.611,1.611,0,0,0-1.6,1.65,2.1,2.1,0,0,0,.35,1.2,11.382,11.382,0,0,1-2.251-2.1c0-3.2.2-6.6,0.2-9.5,0-4.3-2.75-4.7-6.3-4.7h-3.05a2.093,2.093,0,0,0-2,2.25,2.04,2.04,0,0,0,2.4,2.15c0.75,0,1.4-.05,2.2-0.05,2.05,0,2.1.55,2.1,2.3,0,2.25-.15,4.6-0.2,7.3a24.01,24.01,0,0,1-6.4,5.25,2.165,2.165,0,0,0-1.2,1.85,2.765,2.765,0,0,0,2.65,2.6C687.861,1103.57,691.661,1099.27,693.061,1097.67Zm20.5-11.5-2.251.05-2.45-.05v-3.05l2.4-.05,2.3,0.05v3.05Zm62.85-8.85a1.979,1.979,0,0,0,2.1-2.05,2.02,2.02,0,0,0-2.15-2.05h-7.85a57.9,57.9,0,0,0,7.3-7.6,1.7,1.7,0,0,0,.4-1.15,2.758,2.758,0,0,0-2.65-2.55,1.945,1.945,0,0,0-1.65.9,56.168,56.168,0,0,1-9.9,10.45h-4.35v-4.15l6.65,0.05a2.035,2.035,0,0,0,2.2-2.05,2.009,2.009,0,0,0-2.2-2.05l-6.6.05v-3.3a2.184,2.184,0,0,0-2.4-2.1,2.113,2.113,0,0,0-2.35,2.1v3.3l-9.2-.05a2.037,2.037,0,0,0-2.2,2.05,2.064,2.064,0,0,0,2.2,2.05l9.2-.05v4.15l-13.651-.05a2.064,2.064,0,0,0-2.2,2.05,1.993,1.993,0,0,0,2.15,2.05h0.05l17.251-.15a61.92,61.92,0,0,1-19.251,7.85,2.391,2.391,0,0,0-2.05,2.25,2.172,2.172,0,0,0,2.3,2.15c0.95,0,6.4-1.5,13.051-4.6a63.061,63.061,0,0,1-2.451,7.5,1.812,1.812,0,0,0,2,2.6c1.4,0,2.15-.5,2.85-2.8,2.1-.05,4.35-0.05,6.55-0.05,2.15,0,4.2,0,5.8.05,1.151,0,1.6.35,1.6,1.15,0,1.35-1.1,6.15-8.051,6.15a19.678,19.678,0,0,1-5.9-1,3.4,3.4,0,0,0-.95-0.15,2.2,2.2,0,0,0-.6,4.3,25.818,25.818,0,0,0,7.35,1.15c10.2,0,12.951-7.45,12.951-11.25,0-2.65-1.55-4.1-4.75-4.15-1.3-.05-2.651-0.05-4.051-0.05-3.05,0-6.25.05-8.85,0.1,0.2-.65.4-1.35,0.6-2a120.114,120.114,0,0,0,16.151-2.4,2.275,2.275,0,0,0,1.95-2.1,2.144,2.144,0,0,0-2.2-2.15,3.922,3.922,0,0,0-.7.1,97.891,97.891,0,0,1-14.2,2.6l0.1-.25a73.221,73.221,0,0,0,7.75-5l12.8,0.15h0.05Zm29.4-4.65a12.976,12.976,0,0,1,6.2,2c4.95,3.15,6.3,9.7,2.75,15.3-1.65,2.6-5.5,4.75-9.3,5.6-4.3,1-2.75,6.05,1.65,4.9,4.951-1.3,9.851-4.4,12.2-8.25,4.35-7.15,3.1-16.35-4.65-21-6.3-3.8-15.451-3.1-21.6,1.15-6.7,4.65-10.05,13.95-6.9,20.15,2.2,4.3,6.4,6.25,10.251,2.7,4.8-4.45,9.3-13.9,10.1-20.25A2.5,2.5,0,0,0,805.812,1072.67Zm-3.95.25a3.537,3.537,0,0,0-.45,1.55c-0.5,5.4-4,13.35-7.751,16.65-1.25,1.1-2.55.35-3.3-1.1-2.1-3.85.4-10.5,5.051-14.1A16.568,16.568,0,0,1,801.862,1072.92Zm69.9-3.2a2.035,2.035,0,0,0,2.2-2.05,2.009,2.009,0,0,0-2.2-2.05h-10.8l0.05-3.35v-0.05a2.338,2.338,0,0,0-2.5-2.3,2.293,2.293,0,0,0-2.45,2.3v0.05l0.05,3.35h-9.35a2.079,2.079,0,0,0-2.25,2.05,2.052,2.052,0,0,0,2.25,2.05h6.75c-0.65,1.9-1.75,5-2.25,6.05-1.45.05-2.9,0.05-4.3,0.05h-0.05a1.968,1.968,0,0,0-2.1,2,2.1,2.1,0,0,0,2.3,2.1,147.681,147.681,0,0,0,20.851-2,7.97,7.97,0,0,1,.75,1.05,2.3,2.3,0,0,0,4.35-1.1c0-2.65-6.35-6.95-7.95-6.95a2.1,2.1,0,0,0-2.15,1.9c0,0.8.55,1.25,1.75,2.05-2.75.3-5.7,0.55-8.7,0.7,0.95-1.95,2.1-4.75,2.5-5.85h13.251Zm-0.8,25.75v0.4c0,3.35-.9,3.4-2.05,3.4-0.95,0-1.35-.25-1.35-1.2v-0.85c0-2.7.1-9.85,0.1-12.65,0-1.25,0-3-2.25-3a2.036,2.036,0,0,0-2.25,2c0,1.25-.1,13.2-0.1,14.8,0,4.1,2.3,4.85,5.4,4.85,3.7,0,7.05-.35,7.05-7.45a2.239,2.239,0,0,0-2.45-2.3,1.925,1.925,0,0,0-2.1,1.95v0.05Zm-29.852-25.35a2.768,2.768,0,0,0,2.55-2.7c0-2.8-6.45-6-7.65-6a2.508,2.508,0,0,0-2.5,2.25,1.849,1.849,0,0,0,.95,1.55,20.35,20.35,0,0,1,5,4.05A2.152,2.152,0,0,0,841.111,1070.12Zm14.5,29.75a2.31,2.31,0,0,0,4.6,0l-0.1-16a2.2,2.2,0,0,0-4.4,0Zm-16.751-18.8a2.65,2.65,0,0,0,2.3-2.75,2.554,2.554,0,0,0-1.05-2.1,18.183,18.183,0,0,0-7.3-2.95,2.465,2.465,0,0,0-2.4,2.4,1.7,1.7,0,0,0,1.25,1.65,19.32,19.32,0,0,1,5.8,3.2A2.085,2.085,0,0,0,838.861,1081.07Zm9.751,3.2v1.4c0,5.75-.75,11.5-7.3,14.4a1.818,1.818,0,0,0-1.1,1.7,2.43,2.43,0,0,0,2.4,2.4,3.038,3.038,0,0,0,1.25-.3c5.551-2.6,9.3-7.55,9.3-19.65a2.276,2.276,0,0,0-4.55,0v0.05Zm-12.9,17.6c4.65-5.3,7.6-12.7,7.6-13.9a2.333,2.333,0,0,0-2.35-2.3,2.129,2.129,0,0,0-2,1.3c-2.2,5-4.3,8.65-7.45,11.95a2.314,2.314,0,0,0-.7,1.65,2.588,2.588,0,0,0,2.6,2.45A3.1,3.1,0,0,0,835.711,1101.87Zm57.35-10.8a78.4,78.4,0,0,0,.05,9.25c0.4,4.2,5.651,3.05,5.051-.4a73.43,73.43,0,0,1-.4-14.85,60.107,60.107,0,0,1,7.15-6.5c7-5.8,7.751-3.1,7.6.45-0.15,3-1.05,8.4-1.3,11.05-1.151,11.05,7.8,11.85,14.15,4.9,2.1-2.35-1.05-6-3.6-3.3-3.35,3.55-6.3,4.15-5.8-1.55,0.25-2.85,1.05-8.15,1.25-11.15,0.65-9.95-6.6-10.4-14.351-4.05-0.55.45-1.15,1-1.75,1.55,0.75-2.35-.65-3.85-2.25-3.65,0.35-2.9.7-5.4,1.05-7.2,0.5-2.75-4.2-3.8-4.6-.5-0.25,2.2-.65,5.55-1,9.3-2.35.9-4.75,1.9-6.55,2.75-2.7,1.25-1.15,6.15,2.3,3.95a18.512,18.512,0,0,1,3.8-1.8c-0.1,1-.15,1.95-0.25,2.95a98.166,98.166,0,0,1-7.45,11.15,4.088,4.088,0,0,0-.4.45c-2.75,3.25,2.3,6.3,4.55,2.35C891.111,1094.77,892.011,1092.87,893.061,1091.07Z" transform="translate(-432.688 -1059.22)"/>
</svg>
