<svg xmlns="http://www.w3.org/2000/svg" width="43.563" height="11.78" viewBox="0 0 43.563 11.78">
  <defs>
    <style>
      .cls-1 {
      fill: #0071bd;
      fill-rule: evenodd;
      }
    </style>
  </defs>
  <path id="VR事業" class="cls-1" d="M678.86,2038.02c0.494-1.59,1.989-5.72,2.756-7.98a0.944,0.944,0,0,0,.039-0.25,0.8,0.8,0,0,0-.832-0.74,0.716,0.716,0,0,0-.715.52c-0.572,1.7-1.9,6.02-2.262,7.11a0.35,0.35,0,0,1-.182.29,0.314,0.314,0,0,1-.169-0.25c-0.546-1.61-1.911-6.13-2.132-7.06a0.772,0.772,0,0,0-.767-0.61,0.755,0.755,0,0,0-.78.78c0,0.6,2.067,6.52,2.717,8.18a1.374,1.374,0,0,0,1.222.94A1.182,1.182,0,0,0,678.86,2038.02Zm9.634-.69a2.569,2.569,0,0,0,2.158,1.61,0.757,0.757,0,0,0,.832-0.77,0.743,0.743,0,0,0-.676-0.76,1.42,1.42,0,0,1-1.066-.83,14.032,14.032,0,0,0-1.456-2.23,0.673,0.673,0,0,1-.182-0.22c0-.04.039-0.05,0.13-0.08a2.443,2.443,0,0,0,1.9-2.44c0-1.22-.871-2.46-2.977-2.6-0.195-.01-0.494-0.03-0.793-0.03-1.092,0-2.574,0-2.613,1.67-0.013.53-.013,0.58-0.013,3.39,0,1.43,0,2.98-.039,4.19v0.02a0.654,0.654,0,0,0,.7.65,0.719,0.719,0,0,0,.767-0.71c0-.47-0.039-2.6-0.039-3.58,0-.23.182-0.24,0.429-0.24s0.546,0.01.715,0.01C686.9,2034.39,687.662,2035.89,688.494,2037.33Zm-1.378-4.16c-0.234.01-.572,0.03-0.9,0.03-0.91,0-1.079-.02-1.079-0.28,0.013-.75,0-1.68.026-1.99,0.039-.61.507-0.65,1.209-0.65a6.25,6.25,0,0,1,.65.02,1.458,1.458,0,0,1,1.625,1.35A1.6,1.6,0,0,1,687.116,2033.17Zm16.381,2.9a0.546,0.546,0,0,0,0-1.09h-1.2c0-.17-0.013-0.32-0.013-0.43-0.026-.65-0.52-0.93-1.352-0.94-0.624-.01-1.352-0.01-2.119-0.01v-0.47c2.834,0,3.2-.01,3.289-0.85a3.933,3.933,0,0,0,.026-0.4c0-.13-0.013-0.27-0.026-0.41-0.039-.54-0.4-0.77-1.235-0.78-0.507-.02-1.261-0.02-2.054-0.02v-0.5l3.861,0.01a0.52,0.52,0,1,0,0-1.04l-3.861.01v-0.53a0.563,0.563,0,0,0-.585-0.59,0.573,0.573,0,0,0-.6.59l0.013,0.53-3.926-.01a0.52,0.52,0,1,0,0,1.04l3.926-.01v0.5c-0.793,0-1.547.02-2.041,0.02-1.2,0-1.352.4-1.352,1.26,0,1.15.286,1.18,3.393,1.18v0.46c-1.157,0-2.327,0-3.25.01a0.473,0.473,0,0,0-.494.48,0.418,0.418,0,0,0,.429.44h0.013c0.845-.01,2.08-0.02,3.3-0.02v0.54h-4.784a0.458,0.458,0,0,0-.455.48,0.464,0.464,0,0,0,.455.5h4.784v0.58c-1.17,0-2.34-.01-3.3-0.02h-0.013a0.465,0.465,0,0,0-.494.48,0.476,0.476,0,0,0,.494.48c1.04,0.01,2.184.01,3.315,0.01l-0.013.34a0.582,0.582,0,0,1-.7.61,3.255,3.255,0,0,1-.689-0.09,1.315,1.315,0,0,0-.195-0.03,0.567,0.567,0,0,0-.572.59c0,0.67.949,0.69,1.365,0.69,1.326,0,1.989-.73,1.989-1.51v-0.01l-0.013-.6c0.741,0,1.456-.02,2.132-0.02a1.174,1.174,0,0,0,1.365-1.45H703.5Zm-4.681-4.55c0.676,0,1.287.01,1.664,0.01s0.429,0.12.429,0.33c0,0.37-.039.37-2.093,0.37v-0.71Zm2.34,3.52h-2.34v-0.53c0.728,0,1.391,0,1.924.01a0.358,0.358,0,0,1,.4.35Zm-3.51-2.81c-1.846,0-2.158-.01-2.158-0.23v-0.29c0.026-.11.13-0.18,0.4-0.18,0.4,0,1.053-.01,1.755-0.01v0.71Zm3.51,3.79c0,0.06-.013.13-0.013,0.19a0.367,0.367,0,0,1-.4.37c-0.6.01-1.248,0.02-1.924,0.02v-0.58h2.34Zm15.3,0.33a0.444,0.444,0,0,0,.469-0.48,0.46,0.46,0,0,0-.482-0.49l-4.251.03,0.013-.58,2.912,0.02a0.435,0.435,0,1,0,0-.87l-2.9.01v-0.56l3.562,0.01a0.451,0.451,0,0,0,.481-0.47,0.459,0.459,0,0,0-.481-0.48l-2.262.02a2.709,2.709,0,0,0,.234-0.64,0.5,0.5,0,0,0-.325-0.43l3.133,0.01a0.511,0.511,0,0,0,.534-0.54,0.5,0.5,0,0,0-.521-0.54h-0.013l-1.768.03a2.15,2.15,0,0,0,.624-1.09,0.658,0.658,0,0,0-.676-0.59,0.574,0.574,0,0,0-.546.39,7.583,7.583,0,0,1-.65,1.3l-0.442.02,0.026-1.73v-0.02a0.534,0.534,0,0,0-.572-0.53,0.542,0.542,0,0,0-.585.55v1.73h-0.754v-1.73a0.548,0.548,0,0,0-.585-0.55,0.528,0.528,0,0,0-.572.53v0.02l0.013,1.73-0.455-.02a4.123,4.123,0,0,0-1.053-1.56,0.532,0.532,0,0,0-.3-0.08,0.643,0.643,0,0,0-.65.52,0.418,0.418,0,0,0,.117.28,5.062,5.062,0,0,1,.676.83l-1.7-.03h-0.013a0.513,0.513,0,0,0-.533.54,0.521,0.521,0,0,0,.546.54l2.977-.01a0.393,0.393,0,0,0-.325.34,0.281,0.281,0,0,0,.065.19,3.582,3.582,0,0,1,.26.54l-2.275-.02a0.475,0.475,0,1,0,0,.95l3.588-.01v0.56l-2.925-.01a0.425,0.425,0,0,0-.442.42,0.431,0.431,0,0,0,.442.45l2.938-.02,0.013,0.58-4.251-.03a0.478,0.478,0,0,0-.494.49,0.454,0.454,0,0,0,.481.48h0.013l3.159-.06h0.429a12.95,12.95,0,0,1-4.043,2.09,0.586,0.586,0,0,0-.455.52,0.631,0.631,0,0,0,.663.59,14.26,14.26,0,0,0,4.5-2.42L711,2039.29v0.02a0.536,0.536,0,0,0,.611.49,0.55,0.55,0,0,0,.611-0.49v-0.02l-0.026-2.23a14.129,14.129,0,0,0,4.5,2.38,0.728,0.728,0,0,0,.69-0.72,0.524,0.524,0,0,0-.4-0.51,14.839,14.839,0,0,1-4.2-1.92h0.39l3.276,0.06h0.013Zm-3.718-4.91a0.323,0.323,0,0,0-.13.22,3.92,3.92,0,0,1-.273.85h-1.43l-0.013-.04a1.493,1.493,0,0,0-.663-1.03h2.509Z" transform="translate(-673.812 -2028.03)"/>
</svg>
