<svg xmlns="http://www.w3.org/2000/svg" width="535" height="178" viewBox="0 0 535 178">
  <metadata><?xpacket begin="﻿" id="W5M0MpCehiHzreSzNTczkc9d"?>
<x:xmpmeta xmlns:x="adobe:ns:meta/" x:xmptk="Adobe XMP Core 5.6-c138 79.159824, 2016/09/14-01:09:01        ">
   <rdf:RDF xmlns:rdf="http://www.w3.org/1999/02/22-rdf-syntax-ns#">
      <rdf:Description rdf:about=""/>
   </rdf:RDF>
</x:xmpmeta>
                                                                                                    
                                                                                                    
                                                                                                    
                                                                                                    
                                                                                                    
                                                                                                    
                                                                                                    
                                                                                                    
                                                                                                    
                                                                                                    
                                                                                                    
                                                                                                    
                                                                                                    
                                                                                                    
                                                                                                    
                                                                                                    
                                                                                                    
                                                                                                    
                                                                                                    
                                                                                                    
                           
<?xpacket end="w"?></metadata>
<defs>
    <style>
      .cls-1 {
        fill: #98d6f2;
        fill-rule: evenodd;
      }
    </style>
  </defs>
  <path id="シェイプ_19" data-name="シェイプ 19" class="cls-1" d="M1272.08,2527.54c-5.14,0-9.3,1.85-9.3,4.13a2.1,2.1,0,0,0,.31,1.07c-4.78.17-8.53,1.95-8.53,4.12,0,2.12,3.61,3.88,8.26,4.11v0.02h32.59v-0.02c4.8-.16,8.59-1.94,8.59-4.12,0-2.14-3.66-3.9-8.35-4.12-0.26-2.18-4.32-3.91-9.29-3.91a17.384,17.384,0,0,0-5.99.98c-1.54-1.34-4.67-2.26-8.29-2.26m-198.51-133c-5.14,0-9.3,1.86-9.3,4.14a2.066,2.066,0,0,0,.31,1.06c-4.78.18-8.53,1.96-8.53,4.12,0,2.13,3.61,3.88,8.26,4.11v0.02h0.52c0.17,0.01.35,0.01,0.52,0.01s0.36,0,.53-0.01h31.02v-0.01c4.8-.16,8.59-1.95,8.59-4.12,0-2.15-3.66-3.91-8.35-4.12-0.26-2.18-4.32-3.91-9.29-3.91a17.639,17.639,0,0,0-5.99.97c-1.54-1.34-4.67-2.26-8.29-2.26m-100.535-31.55c-7.633,0-13.821,2.75-13.821,6.15a3.1,3.1,0,0,0,.464,1.58c-7.092.26-12.667,2.9-12.667,6.12,0,3.16,5.363,5.76,12.265,6.1v0.03h0.775c0.258,0.01.519,0.01,0.779,0.01s0.523,0,.783-0.01h46.067v-0.02c7.14-.24,12.77-2.89,12.77-6.13,0-3.18-5.44-5.79-12.4-6.11-0.4-3.24-6.42-5.81-13.8-5.81a25.965,25.965,0,0,0-8.9,1.45c-2.285-1.99-6.939-3.36-12.314-3.36m-186.777,66.26c-5.062,0-9.166,2.63-9.166,5.86a3.92,3.92,0,0,0,.308,1.51c-4.7.25-8.4,2.76-8.4,5.83,0,3.02,3.557,5.5,8.133,5.82v0.03h0.515c0.171,0.01.344,0.01,0.517,0.01s0.346,0,.518-0.01h30.552v-0.02c4.735-.23,8.467-2.75,8.467-5.84,0-3.03-3.6-5.53-8.223-5.83-0.261-3.08-4.258-5.53-9.152-5.53a12.57,12.57,0,0,0-5.9,1.37c-1.515-1.9-4.6-3.2-8.167-3.2" transform="translate(-769 -2363)"/>
</svg>
