<svg xmlns="http://www.w3.org/2000/svg" width="744" height="246" viewBox="0 0 744 246">
  <metadata><?xpacket begin="﻿" id="W5M0MpCehiHzreSzNTczkc9d"?>
<x:xmpmeta xmlns:x="adobe:ns:meta/" x:xmptk="Adobe XMP Core 5.6-c138 79.159824, 2016/09/14-01:09:01        ">
   <rdf:RDF xmlns:rdf="http://www.w3.org/1999/02/22-rdf-syntax-ns#">
      <rdf:Description rdf:about=""/>
   </rdf:RDF>
</x:xmpmeta>
                                                                                                    
                                                                                                    
                                                                                                    
                                                                                                    
                                                                                                    
                                                                                                    
                                                                                                    
                                                                                                    
                                                                                                    
                                                                                                    
                                                                                                    
                                                                                                    
                                                                                                    
                                                                                                    
                                                                                                    
                                                                                                    
                                                                                                    
                                                                                                    
                                                                                                    
                                                                                                    
                           
<?xpacket end="w"?></metadata>
<defs>
    <style>
      .cls-1 {
        fill: #1c83ab;
        fill-rule: evenodd;
      }
    </style>
  </defs>
  <path id="シェイプ_18" data-name="シェイプ 18" class="cls-1" d="M873.8,2385l-2.206.28-0.064,1.14,2.08,0.08v0.99l-2.6.29v2.07l-1.887.07-0.39.71v9.78l-1.753.14-1.236.93,0.063,6.35-3.251-.5-4.03.78v9.85l-2.867.21-0.128.72h-0.974l0.194,6.28-2.6-.22-5.853.43,0.847,65.42-15.542.72-0.2-.43-0.259-.07-0.2.5-3.9-.36-0.132-.71-1.82-.07v0.64l-3.9.21v-0.5h-0.782v0.64l-8.13.36v1.43l-11.766,1.91,0.371,90.68-9.879-.2-0.16-73.87-18.105-2.04h-4.552l-0.2-.64h-1.235l-0.133-.72h-0.65v0.79h-1.751v0.28h-9.564v-0.71h-0.52l-0.13.64-1.17-.21v-6.49H752v1.78l-2.343-.43-0.064-1h-1.037l-0.068,1.07-1.5-.07-0.193-1.14-0.844.07-0.064,1.14-7.353-.14-0.131-1.21-1.171.14-0.064.78-0.387.08-0.067.28-4.683.14-0.066-1-0.651.08-0.064,1-0.451.57v2.78l-5.725-.5-1.757.29-3.382,3.78,0.457,36.95,0.258-.35,0.325,13.2h-0.714v-0.57l-0.783-.22-0.063-1.21,0.128-.29-0.323-.43-5.074-.14-0.192-.64h-0.846v1h-0.652l-0.325-21.62,0.065-1-0.129-.5-0.259-10.06s0.194-2.57.451-4.99a19.151,19.151,0,0,0,0-4.28h-11.12s-0.322,2.85.328,3.92,0.908,4.71.908,4.71l0.131,11.27-0.26-.07-0.065.93,0.388,0.07,0.067,23.47h-2.991v-0.57h-2.016v0.93h-5.95v20.87l-0.361-.39h-1.688v0.49h-0.52v0.65l-0.392.14v-0.64l-0.454-.29-0.132.86h-0.322v-0.5l-0.394-.22v0.72l-0.321.07v-0.57l-0.328.07v1.07l0.848,0.79,0.063,12.7-1.234-.08-0.132-.71h-0.846v-0.36c0-.35.066-1.35,0.066-1.35l-0.325-.22-0.326.43-0.781.15-0.065-.36-20.709-.08,0.029,16.54h-1.389a2.2,2.2,0,0,0-1.429-.88,1.607,1.607,0,0,0-.216.02,2.212,2.212,0,0,0-1.3.86h-0.954v-0.86l-0.868-.1-0.779-.76-1.561.95-0.519-.57h-2l-0.561-14.65h1.348v-2.34H649.4v2.34h1.279l-0.244,15.13h-0.782v-1.14h-1.215l-0.78-1.14h-3.465l-0.436-17.51h-1.212l-3.556,19.22h-10.32l-0.076-7.1-25.592.1v28.12l744,0.95v-50.23l-11.44-.95-1.56-.95-1.57.76v-3.61l-3.46.38v2.66l-18.99-.86v-15.5l0.25-.29v-0.67l0.26-.14v-0.85l-3.76.14-0.05-.43h-0.26v-0.57h-0.35v0.86l-8.02.19-4.64.38,0.09,1.14,0.39,0.05-0.05.95h0.57l-0.09,10.27-1.56.05h-7.2v2.95l-1.21-.05-0.04-2-1.3-.04-0.09-7.62-14.44-.33v-0.66h-2.86v0.81l-10.23.14-7.85.62v0.66h-1.17v-1.14l0.22-.05,0.04-.33h-2.39l0.05,0.19h0.47v0.48l-0.34.04,0.04,0.57-1.99-.09,0.39-60.93h-16.74v-3.28h-0.26V2507l-8.97.05v-3.29h-0.22v3.29l-7.54.09-7.46,1.52-0.3,41.34-22.55-2.05v-2.33a1.193,1.193,0,0,0-1.11-.38,5.324,5.324,0,0,0-.71.05v-1.76l-3.34-.24-13.18.62-0.04,3.8h-1.22l0.04-3.85-6.24.15,0.44-107.45a1.084,1.084,0,0,0,.74-1.71c-0.74-1.3-6.93-1.34-7.73-1.34h-0.08l-0.13-1.8-1.39-.2-0.26-1.47-1.95-.14v1.52l-1.87.29-0.04-.34-0.3-.04-0.04-7.47h0.43v-0.38h-0.48v-2.19h0.57v-0.48h-0.61v-2.23h0.69v-0.34h-0.74v-2.18h0.7v-0.38h-0.65v-2.43h0.87l-0.22-.24h-0.65v-2.14h0.69v-0.47h-0.6v-1.57h1.21v-0.24h-1.21v-1.86h0.3v-0.28h-0.3v-9.47h-0.39v11.61h-0.57v0.33h0.52v1.52h-0.56v0.38h0.56v2.19h-0.43v0.57h0.43v2.14h-0.52v0.24h0.57l-0.05,2.28h-0.47v0.48h0.43l0.04,2.19h-0.43v0.33h0.48v2.14l-0.48.05v0.45l0.32,0.14-0.13,7.49h-0.84l-0.13-1.64h-0.52l-0.2,2.14h-0.39l0.07-.5-0.59.08-0.13.42h-1.1l-0.72-.35-0.32.14-0.2-.79-0.46.15,0.26,0.07v0.43l-0.13.28-0.06.79-0.13.21-0.06.57-4.1.22-0.13.42-1.17.22h-0.79l-0.12-2.43h-0.52l0.06-1.14h1.11v-0.43a6.013,6.013,0,0,0-1.39-.15c-0.14,0-.28,0-0.43.01a1.393,1.393,0,0,0-1.11,1.36l-0.13-.22-1.24-.07,0.14,1.07-0.27.07-0.06-.21-0.84.07-0.27.21-0.06-.43h-1.5v1.65l0.59,0.14,0.26,24.33-13.27.57-0.13,5.14-5.01,2.49v2.43l-0.32,31.25h-4.62l-0.13.5-0.58.07v17.76l-2.87.22-0.06-1.5-0.45-.21v0.64l-0.66-.22-3.83.15-0.13,1.35-10.15.36-0.06-1.78-1.11-.08v1.97h-1.01l-0.16-.18h-0.78l-0.13-1.07h-2.08l0.26-61.93-1.37-.71h-0.58l-0.46-.29v-5.56h-0.91l-0.26-1.29-0.32-.07v-0.78h-0.39a1,1,0,0,0-1.11-.86,1.452,1.452,0,0,0-1.36.64l-0.2-1.43-0.58-.07-0.07-.71-0.26-.14-0.2-1.07-0.39-.29,0.07-5.49,0.39-.36,0.13-1-0.39-.21-0.07-.72,0.39-.14,0.07-1.28h-0.39l-0.13-.29a0.448,0.448,0,0,1-.16.03c-0.14,0-.31-0.08-0.23-0.53a0.9,0.9,0,0,0-.8-1.1,0.764,0.764,0,0,0-.37.1,1.065,1.065,0,0,0-.26,1.29l-1.63-.22-0.84-.21h-0.03c-0.09,0-.32-0.05-0.1-0.64a0.922,0.922,0,0,0-1.63-.79,0.948,0.948,0,0,0,.07,1.5l-0.65.07-1.18.15a0.759,0.759,0,0,0-.85-0.65h-0.12a0.909,0.909,0,0,0-.97.72h-2.8a1.093,1.093,0,0,0-.56-1.7,0.607,0.607,0,0,0-.42.2,1.19,1.19,0,0,0-.19,1.57l-0.98.14-0.13.71,0.52,0.58,0.26,0.71-0.45.21v0.72l0.45,0.35-0.13,6.92h-0.52v0.36H1052v0.93h-0.39v0.5h-0.58v1.64s0-1.14-1.56-1.14a1.871,1.871,0,0,0-1.76,1.71h-0.46v1.14l-0.65.14-0.52-.21a0.844,0.844,0,0,0-.84-0.79,0.744,0.744,0,0,0-.78.75h-0.36l-0.23-.25v-1.28l-0.78-.57v-1l-0.32-.21-0.07-.65-0.13-.5v-5.06l0.33-.29,0.13-.85-0.52-.36,0.19-.71,0.39-.36,0.07-1.29-0.39-.07-0.33-.14a0.9,0.9,0,0,0-.78-1.28,0.34,0.34,0,0,0-.14-0.02,1.242,1.242,0,0,0-.77.52l-0.26.85-1.82-.35-0.72-.15a1.65,1.65,0,0,0,.14-1.14,0.569,0.569,0,0,0-.57-0.36,1.86,1.86,0,0,0-.8.22c-0.59.28-.07,1.36-0.07,1.36l-1.36.21a1.438,1.438,0,0,0-.98-0.43,1.345,1.345,0,0,0-.97.57l-3.12.14a1.086,1.086,0,0,0,.06-0.99,0.744,0.744,0,0,0-.73-0.46,1.892,1.892,0,0,0-.31.03c-0.85.14-.33,1.49-0.33,1.49l-0.91.43-0.06.5,0.26,0.43h0.59v0.93h-0.4l-0.25.21,0.19,0.72,0.46,0.07-0.07,5.92-0.2.07-0.13.43-0.52.28v0.5l0.33,0.07-0.06,1h-0.4l0.07,0.43-0.59.07-0.06,1.43a1.2,1.2,0,0,0-1.43-1.07,1.884,1.884,0,0,0-1.69,1.64l-0.52.14v1.08l-1.05.35-0.06,5.64-0.78.21v0.5l-1.3.07v2.28h-0.32l0.06,49.8-22.568,1.5-0.195,13.06h-7.155v-0.5l-0.325-.36h-0.585v1l-8,.07,0.064-3.71-3.832-.64-24.2,1.36v-1.5h-0.2v1.57h-0.257v-1.29a1.751,1.751,0,0,1-.426-0.46,0.018,0.018,0,0,0-.009-0.02,2.252,2.252,0,0,0-.347.41v1.5h-3.9v-0.71h-0.328v0.85l-5.656.22,0.067,7.77-3.255.22v16.62a7.934,7.934,0,0,0-1.479-.14,5.855,5.855,0,0,0-4.177,1.57l-4.811.07v-0.93l-0.425-.07v-2.39l-0.162.18v3.64l-3.71.07-4.616-.21v3.06l0.193,0.07-0.061,2.07-1.954-.07,0.067-22.9h-0.39l-0.13-.86-0.39-.07-0.13.57-2.148-.14-0.066-6.06-4.744-.5-6.959.28-0.2-6.7,0.264-.22,0.063-.78-0.585.07-0.392-89.68-4.618-1.22-3.447.43-0.2-7.7-3.835-.22-0.132-9.77-3.967-.93-3.252.5-0.127-7.28-3.125-.28v-10.13l-2.534-.79v-1.78l-2.668-.22v-1l2.014-.14,0.069-1.07L873.8,2385" transform="translate(-603 -2385)"/>
</svg>
