<svg 
 xmlns="http://www.w3.org/2000/svg"
 xmlns:xlink="http://www.w3.org/1999/xlink"
 width="211px" height="41px">
<path fill-rule="evenodd"  fill="rgb(0, 113, 189)"
 d="M208.437,21.331 L177.012,21.331 C175.211,21.331 174.360,20.131 174.360,18.931 C174.360,17.681 175.311,16.381 177.012,16.381 L208.437,16.381 C210.139,16.381 210.989,17.631 210.989,18.881 C210.989,20.081 210.139,21.331 208.437,21.331 ZM144.689,40.382 C140.586,42.732 138.384,38.032 141.536,36.282 C150.394,31.382 152.395,24.681 152.395,17.231 C152.395,13.331 152.145,7.130 152.145,3.180 C152.145,-0.070 157.549,0.130 157.499,3.180 C157.399,7.430 157.649,13.031 157.649,17.181 C157.649,25.781 155.047,34.432 144.689,40.382 ZM141.136,24.181 C139.835,24.181 138.434,23.281 138.534,21.631 C138.834,16.681 138.684,8.830 138.434,4.080 C138.284,0.980 143.438,0.730 143.638,3.880 C143.888,8.380 143.888,16.931 143.788,21.581 C143.738,23.281 142.437,24.181 141.136,24.181 ZM119.071,23.131 C116.919,21.531 111.965,19.581 109.313,19.081 C109.263,25.981 109.263,33.182 109.363,37.232 C109.463,41.282 103.758,41.432 103.959,37.432 C104.309,29.332 104.459,9.730 104.259,2.530 C104.159,-0.870 109.563,-0.820 109.463,2.580 C109.413,5.030 109.363,9.380 109.313,14.281 C109.563,14.281 109.863,14.281 110.164,14.331 C112.966,14.781 119.471,16.381 122.173,18.681 C124.775,20.881 121.923,25.231 119.071,23.131 ZM58.825,37.332 C54.572,38.682 52.970,32.982 57.124,31.932 C67.182,29.382 77.290,19.031 82.344,9.230 C83.945,6.130 89.099,8.230 86.897,12.180 C80.692,23.431 70.334,33.682 58.825,37.332 ZM61.927,16.681 C60.076,14.981 56.873,13.531 54.522,12.981 C51.519,12.280 52.770,7.230 56.573,8.280 C59.225,9.030 62.978,10.380 65.380,12.080 C66.931,13.181 66.831,15.081 66.031,16.231 C65.230,17.381 63.479,18.081 61.927,16.681 ZM37.511,33.432 C26.852,33.232 12.441,33.282 2.883,33.582 C-1.070,33.682 -0.820,28.731 2.883,28.681 C6.786,28.581 11.990,28.531 17.445,28.481 C17.545,24.681 17.495,18.181 17.495,15.281 C13.892,15.331 10.639,15.331 8.538,15.231 C5.235,15.081 5.385,10.430 8.638,10.480 C15.193,10.630 23.900,10.480 31.406,10.280 C33.157,10.230 34.058,11.430 34.008,12.630 C33.958,13.831 33.057,15.031 31.356,15.081 C28.904,15.131 25.751,15.181 22.499,15.231 C22.449,19.481 22.549,25.181 22.549,28.431 C28.103,28.381 33.608,28.331 38.011,28.331 C39.663,28.331 40.513,29.632 40.463,30.932 C40.413,32.232 39.462,33.482 37.511,33.432 Z"/>
</svg>