<svg 
 xmlns="http://www.w3.org/2000/svg"
 xmlns:xlink="http://www.w3.org/1999/xlink"
 width="14px" height="105px">
<path fill-rule="evenodd"  fill="rgb(0, 113, 189)"
 d="M12.911,34.431 C12.575,35.159 12.253,35.874 11.552,36.938 L10.264,36.252 C10.852,35.215 11.258,34.179 11.552,33.142 L13.135,33.675 C13.303,33.731 13.401,33.815 13.401,33.941 C13.401,34.053 13.331,34.095 13.233,34.123 C13.037,34.165 13.023,34.193 12.911,34.431 ZM8.051,27.926 L6.314,27.926 L6.314,24.942 L1.173,24.942 L1.173,23.471 L6.314,23.471 L6.314,22.029 L6.972,22.099 L6.384,21.510 C6.706,21.286 6.790,21.202 7.546,20.488 C7.784,20.250 8.373,19.577 8.933,18.583 L4.913,18.583 L5.445,18.835 C5.641,18.933 5.725,19.031 5.725,19.115 C5.725,19.157 5.711,19.213 5.655,19.241 C5.613,19.269 5.389,19.339 5.347,19.381 C5.319,19.409 5.109,19.745 5.067,19.815 C5.459,20.096 6.202,20.558 6.832,20.824 L5.921,22.113 C5.039,21.650 4.633,21.370 4.227,21.020 C3.526,21.945 3.022,22.449 2.560,22.911 L1.159,22.029 C2.322,21.104 3.316,19.969 3.862,18.583 L1.831,18.583 L1.831,17.182 L6.384,17.182 L6.384,15.809 L7.995,15.893 C8.051,15.893 8.359,15.907 8.359,16.047 C8.359,16.145 8.303,16.201 8.247,16.243 C8.163,16.299 8.107,16.356 8.107,16.468 L8.107,17.182 L12.659,17.182 L12.659,18.583 L10.446,18.583 C10.572,18.653 10.838,18.807 10.838,18.975 C10.838,19.045 10.796,19.059 10.782,19.073 C10.740,19.101 10.516,19.157 10.488,19.185 C10.460,19.213 10.222,19.591 10.166,19.661 C11.244,20.894 12.253,21.440 12.967,21.776 L11.861,22.981 C10.600,22.183 9.886,21.412 9.339,20.754 C8.849,21.314 8.429,21.762 7.911,22.141 C8.163,22.183 8.275,22.197 8.275,22.323 C8.275,22.379 8.247,22.393 8.205,22.435 C8.079,22.575 8.051,22.589 8.051,22.673 L8.051,23.471 L13.275,23.471 L13.275,24.942 L8.051,24.942 L8.051,27.926 ZM12.309,2.258 C12.239,2.272 10.684,2.636 9.227,2.748 C9.241,3.197 9.227,3.407 9.213,4.485 L13.121,4.485 L13.121,5.984 L11.861,5.984 L11.861,12.456 L10.404,12.456 L10.404,5.984 L9.185,5.984 C9.031,9.430 8.667,10.761 7.490,12.568 L6.005,12.077 C6.468,11.559 6.762,11.209 7.070,10.452 C7.630,9.052 7.756,7.399 7.756,5.214 C7.756,3.967 7.742,2.720 7.686,1.474 L8.555,1.530 C8.709,1.544 8.919,1.502 8.975,1.502 C11.230,1.067 11.482,1.011 12.267,0.717 L13.107,1.726 C13.149,1.782 13.247,1.922 13.247,2.020 C13.247,2.132 13.163,2.132 12.925,2.132 C12.799,2.132 12.463,2.216 12.309,2.258 ZM5.193,6.712 L7.056,6.712 L7.056,8.043 L5.193,8.043 C5.697,8.743 6.398,9.346 6.804,9.668 L5.907,10.705 C5.557,10.466 5.361,10.270 5.193,10.046 L5.193,12.540 L3.680,12.540 L3.680,9.878 C3.274,10.522 2.700,11.279 2.167,11.783 L0.921,10.971 C1.859,10.186 2.602,9.304 3.148,8.043 L1.495,8.043 L1.495,6.712 L3.680,6.712 L3.680,5.732 L1.313,5.732 L1.313,4.443 L2.756,4.443 C2.672,4.149 2.476,3.407 2.279,2.902 L1.593,2.902 L1.593,1.656 L3.778,1.656 L3.778,0.451 L5.319,0.591 C5.529,0.605 5.613,0.647 5.613,0.717 C5.613,0.787 5.543,0.857 5.487,0.899 C5.459,0.927 5.347,1.025 5.347,1.109 L5.347,1.656 L7.168,1.656 L7.168,2.902 L6.720,2.902 C6.566,3.477 6.426,3.883 6.160,4.443 L7.308,4.443 L7.308,5.732 L5.193,5.732 L5.193,6.712 ZM3.722,2.902 C3.904,3.365 4.072,3.897 4.213,4.443 L4.731,4.443 C4.843,4.121 5.053,3.519 5.179,2.902 L3.722,2.902 ZM5.193,32.190 C6.594,32.190 7.995,32.050 9.367,31.756 C9.998,31.615 10.838,31.405 11.777,31.027 L12.883,32.358 C12.981,32.484 13.023,32.596 13.023,32.652 C13.023,32.764 12.897,32.778 12.855,32.778 C12.785,32.778 12.435,32.610 12.351,32.610 C12.281,32.610 10.334,33.058 9.956,33.128 C8.597,33.366 7.224,33.534 5.851,33.633 L5.193,32.190 ZM7.784,33.773 L9.241,33.324 C9.746,34.235 9.928,34.879 10.054,35.692 L8.695,36.028 C8.331,34.697 8.037,34.179 7.784,33.773 ZM1.789,38.983 C1.705,39.011 1.649,39.053 1.537,39.250 C1.467,39.348 1.411,39.474 1.299,39.474 C1.215,39.474 1.159,39.348 1.131,39.123 L0.893,37.443 C1.495,37.303 1.775,37.232 2.504,37.008 L2.504,34.823 L1.159,34.823 L1.159,33.338 L2.504,33.338 L2.504,31.251 L4.086,31.349 C4.325,31.363 4.465,31.433 4.465,31.573 C4.465,31.657 4.367,31.741 4.297,31.798 C4.142,31.910 4.100,31.980 4.100,32.036 L4.100,33.338 L5.417,33.338 L5.417,34.123 L6.748,33.619 C7.322,34.473 7.630,35.369 7.826,36.140 L6.412,36.658 C6.048,35.341 5.613,34.627 5.417,34.291 L5.417,34.823 L4.100,34.823 L4.100,36.518 C4.801,36.280 5.039,36.196 5.403,36.056 L5.487,37.373 L8.331,37.373 L8.331,36.252 L9.970,36.448 C10.208,36.476 10.320,36.518 10.320,36.616 C10.320,36.728 10.236,36.784 10.152,36.840 C9.998,36.952 9.984,36.966 9.984,37.036 L9.984,37.373 L13.317,37.373 L13.317,38.843 L10.222,38.843 C11.370,40.412 12.939,41.323 13.864,41.757 L12.617,42.990 C11.693,42.443 10.726,41.505 9.984,40.496 L9.984,43.340 L8.331,43.340 L8.331,40.258 C7.490,41.575 6.482,42.541 5.571,43.228 L4.100,42.107 C4.058,42.892 3.932,43.410 2.658,43.410 L1.859,43.410 L1.075,41.743 C1.327,41.785 1.859,41.841 2.097,41.841 C2.378,41.841 2.504,41.687 2.504,41.393 L2.504,38.745 C2.307,38.815 1.985,38.913 1.789,38.983 ZM4.100,41.939 C5.711,41.281 6.916,40.020 7.728,38.843 L5.305,38.843 L5.305,37.653 C4.773,37.877 4.381,38.031 4.100,38.143 L4.100,41.939 ZM2.504,51.372 C2.504,49.901 2.448,48.430 2.322,46.959 L12.281,46.959 L12.281,57.381 C12.281,58.123 12.267,58.543 10.054,58.698 L9.283,57.171 C9.493,57.213 9.732,57.227 9.928,57.227 C10.502,57.227 10.684,57.115 10.684,56.722 L10.684,53.949 L8.163,53.949 L8.163,57.941 L6.580,57.941 L6.580,53.949 L3.988,53.949 C3.848,56.022 3.596,57.017 2.840,58.585 L1.383,58.067 C2.307,56.484 2.504,54.873 2.504,51.372 ZM8.163,52.632 L10.684,52.632 L10.684,50.993 L8.163,50.993 L8.163,52.632 ZM8.163,49.677 L10.684,49.677 L10.684,48.318 L8.163,48.318 L8.163,49.677 ZM6.580,52.632 L6.580,50.993 L4.072,50.993 C4.058,52.212 4.044,52.352 4.044,52.632 L6.580,52.632 ZM4.058,49.677 L6.580,49.677 L6.580,48.318 L4.044,48.318 C4.058,48.822 4.058,49.158 4.058,49.677 ZM4.409,62.710 L5.949,62.878 C6.272,62.920 6.370,62.934 6.370,63.074 C6.370,63.130 6.342,63.158 6.258,63.214 C6.104,63.326 6.076,63.354 6.076,63.424 L6.076,65.385 L8.723,65.385 C8.723,64.320 8.723,63.382 8.695,62.499 L10.138,62.696 C10.250,62.710 10.572,62.752 10.572,62.920 C10.572,62.976 10.530,63.018 10.446,63.088 C10.348,63.172 10.320,63.200 10.292,63.270 L10.292,65.385 L12.645,65.385 L12.645,66.982 L10.278,66.982 C10.124,70.974 9.199,72.375 6.482,74.028 L5.333,72.935 C7.868,71.548 8.667,70.120 8.723,66.982 L6.076,66.982 L6.076,70.190 L4.409,70.190 L4.409,66.982 L1.817,66.982 L1.817,65.385 L4.409,65.385 L4.409,62.710 ZM11.384,78.712 C11.440,78.754 11.623,78.936 11.623,79.048 C11.623,79.146 11.566,79.160 11.286,79.174 C11.076,79.188 11.048,79.216 10.852,79.426 C10.152,80.225 9.367,80.953 8.541,81.611 L8.541,89.078 L6.790,89.078 L6.790,82.914 C5.837,83.545 4.899,84.133 3.260,84.903 L2.041,83.657 C4.969,82.508 8.051,80.211 10.166,77.703 L11.384,78.712 ZM7.574,93.846 C7.574,93.930 7.210,94.154 7.210,94.224 L7.210,97.908 L7.868,96.871 C8.583,97.180 9.045,97.362 10.250,98.146 C11.356,98.874 11.875,99.337 12.435,99.827 L11.328,101.172 C10.292,100.205 8.891,99.071 7.210,98.370 L7.210,104.421 L5.557,104.421 L5.557,93.327 L7.238,93.622 C7.280,93.636 7.574,93.678 7.574,93.846 Z"/>
</svg>