<svg xmlns="http://www.w3.org/2000/svg" width="372.281" height="21.47" viewBox="0 0 372.281 21.47">
  <metadata><?xpacket begin="﻿" id="W5M0MpCehiHzreSzNTczkc9d"?>
<x:xmpmeta xmlns:x="adobe:ns:meta/" x:xmptk="Adobe XMP Core 5.6-c138 79.159824, 2016/09/14-01:09:01        ">
   <rdf:RDF xmlns:rdf="http://www.w3.org/1999/02/22-rdf-syntax-ns#">
      <rdf:Description rdf:about=""/>
   </rdf:RDF>
</x:xmpmeta>
                                                                                                    
                                                                                                    
                                                                                                    
                                                                                                    
                                                                                                    
                                                                                                    
                                                                                                    
                                                                                                    
                                                                                                    
                                                                                                    
                                                                                                    
                                                                                                    
                                                                                                    
                                                                                                    
                                                                                                    
                                                                                                    
                                                                                                    
                                                                                                    
                                                                                                    
                                                                                                    
                           
<?xpacket end="w"?></metadata>
<defs>
    <style>
      .cls-1 {
        fill: #0071bd;
        fill-rule: evenodd;
      }
    </style>
  </defs>
  <path id="ネオラボ取締役社長_大川_智弘" data-name="ネオラボ取締役社長　大川 智弘" class="cls-1" d="M523.2,1339.92a1.108,1.108,0,0,0-.264-1.56,10.168,10.168,0,0,0-4.752-1.32c-1.512-.1-1.656,1.89-0.384,1.96a10.435,10.435,0,0,1,3.936,1.25A0.993,0.993,0,0,0,523.2,1339.92Zm5.665,11.66a1.224,1.224,0,0,0,0-1.68,12.379,12.379,0,0,0-4.368-2.49c-1.489-.53-2.209,1.32-1.009,1.72a11.28,11.28,0,0,1,3.793,2.5A1.048,1.048,0,0,0,528.865,1351.58Zm-7.177-4.7c0.72-.7,1.392-1.42,1.993-2.09,1.272-1.44.84-3.24-1.513-3.17-1.8.05-5.5,0.07-7.128,0.19-1.728.15-1.656,2.33,0.12,2.23,1.536-.07,4.512-0.24,5.784-0.26,0.552-.02.5,0.19,0.192,0.55a26.345,26.345,0,0,1-9.048,6.53,1.185,1.185,0,1,0,.912,2.16,27.233,27.233,0,0,0,6.6-4.22c0.024,1.97-.192,4.61-0.288,6.77a1.142,1.142,0,0,0,1.272,1.24,1.242,1.242,0,0,0,1.176-1.36c-0.072-2.24,0-5.19.048-6.96A5.4,5.4,0,0,0,521.688,1346.88Zm28.08-2.21c1.321,0,2.641.05,3.889,0.09a1.16,1.16,0,1,0,.072-2.28c-1.272-.02-2.616,0-3.985,0-0.024-1.36-.048-2.54-0.048-3.21a1.167,1.167,0,1,0-2.328.09c0.024,0.63.072,1.78,0.12,3.15-2.592.02-5.208,0.07-7.608,0.17a1.112,1.112,0,1,0,.072,2.2c2.016-.07,4.152-0.14,6.288-0.19a21.707,21.707,0,0,1-8.065,7.47c-1.512.79-.336,3.07,1.657,1.8a27.838,27.838,0,0,0,7.8-7.32c0.072,2.52.144,5.01,0.168,6.43,0.024,1.27-1.248,1.13-2.232.82-1.512-.48-2.4,1.99-0.216,2.37,3.768,0.65,4.8-.86,4.753-2.71-0.024-.65-0.024-1.06-0.072-1.8C549.912,1349.95,549.816,1347.19,549.768,1344.67Zm28.657-4.56a1.174,1.174,0,0,0-1.3-1.11c-2.425.03-5.785,0.03-8.089,0-1.848-.02-1.752,2.19-0.168,2.24,2.592,0.07,5.9,0,8.161,0A1.188,1.188,0,0,0,578.425,1340.11Zm1.536,7.06c0.984-2.36-.192-3.7-2.592-3.73-3.265-.02-7.3,0-10.393.08a1.142,1.142,0,1,0,.072,2.25c2.568-.09,7.032-0.17,9.481-0.12,0.912,0.03,1.032.41,0.792,1.06-1.081,3.05-4.129,5.95-8.857,7.22-1.92.51-1.032,2.88,0.936,2.28C575.352,1354.39,578.281,1351.17,579.961,1347.17Zm29.544-7.9a8.257,8.257,0,0,0-2.112-2.07c-1.032-.69-2.328.58-1.2,1.4a8.242,8.242,0,0,1,1.656,1.92C608.425,1341.67,610.225,1340.52,609.505,1339.27Zm-3,1.29a8.184,8.184,0,0,0-2.04-2.11c-1.008-.72-2.377.46-1.272,1.32a8.907,8.907,0,0,1,1.608,1.97C605.353,1342.92,607.177,1341.84,606.505,1340.56Zm1.3,12.22a1.286,1.286,0,0,0,.36-1.73,13.277,13.277,0,0,0-4.1-3.52c-1.369-.82-2.521,1-1.345,1.7a12.51,12.51,0,0,1,3.5,3.26A1.042,1.042,0,0,0,607.8,1352.78Zm-9.409-7.46c0.024,2.52.024,5.25,0,6.96-0.024,1.32-1.08,1.17-2.064.86-1.464-.48-2.4,1.99-0.264,2.38,3.432,0.6,4.584-.84,4.584-2.74,0-.67,0-1.05-0.024-1.82-0.072-1.66-.072-3.72-0.048-5.67,1.8,0,3.577,0,5.353.1a1.149,1.149,0,1,0,.1-2.26c-1.776-.02-3.577-0.05-5.425-0.02,0.024-1.25.024-2.35,0.048-3.1a1.156,1.156,0,1,0-2.3.1c0.024,0.67.048,1.75,0.048,3.02-1.944.03-3.912,0.1-5.808,0.17a1.116,1.116,0,1,0,.048,2.21C594.552,1345.44,596.472,1345.36,598.392,1345.32Zm-6.168,8.09a14.825,14.825,0,0,0,3.624-4.28,1.071,1.071,0,1,0-1.824-1.12,11.894,11.894,0,0,1-3.193,3.4,1.193,1.193,0,0,0-.312,1.71A1.225,1.225,0,0,0,592.224,1353.41Zm30.6,2.85a1.1,1.1,0,0,0,2.208.07,1.267,1.267,0,0,0,1.032.56c0.792,0,3.024-1.76,4.705-3.75,2.136,2.62,4.224,3.6,4.776,3.6a1.311,1.311,0,0,0,1.3-1.32,1.1,1.1,0,0,0-.7-1.03,11.843,11.843,0,0,1-4.032-3.07,19.437,19.437,0,0,0,3-8.79c0-1.39-.768-2.09-2.328-2.11-0.864-.02-2.136-0.02-3.456-0.02-0.961,0-1.945,0-2.809.02a1.063,1.063,0,0,0-1.1,1.08,1,1,0,0,0,1.056,1.03h0.048c1.032-.05,2.256-0.05,3.385-0.05,2.76,0,2.832,0,2.832.48a16.577,16.577,0,0,1-1.992,6.32,17.706,17.706,0,0,1-1.8-5.43,0.886,0.886,0,0,0-.936-0.72,1.1,1.1,0,0,0-1.152,1.06,18.063,18.063,0,0,0,2.593,7.06,14.921,14.921,0,0,1-4.129,3.52,1.222,1.222,0,0,0-.288.24V1339.2h1.176a0.963,0.963,0,1,0,0-1.92h-9.721a0.963,0.963,0,1,0,0,1.92h0.96v12.55c-0.5.12-1.032,0.24-1.536,0.34a0.945,0.945,0,0,0-.744.98,1.091,1.091,0,0,0,.984,1.15,45.325,45.325,0,0,0,6.673-2.06v4.1Zm0-14.45h-3.192v-2.61h3.216Zm0,4.27h-3.192v-2.44h3.192v2.44Zm0,4.01c-1.032.36-2.088,0.72-3.192,1.06v-3.24h3.192v2.18Zm38.329-9.69a0.9,0.9,0,0,0,.96-0.94,0.89,0.89,0,0,0-.96-0.91h-4.008l0.024-1.51v-0.03a1.168,1.168,0,0,0-2.3,0v0.03l0.024,1.51h-3.72a0.959,0.959,0,0,0-1.008.96,0.9,0.9,0,0,0,1.008.89h9.985Zm-0.408,7.05a0.945,0.945,0,0,0,1.032.94,1.022,1.022,0,0,0,1.1-.96c0.024-.29.024-0.6,0.024-0.94,0-.31,0-0.65-0.024-0.96a2.307,2.307,0,0,0-2.4-2.21c-0.528,0-1.128-.02-1.752-0.02a5.837,5.837,0,0,0,.768-1.85,1.228,1.228,0,0,0-1.3-.98,0.745,0.745,0,0,0-.816.6,6.089,6.089,0,0,1-.6,1.75,0.463,0.463,0,0,0-.072.24,0.68,0.68,0,0,0,.048.24h-1.753a0.984,0.984,0,0,0,.192-0.58c0-.16-0.432-2.2-1.728-2.2a0.991,0.991,0,0,0-1.128.72,0.6,0.6,0,0,0,.12.36,6.5,6.5,0,0,1,.7,1.56c0.024,0.04.024,0.12,0.048,0.16h-1.272c-1.632.03-2.328,0.82-2.376,2.04-0.024.48-.024,0.92-0.024,1.33-0.312-1.35-.672-2.55-1.56-2.55a0.685,0.685,0,0,0-.744.65,2.876,2.876,0,0,0,.36,1.05c-0.48.08-1.1,0.15-1.776,0.22,1.488-2.11,3.5-5.4,3.5-6.17a1.109,1.109,0,0,0-1.128-1.05,0.833,0.833,0,0,0-.816.6,26.429,26.429,0,0,1-1.656,3.4c-0.264-.31-0.576-0.64-0.888-0.98a17.9,17.9,0,0,0,2.256-4.61,1.09,1.09,0,0,0-1.128-1.01,0.848,0.848,0,0,0-.864.65,18.577,18.577,0,0,1-1.609,3.7,0.625,0.625,0,0,0-.144-0.1,1.174,1.174,0,0,0-.6-0.19,0.9,0.9,0,0,0-.888.91,0.93,0.93,0,0,0,.336.7,22.125,22.125,0,0,1,2.5,2.64,19.91,19.91,0,0,1-1.249,1.77c-0.384.03-.72,0.05-1.008,0.08a0.8,0.8,0,0,0-.72.89,0.894,0.894,0,0,0,.816.98c0.168,0,.528-0.05,2.617-0.36l-0.072,8.42v0.03a1.04,1.04,0,0,0,1.032,1.13,1.063,1.063,0,0,0,1.032-1.16l-0.024-8.76c0.312-.07.6-0.14,0.84-0.19,0,0.1.024,0.22,0.024,0.31a0.723,0.723,0,0,0,.744.77,0.935,0.935,0,0,0,.888-0.62,1.012,1.012,0,0,0,1.944-.34v-1.22c0.072-1.16.12-1.2,3.792-1.2,1.537,0,3.241.02,4.177,0.04,1.176,0.03,1.224.1,1.224,2.31v0.02Zm-5.809,8.86a1.069,1.069,0,1,0,2.137,0l-0.024-6.96c1.776,0,2.208,0,2.256.84v2.54a0.64,0.64,0,0,1-.672.77,1.471,1.471,0,0,1-.336-0.05c-0.048,0-.12-0.02-0.168-0.02a0.824,0.824,0,0,0-.744.91c0,0.99.816,1.11,1.584,1.11a2.23,2.23,0,0,0,2.352-2.52v-1.59c0-.53,0-1.08-0.024-1.58-0.024-1.44-.744-2.11-2.3-2.16-0.648-.03-1.3-0.03-1.944-0.03v-1.1a1.045,1.045,0,0,0-2.089,0v1.1c-0.576,0-1.152.03-1.7,0.03-1.632.02-2.352,0.65-2.376,2.13,0,0.84-.024,1.68-0.024,2.52,0,0.82.024,1.64,0.024,2.45a0.974,0.974,0,0,0,1.032.96,0.935,0.935,0,0,0,1.008-.93v-0.03c-0.024-.93-0.048-1.82-0.048-2.69,0-.6.024-1.2,0.024-1.8a0.716,0.716,0,0,1,.792-0.84c0.432,0,.84-0.02,1.248-0.02v6.96Zm-5.832-2.4a1.027,1.027,0,0,0,1.032-1.06,9.2,9.2,0,0,0-.96-3.33,0.882,0.882,0,0,0-.792-0.43,0.757,0.757,0,0,0-.816.72,1.072,1.072,0,0,0,.048.26,14.438,14.438,0,0,1,.648,2.98A0.82,0.82,0,0,0,649.1,1353.91Zm-5.689,1.25a15.045,15.045,0,0,0,1.081-4.83,1.039,1.039,0,0,0-1.033-1.1,0.887,0.887,0,0,0-.888.91,12.11,12.11,0,0,1-1.008,4.27,1.309,1.309,0,0,0-.12.48,0.946,0.946,0,0,0,1.008.87A1.047,1.047,0,0,0,643.415,1355.16Zm43.61-13.95v0.12c0,1.18-.312,1.59-1.128,1.59-0.792,0-.96-0.36-0.96-0.8v-0.33c0-.67.048-1.35,0.048-2.11,0-2.48-.72-2.88-3.865-2.88-1.56,0-3.552.12-3.552,1.99v0.5a4.538,4.538,0,0,1-1.776,4.13,1.036,1.036,0,0,0-.408.79,1.227,1.227,0,0,0,1.272,1.11,1.538,1.538,0,0,0,1.056-.48,6.837,6.837,0,0,0,2.16-5.38c0-.67.456-0.77,1.464-0.77,0.745,0,1.369.03,1.369,0.72,0,0.72-.024,1.78-0.024,2.67,0,2.16.648,2.76,3.072,2.76,1.392,0,3.432,0,3.432-3.53a1.038,1.038,0,0,0-1.152-1.03,0.9,0.9,0,0,0-1.008.91v0.02ZM675.1,1338a1.3,1.3,0,0,0,.24-0.72,1.217,1.217,0,0,0-1.2-1.18,1.125,1.125,0,0,0-.96.6,13.226,13.226,0,0,1-4.609,4.66,1.347,1.347,0,0,0-.792,1.12,1.15,1.15,0,0,0,1.2,1.08C670.391,1343.56,673.584,1340.18,675.1,1338Zm1.584,9.57c1.392-.02,3.408-0.04,5.112-0.04h1.7a0.309,0.309,0,0,1,.384.24,9.917,9.917,0,0,1-2.329,3.6,12.937,12.937,0,0,1-2.184-2.79,1,1,0,0,0-.888-0.5,1.075,1.075,0,0,0-1.128,1.01c0,0.74,1.512,2.68,2.568,3.72a12.5,12.5,0,0,1-5.328,2.37,1.08,1.08,0,0,0-1.032,1.03,1.226,1.226,0,0,0,1.248,1.18,13.712,13.712,0,0,0,6.816-3.14,15.1,15.1,0,0,0,6.481,2.88,1.271,1.271,0,0,0,1.368-1.23,1.172,1.172,0,0,0-1.008-1.13,14.427,14.427,0,0,1-5.184-2.04c1.872-1.94,3.336-4.32,3.336-5.52,0-.86-0.552-1.63-2.232-1.65-1.128-.03-2.593-0.03-4.009-0.03s-2.784,0-3.768.03a0.9,0.9,0,0,0-.864.98,0.938,0.938,0,0,0,.912,1.03h0.024Zm-5.808,8.84v0.04a1.029,1.029,0,0,0,1.1,1.04,1.137,1.137,0,0,0,1.224-1.08l0.288-10.85a28.354,28.354,0,0,0,2.16-2.74,1.167,1.167,0,0,0,.216-0.65,1.318,1.318,0,0,0-1.272-1.22,1.037,1.037,0,0,0-.888.55,16.724,16.724,0,0,1-5.593,5.76,1.088,1.088,0,0,0-.576.96,1.193,1.193,0,0,0,1.152,1.2c0.432,0,.912-0.24,2.473-1.58Zm43.945-.12a1.066,1.066,0,0,0,1.152-1.08,1.077,1.077,0,0,0-1.152-1.08l-4.656.02v-8.38l3.48,0.03a1.082,1.082,0,0,0,1.152-1.08,1.054,1.054,0,0,0-1.128-1.08h-0.024l-3.48.04,0.024-6.02a1.218,1.218,0,0,0-2.425,0v6l-3.12-.02h-0.024a1.027,1.027,0,0,0-1.08,1.08,1.055,1.055,0,0,0,1.1,1.08l3.12-.03,0.024,8.38-4.752-.02a1.034,1.034,0,0,0-1.1,1.08,1.055,1.055,0,0,0,1.1,1.08h11.785Zm-10.681-6.27a1.282,1.282,0,0,0,1.176-1.27c0-1.18-2.568-2.5-3.024-2.5a1.176,1.176,0,0,0-1.128,1.08,0.684,0.684,0,0,0,.384.6,5.978,5.978,0,0,1,1.848,1.66A0.889,0.889,0,0,0,704.136,1350.02Zm-3.288,6.31s-0.1-6.14-.12-9.86c1.152-1.37,2.976-3.94,2.976-5.19,0-.91-0.672-1.58-2.064-1.6h-0.792v-2.38a1.193,1.193,0,0,0-2.376,0l0.024,2.4c-0.744.02-1.488,0.02-2.233,0.05a1.021,1.021,0,0,0-1.08,1.03,1.042,1.042,0,0,0,1.1,1.03h0.024c1.489-.02,2.521-0.12,3.889-0.12h0.432c0.168,0,.528.03,0.528,0.27a13.713,13.713,0,0,1-6.025,6.33,1.167,1.167,0,0,0-.7.99,1.179,1.179,0,0,0,1.224,1.1c0.7,0,2.113-1.01,2.953-1.73l-0.12,7.68v0.03a1.071,1.071,0,0,0,1.2.98,1.029,1.029,0,0,0,1.152-.98v-0.03Zm40.105-7.84a1,1,0,0,0,0-2H727.8v-1.32h9.481a0.876,0.876,0,1,0,0-1.75H727.8v-1.32h9.481a0.876,0.876,0,1,0,0-1.75h-9.433v-0.07a1.036,1.036,0,0,1,1.128-1.18c1.44-.02,3.144-0.05,4.872-0.05,1.417,0,2.857.03,4.153,0.05h0.048a1.026,1.026,0,0,0,1.1-1.03,1.043,1.043,0,0,0-1.128-1.01c-1.128-.02-2.4-0.05-3.673-0.05-1.968,0-3.984.03-5.736,0.05-2.208.02-3.048,1.08-3.1,3.12-0.024,1.18-.048,2.54-0.048,3.89,0,0.84,0,1.65.024,2.42h-3.289a1.011,1.011,0,0,0-1.032,1.04,0.952,0.952,0,0,0,1.032.96H725.5v6.09c-0.912.22-1.9,0.39-2.833,0.53a1.151,1.151,0,0,0-1.08,1.13,1.177,1.177,0,0,0,1.3,1.17,39.236,39.236,0,0,0,8.641-2.54,1.184,1.184,0,0,0,.864-1.06,1.075,1.075,0,0,0-1.128-1,1.354,1.354,0,0,0-.528.12c-0.792.33-1.8,0.69-2.88,1.03v-5.47h2.472a12.387,12.387,0,0,0,10.489,8.8,1.25,1.25,0,0,0,1.272-1.29,1.1,1.1,0,0,0-.96-1.15,11.669,11.669,0,0,1-5.784-2.36c4.08-1.34,4.1-1.99,4.1-2.42a1.257,1.257,0,0,0-1.2-1.22,1.013,1.013,0,0,0-.624.19,18.893,18.893,0,0,1-3.7,1.94,9.152,9.152,0,0,1-1.3-2.49h8.329Zm52.32-3.8a1.128,1.128,0,0,0,1.176-1.17,1.153,1.153,0,0,0-1.2-1.18H785.64l0.072-.94c0.072-1.1.12-2.23,0.12-3.36v-0.52a1.219,1.219,0,0,0-1.32-1.11,1.148,1.148,0,0,0-1.272,1.13v0.98c0,0.2,0,1.68-.144,3.82h-7.657a1.164,1.164,0,0,0-1.224,1.2,1.116,1.116,0,0,0,1.2,1.15h0.024l7.345-.09a13.129,13.129,0,0,1-8.233,10.17,1.2,1.2,0,0,0-.816,1.11,1.3,1.3,0,0,0,1.3,1.29,1.49,1.49,0,0,0,.624-0.14,16.129,16.129,0,0,0,8.953-9.77c2.424,5.98,7.681,9.7,9,9.7a1.6,1.6,0,0,0,1.512-1.56,1.153,1.153,0,0,0-.744-1.08,15.258,15.258,0,0,1-8.4-9.72l7.273,0.09h0.024Zm23.136,11.45a1.23,1.23,0,0,0,2.4,0V1337.8a1.1,1.1,0,0,0-1.224-1.03,1.075,1.075,0,0,0-1.176,1.03v18.34Zm-6.673-1.8a1.215,1.215,0,0,0,2.376,0v-15.82a1.1,1.1,0,0,0-1.2-1.03,1.062,1.062,0,0,0-1.176,1.03v15.82Zm-8.017,2.45c3.577-3.72,4.033-8.69,4.033-12.17,0-1.34.072-3.17,0.072-4.78,0-.64-0.024-1.27-0.048-1.8a1.2,1.2,0,0,0-1.3-1.05,1.05,1.05,0,0,0-1.176.98v0.07c0.072,1.28.12,3.15,0.12,4.68,0,4.33-.048,8.91-3.721,12.56a0.95,0.95,0,0,0-.312.69,1.388,1.388,0,0,0,1.392,1.23A1.272,1.272,0,0,0,801.719,1356.79Zm54.41-11.98c0.048-.67.048-1.56,0.048-2.42s0-1.75-.048-2.4a2.167,2.167,0,0,0-2.136-1.8c-0.744-.03-1.608-0.05-2.472-0.05-0.7,0-1.392.02-1.969,0.05a2.007,2.007,0,0,0-1.944,1.94c0,0.65-.024,1.54-0.024,2.4s0.024,1.71.024,2.31a2.062,2.062,0,0,0,1.992,2.06c0.649,0.03,1.393.05,2.137,0.05,0.768,0,1.512-.02,2.184-0.05A2.231,2.231,0,0,0,856.129,1344.81Zm-9.985-1.29a0.916,0.916,0,1,0,0-1.83H846.12l-3.144.05c0.024-.55.072-1.1,0.072-1.73l2.424,0.03a0.886,0.886,0,1,0,0-1.76l-4.968.03a2.733,2.733,0,0,0,.432-1.06,1.031,1.031,0,0,0-1.08-.91,0.831,0.831,0,0,0-.816.53,10.307,10.307,0,0,1-2.041,3.17,0.886,0.886,0,0,0-.264.57,1.037,1.037,0,0,0,1.08.89c0.5,0,.577-0.05,1.633-1.46l1.512-.03v0.36c0,0.51-.024.94-0.048,1.37l-3.7-.05h-0.024a0.919,0.919,0,1,0,0,1.83h0.024l3.481-.03c-0.48,1.49-1.776,2.52-3.961,3.29a0.942,0.942,0,0,0-.72.89,1.1,1.1,0,0,0,1.128,1.06,8.125,8.125,0,0,0,4.585-2.89,1.763,1.763,0,0,0,.192.1,16.785,16.785,0,0,1,3.072,1.47,1.135,1.135,0,0,0,.624.19,1.063,1.063,0,0,0,1.008-1.08,1.137,1.137,0,0,0-.624-0.99,16.048,16.048,0,0,0-3.456-1.17c0.1-.29.168-0.58,0.24-0.89l3.336,0.05h0.024Zm6.913,11.25c0.048-.81.072-1.58,0.072-2.35s-0.024-1.56-.072-2.35a2.358,2.358,0,0,0-2.472-1.85c-1.465-.05-3-0.05-4.465-0.05-1.2,0-2.376,0-3.432.03-1.848.02-2.544,1.05-2.592,2.01-0.048.8-.072,1.56-0.072,2.31s0.024,1.49.072,2.25c0.072,1.18.96,2.07,2.64,2.14,1.3,0.05,2.688.07,4.1,0.07,1.2,0,2.448-.02,3.625-0.05A2.455,2.455,0,0,0,853.057,1354.77Zm0.936-10.34c-0.024.48-.36,0.65-2.04,0.65-1.752,0-2.257-.05-2.281-0.63v-3.74a0.692,0.692,0,0,1,.721-0.65c0.384-.02.864-0.02,1.368-0.02,1.656,0,2.184.02,2.232,0.64,0.024,0.48.048,1.16,0.048,1.85S854.017,1343.92,853.993,1344.43Zm-11.809,7.25c0-1.08,0-1.71,1.176-1.75,0.72-.03,1.536-0.03,2.352-0.03,1.344,0,2.76.03,4.008,0.05,1.177,0.02,1.177.46,1.177,1.73h-8.713Zm8.713,1.61c0,1.34,0,1.8-1.152,1.84-0.889.03-1.8,0.05-2.737,0.05-4.224,0-4.776,0-4.8-.96-0.024-.31-0.024-0.62-0.024-0.93H850.9Zm29.736,1.44a9.572,9.572,0,0,1,.288,1.15,1.187,1.187,0,0,0,1.176,1.05,1.385,1.385,0,0,0,1.368-1.39c0-.53-0.648-2.88-3.1-6.29a1.308,1.308,0,0,0-1.056-.57,1.057,1.057,0,0,0-1.128.98,1.281,1.281,0,0,0,.216.67,26.917,26.917,0,0,1,1.44,2.5c-1.7.36-3.456,0.67-5.257,0.89a143.648,143.648,0,0,0,3.6-15.46,1.337,1.337,0,0,0-1.416-1.27,1.133,1.133,0,0,0-1.2,1.05,133.537,133.537,0,0,1-3.288,15.89c-0.408.03-.816,0.08-1.224,0.1a0.978,0.978,0,0,0-.912,1.08,1.148,1.148,0,0,0,1.056,1.25A56.622,56.622,0,0,0,880.633,1354.73Zm-12.745-15.85c0.816,0,.84.34,0.84,1.64,0,1.03-.1,1.36-0.84,1.36-0.36,0-1.584-.04-1.92-0.04h-0.12a1.915,1.915,0,0,0-2.257,1.72c-0.192.89-.552,3.05-0.552,3.37,0,0.91.576,1.46,2.113,1.46,0.576,0,1.728-.05,2.424-0.05,0.792,0,.984.1,0.984,0.87a11.724,11.724,0,0,1-.624,3.86,2.316,2.316,0,0,1-2.3,1.39,5.1,5.1,0,0,1-1.537-.26,1.876,1.876,0,0,0-.576-0.1,1.034,1.034,0,0,0-1.056,1.11,1.192,1.192,0,0,0,.864,1.17,8.174,8.174,0,0,0,2.233.31c4.224,0,5.232-3.5,5.232-7.7,0-1.94-1.008-2.59-2.424-2.59-0.552,0-1.728,0-2.472.02a0.4,0.4,0,0,1-.456-0.46c0-.19.216-1.39,0.264-1.68a0.689,0.689,0,0,1,.84-0.5c0.216,0,1.464.02,1.872,0.02,2.544,0,2.544-1.34,2.544-3.38,0-.46,0-0.94-0.024-1.27a2.222,2.222,0,0,0-2.52-2.31c-0.816,0-2.112-.02-3.144-0.02h-0.72a1.039,1.039,0,0,0-1.081,1.06,0.985,0.985,0,0,0,1.033,1h3.384Z" transform="translate(-511.188 -1336.03)"/>
</svg>
