<!-- Generator: Adobe Illustrator 21.0.2, SVG Export Plug-In  -->
<svg version="1.1"
     xmlns="http://www.w3.org/2000/svg" xmlns:xlink="http://www.w3.org/1999/xlink" xmlns:a="http://ns.adobe.com/AdobeSVGViewerExtensions/3.0/"
     x="0px" y="0px" width="1190.6px" height="282.8px" viewBox="0 0 1190.6 282.8" style="enable-background:new 0 0 1190.6 282.8;"
     xml:space="preserve">
<style type="text/css">
    .st0{fill-rule:evenodd;clip-rule:evenodd;fill:#96CA3A;}
    .st1{fill-rule:evenodd;clip-rule:evenodd;fill:#019444;}
    .st2{fill-rule:evenodd;clip-rule:evenodd;fill:#FF927E;}
    .st3{fill-rule:evenodd;clip-rule:evenodd;fill:#CCCCCC;}
    .st4{fill-rule:evenodd;clip-rule:evenodd;fill:#808080;}
    .st5{fill-rule:evenodd;clip-rule:evenodd;fill:#FFC442;}
    .st6{fill-rule:evenodd;clip-rule:evenodd;fill:#038048;}
    .st7{fill-rule:evenodd;clip-rule:evenodd;fill:#705846;}
    .st8{fill-rule:evenodd;clip-rule:evenodd;fill:#3CA247;}
    .st9{fill-rule:evenodd;clip-rule:evenodd;fill:#6CDAFF;}
    .st10{fill-rule:evenodd;clip-rule:evenodd;fill:#FFFFFF;}
    .st11{fill-rule:evenodd;clip-rule:evenodd;fill:#C1EEFF;}
    .st12{fill-rule:evenodd;clip-rule:evenodd;fill:#259CEC;}
    .st13{fill-rule:evenodd;clip-rule:evenodd;fill:#E6E6E6;}
    .st14{fill-rule:evenodd;clip-rule:evenodd;fill:#B3B3B3;}
    .st15{fill-rule:evenodd;clip-rule:evenodd;fill:#1487DA;}
    .st16{fill-rule:evenodd;clip-rule:evenodd;fill:#45BC54;}
    .st17{fill-rule:evenodd;clip-rule:evenodd;fill:#31C8FF;}
    .st18{fill-rule:evenodd;clip-rule:evenodd;fill:#6EC347;}
    .st19{fill-rule:evenodd;clip-rule:evenodd;fill:#9CBA39;}
    .st20{fill-rule:evenodd;clip-rule:evenodd;fill:#B1D86E;}
    .st21{fill-rule:evenodd;clip-rule:evenodd;fill:#5C483A;}
    .st22{fill-rule:evenodd;clip-rule:evenodd;fill:#6EB131;}
    .st23{fill-rule:evenodd;clip-rule:evenodd;fill:#168491;}
    .st24{fill-rule:evenodd;clip-rule:evenodd;fill:#076E8D;}
    .st25{fill-rule:evenodd;clip-rule:evenodd;fill:#38993F;}
    .st26{fill-rule:evenodd;clip-rule:evenodd;fill:#D1F7FF;}
    .st27{fill-rule:evenodd;clip-rule:evenodd;fill:#B37E57;}
    .st28{fill-rule:evenodd;clip-rule:evenodd;fill:#387C3F;}
    .st29{fill-rule:evenodd;clip-rule:evenodd;fill:#FFE46D;}
    .st30{fill-rule:evenodd;clip-rule:evenodd;fill:#FFAE01;}
</style>
<defs>
</defs>
<rect y="246.3" class="st0" width="1190.6" height="36.5"/>
<rect y="246.3" class="st1" width="1190.6" height="11.4"/>
<g>
    <path class="st2" d="M631.3,80.5c0.3,1.2,0.4,2.6,0.1,3.9c-0.7,3-3.2,5.5-6.3,6c-5.5,1-10.2-3.6-9.5-9c0.5-4,4.2-6.9,8.2-6.9h29.6
        L631.3,80.5z"/>
    <path class="st3" d="M652.4,78.4c3,0.8,5.8-1.9,4.9-4.9c-0.4-1.3-1.4-2.4-2.8-2.8c-3-0.8-5.8,1.9-4.9,4.9
        C650,76.9,651,78,652.4,78.4z"/>
    <circle class="st4" cx="653.5" cy="74.5" r="1.8"/>
    <path class="st3" d="M638.8,71c0.5,0,0.9,0.4,0.9,0.9c0,0.5-0.4,0.9-0.9,0.9c-10.2,0-20.3,0-30.5,0c-0.5,0-0.9-0.4-0.9-0.9
        c0-0.5,0.4-0.9,0.9-0.9C618.5,71,628.6,71,638.8,71z"/>
    <circle class="st4" cx="623.6" cy="92.5" r="2"/>
    <path class="st5" d="M623.6,82.5l-5.7,5.7c-1.5-1.5-2.3-3.5-2.3-5.7c0-4.4,3.6-8,8-8V82.5z"/>
</g>
<circle class="st6" cx="725.7" cy="226.9" r="15.6"/>
<path class="st7" d="M727.6,226.9c0,4.3,0,8.5,0,12.8c2.3-2.3,4.6-4.6,6.9-6.9c0.4-0.4,1-0.4,1.3,0c0.4,0.4,0.4,1,0,1.3
    c-2.7,2.7-5.5,5.5-8.2,8.2c0,2.6,0,1.3,0,3.9c-1.3,0-2.5,0-3.8,0c0-2.6,0-1.3,0-3.9c-2.7-2.7-5.5-5.5-8.2-8.2c-0.4-0.4-0.4-1,0-1.3
    c0.4-0.4,1-0.4,1.3,0c2.3,2.3,4.6,4.6,6.9,6.9c0-4.3,0-8.5,0-12.8c0-1,0.8-1.9,1.9-1.9C726.8,225,727.6,225.9,727.6,226.9z"/>
<rect x="688.8" y="246.3" class="st8" width="58.8" height="22.8"/>
<polygon class="st9" points="747.6,53.7 791.3,10 791.3,119.4 747.6,119.4 "/>
<rect x="791.3" y="148.7" class="st10" width="33.4" height="97.6"/>
<polygon class="st3" points="858.1,246.3 890.7,246.3 890.7,53.4 858.1,86 "/>
<polygon class="st11" points="769.5,141.2 758.5,130.3 769.5,119.4 "/>
<rect x="725.7" y="119.4" class="st3" width="43.7" height="126.9"/>
<path class="st12" d="M769.5,179.5h-43.7v-6.7h43.7V179.5L769.5,179.5z M769.5,246.3h-43.7v-6.7h43.7V246.3L769.5,246.3z
     M769.5,192.8h-43.7v-6.7h43.7V192.8L769.5,192.8z M769.5,206.2h-43.7v-6.7h43.7V206.2L769.5,206.2z M769.5,219.6h-43.7v-6.7h43.7
    V219.6L769.5,219.6z M769.5,232.9h-43.7v-6.7h43.7V232.9L769.5,232.9z M769.5,126h-43.7v-6.7h43.7V126L769.5,126z M769.5,139.4
    h-43.7v-6.7h43.7V139.4L769.5,139.4z M769.5,152.8h-43.7v-6.7h43.7V152.8L769.5,152.8z M769.5,166.1h-43.7v-6.7h43.7V166.1z"/>
<rect x="769.5" y="119.4" class="st13" width="21.9" height="126.9"/>
<rect x="791.3" y="146.1" class="st14" width="66.8" height="100.2"/>
<path class="st15" d="M791.3,232.9h66.8v6.7h-66.8V232.9L791.3,232.9z M791.3,219.6h66.8v6.7h-66.8V219.6L791.3,219.6z M791.3,206.2
    h66.8v6.7h-66.8V206.2L791.3,206.2z M791.3,192.9h66.8v6.7h-66.8V192.9L791.3,192.9z M791.3,179.5h66.8v6.7h-66.8V179.5L791.3,179.5
    z M791.3,166.1h66.8v6.7h-66.8V166.1L791.3,166.1z M791.3,152.8h66.8v6.7h-66.8V152.8z"/>
<rect x="957.2" y="246.3" class="st16" width="114.3" height="22.8"/>
<rect x="769.5" y="246.3" class="st6" width="88.7" height="22.8"/>
<polygon class="st17" points="780.4,20.9 791.3,20.9 780.4,31.9 "/>
<polygon class="st17" points="780.4,31.9 791.3,31.9 780.4,42.8 "/>
<polygon class="st17" points="769.5,31.9 780.4,31.9 769.5,42.8 "/>
<polygon class="st17" points="780.4,42.8 791.3,42.8 780.4,53.7 "/>
<polygon class="st17" points="780.4,53.7 791.3,53.7 780.4,64.7 "/>
<polygon class="st17" points="769.5,53.7 780.4,53.7 769.5,64.7 "/>
<polygon class="st17" points="758.5,42.8 769.5,42.8 758.5,53.7 "/>
<polygon class="st17" points="758.5,53.7 769.5,53.7 758.5,64.7 "/>
<polygon class="st17" points="747.6,53.7 758.5,53.7 747.6,64.7 "/>
<polygon class="st17" points="769.5,42.8 780.4,42.8 769.5,53.7 "/>
<polygon class="st17" points="780.4,64.7 791.3,64.7 780.4,75.6 "/>
<polygon class="st17" points="769.5,64.7 780.4,64.7 769.5,75.6 "/>
<polygon class="st17" points="758.5,64.7 769.5,64.7 758.5,75.6 "/>
<polygon class="st17" points="747.6,64.7 758.5,64.7 747.6,75.6 "/>
<polygon class="st17" points="780.4,75.6 791.3,75.6 780.4,86.6 "/>
<polygon class="st17" points="769.5,75.6 780.4,75.6 769.5,86.6 "/>
<polygon class="st17" points="758.5,75.6 769.5,75.6 758.5,86.6 "/>
<polygon class="st17" points="747.6,75.6 758.5,75.6 747.6,86.6 "/>
<polygon class="st17" points="780.4,86.6 791.3,86.6 780.4,97.5 "/>
<polygon class="st17" points="769.5,86.6 780.4,86.6 769.5,97.5 "/>
<polygon class="st17" points="758.5,86.6 769.5,86.6 758.5,97.5 "/>
<polygon class="st17" points="747.6,86.6 758.5,86.6 747.6,97.5 "/>
<polygon class="st17" points="780.4,97.5 791.3,97.5 780.4,108.4 "/>
<polygon class="st17" points="769.5,97.5 780.4,97.5 769.5,108.4 "/>
<polygon class="st17" points="758.5,97.5 769.5,97.5 758.5,108.4 "/>
<polygon class="st17" points="747.6,97.5 758.5,97.5 747.6,108.4 "/>
<polygon class="st17" points="780.4,108.4 791.3,108.4 780.4,119.4 "/>
<polygon class="st17" points="769.5,108.4 780.4,108.4 769.5,119.4 "/>
<polygon class="st17" points="758.5,108.4 769.5,108.4 758.5,119.4 "/>
<polygon class="st17" points="747.6,108.4 758.5,108.4 747.6,119.4 "/>
<path class="st12" d="M858.1,239.6h32.5v-6.7h-32.5V239.6L858.1,239.6z M858.1,146.1h32.5v-6.7h-32.5V146.1L858.1,146.1z
     M858.1,92.6h32.5V86h-32.5V92.6L858.1,92.6z M858.1,106h32.5v-6.7h-32.5V106L858.1,106z M858.1,119.4h32.5v-6.7h-32.5V119.4
    L858.1,119.4z M858.1,132.7h32.5V126h-32.5V132.7L858.1,132.7z M858.1,172.8h32.5v-6.7h-32.5V172.8L858.1,172.8z M858.1,159.4h32.5
    v-6.7h-32.5V159.4L858.1,159.4z M858.1,186.2h32.5v-6.7h-32.5V186.2L858.1,186.2z M858.1,199.5h32.5v-6.7h-32.5V199.5L858.1,199.5z
     M858.1,212.9h32.5v-6.7h-32.5V212.9L858.1,212.9z M858.1,226.3h32.5v-6.7h-32.5V226.3z"/>
<polygon class="st13" points="890.7,246.3 923.2,246.3 923.2,106.9 890.7,139.4 "/>
<path class="st17" d="M890.7,239.6h32.5v-6.7h-32.5V239.6L890.7,239.6z M890.7,146.1h32.5v-6.7h-32.5V146.1L890.7,146.1z
     M890.7,172.8h32.5v-6.7h-32.5V172.8L890.7,172.8z M890.7,159.4h32.5v-6.7h-32.5V159.4L890.7,159.4z M890.7,186.2h32.5v-6.7h-32.5
    V186.2L890.7,186.2z M890.7,199.5h32.5v-6.7h-32.5V199.5L890.7,199.5z M890.7,212.9h32.5v-6.7h-32.5V212.9L890.7,212.9z
     M890.7,226.3h32.5v-6.7h-32.5V226.3z"/>
<circle class="st18" cx="1043.6" cy="226.9" r="15.6"/>
<path class="st7" d="M1045.5,226.9c0,4.3,0,8.5,0,12.8c2.3-2.3,4.6-4.6,6.9-6.9c0.4-0.4,1-0.4,1.3,0c0.4,0.4,0.4,1,0,1.3
    c-2.7,2.7-5.5,5.5-8.2,8.2c0,2.6,0,1.3,0,3.9c-1.3,0-2.5,0-3.8,0c0-2.6,0-1.3,0-3.9c-2.7-2.7-5.5-5.5-8.2-8.2c-0.4-0.4-0.4-1,0-1.3
    c0.4-0.4,1-0.4,1.3,0c2.3,2.3,4.6,4.6,6.9,6.9c0-4.3,0-8.5,0-12.8c0-1,0.8-1.9,1.9-1.9C1044.7,225,1045.5,225.9,1045.5,226.9z"/>
<circle class="st19" cx="924.1" cy="226.9" r="15.6"/>
<path class="st7" d="M926,226.9c0,4.3,0,8.5,0,12.8c2.3-2.3,4.6-4.6,6.9-6.9c0.4-0.4,1-0.4,1.3,0c0.4,0.4,0.4,1,0,1.3
    c-2.7,2.7-5.5,5.5-8.2,8.2c0,2.6,0,1.3,0,3.9c-1.3,0-2.5,0-3.8,0c0-2.6,0-1.3,0-3.9c-2.7-2.7-5.5-5.5-8.2-8.2c-0.4-0.4-0.4-1,0-1.3
    c0.4-0.4,1-0.4,1.3,0c2.3,2.3,4.6,4.6,6.9,6.9c0-4.3,0-8.5,0-12.8c0-1,0.8-1.9,1.9-1.9C925.1,225,926,225.9,926,226.9z"/>
<path class="st20" d="M847.6,116c-3.3,3.7-5.3,8.6-5.3,14c0,5.4,2,10.3,5.3,14c3.3-3.7,5.3-8.6,5.3-14
    C852.9,124.7,850.9,119.8,847.6,116z"/>
<path class="st21" d="M848.2,130c0,5.3,0,8,0,16.1c-0.4,0-0.8,0-1.1,0c0-8.1,0-10.8,0-16.1c0-0.3,0.3-0.6,0.6-0.6
    C847.9,129.5,848.2,129.7,848.2,130z"/>
<path class="st8" d="M832.3,116c-3.3,3.7-5.3,8.6-5.3,14c0,5.4,2,10.3,5.3,14c3.3-3.7,5.3-8.6,5.3-14
    C837.6,124.7,835.6,119.8,832.3,116z"/>
<path class="st21" d="M832.9,130c0,5.3,0,8,0,16.1c-0.4,0-0.8,0-1.1,0c0-8.1,0-10.8,0-16.1c0-0.3,0.3-0.6,0.6-0.6
    C832.7,129.5,832.9,129.7,832.9,130z"/>
<path class="st22" d="M817.1,116c-3.3,3.7-5.3,8.6-5.3,14c0,5.4,2,10.3,5.3,14c3.3-3.7,5.3-8.6,5.3-14
    C822.4,124.7,820.4,119.8,817.1,116z"/>
<path class="st21" d="M817.7,130c0,5.3,0,8,0,16.1c-0.4,0-0.8,0-1.1,0c0-8.1,0-10.8,0-16.1c0-0.3,0.3-0.6,0.6-0.6
    C817.4,129.5,817.7,129.7,817.7,130z"/>
<path class="st22" d="M801.9,116c-3.3,3.7-5.3,8.6-5.3,14c0,5.4,2,10.3,5.3,14c3.3-3.7,5.3-8.6,5.3-14
    C807.1,124.7,805.1,119.8,801.9,116z"/>
<path class="st21" d="M802.4,130c0,5.3,0,8,0,16.1c-0.4,0-0.8,0-1.1,0c0-8.1,0-10.8,0-16.1c0-0.3,0.3-0.6,0.6-0.6
    C802.2,129.5,802.4,129.7,802.4,130z"/>
<circle class="st6" cx="791.3" cy="226.9" r="15.6"/>
<path class="st7" d="M793.2,226.9c0,4.3,0,8.5,0,12.8c2.3-2.3,4.6-4.6,6.9-6.9c0.4-0.4,1-0.4,1.3,0c0.4,0.4,0.4,1,0,1.3
    c-2.7,2.7-5.5,5.5-8.2,8.2c0,2.6,0,1.3,0,3.9c-1.3,0-2.5,0-3.8,0c0-2.6,0-1.3,0-3.9c-2.7-2.7-5.5-5.5-8.2-8.2c-0.4-0.4-0.4-1,0-1.3
    c0.4-0.4,1-0.4,1.3,0c2.3,2.3,4.6,4.6,6.9,6.9c0-4.3,0-8.5,0-12.8c0-1,0.8-1.9,1.9-1.9S793.2,225.9,793.2,226.9z"/>
<rect x="1065.3" y="157.7" class="st3" width="6.1" height="88.6"/>
<path class="st13" d="M1065.3,159l-25,14.4c-1.5,0.8-2,2.7-1.1,4.2c0.8,1.5,2.7,2,4.2,1.1l25-14.4l25,14.4c1.5,0.8,3.3,0.3,4.2-1.1
    c0.8-1.5,0.3-3.3-1.1-4.2l-25-14.4v-28.9c0-1.7-1.4-3.1-3.1-3.1c-1.7,0-3.1,1.4-3.1,3.1V159L1065.3,159z M1065.3,160.8L1065.3,160.8
    c0-1.7,1.4-3.1,3.1-3.1c1.7,0,3.1,1.4,3.1,3.1c0,1.7-1.4,3.1-3.1,3.1C1066.7,163.8,1065.3,162.5,1065.3,160.8z"/>
<circle class="st16" cx="690.7" cy="226.9" r="15.6"/>
<path class="st7" d="M692.6,226.9c0,4.3,0,8.5,0,12.8c2.3-2.3,4.6-4.6,6.9-6.9c0.4-0.4,1-0.4,1.3,0c0.4,0.4,0.4,1,0,1.3
    c-2.7,2.7-5.5,5.5-8.2,8.2c0,2.6,0,1.3,0,3.9c-1.3,0-2.5,0-3.8,0c0-2.6,0-1.3,0-3.9c-2.7-2.7-5.5-5.5-8.2-8.2c-0.4-0.4-0.4-1,0-1.3
    c0.4-0.4,1-0.4,1.3,0c2.3,2.3,4.6,4.6,6.9,6.9c0-4.3,0-8.5,0-12.8c0-1,0.8-1.9,1.9-1.9C691.8,225,692.6,225.9,692.6,226.9z"/>
<circle class="st18" cx="1093.2" cy="226.9" r="15.6"/>
<path class="st7" d="M1095.1,226.9c0,4.3,0,8.5,0,12.8c2.3-2.3,4.6-4.6,6.9-6.9c0.4-0.4,1-0.4,1.3,0c0.4,0.4,0.4,1,0,1.3
    c-2.7,2.7-5.5,5.5-8.2,8.2c0,2.6,0,1.3,0,3.9c-1.3,0-2.5,0-3.8,0c0-2.6,0-1.3,0-3.9c-2.7-2.7-5.5-5.5-8.2-8.2c-0.4-0.4-0.4-1,0-1.3
    c0.4-0.4,1-0.4,1.3,0c2.3,2.3,4.6,4.6,6.9,6.9c0-4.3,0-8.5,0-12.8c0-1,0.8-1.9,1.9-1.9C1094.2,225,1095.1,225.9,1095.1,226.9z"/>
<circle class="st6" cx="400.6" cy="226.9" r="15.6"/>
<path class="st7" d="M402.5,226.9c0,4.3,0,8.5,0,12.8c2.3-2.3,4.6-4.6,6.9-6.9c0.4-0.4,1-0.4,1.3,0c0.4,0.4,0.4,1,0,1.3
    c-2.7,2.7-5.5,5.5-8.2,8.2c0,2.6,0,1.3,0,3.9c-1.3,0-2.5,0-3.8,0c0-2.6,0-1.3,0-3.9c-2.7-2.7-5.5-5.5-8.2-8.2c-0.4-0.4-0.4-1,0-1.3
    c0.4-0.4,1-0.4,1.3,0c2.3,2.3,4.6,4.6,6.9,6.9c0-4.3,0-8.5,0-12.8c0-1,0.8-1.9,1.9-1.9S402.5,225.9,402.5,226.9z"/>
<circle class="st6" cx="97.4" cy="226.9" r="15.6"/>
<path class="st21" d="M99.3,226.9c0,4.3,0,8.5,0,12.8c2.3-2.3,4.6-4.6,6.9-6.9c0.4-0.4,1-0.4,1.3,0c0.4,0.4,0.4,1,0,1.3
    c-2.7,2.7-5.5,5.5-8.2,8.2c0,2.6,0,1.3,0,3.9c-1.3,0-2.5,0-3.8,0c0-2.6,0-1.3,0-3.9c-2.7-2.7-5.5-5.5-8.2-8.2c-0.4-0.4-0.4-1,0-1.3
    c0.4-0.4,1-0.4,1.3,0c2.3,2.3,4.6,4.6,6.9,6.9c0-4.3,0-8.5,0-12.8c0-1,0.8-1.9,1.9-1.9C98.4,225,99.3,225.9,99.3,226.9z"/>
<rect x="95.5" y="246.3" class="st8" width="36.9" height="11.4"/>
<g>
    <path class="st23" d="M116.8,240.3c9.1,0,18.3,0,27.4,0c-4.6-4.6-9.1-9.1-13.7-13.7C125.9,231.2,121.3,235.8,116.8,240.3z"/>
    <path class="st24" d="M116.8,240.3c4.6,0,9.1,0,13.7,0c0-4.6,0-9.1,0-13.7C125.9,231.2,121.3,235.8,116.8,240.3z"/>
    <path class="st23" d="M116.8,226.6c9.1,0,18.3,0,27.4,0c-4.6-4.6-9.1-9.1-13.7-13.7C125.9,217.5,121.3,222,116.8,226.6z"/>
    <path class="st24" d="M116.8,226.6c4.6,0,9.1,0,13.7,0c0-4.6,0-9.1,0-13.7C125.9,217.5,121.3,222,116.8,226.6z"/>
    <path class="st23" d="M116.8,212.9c9.1,0,18.3,0,27.4,0c-4.6-4.6-9.1-9.1-13.7-13.7C125.9,203.7,121.3,208.3,116.8,212.9z"/>
    <path class="st24" d="M116.8,212.9c4.6,0,9.1,0,13.7,0c0-4.6,0-9.1,0-13.7C125.9,203.7,121.3,208.3,116.8,212.9z"/>
    <path class="st7" d="M132.4,240.3c-1.3,0-2.5,0-3.8,0c0,2,0,4,0,6c1.3,0,2.5,0,3.8,0C132.4,244.3,132.4,242.3,132.4,240.3z"/>
</g>
<g>
    <path class="st23" d="M148,240.3c9.1,0,18.3,0,27.4,0c-4.6-4.6-9.1-9.1-13.7-13.7C157.1,231.2,152.6,235.8,148,240.3z"/>
    <path class="st24" d="M148,240.3c4.6,0,9.1,0,13.7,0c0-4.6,0-9.1,0-13.7C157.1,231.2,152.6,235.8,148,240.3z"/>
    <path class="st23" d="M148,226.6c9.1,0,18.3,0,27.4,0c-4.6-4.6-9.1-9.1-13.7-13.7C157.1,217.5,152.6,222,148,226.6z"/>
    <path class="st24" d="M148,226.6c4.6,0,9.1,0,13.7,0c0-4.6,0-9.1,0-13.7C157.1,217.5,152.6,222,148,226.6z"/>
    <path class="st23" d="M148,212.9c9.1,0,18.3,0,27.4,0c-4.6-4.6-9.1-9.1-13.7-13.7C157.1,203.7,152.6,208.3,148,212.9z"/>
    <path class="st24" d="M148,212.9c4.6,0,9.1,0,13.7,0c0-4.6,0-9.1,0-13.7C157.1,203.7,152.6,208.3,148,212.9z"/>
    <path class="st7" d="M163.6,240.3c-1.3,0-2.5,0-3.8,0c0,2,0,4,0,6c1.3,0,2.5,0,3.8,0C163.6,244.3,163.6,242.3,163.6,240.3z"/>
</g>
<circle class="st16" cx="194.8" cy="226.9" r="15.6"/>
<path class="st7" d="M196.7,226.9c0,4.3,0,8.5,0,12.8c2.3-2.3,4.6-4.6,6.9-6.9c0.4-0.4,1-0.4,1.3,0c0.4,0.4,0.4,1,0,1.3
    c-2.7,2.7-5.5,5.5-8.2,8.2c0,2.6,0,1.3,0,3.9c-1.3,0-2.5,0-3.8,0c0-2.6,0-1.3,0-3.9c-2.7-2.7-5.5-5.5-8.2-8.2c-0.4-0.4-0.4-1,0-1.3
    c0.4-0.4,1-0.4,1.3,0c2.3,2.3,4.6,4.6,6.9,6.9c0-4.3,0-8.5,0-12.8c0-1,0.8-1.9,1.9-1.9C195.9,225,196.7,225.9,196.7,226.9z"/>
<rect x="132.4" y="246.3" class="st25" width="64.3" height="22.8"/>
<rect x="216.5" y="157.7" class="st3" width="6.1" height="88.6"/>
<path class="st13" d="M216.5,159l-25,14.4c-1.5,0.8-2,2.7-1.1,4.2c0.8,1.5,2.7,2,4.2,1.1l25-14.4l25,14.4c1.5,0.8,3.3,0.3,4.2-1.1
    c0.8-1.5,0.3-3.3-1.1-4.2l-25-14.4v-28.9c0-1.7-1.4-3.1-3.1-3.1c-1.7,0-3.1,1.4-3.1,3.1V159L216.5,159z M216.5,160.8L216.5,160.8
    c0-1.7,1.4-3.1,3.1-3.1c1.7,0,3.1,1.4,3.1,3.1c0,1.7-1.4,3.1-3.1,3.1C217.9,163.8,216.5,162.5,216.5,160.8z"/>
<path class="st26" d="M355.1,180.8v4.1c2.2,0,4.1-1.8,4.1-4.1c0-2.2-1.8-4.1-4.1-4.1V180.8z"/>
<rect x="309.6" y="218.6" class="st7" width="47.5" height="27.7"/>
<polygon class="st21" points="400.6,246.3 348.9,246.3 348.9,218.6 374.7,192.8 400.6,218.6 "/>
<polygon class="st27" points="309.6,218.6 335.4,192.8 374.7,192.8 348.9,218.6 "/>
<rect x="353.1" y="184.9" class="st21" width="3.9" height="15.7"/>
<path class="st10" d="M392.5,223.4h-13.4v13.4h13.4V223.4L392.5,223.4z M370.4,223.4H357v13.4h13.4V223.4z"/>
<path class="st12" d="M368.4,225.4h-9.3v9.3h9.3V225.4L368.4,225.4z M390.4,225.4h-9.3v9.3h9.3V225.4z"/>
<path class="st26" d="M355.1,172.7v-4.1c-2.2,0-4.1,1.8-4.1,4.1c0,2.2,1.8,4.1,4.1,4.1V172.7z"/>
<path class="st26" d="M355.1,164.5v4.1c2.2,0,4.1-1.8,4.1-4.1c0-2.2-1.8-4.1-4.1-4.1V164.5z"/>
<path class="st26" d="M355.1,148.2v-4.1c-2.2,0-4.1,1.8-4.1,4.1s1.8,4.1,4.1,4.1V148.2z"/>
<path class="st26" d="M289.9,180.8v4.1c2.2,0,4.1-1.8,4.1-4.1c0-2.2-1.8-4.1-4.1-4.1V180.8z"/>
<rect x="244.4" y="218.6" class="st7" width="47.5" height="27.7"/>
<polygon class="st21" points="335.4,246.3 283.7,246.3 283.7,218.6 309.6,192.8 335.4,218.6 "/>
<polygon class="st27" points="244.4,218.6 270.2,192.8 309.6,192.8 283.7,218.6 "/>
<rect x="287.9" y="184.9" class="st21" width="3.9" height="15.7"/>
<path class="st10" d="M327.3,223.4h-13.4v13.4h13.4V223.4L327.3,223.4z M305.3,223.4h-13.4v13.4h13.4V223.4z"/>
<path class="st12" d="M303.2,225.4h-9.3v9.3h9.3V225.4L303.2,225.4z M325.3,225.4h-9.3v9.3h9.3V225.4z"/>
<path class="st26" d="M289.9,172.7v-4.1c-2.2,0-4.1,1.8-4.1,4.1c0,2.2,1.8,4.1,4.1,4.1V172.7z"/>
<path class="st26" d="M289.9,164.5v4.1c2.2,0,4.1-1.8,4.1-4.1c0-2.2-1.8-4.1-4.1-4.1V164.5z"/>
<path class="st26" d="M289.9,148.2v-4.1c-2.2,0-4.1,1.8-4.1,4.1s1.8,4.1,4.1,4.1V148.2z"/>
<circle class="st19" cx="244.4" cy="226.9" r="15.6"/>
<path class="st21" d="M246.3,226.9c0,4.3,0,8.5,0,12.8c2.3-2.3,4.6-4.6,6.9-6.9c0.4-0.4,1-0.4,1.3,0c0.4,0.4,0.4,1,0,1.3
    c-2.7,2.7-5.5,5.5-8.2,8.2c0,2.6,0,1.3,0,3.9c-1.3,0-2.5,0-3.8,0c0-2.6,0-1.3,0-3.9c-2.7-2.7-5.5-5.5-8.2-8.2c-0.4-0.4-0.4-1,0-1.3
    c0.4-0.4,1-0.4,1.3,0c2.3,2.3,4.6,4.6,6.9,6.9c0-4.3,0-8.5,0-12.8c0-1,0.8-1.9,1.9-1.9C245.4,225,246.3,225.9,246.3,226.9z"/>
<g>
    <path class="st23" d="M434.5,240.3c9.1,0,18.3,0,27.4,0c-4.6-4.6-9.1-9.1-13.7-13.7C443.7,231.2,439.1,235.8,434.5,240.3z"/>
    <path class="st24" d="M434.5,240.3c4.6,0,9.1,0,13.7,0c0-4.6,0-9.1,0-13.7C443.7,231.2,439.1,235.8,434.5,240.3z"/>
    <path class="st23" d="M434.5,226.6c9.1,0,18.3,0,27.4,0c-4.6-4.6-9.1-9.1-13.7-13.7C443.7,217.5,439.1,222,434.5,226.6z"/>
    <path class="st24" d="M434.5,226.6c4.6,0,9.1,0,13.7,0c0-4.6,0-9.1,0-13.7C443.7,217.5,439.1,222,434.5,226.6z"/>
    <path class="st23" d="M434.5,212.9c9.1,0,18.3,0,27.4,0c-4.6-4.6-9.1-9.1-13.7-13.7C443.7,203.7,439.1,208.3,434.5,212.9z"/>
    <path class="st24" d="M434.5,212.9c4.6,0,9.1,0,13.7,0c0-4.6,0-9.1,0-13.7C443.7,203.7,439.1,208.3,434.5,212.9z"/>
    <path class="st7" d="M450.2,240.3c-1.3,0-2.5,0-3.8,0c0,2,0,4,0,6c1.3,0,2.5,0,3.8,0C450.2,244.3,450.2,242.3,450.2,240.3z"/>
</g>
<g>
    <path class="st23" d="M465.8,240.3c9.1,0,18.3,0,27.4,0c-4.6-4.6-9.1-9.1-13.7-13.7C474.9,231.2,470.3,235.8,465.8,240.3z"/>
    <path class="st24" d="M465.8,240.3c4.6,0,9.1,0,13.7,0c0-4.6,0-9.1,0-13.7C474.9,231.2,470.3,235.8,465.8,240.3z"/>
    <path class="st23" d="M465.8,226.6c9.1,0,18.3,0,27.4,0c-4.6-4.6-9.1-9.1-13.7-13.7C474.9,217.5,470.3,222,465.8,226.6z"/>
    <path class="st24" d="M465.8,226.6c4.6,0,9.1,0,13.7,0c0-4.6,0-9.1,0-13.7C474.9,217.5,470.3,222,465.8,226.6z"/>
    <path class="st23" d="M465.8,212.9c9.1,0,18.3,0,27.4,0c-4.6-4.6-9.1-9.1-13.7-13.7C474.9,203.7,470.3,208.3,465.8,212.9z"/>
    <path class="st24" d="M465.8,212.9c4.6,0,9.1,0,13.7,0c0-4.6,0-9.1,0-13.7C474.9,203.7,470.3,208.3,465.8,212.9z"/>
    <path class="st7" d="M481.4,240.3c-1.3,0-2.5,0-3.8,0c0,2,0,4,0,6c1.3,0,2.5,0,3.8,0C481.4,244.3,481.4,242.3,481.4,240.3z"/>
</g>
<rect x="422.3" y="157.7" class="st3" width="6.1" height="88.6"/>
<path class="st13" d="M422.3,159l-25,14.4c-1.5,0.8-2,2.7-1.1,4.2c0.8,1.5,2.7,2,4.2,1.1l25-14.4l25,14.4c1.5,0.8,3.3,0.3,4.2-1.1
    c0.8-1.5,0.3-3.3-1.1-4.2l-25-14.4v-28.9c0-1.7-1.4-3.1-3.1-3.1c-1.7,0-3.1,1.4-3.1,3.1V159L422.3,159z M422.3,160.8L422.3,160.8
    c0-1.7,1.4-3.1,3.1-3.1c1.7,0,3.1,1.4,3.1,3.1c0,1.7-1.4,3.1-3.1,3.1C423.7,163.8,422.3,162.5,422.3,160.8z"/>
<rect x="283.7" y="246.3" class="st16" width="405.1" height="22.8"/>
<rect x="980.8" y="157.7" class="st3" width="6.1" height="88.6"/>
<path class="st13" d="M980.8,159l-25,14.4c-1.5,0.8-2,2.7-1.1,4.2c0.8,1.5,2.7,2,4.2,1.1l25-14.4l25,14.4c1.5,0.8,3.3,0.3,4.2-1.1
    c0.8-1.5,0.3-3.3-1.1-4.2l-25-14.4v-28.9c0-1.7-1.4-3.1-3.1-3.1c-1.7,0-3.1,1.4-3.1,3.1V159L980.8,159z M980.8,160.8L980.8,160.8
    c0-1.7,1.4-3.1,3.1-3.1c1.7,0,3.1,1.4,3.1,3.1c0,1.7-1.4,3.1-3.1,3.1C982.2,163.8,980.8,162.5,980.8,160.8z"/>
<circle class="st28" cx="1008.6" cy="226.9" r="15.6"/>
<path class="st7" d="M1010.5,226.9c0,4.3,0,8.5,0,12.8c2.3-2.3,4.6-4.6,6.9-6.9c0.4-0.4,1-0.4,1.3,0c0.4,0.4,0.4,1,0,1.3
    c-2.7,2.7-5.5,5.5-8.2,8.2c0,2.6,0,1.3,0,3.9c-1.3,0-2.5,0-3.8,0c0-2.6,0-1.3,0-3.9c-2.7-2.7-5.5-5.5-8.2-8.2c-0.4-0.4-0.4-1,0-1.3
    c0.4-0.4,1-0.4,1.3,0c2.3,2.3,4.6,4.6,6.9,6.9c0-4.3,0-8.5,0-12.8c0-1,0.8-1.9,1.9-1.9C1009.7,225,1010.5,225.9,1010.5,226.9z"/>
<circle class="st1" cx="959.1" cy="226.9" r="15.6"/>
<path class="st7" d="M961,226.9c0,4.3,0,8.5,0,12.8c2.3-2.3,4.6-4.6,6.9-6.9c0.4-0.4,1-0.4,1.3,0c0.4,0.4,0.4,1,0,1.3
    c-2.7,2.7-5.5,5.5-8.2,8.2c0,2.6,0,1.3,0,3.9c-1.3,0-2.5,0-3.8,0c0-2.6,0-1.3,0-3.9c-2.7-2.7-5.5-5.5-8.2-8.2c-0.4-0.4-0.4-1,0-1.3
    c0.4-0.4,1-0.4,1.3,0c2.3,2.3,4.6,4.6,6.9,6.9c0-4.3,0-8.5,0-12.8c0-1,0.8-1.9,1.9-1.9C960.1,225,961,225.9,961,226.9z"/>
<rect x="662.9" y="157.7" class="st3" width="6.1" height="88.6"/>
<path class="st13" d="M662.9,159l-25,14.4c-1.5,0.8-2,2.7-1.1,4.2c0.8,1.5,2.7,2,4.2,1.1l25-14.4l25,14.4c1.5,0.8,3.3,0.3,4.2-1.1
    c0.8-1.5,0.3-3.3-1.1-4.2L669,159v-28.9c0-1.7-1.4-3.1-3.1-3.1c-1.7,0-3.1,1.4-3.1,3.1V159L662.9,159z M662.9,160.8L662.9,160.8
    c0-1.7,1.4-3.1,3.1-3.1c1.7,0,3.1,1.4,3.1,3.1c0,1.7-1.4,3.1-3.1,3.1C664.2,163.8,662.9,162.5,662.9,160.8z"/>
<g>
    <path class="st23" d="M629.3,240.3c9.1,0,18.3,0,27.4,0c-4.6-4.6-9.1-9.1-13.7-13.7C638.5,231.2,633.9,235.8,629.3,240.3z"/>
    <path class="st24" d="M629.3,240.3c4.6,0,9.1,0,13.7,0c0-4.6,0-9.1,0-13.7C638.5,231.2,633.9,235.8,629.3,240.3z"/>
    <path class="st23" d="M629.3,226.6c9.1,0,18.3,0,27.4,0c-4.6-4.6-9.1-9.1-13.7-13.7C638.5,217.5,633.9,222,629.3,226.6z"/>
    <path class="st24" d="M629.3,226.6c4.6,0,9.1,0,13.7,0c0-4.6,0-9.1,0-13.7C638.5,217.5,633.9,222,629.3,226.6z"/>
    <path class="st23" d="M629.3,212.9c9.1,0,18.3,0,27.4,0c-4.6-4.6-9.1-9.1-13.7-13.7C638.5,203.7,633.9,208.3,629.3,212.9z"/>
    <path class="st24" d="M629.3,212.9c4.6,0,9.1,0,13.7,0c0-4.6,0-9.1,0-13.7C638.5,203.7,633.9,208.3,629.3,212.9z"/>
    <path class="st7" d="M644.9,240.3c-1.3,0-2.5,0-3.8,0c0,2,0,4,0,6c1.3,0,2.5,0,3.8,0C644.9,244.3,644.9,242.3,644.9,240.3z"/>
</g>
<rect x="499.3" y="157.7" class="st3" width="6.1" height="88.6"/>
<path class="st13" d="M499.3,159l-25,14.4c-1.5,0.8-2,2.7-1.1,4.2c0.8,1.5,2.7,2,4.2,1.1l25-14.4l25,14.4c1.5,0.8,3.3,0.3,4.2-1.1
    c0.8-1.5,0.3-3.3-1.1-4.2l-25-14.4v-28.9c0-1.7-1.4-3.1-3.1-3.1c-1.7,0-3.1,1.4-3.1,3.1V159L499.3,159z M499.3,160.8L499.3,160.8
    c0-1.7,1.4-3.1,3.1-3.1c1.7,0,3.1,1.4,3.1,3.1c0,1.7-1.4,3.1-3.1,3.1C500.7,163.8,499.3,162.5,499.3,160.8z"/>
<circle class="st16" cx="527.2" cy="226.9" r="15.6"/>
<path class="st7" d="M529.1,226.9c0,4.3,0,8.5,0,12.8c2.3-2.3,4.6-4.6,6.9-6.9c0.4-0.4,1-0.4,1.3,0c0.4,0.4,0.4,1,0,1.3
    c-2.7,2.7-5.5,5.5-8.2,8.2c0,2.6,0,1.3,0,3.9c-1.3,0-2.5,0-3.8,0c0-2.6,0-1.3,0-3.9c-2.7-2.7-5.5-5.5-8.2-8.2c-0.4-0.4-0.4-1,0-1.3
    c0.4-0.4,1-0.4,1.3,0c2.3,2.3,4.6,4.6,6.9,6.9c0-4.3,0-8.5,0-12.8c0-1,0.8-1.9,1.9-1.9C528.2,225,529.1,225.9,529.1,226.9z"/>
<path class="st29" d="M1036.2,61.5c16.9,0,30.7-13.8,30.7-30.7c0-16.9-13.8-30.7-30.7-30.7c-16.9,0-30.7,13.8-30.7,30.7
    C1005.5,47.7,1019.3,61.5,1036.2,61.5z"/>
<rect x="1030.4" y="67.3" class="st5" width="11.7" height="11.7"/>
<path class="st5" d="M1036.2,30.7v30.7c-17,0-30.7-13.8-30.7-30.7H1036.2z"/>
<path class="st30" d="M1036.2,30.7v30.7c17,0,30.7-13.8,30.7-30.7H1036.2z"/>
<circle class="st28" cx="1128.2" cy="226.9" r="15.6"/>
<path class="st7" d="M1130.1,226.9c0,4.3,0,8.5,0,12.8c2.3-2.3,4.6-4.6,6.9-6.9c0.4-0.4,1-0.4,1.3,0c0.4,0.4,0.4,1,0,1.3
    c-2.7,2.7-5.5,5.5-8.2,8.2c0,2.6,0,1.3,0,3.9c-1.3,0-2.5,0-3.8,0c0-2.6,0-1.3,0-3.9c-2.7-2.7-5.5-5.5-8.2-8.2c-0.4-0.4-0.4-1,0-1.3
    c0.4-0.4,1-0.4,1.3,0c2.3,2.3,4.6,4.6,6.9,6.9c0-4.3,0-8.5,0-12.8c0-1,0.8-1.9,1.9-1.9S1130.1,225.9,1130.1,226.9z"/>
<g>
    <path class="st23" d="M50.5,240.3c9.1,0,18.3,0,27.4,0c-4.6-4.6-9.1-9.1-13.7-13.7C59.7,231.2,55.1,235.8,50.5,240.3z"/>
    <path class="st24" d="M50.5,240.3c4.6,0,9.1,0,13.7,0c0-4.6,0-9.1,0-13.7C59.7,231.2,55.1,235.8,50.5,240.3z"/>
    <path class="st23" d="M50.5,226.6c9.1,0,18.3,0,27.4,0c-4.6-4.6-9.1-9.1-13.7-13.7C59.7,217.5,55.1,222,50.5,226.6z"/>
    <path class="st24" d="M50.5,226.6c4.6,0,9.1,0,13.7,0c0-4.6,0-9.1,0-13.7C59.7,217.5,55.1,222,50.5,226.6z"/>
    <path class="st23" d="M50.5,212.9c9.1,0,18.3,0,27.4,0c-4.6-4.6-9.1-9.1-13.7-13.7C59.7,203.7,55.1,208.3,50.5,212.9z"/>
    <path class="st24" d="M50.5,212.9c4.6,0,9.1,0,13.7,0c0-4.6,0-9.1,0-13.7C59.7,203.7,55.1,208.3,50.5,212.9z"/>
    <path class="st7" d="M66.1,240.3c-1.3,0-2.5,0-3.8,0c0,2,0,4,0,6c1.3,0,2.5,0,3.8,0C66.1,244.3,66.1,242.3,66.1,240.3z"/>
</g>
</svg>
