<?xml version="1.0" encoding="utf-8"?>
<!-- Generator: Adobe Illustrator 21.0.2, SVG Export Plug-In . SVG Version: 6.00 Build 0)  -->
<svg version="1.1" id="グループ_18" xmlns="http://www.w3.org/2000/svg" xmlns:xlink="http://www.w3.org/1999/xlink" x="0px"
	 y="0px" viewBox="0 0 475 302" style="enable-background:new 0 0 475 302;" xml:space="preserve">
<style type="text/css">
	.st0{fill:none;}
	.st1{opacity:0.6;fill:#888888;enable-background:new    ;}
	.st2{fill:#D6947E;}
	.st3{fill:#C68877;}
	.st4{fill:#373A3D;}
	.st5{fill:#4D5D70;}
	.st6{fill:#57677D;}
	.st7{fill:#FEFDFC;}
	.st8{fill:#EAE6E4;}
	.st9{fill:#6D7E91;}
	.st10{fill:#E0685F;}
	.st11{fill:#FEA07C;}
	.st12{fill:#EA957A;}
	.st13{fill:#9B9B92;}
	.st14{fill:#877757;}
	.st15{fill:#77694F;}
	.st16{fill:#D8EFED;}
	.st17{fill:#40526B;}
	.st18{fill:#B7B7A7;}
	.st19{fill:#42505E;}
	.st20{fill:#FFDDAA;}
	.st21{fill:#983C25;}
	.st22{fill:#F2CFA0;}
	.st23{fill:#FFC484;}
	.st24{fill:#E8B35D;}
	.st25{fill:#4EB0B7;}
	.st26{fill:#57BBC9;}
	.st27{fill:#334356;}
	.st28{fill:#B1BCA6;}
	.st29{fill:#EAE8E1;}
	.st30{fill:#F97552;}
	.st31{fill:#CDD7C4;}
	.st32{fill:#267D81;}
</style>
<path class="st0" d="z"/>
<ellipse id="楕円形_15" class="st1" cx="242.3" cy="276.5" rx="188.2" ry="13.5"/>
<path class="st0" d="z"/>
<g>
	<g>
		<g>
			<g>
				<rect x="140.9" y="153.6" class="st2" width="14.4" height="18"/>
				<path class="st3" d="M140.9,159.8c0,0,8.4,6.4,14.4-2l0-4.2h-14.4V159.8z"/>
			</g>
			<g>
				
					<ellipse transform="matrix(0.9321 -0.3623 0.3623 0.9321 -46.407 61.0103)" class="st3" cx="139.5" cy="154.2" rx="2" ry="2.2"/>
				
					<ellipse transform="matrix(0.3623 -0.9321 0.9321 0.3623 -43.8533 244.3771)" class="st3" cx="156.7" cy="154.2" rx="2.2" ry="2"/>
			</g>
			<path class="st2" d="M157,150.8c-0.4,6.3-4.4,11.2-8.9,11.2c-4.6,0-8.6-4.9-8.9-11.2c-0.4-6.3,3.7-11.7,8.9-11.7
				C153.4,139.1,157.4,144.4,157,150.8z"/>
			<path class="st4" d="M148.1,142.2c4.6,0,8.3,4.3,8.8,9.7c0.4-1.2,0.6-2.5,0.6-3.8c0-6-4.2-10.9-9.4-10.9c-5.2,0-9.4,4.9-9.4,10.9
				c0,1.4,0.2,2.6,0.6,3.8C139.7,146.5,143.5,142.2,148.1,142.2z"/>
		</g>
		<polygon class="st5" points="165.6,169.7 174.9,194 168.3,196 163.9,186.8 		"/>
		<polygon class="st6" points="155.2,164 148.1,168.3 148.1,168.3 141,164 130.6,169.7 130.6,213.8 165.6,213.8 165.6,169.7 		"/>
		<polygon class="st7" points="155.2,164 148.1,168.3 141,164 148.1,186.6 		"/>
		<g>
			<polygon class="st8" points="141,164 144.5,171 148.1,168.3 			"/>
			<polygon class="st8" points="155.2,164 151.7,171 148.1,168.3 			"/>
		</g>
		<polygon class="st9" points="141,161.9 141,164 148.1,186.6 138,179.9 140.1,176 136.3,175.8 138,165.6 		"/>
		<polygon class="st9" points="155.2,161.9 155.2,164 148.1,186.6 158.2,179.9 156.1,176 159.9,175.8 158.2,165.6 		"/>
		<polygon class="st10" points="151.3,176.6 149.6,171.9 150.8,170.3 148.1,168.3 145.4,170.3 146.6,172 144.9,176.6 148.1,186.6 		
			"/>
		<g>
			<path class="st8" d="M155,184c0,0,6.4,12.1,6.4,11.7c0-0.4,18.8-9.5,18.8-9.5l-2.8-15.3C177.4,170.9,162.7,181.7,155,184z"/>
			<path class="st5" d="M169.1,191.3l-1.3,2.8c0,0,0.1,3.8,3.5,3.8c0,0,3-0.6,4.3-5.8L169.1,191.3z"/>
			<path class="st11" d="M170.9,186.8l-1.8,4.5c0,0,3.6,3.8,6,1.4c2.4-2.4,1.4-7.7,0.5-8.1C174.3,184.1,170.9,186.8,170.9,186.8z"/>
		</g>
		<path class="st5" d="M130.6,169.7l-10.4,23c0,0,0,4,2.9,5.2h14.1l0.7-6.2l-10.2-0.3l2.9-4L130.6,169.7z"/>
		<path class="st11" d="M138.1,191.6c0,0-2.2,0.6-2.2,3.6c0,1.2,0.4,2.1,1.4,2.6h7c0,0,0.7-3-1.3-4.7
			C141.6,192,138.1,191.6,138.1,191.6z"/>
	</g>
	<g>
		<g>
			<circle class="st4" cx="268.3" cy="148.2" r="11"/>
			<g>
				<ellipse transform="matrix(0.929 -0.37 0.37 0.929 -39.3795 107.4537)" class="st12" cx="260.4" cy="156.4" rx="1.9" ry="2.3"/>
				<ellipse transform="matrix(0.37 -0.929 0.929 0.37 28.5826 354.9067)" class="st12" cx="276" cy="156.4" rx="2.3" ry="1.9"/>
			</g>
			<g>
				<rect x="261.8" y="158.8" class="st11" width="13" height="15.4"/>
				<path class="st12" d="M261.8,161.1c0,0,3.3,3.6,8.7,1.7v-4h-8.7L261.8,161.1z"/>
			</g>
			<g>
				<path class="st11" d="M264.9,144.3c-1.1,2.4-3.2,4.2-4.8,5.4c-0.2,0.8-0.3,1.7-0.3,2.6c0,6,3.8,10.9,8.4,10.9
					c4.7,0,8.4-4.9,8.4-10.9c0-0.6,0-1.2-0.1-1.7C271.5,146.5,264.9,144.3,264.9,144.3z"/>
				<path class="st12" d="M276.6,150.6c-5.1-4.1-11.7-6.3-11.7-6.3c-0.3,0.7-0.7,1.3-1.2,1.9c0.7-0.5,1.3-1.3,1.3-1.3
					c8.1,3.2,11.6,6.5,11.6,6.5C276.7,151.2,276.7,150.9,276.6,150.6z"/>
			</g>
		</g>
		<path class="st9" d="M284.2,170.2c0,0,4.9,1.4,5.9,7.1l2.9,23.8h-10.5L284.2,170.2z"/>
		<path class="st9" d="M252.4,170.2c0,0-3.7,3.3-5.7,7.5l-4.8,14.2c0,0-0.7,4.6,2.5,5.8c0,0,3.6,0.9,5.6-2.1l4.1-10.2L252.4,170.2z"
			/>
		<polygon class="st6" points="274.8,165 268.3,168.9 268.3,168.9 261.8,165 252.4,170.2 252.4,210.5 284.2,210.5 284.2,170.2 		"/>
		<polygon class="st7" points="274.8,165 268.3,168.9 261.8,165 268.3,185.7 		"/>
		<g>
			<polygon class="st8" points="261.8,165 265.1,171.4 268.3,168.9 			"/>
			<polygon class="st8" points="274.8,165 271.6,171.4 268.3,168.9 			"/>
		</g>
		<polygon class="st9" points="261.8,163.1 261.8,165 268.3,185.7 259.1,179.5 261,176 257.5,175.9 259.1,166.5 		"/>
		<polygon class="st9" points="274.8,163.1 274.8,165 268.3,185.7 277.5,179.5 275.6,176 279.1,175.9 277.5,166.5 		"/>
		<polygon class="st10" points="271.2,176.6 269.6,172.3 270.8,170.8 268.3,168.9 265.8,170.8 267,172.3 265.4,176.6 268.3,185.7 		
			"/>
		<g>
			<path class="st11" d="M239.4,172.2c0,0-2-5.2-2.6-6.7c-1-2.8,0-4.2,0-4.2s1.5-2.7,3.7-1.4c1,0.6,1.7,2.9,1.7,2.9s1.4-0.6,1.6,2.5
				c0.1,2,0.9,6.2,0.9,6.2L239.4,172.2z"/>
			
				<rect x="239" y="171.2" transform="matrix(0.9912 -0.1323 0.1323 0.9912 -20.6973 33.5706)" class="st7" width="6.5" height="2.6"/>
			<path class="st9" d="M238.8,173.7l3,19.8c0,0,7.7-1.4,7.5-1.7c-0.2-0.3-3.6-19.3-3.6-19.3L238.8,173.7z"/>
		</g>
	</g>
	<g>
		<g>
			<rect x="90.5" y="197.9" class="st13" width="302.8" height="5.2"/>
			<rect x="112.9" y="203" class="st14" width="258.1" height="68"/>
			<rect x="112.9" y="203" class="st15" width="258.1" height="7"/>
		</g>
		<g>
			<path class="st16" d="M111.8,183.1v14.1c0,0.4,0.3,0.6,0.6,0.6h5.7c0.4,0,0.6-0.3,0.6-0.6v-14.1H111.8z"/>
			<rect x="112.5" y="189.1" class="st7" width="5.4" height="8"/>
		</g>
		<g>
			<rect x="253.8" y="196.9" class="st8" width="28.5" height="1"/>
			<rect x="254.3" y="195" class="st8" width="28.5" height="1"/>
			<rect x="253.2" y="195.9" class="st7" width="28.5" height="1"/>
		</g>
		<g>
			<rect x="130.3" y="196.9" class="st8" width="28.5" height="1"/>
			<rect x="130.8" y="195" class="st8" width="28.5" height="1"/>
			<rect x="129.8" y="195.9" class="st7" width="28.5" height="1"/>
		</g>
		<g>
			<path class="st16" d="M371.5,183.1v14.1c0,0.4,0.3,0.6,0.6,0.6h5.7c0.4,0,0.6-0.3,0.6-0.6v-14.1H371.5z"/>
			<rect x="372.3" y="185.5" class="st7" width="5.4" height="11.7"/>
		</g>
	</g>
	<g>
		<g>
			<g>
				
					<rect x="58" y="159.6" transform="matrix(0.887 0.4618 -0.4618 0.887 83.7226 -10.3921)" class="st11" width="10.1" height="12.5"/>
				<path class="st11" d="M79.1,154.5l-1.8-1.6c0,0,0,0,0,0c0-7-2.7-11.1-9.5-11.1s-9.5,5-9.5,11.1c0,6.1,4.2,11.1,9.5,11.1
					c3.8,0,7.1-2.6,8.6-6.4l1.9-0.4C79.5,156.8,80,155.3,79.1,154.5z"/>
				<path class="st4" d="M64.2,137.9c0,0-7,0.5-8.5,5.5c0,0-3.4,10.3,4.8,16.5c0.3-0.3,2.4-2.2,3.8-5.1c-0.2,0-0.3-0.1-0.5-0.2
					c-1.2-0.6-1.8-1.9-1.3-2.9c0.5-1,1.8-1.3,2.9-0.9c0.1-0.5,0.1-0.9,0.1-1.4c0-0.7-1.1-4.3,2.5-4.4c0,0,7.5,1,8.4-1.5
					C77.2,140.9,74.1,137.2,64.2,137.9z"/>
			</g>
			<path class="st17" d="M60.3,212.2l33.4,3.6c0,0,5.6,1.5,4,11.5l-5,34.4H82.3l4.4-35.8H41.9c0,0-8.1-1-8.1-13.6L60.3,212.2z"/>
			<path class="st4" d="M83.2,261.8v9.2H106c0,0,0.5-3.7-2.7-4.6l-12.1-4.6H83.2z"/>
			<polygon class="st8" points="58.1,161.7 69.7,170.5 67.4,174.3 55,167.8 			"/>
			<path class="st6" d="M33.2,213.1l31.7-0.5l3.9-32.3c0,0,0.9-11.9-9.6-14.3c0,0-13.4-2.9-18.1,14.1L33.2,213.1z"/>
			<g>
				<path class="st18" d="M113,186.8c0,0,8.5-7.8,14.6-7.6c0,0-5.1-2.6-8.4-2.6l-9.3,8.4L113,186.8z"/>
				<path class="st8" d="M93.1,182.6c0,0,2.8,3.2,4.3,3.7l11.3,5.3l16-18.1c0,0-5.5,1.6-7.5,0.7c-1.9-0.9-6.2-3.3-6.2-3.3
					L93.1,182.6z"/>
			</g>
			<path class="st11" d="M93.7,187.6l6.8-5.1c0,0,1.5,1.6-1.9,4.2l6,2.9l-8.7,2.4L93.7,187.6z"/>
			<polygon class="st8" points="94.7,194 91.4,187.7 94.2,186.3 97.4,192.6 			"/>
			<polygon class="st19" points="84.6,190.6 92,186.8 95.7,193.5 87.9,197.3 			"/>
			<path class="st11" d="M99.1,191.9c0,0,7.1-0.8,9.9,1.7c0,0,1.9,2.1,1.9,4.4H99.1V191.9z"/>
			<rect x="96.6" y="191.3" class="st8" width="3.4" height="6.7"/>
			<path class="st5" d="M62.9,175.3l17.5,13.9l16.8,1.9v6.9H77l-22-10.9c0,0-6.9-3.5-3.1-10.1C51.9,177,55.4,170.5,62.9,175.3z"/>
		</g>
		<g>
			<path class="st4" d="M72.2,232.7H33.9c-1.6,0-3-1.2-3.3-2.7l-8.5-46.8c-0.3-1.8,0.9-3.5,2.7-3.9c1.8-0.3,3.5,0.9,3.9,2.7l8,44
				h35.6c1.8,0,3.3,1.5,3.3,3.3S74,232.7,72.2,232.7z"/>
			<g>
				<circle class="st4" cx="35.5" cy="267.9" r="3.1"/>
				<circle class="st4" cx="52.7" cy="267.9" r="3.1"/>
				<circle class="st4" cx="69.9" cy="267.9" r="3.1"/>
				<path class="st4" d="M69.9,260.9H54.6v-29.2h-3.8v29.2H35.5c-1.1,0-1.9,0.9-1.9,1.9v3.8h3.8v-1.9h13.4v2.6h3.8v-2.6H68v1.9h3.8
					v-3.8C71.8,261.7,71,260.9,69.9,260.9z"/>
			</g>
		</g>
	</g>
	<g>
		<g>
			<path class="st20" d="M385.9,214.5c0,0-7.4,1.2-7.4,5c0,3.8,5.2,40.3,5.2,40.3l-5.2,7.7c0,0,3.5,0.3,5.6-1.7l4.4-6.2
				c0,0,0.2-25.8-2.1-34.1l6.4,0.1L385.9,214.5z"/>
			<path class="st4" d="M388.6,270.6l1.7-6.2l-1.8-4.7c0,0-4.6,5.7-6.4,5.5c-1.8-0.2-0.6-2-0.6-2s-3.9,4.4-10.4,5.1
				c0,0-1,1.5,0.4,2.4l12.7-0.1l3.6-4.3l-0.2,4.4H388.6z"/>
			<path class="st10" d="M384.6,213.9l28.3-5.9l15.9,0.8c0,0,1.8,12.9-6.8,16.8h-29.2L384.6,213.9z"/>
			<path class="st21" d="M408.4,162.1v6c0,0,5.6-0.6,8.9-2.2l-2.3-5.7L408.4,162.1z"/>
			<g>
				
					<rect x="414.8" y="160.3" transform="matrix(0.9259 -0.3778 0.3778 0.9259 -31.2182 170.1037)" class="st20" width="6.1" height="8.6"/>
				<path class="st22" d="M414.7,164.9c0,0,3.9-2.8,4.4-5.4l-5.7,2.3L414.7,164.9z"/>
			</g>
			<path class="st20" d="M419.9,143.7c0,0-8.6-6.8-15.5,1.3c0,0-1.5,5.1-0.5,10.5c-0.5,1.1-1.2,2.5-2.3,3.6h3.3
				c1,2.4,2.7,4.6,5.5,6.2C410.4,165.3,428.8,161,419.9,143.7z"/>
			<path class="st21" d="M427,155.6c0,0,3.3-14-5.2-16.6c0,0-3.3-1.1-9.8,0c0,0-8,1.2-10.8,0.1c0,0,3.6,9.8,14.1,12.9
				c0.2-0.2,0.3-0.3,0.6-0.4c1.1-0.6,2.4-0.3,3,0.6c0.5,1,0,2.2-1.1,2.8c-0.4,0.2-0.7,0.3-1.1,0.3c0.7,3.5,2,8.9,3.7,10.1
				c0,0,7.9-1.1,10.4-4.3C430.7,161,426.6,160.6,427,155.6z"/>
			<path class="st10" d="M412.9,172.6c1.8-1.4,9.1-8.8,9.1-8.8l1.8,3l-9.9,9.2L412.9,172.6z"/>
			<g>
				<path class="st20" d="M386.3,178.9c0,0-2-7.7-4.4-5.7c0,0-2.9-2.9-5.2-0.8c0,0-2,2.7,1.1,5.6l5.2,4L386.3,178.9z"/>
				
					<rect x="382.6" y="179.2" transform="matrix(0.6292 -0.7772 0.7772 0.6292 2.3994 366.618)" class="st8" width="5.7" height="3.2"/>
				<path class="st5" d="M400.2,197c-0.8,0-1.5-0.3-2.2-0.8l-14.5-12.4l4.3-5.1l12.5,10.7l15-11.2l4,5.3l-17.1,12.8
					C401.6,196.8,400.9,197,400.2,197z"/>
			</g>
			<path class="st6" d="M413.4,208.1l-2-14c0,0-4.3-1.3-3.7-5.3l3.2-7.6c0,0,4-8.4,6.4-11.1c0,0,5.2-6,9.7-2c0,0,4.8,4.1,3.7,15.3
				l-1.9,25.4L413.4,208.1z"/>
			<g>
				<path class="st20" d="M394.4,206.6c0,0-4.8,0.5-6.4,2.7c-1.4,1.9-0.5,3.6,0.8,3.6c1.3,0.1,7.5-1.8,7.5-1.8L394.4,206.6z"/>
				<polygon class="st8" points="395,211.7 393.9,205.9 396.4,205.5 397.4,211.2 				"/>
				<path class="st9" d="M395.5,204.9l18.8-3.8l3.9-25.6c0.3-1.8,2-3.1,3.8-2.8c1.8,0.3,3.1,2,2.8,3.8l-4.2,28
					c-0.2,1.4-1.3,2.5-2.7,2.8l-21.1,4.2L395.5,204.9z"/>
			</g>
		</g>
		<g>
			<path class="st4" d="M392.8,232.4h38.3c1.6,0,3-1.2,3.3-2.7l8.5-46.8c0.3-1.8-0.9-3.5-2.7-3.9c-1.8-0.3-3.5,0.9-3.9,2.7l-8,44
				h-35.6c-1.8,0-3.3,1.5-3.3,3.3C389.5,230.9,391,232.4,392.8,232.4z"/>
			<g>
				<circle class="st4" cx="429.5" cy="267.5" r="3.1"/>
				<circle class="st4" cx="412.3" cy="267.5" r="3.1"/>
				<circle class="st4" cx="395.1" cy="267.5" r="3.1"/>
				<path class="st4" d="M395.1,260.5h15.3v-29.2h3.8v29.2h15.3c1.1,0,1.9,0.9,1.9,1.9v3.8h-3.8v-1.9h-13.4v2.6h-3.8v-2.6H397v1.9
					h-3.8v-3.8C393.2,261.4,394,260.5,395.1,260.5z"/>
			</g>
		</g>
	</g>
	<g>
		<g>
			<polygon class="st10" points="204.3,263.7 198.6,271 204.3,271 206.8,267.3 206.8,271 208.4,271 209.7,263.7 209,262.6 			"/>
			<polygon class="st23" points="204.3,263.7 198.6,229 205.7,227.9 209,262.6 			"/>
			<polygon class="st10" points="215.4,263.7 209.7,271 215.4,271 217.9,267.3 217.9,271 219.5,271 220.7,263.7 220.1,262.6 			"/>
			<polygon class="st23" points="215.4,263.7 211.5,228.7 219.2,227.9 220.1,262.6 			"/>
			<path class="st24" d="M204.8,212.4c0,0-10.5,4.8-11.6,9.4c-1.1,4.5,2,8,5.3,8h28.1c0,0,9.2-5.3,4.8-17.3H204.8z"/>
			<path class="st23" d="M214.1,140.6c0,0-8-0.9-9.9,5c0,0-1,3.8-1,8.2l-2.6,3.2c-0.3,0.4,0,0.9,0.5,0.9h2.5
				c0.7,3.5,2.6,6.7,6.5,8.2c0,0,12-0.3,12-14.4C222.2,151.6,222.7,141.3,214.1,140.6z"/>
			<path class="st23" d="M232.8,193.6c0,0-3.5,0.9-3.7,4.3h4.2L232.8,193.6z"/>
			<path class="st25" d="M236,192.7l-3.3,0.9c0,0-2.2,2.8,0.6,4.3h7.9L236,192.7z"/>
			<path class="st26" d="M230.7,173.1l13.2,19.8c0,0,1.4,4.1-3.2,4.8c-4,0.6-11.5-13-11.5-13L230.7,173.1z"/>
			<path class="st23" d="M182.2,177.2l-2-8.2l-0.2-4.4c0,0,2.2-0.5,3,3.9l2.8,4l0.6-3.4l1.3,2l-0.6,6.7L182.2,177.2z"/>
			<polygon class="st25" points="181.9,176.2 177.8,192.9 184.5,194.1 187.7,177.7 			"/>
			<path class="st26" d="M216.8,168.1c0,0-14.5,0.7-20.5,4.5c-3.2,2-17.7,18-18.5,20.3c-0.8,2.3,0.9,5.9,5.2,5l15.8-14.1
				c0,0,6.7,15.5,6.1,28.6h26.7c0,0-4.5-8.9-3.3-16.6c1.3-7.7,5.9-12.8,3.8-19.6C230.1,169.3,223.7,167.7,216.8,168.1z"/>
			<path class="st21" d="M209.5,136.1c0,0-8,1.1-7.7,7c0.2,6,5.5,6.3,5.5,6.3s-3.4,3.8,2.8,9.1c0,0-4.7,1.8-2.7,7.4
				c0,0-6.6,4.7,1.9,10.2c0,0-0.3,5.9,9.1,5.5c0,0,8.8,0,8.4-7.9c0,0,2.2-3.3,0-7.8c0,0,3.7-3.3,1-7.1c0,0,0.4-3.9-2.6-5.2
				c0,0,2.9-3.7-0.8-6.8c0,0,1.4-7.9-6.7-10.8C217.7,136.1,212.5,134.4,209.5,136.1z"/>
		</g>
		<g>
			<g>
				<g>
					<circle class="st4" cx="196.2" cy="267.8" r="3.1"/>
					<circle class="st4" cx="213.4" cy="267.8" r="3.1"/>
					<circle class="st4" cx="230.6" cy="267.8" r="3.1"/>
					<path class="st4" d="M230.6,260.8h-15.3v-29.2h-3.8v29.2h-15.3c-1.1,0-1.9,0.9-1.9,1.9v3.8h3.8v-1.9h13.4v2.6h3.8v-2.6h13.4
						v1.9h3.8v-3.8C232.5,261.7,231.7,260.8,230.6,260.8z"/>
				</g>
				<path class="st4" d="M229.8,233h-33.2c-1.8,0-3.3-1.5-3.3-3.3c0-1.8,1.5-3.3,3.3-3.3h33.2c1.8,0,3.3,1.5,3.3,3.3
					C233.1,231.5,231.6,233,229.8,233z"/>
			</g>
			<path class="st4" d="M233,229.7h-30.8l8.4-47.7c0.5-3.1,3.5-5.6,6.6-5.6h19.5c3.1,0,5.2,2.5,4.6,5.6L233,229.7z"/>
		</g>
	</g>
	<g>
		<g>
			<polygon class="st4" points="322.7,271 308.2,271 315.4,265.5 322.6,265.5 			"/>
			<polygon class="st27" points="313.9,223 315,265.8 322.8,265.8 326.1,223 			"/>
			<polygon class="st4" points="337.3,271 351.8,271 344.6,265.5 337.4,265.5 			"/>
			<polygon class="st27" points="346.1,223 345,265.8 337.2,265.8 334,223 			"/>
			<g>
				<rect x="323.7" y="155.4" class="st23" width="12.3" height="11.3"/>
				<circle class="st23" cx="321.6" cy="153.2" r="2.1"/>
				<circle class="st23" cx="338.2" cy="153.2" r="2.1"/>
				<path class="st4" d="M329.9,137.3c-4.9,0-8.8,5.4-8.8,12c0,6.7,3.9,12,8.8,12c4.9,0,8.8-5.4,8.8-12v-13.6
					C336.1,136.7,329.9,137.3,329.9,137.3z"/>
			</g>
			<path class="st23" d="M305.5,197.9c0,0-0.5-3.6-3.6-4.6l-2.7,4.6H305.5z"/>
			<path class="st23" d="M354.2,176c0,0-1.7-3.3-2.5-4.7c0,0-0.1-1.3,1.7-0.1c0,0-2.3-4.9,3.1-5.3l2.4,7.8L354.2,176z"/>
			<path class="st8" d="M321.9,166.3v-2c0,0,7-2.2,15.4,0v2H321.9z"/>
			<g>
				<path class="st6" d="M312,172.6l-17.8,20.2c0,0-1.4,5,5,5l15.7-15.1L312,172.6z"/>
				<polygon class="st6" points="358.8,173.7 364.7,192.8 358.7,194.1 353.8,175.6 				"/>
				<path class="st6" d="M346.9,172.6l17.8,20.2c0,0,1.4,5-5,5L344,182.8L346.9,172.6z"/>
				<path class="st6" d="M347.4,218.5h-37l0.2-41.9c0-6.2,5.1-11.3,11.3-11.3h14.5c6.2,0,11.3,5.1,11.3,11.3L347.4,218.5z"/>
			</g>
			<path class="st17" d="M343.3,229.7h-28.9c-2.2,0-4.1-1.8-4.1-4.1v-7.2h37v7.2C347.4,227.9,345.6,229.7,343.3,229.7z"/>
		</g>
		<g>
			<g>
				<g>
					<circle class="st4" cx="311.6" cy="267.9" r="3.1"/>
					<circle class="st4" cx="328.9" cy="267.9" r="3.1"/>
					<circle class="st4" cx="346.1" cy="267.9" r="3.1"/>
					<path class="st4" d="M346.1,260.9h-15.3v-29.2H327v29.2h-15.3c-1.1,0-1.9,0.9-1.9,1.9v3.8h3.8v-1.9H327v2.6h3.8v-2.6h13.4v1.9
						h3.8v-3.8C348,261.7,347.2,260.9,346.1,260.9z"/>
				</g>
				<path class="st4" d="M345.3,233h-33.2c-1.8,0-3.3-1.5-3.3-3.3s1.5-3.3,3.3-3.3h33.2c1.8,0,3.3,1.5,3.3,3.3S347.1,233,345.3,233z
					"/>
			</g>
			<path class="st4" d="M344.3,229.7h-30.8v-48.2c0-2.8,2.3-5.2,5.2-5.2h20.5c2.8,0,5.2,2.3,5.2,5.2V229.7z"/>
		</g>
	</g>
</g>
<g>
	<rect x="244.3" y="8.3" class="st28" width="157.7" height="105.9"/>
	
		<rect x="273.5" y="-14.3" transform="matrix(-1.836970e-16 1 -1 -1.836970e-16 384.3433 -261.9243)" class="st29" width="99.2" height="151"/>
	<g>
		<g>
			<polygon class="st30" points="345.5,67.6 380.5,67.6 377.1,60.7 348.9,60.7 			"/>
			<polygon class="st14" points="348.9,60.7 377.1,60.7 373.6,53.7 352.5,53.7 			"/>
			<polygon class="st31" points="352.5,53.7 373.6,53.7 370,46.7 356,46.7 			"/>
			<polygon class="st24" points="356,46.7 370,46.7 366.5,39.6 359.5,39.6 			"/>
			<polygon class="st32" points="363,32.6 359.5,39.6 366.5,39.6 			"/>
		</g>
		<g>
			<rect x="346.9" y="72.9" class="st32" width="2.6" height="2.6"/>
			<rect x="346.9" y="77.5" class="st24" width="2.6" height="2.6"/>
			<rect x="346.9" y="82" class="st31" width="2.6" height="2.6"/>
			<rect x="346.9" y="86.6" class="st14" width="2.6" height="2.6"/>
			<rect x="346.9" y="91.2" class="st30" width="2.6" height="2.6"/>
			<rect x="354.2" y="73.7" class="st14" width="22.9" height="0.9"/>
			<rect x="354.2" y="78.3" class="st14" width="22.9" height="0.9"/>
			<rect x="354.2" y="82.9" class="st14" width="22.9" height="0.9"/>
			<rect x="354.2" y="87.4" class="st14" width="22.9" height="0.9"/>
			<rect x="354.2" y="92" class="st14" width="22.9" height="0.9"/>
		</g>
	</g>
	<g>
		<g>
			
				<rect x="288.1" y="99.8" transform="matrix(-1 -1.224647e-16 1.224647e-16 -1 580.5147 201.8162)" class="st31" width="4.3" height="2.2"/>
			
				<rect x="275.1" y="99.8" transform="matrix(-1 -1.224647e-16 1.224647e-16 -1 562.1427 201.8162)" class="st31" width="12" height="2.2"/>
			
				<rect x="267.1" y="99.8" transform="matrix(-1 -1.224647e-16 1.224647e-16 -1 540.9135 201.8162)" class="st31" width="6.8" height="2.2"/>
			
				<rect x="283.8" y="95.7" transform="matrix(-1 -1.224647e-16 1.224647e-16 -1 576.2136 193.6274)" class="st31" width="8.6" height="2.2"/>
			
				<rect x="271.9" y="95.7" transform="matrix(-1 -1.224647e-16 1.224647e-16 -1 554.7081 193.6274)" class="st31" width="11" height="2.2"/>
			
				<rect x="266.9" y="95.7" transform="matrix(-1 -1.224647e-16 1.224647e-16 -1 537.9009 193.6274)" class="st31" width="4.2" height="2.2"/>
			
				<rect x="284.7" y="91.6" transform="matrix(-1 -1.224647e-16 1.224647e-16 -1 577.1353 185.4385)" class="st31" width="7.7" height="2.2"/>
			
				<rect x="276.3" y="91.6" transform="matrix(-1 -1.224647e-16 1.224647e-16 -1 560.0997 185.4385)" class="st31" width="7.5" height="2.2"/>
			
				<rect x="268.2" y="91.6" transform="matrix(-1 -1.224647e-16 1.224647e-16 -1 543.5538 185.4385)" class="st31" width="7.2" height="2.2"/>
			
				<rect x="283.8" y="87.5" transform="matrix(-1 -1.224647e-16 1.224647e-16 -1 576.2136 177.2496)" class="st31" width="8.6" height="2.2"/>
			
				<rect x="273.3" y="87.5" transform="matrix(-1 -1.224647e-16 1.224647e-16 -1 556.1366 177.2496)" class="st31" width="9.5" height="2.2"/>
			
				<rect x="267.1" y="87.5" transform="matrix(-1 -1.224647e-16 1.224647e-16 -1 539.485 177.2496)" class="st31" width="5.4" height="2.2"/>
			
				<rect x="287.1" y="83.4" transform="matrix(-1 -1.224647e-16 1.224647e-16 -1 579.4702 169.0607)" class="st31" width="5.3" height="2.2"/>
			
				<rect x="270.9" y="83.4" transform="matrix(-1 -1.224647e-16 1.224647e-16 -1 556.797 169.0607)" class="st31" width="15.1" height="2.2"/>
		</g>
		<g>
			
				<rect x="309.1" y="91.6" transform="matrix(-1 -1.224647e-16 1.224647e-16 -1 630.9158 185.4385)" class="st32" width="12.6" height="2.2"/>
			
				<rect x="305.8" y="91.6" transform="matrix(-1 -1.224647e-16 1.224647e-16 -1 613.845 185.4385)" class="st32" width="2.3" height="2.2"/>
			
				<rect x="317.7" y="87.5" transform="matrix(-1 -1.224647e-16 1.224647e-16 -1 641.0027 177.2496)" class="st32" width="5.6" height="2.2"/>
			
				<rect x="305.8" y="87.5" transform="matrix(-1 -1.224647e-16 1.224647e-16 -1 622.2151 177.2496)" class="st32" width="10.7" height="2.2"/>
			
				<rect x="312.7" y="83.4" transform="matrix(-1 -1.224647e-16 1.224647e-16 -1 634.1572 169.0607)" class="st32" width="8.7" height="2.2"/>
			
				<rect x="305.8" y="83.4" transform="matrix(-1 -1.224647e-16 1.224647e-16 -1 617.5877 169.0607)" class="st32" width="6" height="2.2"/>
		</g>
		<g>
			
				<rect x="306" y="23.5" transform="matrix(-1 -1.224647e-16 1.224647e-16 -1 628.6513 49.1279)" class="st31" width="16.6" height="2.2"/>
			
				<rect x="294.9" y="23.5" transform="matrix(-1 -1.224647e-16 1.224647e-16 -1 599.1798 49.1279)" class="st31" width="9.4" height="2.2"/>
			
				<rect x="283.2" y="23.5" transform="matrix(-1 -1.224647e-16 1.224647e-16 -1 576.9378 49.1279)" class="st31" width="10.6" height="2.2"/>
			
				<rect x="276.2" y="23.5" transform="matrix(-1 -1.224647e-16 1.224647e-16 -1 558.5129 49.1279)" class="st31" width="6" height="2.2"/>
			
				<rect x="301.6" y="19.4" transform="matrix(-1 -1.224647e-16 1.224647e-16 -1 618.3302 40.939)" class="st31" width="15.2" height="2.2"/>
			
				<rect x="291.3" y="19.4" transform="matrix(-1 -1.224647e-16 1.224647e-16 -1 591.7161 40.939)" class="st31" width="9.1" height="2.2"/>
			
				<rect x="282.3" y="19.4" transform="matrix(-1 -1.224647e-16 1.224647e-16 -1 572.2463 40.939)" class="st31" width="7.7" height="2.2"/>
			
				<rect x="276.2" y="19.4" transform="matrix(-1 -1.224647e-16 1.224647e-16 -1 557.0626 40.939)" class="st31" width="4.6" height="2.2"/>
		</g>
		<g>
			<g>
				<circle class="st31" cx="303.5" cy="52.5" r="13.9"/>
				<circle class="st30" cx="287.4" cy="52.5" r="13.9"/>
				<path class="st32" d="M301.4,52.5c0-4.7-2.3-8.9-5.9-11.4c-3.6,2.5-5.9,6.7-5.9,11.4s2.3,8.9,5.9,11.4
					C299.1,61.4,301.4,57.2,301.4,52.5z"/>
			</g>
			<g>
				<polygon class="st30" points="306.4,62.4 306.9,62.4 306.9,75.9 310.4,79.3 310,79.7 306.4,76.1 				"/>
				<circle class="st30" cx="306.7" cy="62.4" r="0.9"/>
				<circle class="st30" cx="310.2" cy="79.5" r="0.9"/>
			</g>
			<g>
				<rect x="283.1" y="29" class="st14" width="0.5" height="13.6"/>
				<circle class="st14" cx="283.3" cy="29" r="0.9"/>
				<circle class="st14" cx="283.3" cy="42.6" r="0.9"/>
			</g>
			<g>
				<rect x="295.2" y="59.6" class="st24" width="0.5" height="42"/>
				<circle class="st24" cx="295.5" cy="59.6" r="0.9"/>
				<circle class="st24" cx="295.5" cy="102" r="0.9"/>
			</g>
		</g>
	</g>
</g>
<g>
	<g>
		<rect x="79.1" y="8.3" class="st28" width="157.7" height="105.9"/>
		
			<rect x="108.3" y="-14.3" transform="matrix(-1.836970e-16 1 -1 -1.836970e-16 219.1429 -96.724)" class="st29" width="99.2" height="151"/>
	</g>
	<g>
		<g>
			<rect x="169.9" y="87.1" class="st30" width="3.6" height="3.6"/>
			<rect x="169.9" y="93.4" class="st32" width="3.6" height="3.6"/>
			<rect x="179.8" y="88.2" class="st14" width="31.5" height="1.3"/>
			<rect x="179.8" y="94.5" class="st14" width="31.5" height="1.3"/>
		</g>
		<g>
			<g>
				<rect x="158" y="27.2" class="st31" width="65.8" height="0.3"/>
				<rect x="158" y="32" class="st31" width="65.8" height="0.3"/>
				<rect x="158" y="36.7" class="st31" width="65.8" height="0.3"/>
				<rect x="158" y="41.4" class="st31" width="65.8" height="0.3"/>
				<rect x="158" y="46.2" class="st31" width="65.8" height="0.3"/>
				<rect x="158" y="50.9" class="st31" width="65.8" height="0.3"/>
				<rect x="158" y="55.6" class="st31" width="65.8" height="0.3"/>
				<rect x="158" y="60.4" class="st31" width="65.8" height="0.3"/>
				<rect x="158" y="65.1" class="st31" width="65.8" height="0.3"/>
				<rect x="158" y="69.9" class="st31" width="65.8" height="0.3"/>
				<rect x="158" y="74.6" class="st31" width="65.8" height="0.3"/>
			</g>
			<path class="st30" d="M158,79.5c-0.1,0-0.1,0-0.2,0c-0.2-0.1-0.2-0.3-0.1-0.4l11.1-18.6c0.1-0.2,0.3-0.2,0.4-0.1l7.9,4.6l4.2-9.1
				c0-0.1,0.1-0.2,0.2-0.2c0.1,0,0.2,0,0.3,0.1l5.6,4.4l3.2-13.7c0-0.1,0.1-0.1,0.1-0.2l5.8-4.7L200,32c0-0.1,0.2-0.2,0.3-0.2
				c0.1,0,0.3,0.1,0.3,0.2l6.4,13.6l4.9-8.9c0.1-0.1,0.2-0.2,0.3-0.2c0.1,0,0.2,0.1,0.3,0.2l6.3,13.5l4.8-13.5
				c0.1-0.2,0.2-0.3,0.4-0.2c0.2,0.1,0.3,0.2,0.2,0.4l-5.1,14.2c0,0.1-0.2,0.2-0.3,0.2c-0.1,0-0.3-0.1-0.3-0.2l-6.4-13.6l-4.9,8.9
				c-0.1,0.1-0.2,0.2-0.3,0.2c-0.1,0-0.2-0.1-0.3-0.2L200.3,33l-3.2,8.7c0,0.1-0.1,0.1-0.1,0.1l-5.8,4.7l-3.3,14.1
				c0,0.1-0.1,0.2-0.2,0.2c-0.1,0-0.2,0-0.3-0.1l-5.7-4.5l-4.1,9.1c0,0.1-0.1,0.1-0.2,0.2c-0.1,0-0.2,0-0.3,0l-7.9-4.6l-10.9,18.3
				C158.2,79.4,158.1,79.5,158,79.5z"/>
			<path class="st32" d="M158,79.5c-0.1,0-0.1,0-0.2-0.1c-0.1-0.1-0.2-0.3-0.1-0.5l11-13.9c0.1-0.1,0.3-0.2,0.4-0.1l7.8,4.5
				l4.3-23.2c0-0.1,0.1-0.2,0.3-0.3c0.1,0,0.3,0,0.3,0.2l4.6,8.6l4.1-13.3c0-0.1,0.1-0.1,0.1-0.2l6.2-4.7c0.1-0.1,0.2-0.1,0.2-0.1
				c0.1,0,0.2,0.1,0.2,0.1l3.4,4.7l6.6,9l4.3-9c0-0.1,0.1-0.2,0.2-0.2c0.1,0,0.2,0,0.3,0.1l6.1,4.5l5.3-13.8
				c0.1-0.2,0.2-0.2,0.4-0.2c0.2,0.1,0.2,0.3,0.2,0.4l-5.5,14.2c0,0.1-0.1,0.2-0.2,0.2c-0.1,0-0.2,0-0.3,0l-6.1-4.5l-4.4,9.1
				c0,0.1-0.1,0.2-0.3,0.2c-0.1,0-0.2,0-0.3-0.1l-6.9-9.5l-3.2-4.5l-5.8,4.5l-4.3,13.9c0,0.1-0.1,0.2-0.3,0.2
				c-0.1,0-0.3-0.1-0.3-0.2l-4.6-8.5l-4.2,22.8c0,0.1-0.1,0.2-0.2,0.2c-0.1,0-0.2,0-0.3,0l-8-4.6l-10.8,13.7
				C158.2,79.4,158.1,79.5,158,79.5z"/>
			<polygon class="st32" points="223.9,79.8 157.4,79.8 157.4,22.3 158.7,22.3 158.7,78.5 223.9,78.5 			"/>
		</g>
	</g>
	<g>
		<g>
			<rect x="96" y="53.1" class="st32" width="20.6" height="2.4"/>
			<rect x="96" y="55.5" class="st30" width="27.8" height="2.4"/>
			<rect x="96" y="44.8" class="st32" width="15.8" height="2.4"/>
			<rect x="96" y="47.2" class="st30" width="17.1" height="2.4"/>
			<rect x="96" y="36.5" class="st32" width="13.9" height="2.4"/>
			<rect x="96" y="38.9" class="st30" width="20.6" height="2.4"/>
			<rect x="96" y="28.2" class="st32" width="11.6" height="2.4"/>
			<rect x="96" y="30.6" class="st30" width="18.8" height="2.4"/>
			<polygon class="st32" points="133.8,61.9 95.2,61.9 95.2,23 96.4,23 96.4,60.8 133.8,60.8 			"/>
		</g>
		<rect x="138.9" y="61.6" class="st32" width="3.2" height="3.2"/>
		<rect x="138.9" y="66.6" class="st30" width="3.2" height="3.2"/>
		<g>
			<rect x="144.3" y="62.8" class="st31" width="0.8" height="2"/>
			<rect x="145.6" y="62.8" class="st31" width="0.8" height="2"/>
			<rect x="146.8" y="62.8" class="st31" width="0.8" height="2"/>
			<rect x="148.6" y="62.8" class="st31" width="0.8" height="2"/>
			<rect x="150.4" y="62.8" class="st31" width="0.8" height="2"/>
			<rect x="151.6" y="62.8" class="st31" width="0.8" height="2"/>
		</g>
		<g>
			<rect x="144.3" y="67.8" class="st31" width="0.8" height="2"/>
			<rect x="146.1" y="67.8" class="st31" width="0.8" height="2"/>
			<rect x="147.4" y="67.8" class="st31" width="0.8" height="2"/>
			<rect x="148.6" y="67.8" class="st31" width="0.8" height="2"/>
			<rect x="149.8" y="67.8" class="st31" width="0.8" height="2"/>
			<rect x="151" y="67.8" class="st31" width="0.8" height="2"/>
		</g>
		<g>
			
				<rect x="116" y="91.4" transform="matrix(6.123234e-17 -1 1 6.123234e-17 33.7229 218.9407)" class="st32" width="20.6" height="2.4"/>
			
				<rect x="114.8" y="87.8" transform="matrix(6.123234e-17 -1 1 6.123234e-17 39.7065 217.7594)" class="st30" width="27.8" height="2.4"/>
			
				<rect x="110.1" y="93.8" transform="matrix(6.123234e-17 -1 1 6.123234e-17 23.014 213.034)" class="st32" width="15.8" height="2.4"/>
			
				<rect x="111.9" y="93.2" transform="matrix(6.123234e-17 -1 1 6.123234e-17 26.0394 214.8108)" class="st30" width="17.1" height="2.4"/>
			
				<rect x="102.8" y="94.8" transform="matrix(6.123234e-17 -1 1 6.123234e-17 13.7384 205.6937)" class="st32" width="13.9" height="2.4"/>
			
				<rect x="101.8" y="91.4" transform="matrix(6.123234e-17 -1 1 6.123234e-17 19.5083 204.7261)" class="st30" width="20.6" height="2.4"/>
			
				<rect x="95.6" y="95.9" transform="matrix(6.123234e-17 -1 1 6.123234e-17 4.2852 198.5312)" class="st32" width="11.6" height="2.4"/>
			
				<rect x="94.4" y="92.3" transform="matrix(6.123234e-17 -1 1 6.123234e-17 10.288 197.3306)" class="st30" width="18.8" height="2.4"/>
			<polygon class="st32" points="133.8,103.5 95.2,103.5 95.2,73.6 96.4,73.6 96.4,102.4 133.8,102.4 			"/>
		</g>
	</g>
</g>
</svg>
