<svg 
 xmlns="http://www.w3.org/2000/svg"
 xmlns:xlink="http://www.w3.org/1999/xlink"
 width="1521px" height="669px">
<path fill-rule="evenodd"  opacity="0.302" fill="rgb(255, 255, 255)"
 d="M0.000,669.001 L0.000,156.041 C10.872,151.022 22.969,148.201 35.734,148.201 C67.346,148.201 94.922,165.370 109.683,190.869 C123.358,181.572 139.870,176.137 157.659,176.137 C166.647,176.137 175.309,177.531 183.444,180.104 C195.329,132.977 238.033,98.085 288.905,98.085 C305.830,98.085 321.852,101.947 336.134,108.836 C346.011,47.140 399.516,-0.001 464.060,-0.001 C521.984,-0.001 571.015,37.960 587.612,90.333 C602.730,78.275 621.881,71.050 642.733,71.050 C674.703,71.050 702.708,88.000 718.241,113.390 C731.588,107.372 746.384,103.997 761.979,103.997 C791.068,103.997 817.420,115.663 836.635,134.551 C851.063,109.539 878.080,92.691 909.054,92.691 C942.653,92.691 971.602,112.511 984.864,141.082 C991.254,139.519 997.922,138.675 1004.793,138.675 C1018.756,138.675 1031.905,142.113 1043.469,148.166 C1056.814,114.631 1089.531,90.917 1127.808,90.917 C1156.466,90.917 1182.005,104.216 1198.640,124.968 C1209.440,119.931 1221.477,117.101 1234.180,117.101 C1247.033,117.101 1259.209,119.993 1270.107,125.142 C1284.529,104.459 1308.471,90.917 1335.590,90.917 C1346.046,90.917 1356.022,92.949 1365.174,96.607 C1385.218,40.309 1438.940,0.001 1502.094,0.001 C1508.436,0.001 1514.670,0.451 1520.799,1.239 L1520.799,669.001 L0.000,669.001 Z"/>
</svg>