<?xml version="1.0" encoding="utf-8"?>
<!-- Generator: Adobe Illustrator 21.0.2, SVG Export Plug-In . SVG Version: 6.00 Build 0)  -->
<svg version="1.1" id="グループ_19" xmlns="http://www.w3.org/2000/svg" xmlns:xlink="http://www.w3.org/1999/xlink" x="0px"
	 y="0px" viewBox="0 0 547 281" style="enable-background:new 0 0 547 281;" xml:space="preserve">
<style type="text/css">
	.st0{fill:#1C83AB;}
	.st1{fill:none;}
	.st2{fill:#98D6F2;}
	.st3{fill:#F7BB79;}
	.st4{fill:#2F4456;}
	.st5{fill:#FFFFFF;}
	.st6{opacity:0.47;fill:#005065;}
	.st7{fill:#494949;}
	.st8{fill:#535452;}
	.st9{opacity:0.3;fill:#6E706D;}
	.st10{fill:#FDDFC9;}
</style>
<path id="シェイプ_18" class="st0" d="M199.3,97.9l-1.6,0.2l0,0.9l1.5,0.1v0.7l-1.9,0.2v1.6l-1.4,0.1l-0.3,0.5v7.3l-1.3,0.1
	l-0.9,0.7l0,4.8l-2.4-0.4l-3,0.6v7.4l-2.1,0.2l-0.1,0.5h-0.7l0.1,4.7l-1.9-0.2l-4.3,0.3l0.6,49.1l-11.4,0.5l-0.1-0.3l-0.2-0.1
	l-0.1,0.4l-2.9-0.3l-0.1-0.5l-1.3-0.1v0.5l-2.9,0.2v-0.4H160v0.5l-6,0.3v1.1l-8.7,1.4l0.3,68l-7.3-0.2l-0.1-55.4l-13.3-1.5h-3.3
	l-0.1-0.5h-0.9l-0.1-0.5H120v0.6h-1.3v0.2h-7v-0.5h-0.4l-0.1,0.5l-0.9-0.2V186h-0.6v1.3l-1.7-0.3l0-0.8h-0.8l0,0.8l-1.1-0.1
	l-0.1-0.9l-0.6,0.1l0,0.9l-5.4-0.1l-0.1-0.9l-0.9,0.1l0,0.6l-0.3,0.1l-0.1,0.2l-3.4,0.1l0-0.8l-0.5,0.1l0,0.8l-0.3,0.4v2.1l-4.2-0.4
	l-1.3,0.2l-2.5,2.8l0.3,27.7l0.2-0.3l0.2,9.9h-0.5v-0.4l-0.6-0.2l0-0.9l0.1-0.2l-0.2-0.3l-3.7-0.1l-0.1-0.5h-0.6v0.8h-0.5l-0.2-16.2
	l0-0.8l-0.1-0.4l-0.2-7.5c0,0,0.1-1.9,0.3-3.7c0.1-1.1,0.1-2.1,0-3.2h-8.2c-0.1,1-0.1,2,0.2,2.9c0.4,1.1,0.6,2.3,0.7,3.5l0.1,8.5
	l-0.2-0.1l0,0.7l0.3,0.1l0,17.6h-2.2v-0.4h-1.5v0.7h-4.4v15.7l-0.3-0.3h-1.2v0.4h-0.4v0.5l-0.3,0.1v-0.5l-0.3-0.2l-0.1,0.6h-0.2
	v-0.4l-0.3-0.2v0.5l-0.2,0.1v-0.4l-0.2,0.1v0.8l0.6,0.6l0,9.5l-0.9-0.1l-0.1-0.5h-0.6v-0.3c0-0.3,0-1,0-1l-0.2-0.2l-0.2,0.3
	l-0.6,0.1l0-0.3l-15.2-0.1l0,12.4h-1c-0.3-0.4-0.6-0.6-1.1-0.7c-0.1,0-0.1,0-0.2,0c-0.4,0.1-0.7,0.3-1,0.6h-0.7v-0.6l-0.6-0.1
	l-0.6-0.6l-1.1,0.7l-0.4-0.4h-1.5l-0.4-11h1v-1.8h-2.7v1.8h0.9l-0.2,11.3h-0.6v-0.9h-0.9l-0.6-0.9h-2.5l-0.3-13.1h-0.9l-2.6,14.4
	h-7.6l-0.1-5.3l-18.8,0.1v21.1l547,0.7v-37.7l-8.4-0.7l-1.1-0.7l-1.1,0.6v-2.7l-2.5,0.3v2l-14-0.6v-11.6l0.2-0.2v-0.5l0.2-0.1v-0.6
	l-2.8,0.1l0-0.3h-0.2V229h-0.3v0.6l-5.9,0.1l-3.4,0.3l0.1,0.8l0.3,0l0,0.7h0.4l-0.1,7.7l-1.1,0H502v2.2l-0.9,0l0-1.5l-1,0l-0.1-5.7
	l-10.6-0.3v-0.5h-2.1v0.6l-7.5,0.1l-5.8,0.5v0.5h-0.9v-0.9l0.2,0l0-0.3h-1.8l0,0.2h0.4v0.4l-0.3,0l0,0.4l-1.5-0.1l0.3-45.7h-12.3
	v-2.5h-0.2v2.5l-6.6,0v-2.5h-0.2v2.5l-5.5,0.1l-5.5,1.1l-0.2,31l-16.6-1.5v-1.7c-0.2-0.2-0.5-0.3-0.8-0.3c-0.2,0-0.3,0-0.5,0v-1.3
	l-2.5-0.2l-9.7,0.5l0,2.9h-0.9l0-2.9l-4.6,0.1l0.3-80.6c0.4-0.1,0.7-0.5,0.7-0.9c0-0.1-0.1-0.3-0.1-0.4c-0.5-1-5.1-1-5.7-1h-0.1
	l-0.1-1.3l-1-0.2l-0.2-1.1l-1.4-0.1v1.1l-1.4,0.2l0-0.3l-0.2,0l0-5.6h0.3v-0.3h-0.4v-1.6h0.4v-0.4h-0.4v-1.7h0.5v-0.3h-0.5v-1.6h0.5
	v-0.3h-0.5v-1.8h0.6l-0.2-0.2h-0.5v-1.6h0.5v-0.4h-0.4v-1.2h0.9v-0.2h-0.9v-1.4h0.2V114h-0.2v-7.1H395v8.7h-0.4v0.2h0.4v1.1h-0.4
	v0.3h0.4v1.6h-0.3v0.4h0.3v1.6h-0.4v0.2h0.4l0,1.7h-0.4v0.4h0.3l0,1.6h-0.3v0.3h0.4v1.6l-0.4,0v0.3l0.2,0.1l-0.1,5.6h-0.6l-0.1-1.2
	h-0.4l-0.1,1.6h-0.3l0.1-0.4l-0.4,0.1l-0.1,0.3H392l-0.5-0.3l-0.2,0.1l-0.1-0.6l-0.3,0.1l0.2,0.1v0.3l-0.1,0.2l0,0.6l-0.1,0.2l0,0.4
	l-3,0.2l-0.1,0.3l-0.9,0.2h-0.6l-0.1-1.8h-0.4l0-0.9h0.8v-0.3c-0.3-0.1-0.7-0.1-1-0.1c-0.1,0-0.2,0-0.3,0c-0.5,0.1-0.8,0.5-0.8,1
	l-0.1-0.2l-0.9-0.1l0.1,0.8l-0.2,0.1l0-0.2l-0.6,0.1l-0.2,0.2l0-0.3h-1.1v1.2l0.4,0.1l0.2,18.2l-9.8,0.4L372,157l-3.7,1.9v1.8
	l-0.2,23.4h-3.4l-0.1,0.4l-0.4,0.1v13.3l-2.1,0.2l0-1.1l-0.3-0.2v0.5l-0.5-0.2l-2.8,0.1l-0.1,1l-7.5,0.3l0-1.3l-0.8-0.1v1.5h-0.7
	l-0.1-0.1h-0.6l-0.1-0.8h-1.5l0.2-46.4l-1-0.5h-0.4l-0.3-0.2v-4.2h-0.7l-0.2-1l-0.2-0.1v-0.6h-0.3c-0.1-0.4-0.4-0.7-0.8-0.6
	c-0.4,0-0.8,0.1-1,0.5l-0.1-1.1l-0.4-0.1l0-0.5l-0.2-0.1l-0.1-0.8l-0.3-0.2l0-4.1l0.3-0.3l0.1-0.8l-0.3-0.2l0-0.5l0.3-0.1l0-1H341
	l-0.1-0.2c0,0-0.1,0-0.1,0c-0.1,0-0.2-0.1-0.2-0.4c0.1-0.4-0.1-0.7-0.5-0.8c0,0-0.1,0-0.1,0c-0.1,0-0.2,0-0.3,0.1
	c-0.3,0.2-0.4,0.6-0.2,1l-1.2-0.2l-0.6-0.2h0c-0.1,0-0.2,0-0.1-0.5c0.1-0.4-0.2-0.8-0.5-0.9c0,0-0.1,0-0.1,0c-0.2,0-0.4,0.1-0.5,0.3
	c-0.3,0.3-0.3,0.7-0.1,1c0,0,0.1,0.1,0.1,0.1l-0.5,0.1l-0.9,0.1c0-0.3-0.3-0.5-0.6-0.5c0,0-0.1,0-0.1,0c-0.3,0-0.6,0.2-0.7,0.5h-2.1
	c0.3-0.4,0.2-0.9-0.2-1.1c-0.1-0.1-0.2-0.1-0.3-0.1c-0.1,0-0.2,0.1-0.3,0.2c-0.3,0.3-0.4,0.8-0.1,1.2l-0.7,0.1l-0.1,0.5l0.4,0.4
	l0.2,0.5l-0.3,0.2v0.5l0.3,0.3l-0.1,5.2h-0.4v0.3h0.2v0.7H330v0.4h-0.4v1.2c0-0.5-0.5-0.9-1-0.9c0,0-0.1,0-0.1,0
	c-0.7,0-1.2,0.6-1.3,1.3h-0.3v0.9l-0.5,0.1l-0.4-0.2c0-0.3-0.3-0.6-0.6-0.6c-0.3,0-0.6,0.2-0.6,0.5c0,0,0,0,0,0h-0.3l-0.2-0.2v-1
	l-0.6-0.4v-0.7l-0.2-0.2l0-0.5l-0.1-0.4v-3.8l0.2-0.2l0.1-0.6l-0.4-0.3l0.1-0.5l0.3-0.3l0-1l-0.3-0.1l-0.2-0.1
	c0.2-0.3,0-0.8-0.3-0.9c-0.1,0-0.2-0.1-0.2-0.1c0,0-0.1,0-0.1,0c-0.2,0-0.4,0.2-0.6,0.4l-0.2,0.6l-1.3-0.3l-0.5-0.1
	c0.1-0.3,0.2-0.6,0.1-0.9c-0.1-0.2-0.2-0.3-0.4-0.3c-0.2,0-0.4,0.1-0.6,0.2c-0.4,0.2,0,1,0,1l-1,0.2c-0.2-0.2-0.4-0.3-0.7-0.3
	c-0.3,0-0.6,0.2-0.7,0.4l-2.3,0.1c0.1-0.2,0.2-0.5,0-0.7c-0.1-0.2-0.3-0.4-0.5-0.3c-0.1,0-0.2,0-0.2,0c-0.6,0.1-0.2,1.1-0.2,1.1
	l-0.7,0.3l0,0.4l0.2,0.3h0.4v0.7h-0.3l-0.2,0.2l0.1,0.5l0.3,0.1l0,4.4l-0.1,0.1l-0.1,0.3l-0.4,0.2v0.4l0.2,0.1l0,0.8h-0.3l0,0.3
	l-0.4,0.1l0,1.1c0-0.5-0.5-0.9-1-0.8c0,0-0.1,0-0.1,0c-0.6,0.1-1.2,0.6-1.2,1.2l-0.4,0.1v0.8l-0.8,0.3l0,4.2l-0.6,0.2v0.4l-1,0.1
	v1.7h-0.2l0,37.3l-16.6,1.1l-0.1,9.8h-5.3v-0.4l-0.2-0.3h-0.4v0.7l-5.9,0.1l0-2.8l-2.8-0.5l-17.8,1v-1.1h-0.1v1.2h-0.2v-1
	c-0.1-0.1-0.2-0.2-0.3-0.3c0,0,0,0,0,0c-0.1,0.1-0.2,0.2-0.3,0.3v1.1h-2.9V200h-0.2v0.6l-4.2,0.2l0,5.8l-2.4,0.2v12.5
	c-0.4-0.1-0.7-0.1-1.1-0.1c-1.1,0-2.2,0.4-3.1,1.2l-3.5,0.1v-0.7l-0.3-0.1v-1.8l-0.1,0.1v2.7l-2.7,0.1l-3.4-0.2v2.3l0.1,0.1l0,1.5
	l-1.4-0.1l0-17.2h-0.3l-0.1-0.6l-0.3-0.1l-0.1,0.4l-1.6-0.1l0-4.6l-3.5-0.4l-5.1,0.2l-0.1-5l0.2-0.2l0-0.6l-0.4,0.1l-0.3-67.2
	l-3.4-0.9l-2.5,0.3l-0.1-5.8l-2.8-0.2l-0.1-7.3l-2.9-0.7l-2.4,0.4l-0.1-5.5l-2.3-0.2v-7.6l-1.9-0.6v-1.3l-2-0.2V99l1.5-0.1l0-0.8
	L199.3,97.9"/>
<path class="st1" d="z"/>
<path id="シェイプ_19" class="st2" d="M481.7,34.3c-4.5,0-8.2,2.2-8.2,4.9c0,0.5,0.1,0.9,0.3,1.3c-4.2,0.2-7.5,2.3-7.5,4.9
	c0,2.5,3.2,4.6,7.2,4.9v0h0.5c0.2,0,0.3,0,0.5,0s0.3,0,0.5,0h27.2v0c4.2-0.2,7.5-2.3,7.5-4.9c0-2.6-3.2-4.7-7.3-4.9
	c-0.2-2.6-3.8-4.7-8.1-4.7c-1.8,0-3.6,0.4-5.2,1.2C487.6,35.4,484.9,34.3,481.7,34.3 M311.2,55.7c-4.5,0-8.1,2.2-8.1,4.9
	c0,0.4,0.1,0.9,0.3,1.3c-4.2,0.2-7.5,2.3-7.5,4.9c0,2.5,3.2,4.6,7.2,4.9v0h0.5c0.2,0,0.3,0,0.5,0s0.3,0,0.5,0h27.2v0
	c4.2-0.2,7.5-2.3,7.5-4.9c0-2.5-3.2-4.6-7.3-4.9c-0.2-2.6-3.8-4.7-8.1-4.7c-1.8,0-3.6,0.4-5.2,1.2C317.1,56.8,314.4,55.7,311.2,55.7
	 M131.1,23.3c-6.7,0-12.1,3.2-12.1,7.1c0,0.6,0.1,1.3,0.4,1.8c-6.2,0.3-11.1,3.3-11.1,7c0,3.6,4.7,6.6,10.7,7v0h0.7
	c0.2,0,0.5,0,0.7,0s0.5,0,0.7,0h40.3v0c6.3-0.3,11.2-3.3,11.2-7c0-3.7-4.8-6.7-10.9-7c-0.3-3.7-5.6-6.7-12.1-6.7
	c-2.7,0-5.3,0.5-7.8,1.7C139.9,24.9,135.8,23.3,131.1,23.3 M53.5,116.8c-4.4,0-8,2.3-8,5.1c0,0.5,0.1,0.9,0.3,1.3
	c-4.1,0.2-7.4,2.4-7.4,5.1c0,2.6,3.1,4.8,7.1,5.1v0H46c0.1,0,0.3,0,0.5,0s0.3,0,0.5,0h26.8v0c4.1-0.2,7.4-2.4,7.4-5.1
	c0-2.7-3.2-4.9-7.2-5.1c-0.2-2.7-3.7-4.9-8-4.9c-1.8,0-3.6,0.4-5.2,1.2C59.4,117.9,56.7,116.8,53.5,116.8"/>
<path class="st1" d="z"/>
<path class="st1" d="z"/>
<g>
	<path class="st3" d="M402,174.6c-4.7,4.7-13.7,3.2-19.1,6.2c1.4,6.4-7.7,26-5.7,29.2c3.8,6,15.5,10.5,10.9,18.9
		c-2.4,4.4-6.3,7.9-11.1,10.1c-2.4,1.1-2.9,3.1-2.7,5.6c0.2,2.2,1.1,4.6,2,7l0.2,9.6c-10.8,4.3-21.2,14.5-21.5-2.5
		c-0.1-3.6-0.4-8.5,0-12.5c1.2-11,1.5-20.4,2-32.3c0.5-10.6,2.3-16.4,6.6-26.2c6.6-15,8.8-13.5,19.7-19.3
		C397.3,164.7,404.3,172.3,402,174.6z"/>
	<polygon class="st4" points="377.1,281.4 347.2,281.4 353.8,244.6 376.2,244.6 376.4,251.6 376.6,261.2 	"/>
</g>
<path class="st5" d="M514.1,212.2c0,2.8-2.3,5.1-5.1,5.1H387.9c-2.8,0-5.1-2.3-5.1-5.1v-75.1c0-2.8,2.3-5.1,5.1-5.1h121.1
	c2.8,0,5.1,2.3,5.1,5.1V212.2z"/>
<path class="st6" d="M382.1,211.6l1.5,0l0,0.2l0.4,0l0-0.1l0.7,0.1v-4.5h0.2l0.1,4.1l0.1,0l0,0.3l0.1,0.1l0.4-0.4l0.1,0.3h0.2v0.3
	h0.1l0-3.7h-0.1v-0.2h0.3v0.2h0l0.1,3.7h0.4l0.1,0.1l0.3-0.2l0.1,0.2l0.2,0v0.2h0.2c0,0,0.1-0.2,0.2-0.2c0.2,0,0.3,0.2,0.3,0.2h0.3
	l0-0.3l0.4,0l0,0.2l0.2-0.1l0.1,0v-0.1l-0.2,0l-0.1,0l-0.1,0l0-0.3l0.1,0l0-0.2l-0.1-0.1l-0.1-0.1l0.1-0.1l0.1-0.1l0-0.2l-0.1-0.1
	V210l0.1-0.1v-0.3l-0.1,0l-0.1-0.2l0.2-0.1l0-0.4l-0.1,0v-0.2l0.1-0.1v-0.2l-0.1,0v-0.2l0.1-0.2h0.1l3.4,0l0,0.1l0.1,0l0.1-0.1
	l0.1,0.1c0,0,0,0.2,0,0.3c0,0.1,0,0.1,0,0.1h0.2l0,0.2l0.2,0l0-3l-0.2-0.2v-0.2l0.1,0v0.1l0.1,0v-0.2l0.1,0.1v0.1h0.1l0-0.2l0.1,0.1
	v0.1l0.1,0v-0.2h0.1v-0.1h0.3l0.1,0.1v-4.9h1.1v-0.2h0.4v0.1h0.6l0-5.5l-0.1,0l0-0.2l0,0l0-2.6c0,0,0-0.8-0.2-1.1
	c-0.1-0.2-0.1-0.9-0.1-0.9h2.1c0,0,0,0.4,0,1c0,0.6-0.1,1.2-0.1,1.2l0,2.3l0,0.1l0,0.2l0.1,5h0.1v-0.2h0.2l0,0.1l1,0l0.1,0.1l0,0.1
	l0,0.3l0.1,0v0.1h0.1l-0.1-3.1l0,0.1l-0.1-8.6l0.6-0.9l0.3-0.1l1.1,0.1v-0.6l0.1-0.1l0-0.2l0.1,0l0,0.2l0.9,0l0-0.1l0.1,0l0-0.2
	l0.2,0l0,0.3l1.4,0l0-0.3l0.2,0l0,0.3l0.3,0l0-0.2h0.2l0,0.2l0.4,0.1v-0.4h0.2v1.5l0.2,0.1l0-0.2h0.1v0.2h1.8v-0.1h0.3v-0.2h0.1
	l0,0.2h0.2l0,0.1h0.9l3.4,0.5l0,17.2l1.9,0l-0.1-21.1l2.2-0.4v-0.3l1.5-0.1V184h0.1v0.1l0.7-0.1V184l0.3,0l0,0.2l0.7,0.1l0-0.1l0,0
	l0,0.1l2.9-0.2l-0.2-15.2l1.1-0.1l0.5,0.1l0-1.5h0.2l0-0.2l0.5-0.1v-2.3l0.8-0.2l0.6,0.1l0-1.5l0.2-0.2l0.3,0v-2.3l0.1-0.2l0.4,0
	v-0.5l0.5-0.1v-0.2l-0.4,0l0-0.3l0.4-0.1l0.5,0l0,0.2l-0.4,0v0.2l0.5,0.1v0.4l0.5,0.2v2.4l0.6,0.1l0,1.7l0.6-0.1l0.7,0.2l0,2.3
	l0.7,0l0,1.8l0.6-0.1l0.9,0.3l0.1,20.9l0.1,0l0,0.2l0,0.1l0,1.6l1.3-0.1l0.9,0.1l0,1.4l0.4,0l0-0.1l0.1,0l0,0.2h0.1l0,5.3l0.4,0
	l0-0.5l0,0v-0.7l0.9,0.1l0.7,0v-0.8l0,0v0.6l0.1,0v0.2l0.9,0c0,0,0.4-0.5,1.1-0.3v-3.9l0.6,0l0-1.8l1.1-0.1v-0.2h0.1v0.2h0.7V191
	c0,0,0.1-0.1,0.1-0.1c0,0,0.1,0.1,0.1,0.1v0.3h0v-0.4h0v0.3l4.6-0.3l0.7,0.1l0,0.9l1.5,0v-0.2h0.1l0.1,0.1v0.1h1.3l0-3l4.2-0.3
	l0-11.6h0.1v-0.5l0.2,0v-0.1l0.1-0.1l0-1.3l0.2-0.1v-0.2l0.1,0c0,0,0-0.4,0.3-0.4c0.3,0,0.3,0.2,0.3,0.2l0-0.3l0.1,0l0-0.1h0.1
	l0-0.2l-0.1,0v-0.1l0.1-0.1l0-0.1l0,0l0-1.4l-0.1,0l0-0.2l0,0h0.1v-0.2h-0.1l0-0.1l0-0.1l0.2-0.1c0,0-0.1-0.3,0.1-0.3
	c0.2,0,0.2,0.1,0.2,0.1c0,0,0,0.2,0,0.2l0.6,0c0,0,0.1-0.1,0.2-0.1c0.1,0,0.2,0.1,0.2,0.1l0.3,0c0,0-0.1-0.2,0-0.3
	c0.1-0.1,0.2-0.1,0.3,0c0,0.1,0,0.3,0,0.3l0.1,0l0.3,0.1l0-0.2c0,0,0.1-0.1,0.2-0.1c0.1,0,0.2,0.1,0.1,0.3l0.1,0l0.1,0l0,0.3
	l-0.1,0.1l0,0.2l0.1,0.1l0,0.2l-0.1,0.1v1.2l0,0.1l0,0.1l0.1,0v0.2l0.1,0.1v0.3l0,0.1h0.1c0,0,0-0.2,0.1-0.2c0.1,0,0.2,0.2,0.2,0.2
	l0.1,0l0.1,0v-0.3h0.1c0,0,0-0.4,0.3-0.4c0.3,0,0.3,0.3,0.3,0.3v-0.4h0.1v-0.1h0.1v-0.2h0v-0.1h0.1l0-1.6l-0.1-0.1v-0.2l0.1,0l0-0.2
	l-0.1-0.1l0-0.2l0.2,0c0,0-0.1-0.2,0-0.4c0.1-0.2,0.3,0.2,0.2,0.3h0.5c0,0,0-0.1,0.2-0.2c0.2,0,0.2,0.1,0.2,0.1l0.2,0l0.1,0
	c0,0-0.2-0.1,0-0.3c0.1-0.2,0.4,0,0.3,0.2c0,0.2,0,0.1,0,0.1l0.2,0.1l0.3,0c0,0-0.1-0.2,0-0.3c0.1-0.1,0.2,0.1,0.2,0.2
	c0,0.2,0.1,0.1,0.1,0.1l0,0.1h0.1l0,0.3l-0.1,0l0,0.2l0.1,0.1l0,0.2l-0.1,0.1l0,1.3l0.1,0.1l0,0.2l0,0l0,0.2l0.1,0l0,0.3
	c0,0,0.1-0.1,0.3-0.1c0.2,0,0.2,0.2,0.2,0.2h0.1v0.2l0.1,0l0,0.3h0.2v1.2v0.1l0.1,0.1h0.1l0.3,0.2l0,14.4h0.4l0,0.2h0.1h0.1l0,0h0.2
	v-0.5l0.2,0l0,0.4l1.9-0.1l0-0.3l0.7,0l0.1,0v-0.1l0.1,0.1l0,0.3l0.5-0.1v-4.1l0.1,0l0-0.1h0.9l0.1-7.3v-0.6l0.9-0.6l0-1.2l2.5-0.1
	l0-5.7l-0.1,0v-0.4h0.3l0,0.1l0,0l0.2,0l0,0l0,0l0-0.2l0.2,0l0,0c0,0,0-0.3,0.2-0.3c0.2,0,0.3,0,0.3,0v0.1h-0.2l0,0.3h0.1l0,0.6h0.1
	l0.2,0l0-0.1l0.8-0.1l0-0.1l0-0.1l0-0.2l0-0.1v-0.1l0,0l0.1,0l0,0.2l0.1,0l0.1,0.1h0.2l0-0.1l0.1,0l0,0.1h0.1l0-0.5h0.1l0,0.4h0.2
	l0-1.7l-0.1,0v-0.1l0.1,0v-0.5h-0.1v-0.1h0.1l0-0.5h-0.1v-0.1h0.1l0-0.5h-0.1v-0.1h0.1v-0.5h-0.1v-0.1h0.1v-0.5h-0.1v-0.1h0.1V165
	h-0.1v-0.1h0.1v-2.7h0.1v2.2h0.1v0.1h-0.1v0.4h0.2v0.1h-0.2v0.4h0.1v0.1h-0.1v0.5h0.1l0,0.1h-0.2v0.6h0.1v0.1h-0.1v0.5h0.1v0.1h-0.1
	v0.5h0.1v0.1h-0.1v0.5h0.1v0.1h-0.1l0,1.7l0.1,0l0,0.1l0.4-0.1v-0.4l0.4,0l0,0.3l0.3,0l0,0.4c0,0,1.3,0,1.5,0.3
	c0.1,0.3-0.1,0.4-0.1,0.4l-0.1,25l1.2,0l0,0.9h0.2l0-0.9l2.5-0.1l0.6,0.1v0.4c0,0,0.3-0.1,0.3,0.1v0.5l4.2,0.5l0.1-9.6l1.4-0.4
	l1.4,0v-0.8h0v0.8l1.7,0v-0.8h0v0.8h3.1l-0.1,14.2l0.4,0l0-0.1l0.1,0v-0.1h-0.1l0,0h0.4l0,0.1l0,0v0.3h0.2v-0.2l1.5-0.1l1.9,0v-0.2
	h0.5v0.2l2.7,0.1l0,1.8l0.2,0l0,0.5l0.2,0v-0.7h1.4l0.3,0l0-2.4h-0.1l0-0.2l-0.1,0l0-0.3l0.9-0.1l1.5,0v-0.2h0.1v0.1h0l0,0.1l0.7,0
	v0.2l0,0v0.2l0,0.1v3.6l3.6,0.2V204l0.7-0.1v0.8l0.3-0.2l0.3,0.2l2.2,0.2v11.7l-140-0.2v-6.4l4.1-0.1l0.7,1.1V211.6z"/>
<path class="st7" d="M516.4,125.7H379.3c-2.8,0-5.1,2.4-5.1,5.4v93.8c0,3,2.3,5.4,5.1,5.4h137.1c2.8,0,5.1-2.4,5.1-5.4v-93.8
	C521.5,128.1,519.2,125.7,516.4,125.7z M513,210.9c0,2.3-2,4.2-4.5,4.2H387.2c-2.5,0-4.5-1.9-4.5-4.2v-73.5c0-2.3,2-4.2,4.5-4.2
	h121.2c2.5,0,4.5,1.9,4.5,4.2V210.9z"/>
<g>
	<path class="st8" d="M453.7,222.6c0,2.9-2.4,5.3-5.3,5.3c-2.9,0-5.3-2.4-5.3-5.3c0-2.9,2.4-5.3,5.3-5.3
		C451.3,217.3,453.7,219.7,453.7,222.6z"/>
</g>
<path class="st9" d="M494.3,230.3h-115c-2.8,0-5.1-2.4-5.1-5.4v-93.8c0-3,2.3-5.4,5.1-5.4h52.1l4.5,7.4l49.3,82L494.3,230.3z"/>
<g>
	<g>
		<path class="st3" d="M481.7,214.3c0,0.3,0,0.6,0,0.9c-0.2,1.4-1.2,2.3-2.8,4.2c0-0.1-0.1-0.2-0.1-0.2c0,0,0,0,0,0
			c-0.1-0.2-0.2-0.4-0.3-0.7c-0.6-1.5-1.1-3-1.7-4.4c-1.4-3.3-3.2-6.8-6.9-7.8c-3.4-0.9-6,1.3-6.3,4c0,0,0,0.1,0,0.1
			c0,2,0.4,2.7,1.1,3.7c0.1,0.2,0.3,0.4,0.4,0.6c0.6,0.8,1.1,1.3,1.3,1.4c0,0,0.1,0.1,0.1,0.1c0.2,0.4,0.5,0.8,0.7,1.3
			c0,0.1,0.6,1.5,0.7,1.8c0.3,0.8,0.6,1.7,0.9,2.5c1.3,3.4,2.8,8.4,6.7,9.4c1.5,0.4,2.3,1.1,3.4,2.1c1,0.9,1.9,0.9,2.9,1.7
			c2.5,4,6.1,7.3,11.6,9.1c1.8,3.6,0.2,23.8,7.8,23.2c4.4-2,13.4,2.3,14.7-2.1c1.5-4.8-1.3-17.1-1.8-22c-0.4-3.8,2.7-8.7,3.3-12.5
			c0.5-3.1,2.2-18.7-3.5-28.7c-0.3-1.3-0.8-2.8-1.3-4.3c-0.8-2.5-3.3-5.3-6.2-5.3c-0.6,0-1.1,0.1-1.5,0.3c-1.5-1.8-4.6-3.6-6.6-3.6
			c-1.1,0-2.4,0.7-3.3,1.7c-2.1-1.4-4.8-2.3-6.7-2.3c-2.8,0-4.4,1.5-5.5,3.8c-2.7-2.5-5.7-4.8-8.3-7.5c-0.7-0.7-1.4-1.4-2-2.2
			c0-0.1-0.6-0.7-0.6-0.7c-0.1-0.2-0.2-0.3-0.3-0.5c-0.5-0.7-0.9-1.4-1.3-2.2c0.1,0.1,0-0.2-0.2-0.6l-1.4-3.1
			c-0.2-0.2-0.4-0.4-0.6-0.6c-3.3-2.7-9.9,0.1-8.5,5.4c2,7.7,8.3,12.6,14,17.7c1.1,0.9,2.1,1.9,3.1,2.9c0.7,3.1,2.5,6.3,3.7,8.8
			C481.1,211.9,481.6,213.3,481.7,214.3z M466.5,216.2c0.1,0.1,0.3,0.1,0.7,0.2C466.9,216.4,466.7,216.3,466.5,216.2z"/>
		<path class="st10" d="M466.8,179.6c0.6,0,1,0.1,1.9-0.3c0.4-0.1,0.6-0.3,1-0.6l-1.4-3.1c0,0-0.1,0-0.1,0c-2.3,0-4.6,0.8-4.9,1.9
			C462.9,178.7,464.5,179.6,466.8,179.6z"/>
		<path class="st10" d="M463.6,210.5c0,2,0.4,2.7,1.1,3.7c0.1,0.2,0.3,0.4,0.4,0.6c3.4-0.8,4.9-1.8,5.3-2.8c0.4-1.2-0.7-2.6-4.7-1.9
			C464.9,210.2,464.4,210.3,463.6,210.5z"/>
	</g>
	<polygon class="st4" points="517.2,247.9 488.8,248 488.8,284.7 525,284.7 	"/>
</g>
</svg>
